[{"actions": [{"actionDate": "2022-05-25", "calendarNumber": {"calendar": "Senate Calendar of Business", "number": "0390"}, "sourceSystem": {"name": "Senate"}, "text": "Read the second time. Placed on Senate Legislative Calendar under General Orders. Calendar No. 390.", "type": "Calendars"}, {"actionDate": "2022-05-24", "calendarNumber": {"calendar": "Senate Calendar of Business"}, "sourceSystem": {"name": "Senate"}, "text": "Read the first time. Placed on Senate Legislative Calendar under Read the First Time.", "type": "Calendars"}, {"actionDate": "2021-03-11", "sourceSystem": {"name": "Senate"}, "text": "Received in the Senate.", "type": "IntroReferral"}, {"actionCode": "H38310", "actionDate": "2021-03-11", "actionTime": "10:50:47", "sourceSystem": {"code": 2, "name": "House floor actions"}, "text": "Motion to reconsider laid on the table. Agreed to without objection.", "type": "Floor"}, {"actionCode": "H37100", "actionDate": "2021-03-11", "actionTime": "10:50:45", "recordedVotes": [{"chamber": "House", "congress": 117, "date": "2021-03-11T15:50:45Z", "rollNumber": 75, "sessionNumber": 1, "url": "https://clerk.house.gov/evs/2021/roll075.xml"}], "sourceSystem": {"code": 2, "name": "House floor actions"}, "text": "On passage Passed by the Yeas and Nays: 227 - 203 (Roll no. 75). (text: 3/10/2021 CR H1286-1287)", "type": "Floor"}, {"actionCode": "8000", "actionDate": "2021-03-11", "actionTime": "10:50:45", "recordedVotes": [{"chamber": "House", "congress": 117, "date": "2021-03-11T15:50:45Z", "rollNumber": 75, "sessionNumber": 1, "url": "https://clerk.house.gov/evs/2021/roll075.xml"}], "sourceSystem": {"code": 9, "name": "Library of Congress"}, "text": "Passed/agreed to in House: On passage Passed by the Yeas and Nays: 227 - 203 (Roll no. 75).(text: 3/10/2021 CR H1286-1287)", "type": "Floor"}, {"actionCode": "H36210", "actionDate": "2021-03-11", "actionTime": "10:04:35", "committees": [{"name": "Judiciary Committee", "systemCode": "hsju00", "url": "https://api.congress.gov/v3/committee/house/hsju00?format=json"}], "recordedVotes": [{"chamber": "House", "congress": 117, "date": "2021-03-11T15:04:35Z", "rollNumber": 74, "sessionNumber": 1, "url": "https://clerk.house.gov/evs/2021/roll074.xml"}], "sourceSystem": {"code": 2, "name": "House floor actions"}, "text": "On motion to recommit Failed by the Yeas and Nays: 207 - 217 (Roll no. 74).", "type": "Floor"}, {"actionCode": "H8D000", "actionDate": "2021-03-11", "actionTime": "09:16:09", "sourceSystem": {"code": 2, "name": "House floor actions"}, "text": "UNFINISHED BUSINESS - The Chair announced that the unfinished business was the question on agreeing to the motion to recommit H.R. 8 which had been debated earlier and on which further proceedings had been postponed.", "type": "Floor"}, {"actionCode": "H30000", "actionDate": "2021-03-11", "actionTime": "09:15:37", "sourceSystem": {"code": 2, "name": "House floor actions"}, "text": "Considered as unfinished business. (consideration: CR H1330-1332)", "type": "Floor"}, {"actionCode": "H8D000", "actionDate": "2021-03-11", "actionTime": "09:15:25", "sourceSystem": {"code": 2, "name": "House floor actions"}, "text": "Pursuant to clause 1(c) of Rule XIX, the House resumed consideration of H.R. 8.", "type": "Floor"}, {"actionCode": "H8D000", "actionDate": "2021-03-10", "actionTime": "15:55:10", "sourceSystem": {"code": 2, "name": "House floor actions"}, "text": "Pursuant to clause 1(c) of Rule XIX, further consideration of H.R. 8 is postponed.", "type": "Floor"}, {"actionCode": "H8D000", "actionDate": "2021-03-10", "actionTime": "15:54:42", "sourceSystem": {"code": 2, "name": "House floor actions"}, "text": "POSTPONED PROCEEDINGS - At the conclusion of debate on the Jordan motion to recommit, the Chair put the question on agreeing to the motion to recommit and by voice vote announced that the noes had prevailed. Mr. Jordan demanded the yeas and nays and the Chair postponed further proceedings until a time to be announced.", "type": "Floor"}, {"actionCode": "H8A000", "actionDate": "2021-03-10", "actionTime": "15:53:52", "sourceSystem": {"code": 2, "name": "House floor actions"}, "text": "The previous question on the motion to recommit was ordered without objection.", "type": "Floor"}, {"actionCode": "H36200", "actionDate": "2021-03-10", "actionTime": "15:53:42", "committees": [{"name": "Judiciary Committee", "systemCode": "hsju00", "url": "https://api.congress.gov/v3/committee/house/hsju00?format=json"}], "sourceSystem": {"code": 2, "name": "House floor actions"}, "text": "Mr. Jordan moved to recommit to the Committee on the Judiciary. (text: CR H1302)", "type": "Floor"}, {"actionCode": "H8D000", "actionDate": "2021-03-10", "actionTime": "15:52:51", "sourceSystem": {"code": 2, "name": "House floor actions"}, "text": "Motion to reconsider laid on the table. Agreed to without objection.", "type": "Floor"}, {"actionCode": "H8D000", "actionDate": "2021-03-10", "actionTime": "15:38:08", "sourceSystem": {"code": 2, "name": "House floor actions"}, "text": "DEBATE - Pursuant to the provisions of H.Res. 188, the House proceeded with 20 minutes of debate on the Nadler en bloc amendment No. 1.", "type": "Floor"}, {"actionCode": "H8D000", "actionDate": "2021-03-10", "actionTime": "14:15:03", "sourceSystem": {"code": 2, "name": "House floor actions"}, "text": "DEBATE - The House proceeded with one hour of debate on H.R. 8.", "type": "Floor"}, {"actionCode": "H8D000", "actionDate": "2021-03-10", "actionTime": "14:14:55", "sourceSystem": {"code": 2, "name": "House floor actions"}, "text": "Rule provides for consideration of H.R. 842, H.R. 8 and H.R. 1446. Rule provides for one hour of general debate for H.R. 842, H.R. 8, and H.R. 1446. The rule provides for a motion to recommit on H.R. 842, H.R. 8, and H.R. 1446.", "type": "Floor"}, {"actionCode": "H30000", "actionDate": "2021-03-10", "actionTime": "14:14:50", "sourceSystem": {"code": 2, "name": "House floor actions"}, "text": "Considered under the provisions of rule H. Res. 188. (consideration: CR H1286-1303)", "type": "Floor"}, {"actionCode": "H1L210", "actionDate": "2021-03-08", "actionTime": "14:23:50", "sourceSystem": {"code": 2, "name": "House floor actions"}, "text": "Rules Committee Resolution H. Res. 188 Reported to House. Rule provides for consideration of H.R. 842, H.R. 8 and H.R. 1446. Rule provides for one hour of general debate for H.R. 842, H.R. 8, and H.R. 1446. The rule provides for a motion to recommit on H.R. 842, H.R. 8, and H.R. 1446.", "type": "Floor"}], "pagination": {"count": 23, "next": "https://api.congress.gov/v3/bill/117/hr/8/actions?offset=20&limit=20&format=json"}, "request": {"billNumber": "8", "billType": "hr", "billUrl": "https://api.congress.gov/v3/bill/117/hr/8?format=json", "congress": "117", "contentType": "application/json", "format": "json"}}, 200]