[{"actions": [{"actionDate": "2021-06-08", "recordedVotes": [{"chamber": "Senate", "congress": 117, "date": "2021-06-08T23:10:50Z", "rollNumber": 227, "sessionNumber": 1, "url": "https://www.senate.gov/legislative/LIS/roll_call_votes/vote1171/vote_117_1_00227.xml"}], "sourceSystem": {"name": "Senate"}, "text": "Cloture on the motion to proceed to the measure not invoked in Senate by Yea-Nay Vote. 49 - 50. Record Vote Number: 227. (CR S3981)", "type": "Floor"}, {"actionDate": "2021-05-28", "sourceSystem": {"name": "Senate"}, "text": "Cloture motion on the motion to proceed to the measure presented in Senate. (CR S3928)", "type": "Floor"}, {"actionDate": "2021-05-28", "sourceSystem": {"name": "Senate"}, "text": "Motion to proceed to consideration of measure made in Senate. (CR S3928)", "type": "Floor"}, {"actionDate": "2021-04-20", "calendarNumber": {"calendar": "Senate Calendar of Business", "number": "0046"}, "sourceSystem": {"name": "Senate"}, "text": "Read the second time. Placed on Senate Legislative Calendar under General Orders. Calendar No. 46.", "type": "Calendars"}, {"actionDate": "2021-04-19", "calendarNumber": {"calendar": "Senate Calendar of Business"}, "sourceSystem": {"name": "Senate"}, "text": "Received in the Senate. Read the first time. Placed on Senate Legislative Calendar under Read the First Time.", "type": "Calendars"}, {"actionCode": "H38310", "actionDate": "2021-04-15", "actionTime": "17:18:31", "sourceSystem": {"code": 2, "name": "House floor actions"}, "text": "Motion to reconsider laid on the table Agreed to without objection.", "type": "Floor"}, {"actionCode": "H37100", "actionDate": "2021-04-15", "actionTime": "17:18:29", "recordedVotes": [{"chamber": "House", "congress": 117, "date": "2021-04-15T21:18:29Z", "rollNumber": 108, "sessionNumber": 1, "url": "https://clerk.house.gov/evs/2021/roll108.xml"}], "sourceSystem": {"code": 2, "name": "House floor actions"}, "text": "On passage Passed by the Yeas and Nays: 217 - 210 (Roll no. 108).", "type": "Floor"}, {"actionCode": "8000", "actionDate": "2021-04-15", "actionTime": "17:18:29", "recordedVotes": [{"chamber": "House", "congress": 117, "date": "2021-04-15T21:18:29Z", "rollNumber": 108, "sessionNumber": 1, "url": "https://clerk.house.gov/evs/2021/roll108.xml"}], "sourceSystem": {"code": 9, "name": "Library of Congress"}, "text": "Passed/agreed to in House: On passage Passed by the Yeas and Nays: 217 - 210 (Roll no. 108).", "type": "Floor"}, {"actionCode": "H35000", "actionDate": "2021-04-15", "actionTime": "16:45:54", "sourceSystem": {"code": 2, "name": "House floor actions"}, "text": "The previous question was ordered pursuant to the rule.", "type": "Floor"}, {"actionCode": "H8D000", "actionDate": "2021-04-15", "actionTime": "16:45:22", "sourceSystem": {"code": 2, "name": "House floor actions"}, "text": "Motion to reconsider laid on the table. Agreed to without objection.", "type": "Floor"}, {"actionCode": "H8D000", "actionDate": "2021-04-15", "actionTime": "16:09:55", "sourceSystem": {"code": 2, "name": "House floor actions"}, "text": "Motion to reconsider laid on the table. Agreed to without objection.", "type": "Floor"}, {"actionCode": "H30000", "actionDate": "2021-04-15", "actionTime": "15:38:04", "sourceSystem": {"code": 2, "name": "House floor actions"}, "text": "Considered as unfinished business. (consideration: CR H1826-1829)", "type": "Floor"}, {"actionCode": "H8D000", "actionDate": "2021-04-15", "actionTime": "14:31:45", "sourceSystem": {"code": 2, "name": "House floor actions"}, "text": "POSTPONED PROCEEDINGS - Pursuant to clause 1(c) of Rule XIX, further consideration of H.R. 7 was postponed until a time to be announced.", "type": "Floor"}, {"actionCode": "H8D000", "actionDate": "2021-04-15", "actionTime": "14:31:22", "sourceSystem": {"code": 2, "name": "House floor actions"}, "text": "POSTPONED PROCEEDINGS - At the conclusion of debate on the Miller-Meeks amendment, the Chair put the question on adoption of the amendment and by voice vote, announced that the noes had prevailed. Ms. Foxx demanded the yeas and nays and the Chair postponed further proceedings until a time to be announced.", "type": "Floor"}, {"actionCode": "H8D000", "actionDate": "2021-04-15", "actionTime": "14:22:12", "sourceSystem": {"code": 2, "name": "House floor actions"}, "text": "DEBATE - Pursuant to the provisions of H. Res. 303, the House proceeded with 10 minutes of debate on the Miller-Meeks amendment No. 4.", "type": "Floor"}, {"actionCode": "H8D000", "actionDate": "2021-04-15", "actionTime": "14:19:33", "sourceSystem": {"code": 2, "name": "House floor actions"}, "text": "POSTPONED PROCEEDINGS - At the conclusion of debate on the Scott (VA) amendment en bloc No. 1, the Chair put the question on adoption of the amendment and by voice vote, announced that the ayes had prevailed. Ms. Foxx demanded the yeas and nays and the Chair postponed further proceedings until a time to be announced.", "type": "Floor"}, {"actionCode": "H8D000", "actionDate": "2021-04-15", "actionTime": "14:02:58", "sourceSystem": {"code": 2, "name": "House floor actions"}, "text": "DEBATE - Pursuant to the provisions of H. Res. 303, the House proceeded with 20 minutes of debate on the Scott (VA) amendment en bloc No. 1.", "type": "Floor"}, {"actionCode": "H8D000", "actionDate": "2021-04-15", "actionTime": "12:32:39", "sourceSystem": {"code": 2, "name": "House floor actions"}, "text": "DEBATE - The House proceeded with one hour of debate on H.R. 7.", "type": "Floor"}, {"actionCode": "H8D000", "actionDate": "2021-04-15", "actionTime": "12:32:13", "sourceSystem": {"code": 2, "name": "House floor actions"}, "text": "Rule provides for consideration of H.R. 7 and H.R. 1195. Rule provides for one hour of general debate on H.R. 7 and provides one motion to recommit. Rule also provides for one hour of general debate on H.R. 1195 and provides one motion to recommit.", "type": "Floor"}, {"actionCode": "H30000", "actionDate": "2021-04-15", "actionTime": "12:32:08", "sourceSystem": {"code": 2, "name": "House floor actions"}, "text": "Considered under the provisions of rule H. Res. 303. (consideration: CR H1799-1825)", "type": "Floor"}], "pagination": {"count": 29, "next": "https://api.congress.gov/v3/bill/117/hr/7/actions?offset=20&limit=20&format=json"}, "request": {"billNumber": "7", "billType": "hr", "billUrl": "https://api.congress.gov/v3/bill/117/hr/7?format=json", "congress": "117", "contentType": "application/json", "format": "json"}}, 200]