[{"actions": [{"actionDate": "2021-03-11", "sourceSystem": {"name": "Senate"}, "text": "Received in the Senate.", "type": "IntroReferral"}, {"actionCode": "H38900", "actionDate": "2021-03-03", "actionTime": "23:05:48", "sourceSystem": {"code": 2, "name": "House floor actions"}, "text": "The Clerk was authorized to correct section numbers, punctuation, and cross references, and to make other necessary technical and conforming corrections in the engrossment of H.R. 1.", "type": "Floor"}, {"actionCode": "H38310", "actionDate": "2021-03-03", "actionTime": "23:05:39", "sourceSystem": {"code": 2, "name": "House floor actions"}, "text": "Motion to reconsider laid on the table Agreed to without objection.", "type": "Floor"}, {"actionCode": "H37100", "actionDate": "2021-03-03", "actionTime": "23:05:36", "recordedVotes": [{"chamber": "House", "congress": 117, "date": "2021-03-04T04:05:36Z", "rollNumber": 62, "sessionNumber": 1, "url": "https://clerk.house.gov/evs/2021/roll062.xml"}], "sourceSystem": {"code": 2, "name": "House floor actions"}, "text": "On passage Passed by the Yeas and Nays: 220 - 210 (Roll no. 62).", "type": "Floor"}, {"actionCode": "8000", "actionDate": "2021-03-03", "actionTime": "23:05:36", "recordedVotes": [{"chamber": "House", "congress": 117, "date": "2021-03-04T04:05:36Z", "rollNumber": 62, "sessionNumber": 1, "url": "https://clerk.house.gov/evs/2021/roll062.xml"}], "sourceSystem": {"code": 9, "name": "Library of Congress"}, "text": "Passed/agreed to in House: On passage Passed by the Yeas and Nays: 220 - 210 (Roll no. 62).", "type": "Floor"}, {"actionCode": "H36210", "actionDate": "2021-03-03", "actionTime": "22:20:54", "committees": [{"name": "Committee on House Administration", "systemCode": "hsha00", "url": "https://api.congress.gov/v3/committee/house/hsha00?format=json"}], "recordedVotes": [{"chamber": "House", "congress": 117, "date": "2021-03-04T03:20:54Z", "rollNumber": 61, "sessionNumber": 1, "url": "https://clerk.house.gov/evs/2021/roll061.xml"}], "sourceSystem": {"code": 2, "name": "House floor actions"}, "text": "On motion to recommit Failed by the Yeas and Nays: 210 - 219 (Roll no. 61).", "type": "Floor"}, {"actionCode": "H30000", "actionDate": "2021-03-03", "actionTime": "21:30:33", "sourceSystem": {"code": 2, "name": "House floor actions"}, "text": "Considered as unfinished business. (consideration: CR H1071-1072)", "type": "Floor"}, {"actionCode": "H8D000", "actionDate": "2021-03-03", "actionTime": "21:30:32", "sourceSystem": {"code": 2, "name": "House floor actions"}, "text": "Pursuant to clause 1(c) of Rule XIX, the House resumed with further consideration of H.R. 1.", "type": "Floor"}, {"actionCode": "H8D000", "actionDate": "2021-03-03", "actionTime": "18:17:58", "sourceSystem": {"code": 2, "name": "House floor actions"}, "text": "Pursuant to clause 1(c) of Rule XIX, further consideration of H.R. 1 was postponed.", "type": "Floor"}, {"actionCode": "H8D000", "actionDate": "2021-03-03", "actionTime": "18:16:46", "sourceSystem": {"code": 2, "name": "House floor actions"}, "text": "POSTPONED PROCEEDINGS - The Chair put the question on the motion to recommit and by voice vote, announced that the noes had prevailed. Mr. Rodney Davis (IL) demanded the yeas and nays and the Chair postponed further proceedings until a time to be announced.", "type": "Floor"}, {"actionCode": "H8A000", "actionDate": "2021-03-03", "actionTime": "18:16:45", "sourceSystem": {"code": 2, "name": "House floor actions"}, "text": "The previous question on the motion to recommit was ordered pursuant to the rule.", "type": "Floor"}, {"actionCode": "H36200", "actionDate": "2021-03-03", "actionTime": "18:16:28", "committees": [{"name": "Committee on House Administration", "systemCode": "hsha00", "url": "https://api.congress.gov/v3/committee/house/hsha00?format=json"}], "sourceSystem": {"code": 2, "name": "House floor actions"}, "text": "Mr. Davis, Rodney moved to recommit to the Committee on House Administration. (text: CR H1039)", "type": "Floor"}, {"actionCode": "H30000", "actionDate": "2021-03-03", "actionTime": "18:15:48", "sourceSystem": {"code": 2, "name": "House floor actions"}, "text": "Considered as unfinished business. (consideration: CR H1039)", "type": "Floor"}, {"actionCode": "H8D000", "actionDate": "2021-03-03", "actionTime": "18:15:46", "sourceSystem": {"code": 2, "name": "House floor actions"}, "text": "Pursuant to clause 1(c) of Rule XIX, the House resumed with further consideration of H.R. 1.", "type": "Floor"}, {"actionCode": "H8D000", "actionDate": "2021-03-03", "actionTime": "13:52:55", "sourceSystem": {"code": 2, "name": "House floor actions"}, "text": "POSTPONED PROCEEDINGS - Pursuant to clause 1(c) of Rule 19, further consideration of H.R. 1 was postponed.", "type": "Floor"}, {"actionCode": "H35000", "actionDate": "2021-03-03", "actionTime": "13:52:11", "sourceSystem": {"code": 2, "name": "House floor actions"}, "text": "The previous question was ordered pursuant to the rule.", "type": "Floor"}, {"actionCode": "H30000", "actionDate": "2021-03-03", "actionTime": "12:16:22", "sourceSystem": {"code": 2, "name": "House floor actions"}, "text": "Considered as unfinished business. (consideration: CR H1037-1038)", "type": "Floor"}, {"actionCode": "H8D000", "actionDate": "2021-03-03", "actionTime": "12:16:21", "sourceSystem": {"code": 2, "name": "House floor actions"}, "text": "Pursuant to clause 1(c) of Rule XIX, the House resumed with further consideration of H.R. 1.", "type": "Floor"}, {"actionCode": "H8D000", "actionDate": "2021-03-03", "actionTime": "11:34:05", "sourceSystem": {"code": 2, "name": "House floor actions"}, "text": "Pursuant to clause 1(c) of Rule XIX, further consideration of H.R. 1 was postponed.", "type": "Floor"}, {"actionCode": "H8D000", "actionDate": "2021-03-03", "actionTime": "11:33:20", "sourceSystem": {"code": 2, "name": "House floor actions"}, "text": "POSTPONED PROCEEDINGS - At the conclusion of debate on the Lofgren amendment en bloc No. 4, the Chair put the question on agreeing to the amendment and by voice vote, announced that the ayes had prevailed. Mr. Gohmert demanded the yeas and nays and the Chair postponed further proceedings until a time to be announced.", "type": "Floor"}], "pagination": {"count": 63, "next": "https://api.congress.gov/v3/bill/117/hr/1/actions?offset=20&limit=20&format=json"}, "request": {"billNumber": "1", "billType": "hr", "billUrl": "https://api.congress.gov/v3/bill/117/hr/1?format=json", "congress": "117", "contentType": "application/json", "format": "json"}}, 200]