[{"actions": [{"actionDate": "2021-03-17", "committees": [{"name": "Judiciary Committee", "systemCode": "ssju00", "url": "https://api.congress.gov/v3/committee/senate/ssju00?format=json"}], "sourceSystem": {"name": "Senate"}, "text": "Committee on the Judiciary. Hearings held.", "type": "Committee"}, {"actionDate": "2021-03-02", "calendarNumber": {"calendar": "Senate Calendar of Business", "number": "0009"}, "sourceSystem": {"name": "Senate"}, "text": "Read the second time. Placed on Senate Legislative Calendar under General Orders. Calendar No. 9.", "type": "Calendars"}, {"actionDate": "2021-03-02", "calendarNumber": {"calendar": "Senate Calendar of Business"}, "sourceSystem": {"name": "Senate"}, "text": "Read the first time. Placed on Senate Legislative Calendar under Read the First Time.", "type": "Calendars"}, {"actionDate": "2021-03-01", "sourceSystem": {"name": "Senate"}, "text": "Received in the Senate.", "type": "IntroReferral"}, {"actionCode": "H36610", "actionDate": "2021-02-25", "actionTime": "17:21:58", "recordedVotes": [{"chamber": "House", "congress": 117, "date": "2021-02-25T22:21:58Z", "rollNumber": 40, "sessionNumber": 1, "url": "https://clerk.house.gov/evs/2021/roll040.xml"}], "sourceSystem": {"code": 2, "name": "House floor actions"}, "text": "Table the motion to reconsider Agreed to by the Yeas and Nays: 211 - 195 (Roll no. 40).", "type": "Floor"}, {"actionCode": "H82000", "actionDate": "2021-02-25", "actionTime": "16:31:45", "sourceSystem": {"code": 2, "name": "House floor actions"}, "text": "Mr. Cicilline moved to table the motion to reconsider", "type": "ResolvingDifferences"}, {"actionCode": "H36600", "actionDate": "2021-02-25", "actionTime": "16:31:42", "sourceSystem": {"code": 2, "name": "House floor actions"}, "text": "Mr. Kildee moved to reconsider.", "type": "Floor"}, {"actionCode": "H37100", "actionDate": "2021-02-25", "actionTime": "16:30:56", "recordedVotes": [{"chamber": "House", "congress": 117, "date": "2021-02-25T21:30:56Z", "rollNumber": 39, "sessionNumber": 1, "url": "https://clerk.house.gov/evs/2021/roll039.xml"}], "sourceSystem": {"code": 2, "name": "House floor actions"}, "text": "On passage Passed by the Yeas and Nays: 224 - 206 (Roll no. 39). (text: CR H634-637)", "type": "Floor"}, {"actionCode": "8000", "actionDate": "2021-02-25", "actionTime": "16:30:56", "recordedVotes": [{"chamber": "House", "congress": 117, "date": "2021-02-25T21:30:56Z", "rollNumber": 39, "sessionNumber": 1, "url": "https://clerk.house.gov/evs/2021/roll039.xml"}], "sourceSystem": {"code": 9, "name": "Library of Congress"}, "text": "Passed/agreed to in House: On passage Passed by the Yeas and Nays: 224 - 206 (Roll no. 39).(text: CR H634-637)", "type": "Floor"}, {"actionCode": "H35000", "actionDate": "2021-02-25", "actionTime": "15:43:37", "sourceSystem": {"code": 2, "name": "House floor actions"}, "text": "The previous question was ordered pursuant to the rule.", "type": "Floor"}, {"actionCode": "H8D000", "actionDate": "2021-02-25", "actionTime": "13:33:02", "sourceSystem": {"code": 2, "name": "House floor actions"}, "text": "DEBATE - The House proceeded with 90 minutes of debate on H.R. 5.", "type": "Floor"}, {"actionCode": "H8D000", "actionDate": "2021-02-25", "actionTime": "13:32:29", "sourceSystem": {"code": 2, "name": "House floor actions"}, "text": "Rule provides for consideration of H.R. 803 and H.R. 5. Rule provides for 1 hour of general debate on H.R. 803 and one motion to recommit. Rule provides for 90 minutes of general debate on H.R. 5 and one motion to recommit.", "type": "Floor"}, {"actionCode": "H30000", "actionDate": "2021-02-25", "actionTime": "13:32:24", "sourceSystem": {"code": 2, "name": "House floor actions"}, "text": "Considered under the provisions of rule H. Res. 147. (consideration: CR H633-661)", "type": "Floor"}, {"actionCode": "H1L220", "actionDate": "2021-02-24", "actionTime": "16:27:30", "sourceSystem": {"code": 2, "name": "House floor actions"}, "text": "Rule H. Res. 147 passed House.", "type": "Floor"}, {"actionCode": "H1L210", "actionDate": "2021-02-23", "actionTime": "18:11:48", "sourceSystem": {"code": 2, "name": "House floor actions"}, "text": "Rules Committee Resolution H. Res. 147 Reported to House. Rule provides for consideration of H.R. 803 and H.R. 5. Rule provides for 1 hour of general debate on H.R. 803 and one motion to recommit. Rule provides for 90 minutes of general debate on H.R. 5 and one motion to recommit.", "type": "Floor"}, {"actionCode": "H11100", "actionDate": "2021-02-18", "committees": [{"name": "Committee on House Administration", "systemCode": "hsha00", "url": "https://api.congress.gov/v3/committee/house/hsha00?format=json"}], "sourceSystem": {"code": 2, "name": "House floor actions"}, "text": "Referred to the Committee on the Judiciary, and in addition to the Committees on Education and Labor, Financial Services, Oversight and Reform, and House Administration, for a period to be subsequently determined by the Speaker, in each case for consideration of such provisions as fall within the jurisdiction of the committee concerned.", "type": "IntroReferral"}, {"actionCode": "H11100", "actionDate": "2021-02-18", "committees": [{"name": "Oversight and Accountability Committee", "systemCode": "hsgo00", "url": "https://api.congress.gov/v3/committee/house/hsgo00?format=json"}], "sourceSystem": {"code": 2, "name": "House floor actions"}, "text": "Referred to the Committee on the Judiciary, and in addition to the Committees on Education and Labor, Financial Services, Oversight and Reform, and House Administration, for a period to be subsequently determined by the Speaker, in each case for consideration of such provisions as fall within the jurisdiction of the committee concerned.", "type": "IntroReferral"}, {"actionCode": "H11100", "actionDate": "2021-02-18", "committees": [{"name": "Financial Services Committee", "systemCode": "hsba00", "url": "https://api.congress.gov/v3/committee/house/hsba00?format=json"}], "sourceSystem": {"code": 2, "name": "House floor actions"}, "text": "Referred to the Committee on the Judiciary, and in addition to the Committees on Education and Labor, Financial Services, Oversight and Reform, and House Administration, for a period to be subsequently determined by the Speaker, in each case for consideration of such provisions as fall within the jurisdiction of the committee concerned.", "type": "IntroReferral"}, {"actionCode": "H11100", "actionDate": "2021-02-18", "committees": [{"name": "Education and the Workforce Committee", "systemCode": "hsed00", "url": "https://api.congress.gov/v3/committee/house/hsed00?format=json"}], "sourceSystem": {"code": 2, "name": "House floor actions"}, "text": "Referred to the Committee on the Judiciary, and in addition to the Committees on Education and Labor, Financial Services, Oversight and Reform, and House Administration, for a period to be subsequently determined by the Speaker, in each case for consideration of such provisions as fall within the jurisdiction of the committee concerned.", "type": "IntroReferral"}, {"actionCode": "H11100", "actionDate": "2021-02-18", "committees": [{"name": "Judiciary Committee", "systemCode": "hsju00", "url": "https://api.congress.gov/v3/committee/house/hsju00?format=json"}], "sourceSystem": {"code": 2, "name": "House floor actions"}, "text": "Referred to the Committee on the Judiciary, and in addition to the Committees on Education and Labor, Financial Services, Oversight and Reform, and House Administration, for a period to be subsequently determined by the Speaker, in each case for consideration of such provisions as fall within the jurisdiction of the committee concerned.", "type": "IntroReferral"}], "pagination": {"count": 22, "next": "https://api.congress.gov/v3/bill/117/hr/5/actions?offset=20&limit=20&format=json"}, "request": {"billNumber": "5", "billType": "hr", "billUrl": "https://api.congress.gov/v3/bill/117/hr/5?format=json", "congress": "117", "contentType": "application/json", "format": "json"}}, 200]