[{"actions": [{"actionCode": "E40000", "actionDate": "2021-07-26", "sourceSystem": {"code": 9, "name": "Library of Congress"}, "text": "Became Public Law No: 117-28.", "type": "President"}, {"actionCode": "36000", "actionDate": "2021-07-26", "sourceSystem": {"code": 9, "name": "Library of Congress"}, "text": "Became Public Law No: 117-28.", "type": "BecameLaw"}, {"actionCode": "E30000", "actionDate": "2021-07-26", "sourceSystem": {"code": 9, "name": "Library of Congress"}, "text": "Signed by President.", "type": "President"}, {"actionCode": "36000", "actionDate": "2021-07-26", "sourceSystem": {"code": 9, "name": "Library of Congress"}, "text": "Signed by President.", "type": "BecameLaw"}, {"actionCode": "E20000", "actionDate": "2021-07-21", "sourceSystem": {"code": 2, "name": "House floor actions"}, "text": "Presented to President.", "type": "Floor"}, {"actionCode": "28000", "actionDate": "2021-07-21", "sourceSystem": {"code": 9, "name": "Library of Congress"}, "text": "Presented to President.", "type": "President"}, {"actionDate": "2021-07-14", "sourceSystem": {"name": "Senate"}, "text": "Message on Senate action sent to the House.", "type": "Floor"}, {"actionDate": "2021-07-13", "sourceSystem": {"name": "Senate"}, "text": "Passed Senate without amendment by Unanimous Consent.", "type": "Floor"}, {"actionCode": "17000", "actionDate": "2021-07-13", "sourceSystem": {"code": 9, "name": "Library of Congress"}, "text": "Passed/agreed to in Senate: Passed Senate without amendment by Unanimous Consent.", "type": "Floor"}, {"actionDate": "2021-07-13", "committees": [{"name": "Homeland Security and Governmental Affairs Committee", "systemCode": "ssga00", "url": "https://api.congress.gov/v3/committee/senate/ssga00?format=json"}], "sourceSystem": {"name": "Senate"}, "text": "Senate Committee on Homeland Security and Governmental Affairs discharged by Unanimous Consent. (consideration: CR S4860-4861)", "type": "Discharge"}, {"actionCode": "14500", "actionDate": "2021-07-13", "committees": [{"name": "Homeland Security and Governmental Affairs Committee", "systemCode": "ssga00", "url": "https://api.congress.gov/v3/committee/senate/ssga00?format=json"}], "sourceSystem": {"code": 9, "name": "Library of Congress"}, "text": "Senate Committee on Homeland Security and Governmental Affairs discharged by Unanimous Consent.(consideration: CR S4860-4861)", "type": "Committee"}, {"actionDate": "2021-01-06", "committees": [{"name": "Homeland Security and Governmental Affairs Committee", "systemCode": "ssga00", "url": "https://api.congress.gov/v3/committee/senate/ssga00?format=json"}], "sourceSystem": {"name": "Senate"}, "text": "Received in the Senate and Read twice and referred to the Committee on Homeland Security and Governmental Affairs.", "type": "IntroReferral"}, {"actionCode": "H38310", "actionDate": "2021-01-05", "actionTime": "12:51:57", "sourceSystem": {"code": 2, "name": "House floor actions"}, "text": "Motion to reconsider laid on the table Agreed to without objection.", "type": "Floor"}, {"actionCode": "H37300", "actionDate": "2021-01-05", "actionTime": "12:51:53", "sourceSystem": {"code": 2, "name": "House floor actions"}, "text": "On motion to suspend the rules and pass the bill Agreed to by voice vote. (text: CR H68)", "type": "Floor"}, {"actionCode": "8000", "actionDate": "2021-01-05", "actionTime": "12:51:53", "sourceSystem": {"code": 9, "name": "Library of Congress"}, "text": "Passed/agreed to in House: On motion to suspend the rules and pass the bill Agreed to by voice vote.(text: CR H68)", "type": "Floor"}, {"actionCode": "H8D000", "actionDate": "2021-01-05", "actionTime": "12:43:17", "sourceSystem": {"code": 2, "name": "House floor actions"}, "text": "DEBATE - The House proceeded with forty minutes of debate on H.R. 26.", "type": "Floor"}, {"actionCode": "H30000", "actionDate": "2021-01-05", "actionTime": "12:43:15", "sourceSystem": {"code": 2, "name": "House floor actions"}, "text": "Considered under suspension of the rules. (consideration: CR H68-69)", "type": "Floor"}, {"actionCode": "H30300", "actionDate": "2021-01-05", "actionTime": "12:43:00", "sourceSystem": {"code": 2, "name": "House floor actions"}, "text": "Mrs. Maloney, Carolyn B. moved to suspend the rules and pass the bill.", "type": "Floor"}, {"actionCode": "H11100", "actionDate": "2021-01-04", "committees": [{"name": "Budget Committee", "systemCode": "hsbu00", "url": "https://api.congress.gov/v3/committee/house/hsbu00?format=json"}], "sourceSystem": {"code": 2, "name": "House floor actions"}, "text": "Referred to the Committee on Oversight and Reform, and in addition to the Committee on the Budget, for a period to be subsequently determined by the Speaker, in each case for consideration of such provisions as fall within the jurisdiction of the committee concerned.", "type": "IntroReferral"}, {"actionCode": "H11100", "actionDate": "2021-01-04", "committees": [{"name": "Oversight and Accountability Committee", "systemCode": "hsgo00", "url": "https://api.congress.gov/v3/committee/house/hsgo00?format=json"}], "sourceSystem": {"code": 2, "name": "House floor actions"}, "text": "Referred to the Committee on Oversight and Reform, and in addition to the Committee on the Budget, for a period to be subsequently determined by the Speaker, in each case for consideration of such provisions as fall within the jurisdiction of the committee concerned.", "type": "IntroReferral"}], "pagination": {"count": 22, "next": "https://api.congress.gov/v3/bill/117/hr/26/actions?offset=20&limit=20&format=json"}, "request": {"billNumber": "26", "billType": "hr", "billUrl": "https://api.congress.gov/v3/bill/117/hr/26?format=json", "congress": "117", "contentType": "application/json", "format": "json"}}, 200]