[{"actions": [{"actionCode": "E40000", "actionDate": "2021-06-25", "sourceSystem": {"code": 9, "name": "Library of Congress"}, "text": "Became Public Law No: 117-20.", "type": "President"}, {"actionCode": "36000", "actionDate": "2021-06-25", "sourceSystem": {"code": 9, "name": "Library of Congress"}, "text": "Became Public Law No: 117-20.", "type": "BecameLaw"}, {"actionCode": "E30000", "actionDate": "2021-06-25", "sourceSystem": {"code": 9, "name": "Library of Congress"}, "text": "Signed by President.", "type": "President"}, {"actionCode": "36000", "actionDate": "2021-06-25", "sourceSystem": {"code": 9, "name": "Library of Congress"}, "text": "Signed by President.", "type": "BecameLaw"}, {"actionCode": "E20000", "actionDate": "2021-06-17", "sourceSystem": {"code": 2, "name": "House floor actions"}, "text": "Presented to President.", "type": "Floor"}, {"actionCode": "28000", "actionDate": "2021-06-17", "sourceSystem": {"code": 9, "name": "Library of Congress"}, "text": "Presented to President.", "type": "President"}, {"actionDate": "2021-06-10", "sourceSystem": {"name": "Senate"}, "text": "Message on Senate action sent to the House.", "type": "Floor"}, {"actionDate": "2021-06-09", "sourceSystem": {"name": "Senate"}, "text": "Passed Senate without amendment by Unanimous Consent.", "type": "Floor"}, {"actionCode": "17000", "actionDate": "2021-06-09", "sourceSystem": {"code": 9, "name": "Library of Congress"}, "text": "Passed/agreed to in Senate: Passed Senate without amendment by Unanimous Consent.", "type": "Floor"}, {"actionDate": "2021-06-09", "committees": [{"name": "Energy and Natural Resources Committee", "systemCode": "sseg00", "url": "https://api.congress.gov/v3/committee/senate/sseg00?format=json"}], "sourceSystem": {"name": "Senate"}, "text": "Senate Committee on Energy and Natural Resources discharged by Unanimous Consent. (consideration: CR S4013)", "type": "Discharge"}, {"actionCode": "14500", "actionDate": "2021-06-09", "committees": [{"name": "Energy and Natural Resources Committee", "systemCode": "sseg00", "url": "https://api.congress.gov/v3/committee/senate/sseg00?format=json"}], "sourceSystem": {"code": 9, "name": "Library of Congress"}, "text": "Senate Committee on Energy and Natural Resources discharged by Unanimous Consent.(consideration: CR S4013)", "type": "Committee"}, {"actionDate": "2021-05-13", "committees": [{"name": "Energy and Natural Resources Committee", "systemCode": "sseg00", "url": "https://api.congress.gov/v3/committee/senate/sseg00?format=json"}], "sourceSystem": {"name": "Senate"}, "text": "Received in the Senate and Read twice and referred to the Committee on Energy and Natural Resources.", "type": "IntroReferral"}, {"actionCode": "H38310", "actionDate": "2021-05-12", "actionTime": "13:36:34", "sourceSystem": {"code": 2, "name": "House floor actions"}, "text": "Motion to reconsider laid on the table Agreed to without objection.", "type": "Floor"}, {"actionCode": "H37300", "actionDate": "2021-05-12", "actionTime": "13:36:31", "sourceSystem": {"code": 2, "name": "House floor actions"}, "text": "On motion to suspend the rules and pass the bill Agreed to by voice vote. (text: CR H2219)", "type": "Floor"}, {"actionCode": "8000", "actionDate": "2021-05-12", "actionTime": "13:36:31", "sourceSystem": {"code": 9, "name": "Library of Congress"}, "text": "Passed/agreed to in House: On motion to suspend the rules and pass the bill Agreed to by voice vote.(text: CR H2219)", "type": "Floor"}, {"actionCode": "H8D000", "actionDate": "2021-05-12", "actionTime": "13:21:19", "sourceSystem": {"code": 2, "name": "House floor actions"}, "text": "DEBATE - The House proceeded with forty minutes of debate on H.R. 49.", "type": "Floor"}, {"actionCode": "H30000", "actionDate": "2021-05-12", "actionTime": "13:21:17", "sourceSystem": {"code": 2, "name": "House floor actions"}, "text": "Considered under suspension of the rules. (consideration: CR H2219-2220)", "type": "Floor"}, {"actionCode": "H30300", "actionDate": "2021-05-12", "actionTime": "13:21:01", "sourceSystem": {"code": 2, "name": "House floor actions"}, "text": "Mr. Soto moved to suspend the rules and pass the bill.", "type": "Floor"}, {"actionCode": "H11000", "actionDate": "2021-02-18", "committees": [{"name": "Federal Lands Subcommittee", "systemCode": "hsii10", "url": "https://api.congress.gov/v3/committee/house/hsii10?format=json"}], "sourceSystem": {"code": 1, "name": "House committee actions"}, "text": "Referred to the Subcommittee on National Parks, Forests, and Public Lands.", "type": "Committee"}, {"actionCode": "H11100", "actionDate": "2021-01-04", "committees": [{"name": "Natural Resources Committee", "systemCode": "hsii00", "url": "https://api.congress.gov/v3/committee/house/hsii00?format=json"}], "sourceSystem": {"code": 2, "name": "House floor actions"}, "text": "Referred to the House Committee on Natural Resources.", "type": "IntroReferral"}], "pagination": {"count": 22, "next": "https://api.congress.gov/v3/bill/117/hr/49/actions?offset=20&limit=20&format=json"}, "request": {"billNumber": "49", "billType": "hr", "billUrl": "https://api.congress.gov/v3/bill/117/hr/49?format=json", "congress": "117", "contentType": "application/json", "format": "json"}}, 200]