[{"actions": [{"actionDate": "2021-04-22", "sourceSystem": {"name": "Senate"}, "text": "Received in the Senate.", "type": "IntroReferral"}, {"actionCode": "H38310", "actionDate": "2021-04-22", "actionTime": "11:59:44", "sourceSystem": {"code": 2, "name": "House floor actions"}, "text": "Motion to reconsider laid on the table Agreed to without objection.", "type": "Floor"}, {"actionCode": "H37100", "actionDate": "2021-04-22", "actionTime": "11:59:42", "recordedVotes": [{"chamber": "House", "congress": 117, "date": "2021-04-22T15:59:42Z", "rollNumber": 132, "sessionNumber": 1, "url": "https://clerk.house.gov/evs/2021/roll132.xml"}], "sourceSystem": {"code": 2, "name": "House floor actions"}, "text": "On passage Passed by the Yeas and Nays: 216 - 208 (Roll no. 132). (text: CR H2061-2071)", "type": "Floor"}, {"actionCode": "8000", "actionDate": "2021-04-22", "actionTime": "11:59:42", "recordedVotes": [{"chamber": "House", "congress": 117, "date": "2021-04-22T15:59:42Z", "rollNumber": 132, "sessionNumber": 1, "url": "https://clerk.house.gov/evs/2021/roll132.xml"}], "sourceSystem": {"code": 9, "name": "Library of Congress"}, "text": "Passed/agreed to in House: On passage Passed by the Yeas and Nays: 216 - 208 (Roll no. 132).(text: CR H2061-2071)", "type": "Floor"}, {"actionCode": "H36210", "actionDate": "2021-04-22", "actionTime": "11:27:56", "committees": [{"name": "Oversight and Accountability Committee", "systemCode": "hsgo00", "url": "https://api.congress.gov/v3/committee/house/hsgo00?format=json"}], "recordedVotes": [{"chamber": "House", "congress": 117, "date": "2021-04-22T15:27:56Z", "rollNumber": 131, "sessionNumber": 1, "url": "https://clerk.house.gov/evs/2021/roll131.xml"}], "sourceSystem": {"code": 2, "name": "House floor actions"}, "text": "On motion to recommit Failed by the Yeas and Nays: 205 - 215 (Roll no. 131).", "type": "Floor"}, {"actionCode": "H8A000", "actionDate": "2021-04-22", "actionTime": "10:52:06", "sourceSystem": {"code": 2, "name": "House floor actions"}, "text": "The previous question on the motion to recommit was ordered without objection.", "type": "Floor"}, {"actionCode": "H36200", "actionDate": "2021-04-22", "actionTime": "10:52:05", "committees": [{"name": "Oversight and Accountability Committee", "systemCode": "hsgo00", "url": "https://api.congress.gov/v3/committee/house/hsgo00?format=json"}], "sourceSystem": {"code": 2, "name": "House floor actions"}, "text": "Mr. Griffith moved to recommit to the Committee on Oversight and Reform. (text: CR H2081-2088)", "type": "Floor"}, {"actionCode": "H35000", "actionDate": "2021-04-22", "actionTime": "10:51:51", "sourceSystem": {"code": 2, "name": "House floor actions"}, "text": "The previous question was ordered pursuant to the rule.", "type": "Floor"}, {"actionCode": "H8D000", "actionDate": "2021-04-22", "actionTime": "09:17:55", "sourceSystem": {"code": 2, "name": "House floor actions"}, "text": "DEBATE - The House proceeded with one hour of debate on H.R. 51.", "type": "Floor"}, {"actionCode": "H8D000", "actionDate": "2021-04-22", "actionTime": "09:17:15", "sourceSystem": {"code": 2, "name": "House floor actions"}, "text": "Rule provides for consideration of H.R. 51, H.R. 1573 and H.R. 1333. Measure will be considered read. Bill is closed to amendments. The previous question on each measure is considered ordered without intervening motions except one hour of debate and a motion to recommit. H. Res. 316 and H. Con. Res. 30 are adopted.", "type": "Floor"}, {"actionCode": "H30000", "actionDate": "2021-04-22", "actionTime": "09:17:05", "sourceSystem": {"code": 2, "name": "House floor actions"}, "text": "Considered under the provisions of rule H. Res. 330. (consideration: CR H2061-2089)", "type": "Floor"}, {"actionCode": "H12210", "actionDate": "2021-04-21", "committees": [{"name": "Oversight and Accountability Committee", "systemCode": "hsgo00", "url": "https://api.congress.gov/v3/committee/house/hsgo00?format=json"}], "sourceSystem": {"code": 2, "name": "House floor actions"}, "text": "Supplemental report filed by the Committee on Oversight and Reform, H. Rept. 117-19, Part II.", "type": "Committee"}, {"actionCode": "5000", "actionDate": "2021-04-21", "committees": [{"name": "Oversight and Accountability Committee", "systemCode": "hsgo00", "url": "https://api.congress.gov/v3/committee/house/hsgo00?format=json"}], "sourceSystem": {"code": 9, "name": "Library of Congress"}, "text": "Supplemental report filed by the Committee on Oversight and Reform, H. Rept. 117-19, Part II.", "type": "Committee"}, {"actionCode": "H1L210", "actionDate": "2021-04-20", "actionTime": "13:24:50", "sourceSystem": {"code": 2, "name": "House floor actions"}, "text": "Rules Committee Resolution H. Res. 330 Reported to House. Rule provides for consideration of H.R. 51, H.R. 1573 and H.R. 1333. Measure will be considered read. Bill is closed to amendments. The previous question on each measure is considered ordered without intervening motions except one hour of debate and a motion to recommit. H. Res. 316 and H. Con. Res. 30 are adopted.", "type": "Floor"}, {"actionCode": "H12410", "actionDate": "2021-04-16", "calendarNumber": {"calendar": "U00006"}, "sourceSystem": {"code": 2, "name": "House floor actions"}, "text": "Placed on the Union Calendar, Calendar No. 6.", "type": "Calendars"}, {"actionCode": "H12300", "actionDate": "2021-04-16", "committees": [{"name": "Energy and Commerce Committee", "systemCode": "hsif00", "url": "https://api.congress.gov/v3/committee/house/hsif00?format=json"}], "sourceSystem": {"code": 2, "name": "House floor actions"}, "text": "Committee on Energy and Commerce discharged.", "type": "Discharge"}, {"actionCode": "5500", "actionDate": "2021-04-16", "committees": [{"name": "Energy and Commerce Committee", "systemCode": "hsif00", "url": "https://api.congress.gov/v3/committee/house/hsif00?format=json"}], "sourceSystem": {"code": 9, "name": "Library of Congress"}, "text": "Committee on Energy and Commerce discharged.", "type": "Committee"}, {"actionCode": "H12300", "actionDate": "2021-04-16", "committees": [{"name": "Judiciary Committee", "systemCode": "hsju00", "url": "https://api.congress.gov/v3/committee/house/hsju00?format=json"}], "sourceSystem": {"code": 2, "name": "House floor actions"}, "text": "Committee on the Judiciary discharged.", "type": "Discharge"}, {"actionCode": "5500", "actionDate": "2021-04-16", "committees": [{"name": "Judiciary Committee", "systemCode": "hsju00", "url": "https://api.congress.gov/v3/committee/house/hsju00?format=json"}], "sourceSystem": {"code": 9, "name": "Library of Congress"}, "text": "Committee on the Judiciary discharged.", "type": "Committee"}, {"actionCode": "H12300", "actionDate": "2021-04-16", "committees": [{"name": "Armed Services Committee", "systemCode": "hsas00", "url": "https://api.congress.gov/v3/committee/house/hsas00?format=json"}], "sourceSystem": {"code": 2, "name": "House floor actions"}, "text": "Committee on Armed Services discharged.", "type": "Discharge"}], "pagination": {"count": 38, "next": "https://api.congress.gov/v3/bill/117/hr/51/actions?offset=20&limit=20&format=json"}, "request": {"billNumber": "51", "billType": "hr", "billUrl": "https://api.congress.gov/v3/bill/117/hr/51?format=json", "congress": "117", "contentType": "application/json", "format": "json"}}, 200]