[{"actions": [{"actionDate": "2021-06-17", "committees": [{"name": "Foreign Relations Committee", "systemCode": "ssfr00", "url": "https://api.congress.gov/v3/committee/senate/ssfr00?format=json"}], "sourceSystem": {"name": "Senate"}, "text": "Received in the Senate and Read twice and referred to the Committee on Foreign Relations.", "type": "IntroReferral"}, {"actionCode": "H38310", "actionDate": "2021-06-17", "actionTime": "11:30:51", "sourceSystem": {"code": 2, "name": "House floor actions"}, "text": "Motion to reconsider laid on the table Agreed to without objection.", "type": "Floor"}, {"actionCode": "H37100", "actionDate": "2021-06-17", "actionTime": "11:30:49", "recordedVotes": [{"chamber": "House", "congress": 117, "date": "2021-06-17T15:30:49Z", "rollNumber": 172, "sessionNumber": 1, "url": "https://clerk.house.gov/evs/2021/roll172.xml"}], "sourceSystem": {"code": 2, "name": "House floor actions"}, "text": "On passage Passed by the Yeas and Nays: 268 - 161 (Roll no. 172). (text: CR H2899)", "type": "Floor"}, {"actionCode": "8000", "actionDate": "2021-06-17", "actionTime": "11:30:49", "recordedVotes": [{"chamber": "House", "congress": 117, "date": "2021-06-17T15:30:49Z", "rollNumber": 172, "sessionNumber": 1, "url": "https://clerk.house.gov/evs/2021/roll172.xml"}], "sourceSystem": {"code": 9, "name": "Library of Congress"}, "text": "Passed/agreed to in House: On passage Passed by the Yeas and Nays: 268 - 161 (Roll no. 172).(text: CR H2899)", "type": "Floor"}, {"actionCode": "H36210", "actionDate": "2021-06-17", "actionTime": "11:05:24", "committees": [{"name": "Foreign Affairs Committee", "systemCode": "hsfa00", "url": "https://api.congress.gov/v3/committee/house/hsfa00?format=json"}], "recordedVotes": [{"chamber": "House", "congress": 117, "date": "2021-06-17T15:05:24Z", "rollNumber": 171, "sessionNumber": 1, "url": "https://clerk.house.gov/evs/2021/roll171.xml"}], "sourceSystem": {"code": 2, "name": "House floor actions"}, "text": "On motion to recommit Failed by the Yeas and Nays: 204 - 219 (Roll no. 171).", "type": "Floor"}, {"actionCode": "H8A000", "actionDate": "2021-06-17", "actionTime": "10:35:39", "sourceSystem": {"code": 2, "name": "House floor actions"}, "text": "The previous question on the motion to recommit was ordered pursuant to clause 2(b) of rule XIX.", "type": "Floor"}, {"actionCode": "H36200", "actionDate": "2021-06-17", "actionTime": "10:35:26", "committees": [{"name": "Foreign Affairs Committee", "systemCode": "hsfa00", "url": "https://api.congress.gov/v3/committee/house/hsfa00?format=json"}], "sourceSystem": {"code": 2, "name": "House floor actions"}, "text": "Mr. McCaul moved to recommit to the Committee on Foreign Affairs. (text: CR H2909)", "type": "Floor"}, {"actionCode": "H35000", "actionDate": "2021-06-17", "actionTime": "10:34:51", "sourceSystem": {"code": 2, "name": "House floor actions"}, "text": "The previous question was ordered pursuant to the rule.", "type": "Floor"}, {"actionCode": "H8D000", "actionDate": "2021-06-17", "actionTime": "09:15:55", "sourceSystem": {"code": 2, "name": "House floor actions"}, "text": "DEBATE - The House proceeded with one hour of debate on H.R. 256.", "type": "Floor"}, {"actionCode": "H8D000", "actionDate": "2021-06-17", "actionTime": "09:15:22", "sourceSystem": {"code": 2, "name": "House floor actions"}, "text": "Resolution provides for consideration of H.R. 256 under a closed rule and provides for consideration of H.R. 1187 under a structured rule. The resolution provides for one hour of debate for each bill and for one motion to recommit for each bill. The resolution provides that H. Res. 467 is adopted.", "type": "Floor"}, {"actionCode": "H30000", "actionDate": "2021-06-17", "actionTime": "09:15:17", "sourceSystem": {"code": 2, "name": "House floor actions"}, "text": "Considered under the provisions of rule H. Res. 473. (consideration: CR H2899-2910)", "type": "Floor"}, {"actionCode": "H12210", "actionDate": "2021-06-14", "committees": [{"name": "Foreign Affairs Committee", "systemCode": "hsfa00", "url": "https://api.congress.gov/v3/committee/house/hsfa00?format=json"}], "sourceSystem": {"code": 2, "name": "House floor actions"}, "text": "Supplemental report filed by the Committee on Foreign Affairs, H. Rept. 117-56, Part II.", "type": "Committee"}, {"actionCode": "5000", "actionDate": "2021-06-14", "committees": [{"name": "Foreign Affairs Committee", "systemCode": "hsfa00", "url": "https://api.congress.gov/v3/committee/house/hsfa00?format=json"}], "sourceSystem": {"code": 9, "name": "Library of Congress"}, "text": "Supplemental report filed by the Committee on Foreign Affairs, H. Rept. 117-56, Part II.", "type": "Committee"}, {"actionCode": "H1L210", "actionDate": "2021-06-14", "actionTime": "17:11:02", "sourceSystem": {"code": 2, "name": "House floor actions"}, "text": "Rules Committee Resolution H. Res. 473 Reported to House. Resolution provides for consideration of H.R. 256 under a closed rule and provides for consideration of H.R. 1187 under a structured rule. The resolution provides for one hour of debate for each bill and for one motion to recommit for each bill. The resolution provides that H. Res. 467 is adopted.", "type": "Floor"}, {"actionCode": "H12410", "actionDate": "2021-06-08", "calendarNumber": {"calendar": "U00039"}, "sourceSystem": {"code": 2, "name": "House floor actions"}, "text": "Placed on the Union Calendar, Calendar No. 39.", "type": "Calendars"}, {"actionCode": "H12200", "actionDate": "2021-06-08", "committees": [{"name": "Foreign Affairs Committee", "systemCode": "hsfa00", "url": "https://api.congress.gov/v3/committee/house/hsfa00?format=json"}], "sourceSystem": {"code": 2, "name": "House floor actions"}, "text": "Reported by the Committee on Foreign Affairs. H. Rept. 117-56.", "type": "Committee"}, {"actionCode": "5000", "actionDate": "2021-06-08", "committees": [{"name": "Foreign Affairs Committee", "systemCode": "hsfa00", "url": "https://api.congress.gov/v3/committee/house/hsfa00?format=json"}], "sourceSystem": {"code": 9, "name": "Library of Congress"}, "text": "Reported by the Committee on Foreign Affairs. H. Rept. 117-56.", "type": "Committee"}, {"actionCode": "H19000", "actionDate": "2021-03-25", "committees": [{"name": "Foreign Affairs Committee", "systemCode": "hsfa00", "url": "https://api.congress.gov/v3/committee/house/hsfa00?format=json"}], "sourceSystem": {"code": 1, "name": "House committee actions"}, "text": "Ordered to be Reported by the Yeas and Nays: 28 - 19.", "type": "Committee"}, {"actionCode": "H15000-B", "actionDate": "2021-03-25", "committees": [{"name": "Foreign Affairs Committee", "systemCode": "hsfa00", "url": "https://api.congress.gov/v3/committee/house/hsfa00?format=json"}], "sourceSystem": {"code": 1, "name": "House committee actions"}, "text": "Committee Consideration and Mark-up Session Held.", "type": "Committee"}, {"actionCode": "H11100", "actionDate": "2021-01-11", "committees": [{"name": "Foreign Affairs Committee", "systemCode": "hsfa00", "url": "https://api.congress.gov/v3/committee/house/hsfa00?format=json"}], "sourceSystem": {"code": 2, "name": "House floor actions"}, "text": "Referred to the House Committee on Foreign Affairs.", "type": "IntroReferral"}], "pagination": {"count": 22, "next": "https://api.congress.gov/v3/bill/117/hr/256/actions?offset=20&limit=20&format=json"}, "request": {"billNumber": "256", "billType": "hr", "billUrl": "https://api.congress.gov/v3/bill/117/hr/256?format=json", "congress": "117", "contentType": "application/json", "format": "json"}}, 200]