[{"actions": [{"actionCode": "E40000", "actionDate": "2021-08-06", "sourceSystem": {"code": 9, "name": "Library of Congress"}, "text": "Became Public Law No: 117-34.", "type": "President"}, {"actionCode": "36000", "actionDate": "2021-08-06", "sourceSystem": {"code": 9, "name": "Library of Congress"}, "text": "Became Public Law No: 117-34.", "type": "BecameLaw"}, {"actionCode": "E30000", "actionDate": "2021-08-06", "sourceSystem": {"code": 9, "name": "Library of Congress"}, "text": "Signed by President.", "type": "President"}, {"actionCode": "36000", "actionDate": "2021-08-06", "sourceSystem": {"code": 9, "name": "Library of Congress"}, "text": "Signed by President.", "type": "BecameLaw"}, {"actionCode": "E20000", "actionDate": "2021-08-04", "sourceSystem": {"code": 2, "name": "House floor actions"}, "text": "Presented to President.", "type": "Floor"}, {"actionCode": "28000", "actionDate": "2021-08-04", "sourceSystem": {"code": 9, "name": "Library of Congress"}, "text": "Presented to President.", "type": "President"}, {"actionDate": "2021-07-28", "sourceSystem": {"name": "Senate"}, "text": "Message on Senate action sent to the House.", "type": "Floor"}, {"actionDate": "2021-07-27", "sourceSystem": {"name": "Senate"}, "text": "Passed Senate without amendment by Unanimous Consent. (consideration: CR S5110; text: CR S5110)", "type": "Floor"}, {"actionCode": "17000", "actionDate": "2021-07-27", "sourceSystem": {"code": 9, "name": "Library of Congress"}, "text": "Passed/agreed to in Senate: Passed Senate without amendment by Unanimous Consent.(consideration: CR S5110; text: CR S5110)", "type": "Floor"}, {"actionDate": "2021-04-14", "calendarNumber": {"calendar": "Senate Calendar of Business", "number": "0037"}, "sourceSystem": {"name": "Senate"}, "text": "Placed on Senate Legislative Calendar under General Orders. Calendar No. 37.", "type": "Calendars"}, {"actionDate": "2021-04-14", "committees": [{"name": "Homeland Security and Governmental Affairs Committee", "systemCode": "ssga00", "url": "https://api.congress.gov/v3/committee/senate/ssga00?format=json"}], "sourceSystem": {"name": "Senate"}, "text": "Committee on Homeland Security and Governmental Affairs. Reported by Senator Peters without amendment. Without written report.", "type": "Committee"}, {"actionCode": "14000", "actionDate": "2021-04-14", "committees": [{"name": "Homeland Security and Governmental Affairs Committee", "systemCode": "ssga00", "url": "https://api.congress.gov/v3/committee/senate/ssga00?format=json"}], "sourceSystem": {"code": 9, "name": "Library of Congress"}, "text": "Committee on Homeland Security and Governmental Affairs. Reported by Senator Peters without amendment. Without written report.", "type": "Committee"}, {"actionDate": "2021-03-17", "committees": [{"name": "Homeland Security and Governmental Affairs Committee", "systemCode": "ssga00", "url": "https://api.congress.gov/v3/committee/senate/ssga00?format=json"}], "sourceSystem": {"name": "Senate"}, "text": "Committee on Homeland Security and Governmental Affairs. Ordered to be reported without amendment favorably.", "type": "Committee"}, {"actionDate": "2021-02-24", "committees": [{"name": "Homeland Security and Governmental Affairs Committee", "systemCode": "ssga00", "url": "https://api.congress.gov/v3/committee/senate/ssga00?format=json"}], "sourceSystem": {"name": "Senate"}, "text": "Received in the Senate and Read twice and referred to the Committee on Homeland Security and Governmental Affairs.", "type": "IntroReferral"}, {"actionCode": "H38310", "actionDate": "2021-02-23", "actionTime": "16:23:23", "sourceSystem": {"code": 2, "name": "House floor actions"}, "text": "Motion to reconsider laid on the table Agreed to without objection.", "type": "Floor"}, {"actionCode": "H37300", "actionDate": "2021-02-23", "actionTime": "16:23:21", "sourceSystem": {"code": 2, "name": "House floor actions"}, "text": "On motion to suspend the rules and pass the bill Agreed to by voice vote. (text: CR H552)", "type": "Floor"}, {"actionCode": "8000", "actionDate": "2021-02-23", "actionTime": "16:23:21", "sourceSystem": {"code": 9, "name": "Library of Congress"}, "text": "Passed/agreed to in House: On motion to suspend the rules and pass the bill Agreed to by voice vote.(text: CR H552)", "type": "Floor"}, {"actionCode": "H8D000", "actionDate": "2021-02-23", "actionTime": "16:01:18", "sourceSystem": {"code": 2, "name": "House floor actions"}, "text": "DEBATE - The House proceeded with forty minutes of debate on H.R. 264.", "type": "Floor"}, {"actionCode": "H30000", "actionDate": "2021-02-23", "actionTime": "16:01:16", "sourceSystem": {"code": 2, "name": "House floor actions"}, "text": "Considered under suspension of the rules. (consideration: CR H552-554)", "type": "Floor"}, {"actionCode": "H30300", "actionDate": "2021-02-23", "actionTime": "16:01:07", "sourceSystem": {"code": 2, "name": "House floor actions"}, "text": "Mr. Mfume moved to suspend the rules and pass the bill.", "type": "Floor"}], "pagination": {"count": 25, "next": "https://api.congress.gov/v3/bill/117/hr/264/actions?offset=20&limit=20&format=json"}, "request": {"billNumber": "264", "billType": "hr", "billUrl": "https://api.congress.gov/v3/bill/117/hr/264?format=json", "congress": "117", "contentType": "application/json", "format": "json"}}, 200]