[{"actions": [{"actionCode": "E40000", "actionDate": "2022-12-20", "sourceSystem": {"code": 9, "name": "Library of Congress"}, "text": "Became Public Law No: 117-243.", "type": "President"}, {"actionCode": "36000", "actionDate": "2022-12-20", "sourceSystem": {"code": 9, "name": "Library of Congress"}, "text": "Became Public Law No: 117-243.", "type": "BecameLaw"}, {"actionCode": "E30000", "actionDate": "2022-12-20", "sourceSystem": {"code": 9, "name": "Library of Congress"}, "text": "Signed by President.", "type": "President"}, {"actionCode": "36000", "actionDate": "2022-12-20", "sourceSystem": {"code": 9, "name": "Library of Congress"}, "text": "Signed by President.", "type": "BecameLaw"}, {"actionCode": "E20000", "actionDate": "2022-12-16", "sourceSystem": {"code": 2, "name": "House floor actions"}, "text": "Presented to President.", "type": "Floor"}, {"actionCode": "28000", "actionDate": "2022-12-16", "sourceSystem": {"code": 9, "name": "Library of Congress"}, "text": "Presented to President.", "type": "President"}, {"actionDate": "2022-12-07", "sourceSystem": {"name": "Senate"}, "text": "Message on Senate action sent to the House.", "type": "Floor"}, {"actionDate": "2022-12-06", "sourceSystem": {"name": "Senate"}, "text": "Passed Senate without amendment by Voice Vote. (consideration: CR S7005-7006)", "type": "Floor"}, {"actionCode": "17000", "actionDate": "2022-12-06", "sourceSystem": {"code": 9, "name": "Library of Congress"}, "text": "Passed/agreed to in Senate: Passed Senate without amendment by Voice Vote.", "type": "Floor"}, {"actionDate": "2022-08-01", "sourceSystem": {"name": "Senate"}, "text": "Received in the Senate, read twice.", "type": "IntroReferral"}, {"actionCode": "H38310", "actionDate": "2022-07-29", "actionTime": "19:53:10", "sourceSystem": {"code": 2, "name": "House floor actions"}, "text": "Motion to reconsider laid on the table Agreed to without objection.", "type": "Floor"}, {"actionCode": "H37100", "actionDate": "2022-07-29", "actionTime": "19:53:07", "recordedVotes": [{"chamber": "House", "congress": 117, "date": "2022-07-29T23:53:07Z", "rollNumber": 415, "sessionNumber": 2, "url": "https://clerk.house.gov/evs/2022/roll415.xml"}], "sourceSystem": {"code": 2, "name": "House floor actions"}, "text": "On passage Passed by the Yeas and Nays: 278 - 134 (Roll no. 415). (text: 7/28/2022 CR H7388)", "type": "Floor"}, {"actionCode": "8000", "actionDate": "2022-07-29", "actionTime": "19:53:07", "recordedVotes": [{"chamber": "House", "congress": 117, "date": "2022-07-29T23:53:07Z", "rollNumber": 415, "sessionNumber": 2, "url": "https://clerk.house.gov/evs/2022/roll415.xml"}], "sourceSystem": {"code": 9, "name": "Library of Congress"}, "text": "Passed/agreed to in House: On passage Passed by the Yeas and Nays: 278 - 134 (Roll no. 415).", "type": "Floor"}, {"actionCode": "H30000", "actionDate": "2022-07-29", "actionTime": "19:36:59", "sourceSystem": {"code": 2, "name": "House floor actions"}, "text": "Considered as unfinished business. (consideration: CR H7531-7532)", "type": "Floor"}, {"actionCode": "H8D000", "actionDate": "2022-07-28", "actionTime": "16:11:51", "sourceSystem": {"code": 2, "name": "House floor actions"}, "text": "POSTPONED PROCEEDINGS - At the conclusion of debate on H.R. 263, the Chair put the question on passage of the bill and by voice vote, announced the ayes had prevailed. Mr. Westerman demanded the yeas and nays and the Chair postponed further proceedings until a time to be announced.", "type": "Floor"}, {"actionCode": "H8D000", "actionDate": "2022-07-28", "actionTime": "15:43:50", "sourceSystem": {"code": 2, "name": "House floor actions"}, "text": "DEBATE - The House resumed with debate on H.R. 263.", "type": "Floor"}, {"actionCode": "H8D000", "actionDate": "2022-07-28", "actionTime": "15:18:34", "sourceSystem": {"code": 2, "name": "House floor actions"}, "text": "DEBATE - The House proceeded with one hour of debate on H.R. 263.", "type": "Floor"}, {"actionCode": "H8D000", "actionDate": "2022-07-28", "actionTime": "15:17:39", "sourceSystem": {"code": 2, "name": "House floor actions"}, "text": "Rule provides for consideration of H.R. 263 and H.R. 4040. Resolution provides for one hour of general debate and one motion to recommit on each bill. H. Res. 517 is considered adopted.", "type": "Floor"}, {"actionCode": "H30000", "actionDate": "2022-07-28", "actionTime": "15:17:34", "sourceSystem": {"code": 2, "name": "House floor actions"}, "text": "Considered under the provisions of rule H. Res. 1256. (consideration: CR H7388-7395)", "type": "Floor"}, {"actionCode": "H1L210", "actionDate": "2022-07-26", "actionTime": "15:43:12", "sourceSystem": {"code": 2, "name": "House floor actions"}, "text": "Rules Committee Resolution H. Res. 1256 Reported to House. Rule provides for consideration of H.R. 263 and H.R. 4040. Resolution provides for one hour of general debate and one motion to recommit on each bill. H. Res. 517 is considered adopted.", "type": "Floor"}], "pagination": {"count": 31, "next": "https://api.congress.gov/v3/bill/117/hr/263/actions?offset=20&limit=20&format=json"}, "request": {"billNumber": "263", "billType": "hr", "billUrl": "https://api.congress.gov/v3/bill/117/hr/263?format=json", "congress": "117", "contentType": "application/json", "format": "json"}}, 200]