[{"actions": [{"actionCode": "E40000", "actionDate": "2022-12-21", "sourceSystem": {"code": 9, "name": "Library of Congress"}, "text": "Became Public Law No: 117-256.", "type": "President"}, {"actionCode": "36000", "actionDate": "2022-12-21", "sourceSystem": {"code": 9, "name": "Library of Congress"}, "text": "Became Public Law No: 117-256.", "type": "BecameLaw"}, {"actionCode": "E30000", "actionDate": "2022-12-21", "sourceSystem": {"code": 9, "name": "Library of Congress"}, "text": "Signed by President.", "type": "President"}, {"actionCode": "36000", "actionDate": "2022-12-21", "sourceSystem": {"code": 9, "name": "Library of Congress"}, "text": "Signed by President.", "type": "BecameLaw"}, {"actionCode": "E20000", "actionDate": "2022-12-16", "sourceSystem": {"code": 2, "name": "House floor actions"}, "text": "Presented to President.", "type": "Floor"}, {"actionCode": "28000", "actionDate": "2022-12-16", "sourceSystem": {"code": 9, "name": "Library of Congress"}, "text": "Presented to President.", "type": "President"}, {"actionDate": "2022-12-09", "sourceSystem": {"name": "Senate"}, "text": "Message on Senate action sent to the House.", "type": "Floor"}, {"actionDate": "2022-12-08", "sourceSystem": {"name": "Senate"}, "text": "Passed Senate without amendment by Unanimous Consent. (consideration: CR S7083)", "type": "Floor"}, {"actionCode": "17000", "actionDate": "2022-12-08", "sourceSystem": {"code": 9, "name": "Library of Congress"}, "text": "Passed/agreed to in Senate: Passed Senate without amendment by Unanimous Consent.(consideration: CR S7083)", "type": "Floor"}, {"actionDate": "2022-12-08", "committees": [{"name": "Banking, Housing, and Urban Affairs Committee", "systemCode": "ssbk00", "url": "https://api.congress.gov/v3/committee/senate/ssbk00?format=json"}], "sourceSystem": {"name": "Senate"}, "text": "Senate Committee on Banking, Housing, and Urban Affairs discharged by Unanimous Consent.", "type": "Discharge"}, {"actionCode": "14500", "actionDate": "2022-12-08", "committees": [{"name": "Banking, Housing, and Urban Affairs Committee", "systemCode": "ssbk00", "url": "https://api.congress.gov/v3/committee/senate/ssbk00?format=json"}], "sourceSystem": {"code": 9, "name": "Library of Congress"}, "text": "Senate Committee on Banking, Housing, and Urban Affairs discharged by Unanimous Consent.", "type": "Committee"}, {"actionDate": "2022-07-27", "committees": [{"name": "Banking, Housing, and Urban Affairs Committee", "systemCode": "ssbk00", "url": "https://api.congress.gov/v3/committee/senate/ssbk00?format=json"}], "sourceSystem": {"name": "Senate"}, "text": "Received in the Senate and Read twice and referred to the Committee on Banking, Housing, and Urban Affairs.", "type": "IntroReferral"}, {"actionCode": "H38310", "actionDate": "2022-07-26", "actionTime": "17:56:08", "sourceSystem": {"code": 2, "name": "House floor actions"}, "text": "Motion to reconsider laid on the table Agreed to without objection.", "type": "Floor"}, {"actionCode": "H37300", "actionDate": "2022-07-26", "actionTime": "17:56:02", "sourceSystem": {"code": 2, "name": "House floor actions"}, "text": "On motion to suspend the rules and pass the bill, as amended Agreed to by voice vote. (text: CR H7129)", "type": "Floor"}, {"actionCode": "8000", "actionDate": "2022-07-26", "actionTime": "17:56:02", "sourceSystem": {"code": 9, "name": "Library of Congress"}, "text": "Passed/agreed to in House: On motion to suspend the rules and pass the bill, as amended Agreed to by voice vote.(text: CR H7129)", "type": "Floor"}, {"actionCode": "H8D000", "actionDate": "2022-07-26", "actionTime": "17:41:57", "sourceSystem": {"code": 2, "name": "House floor actions"}, "text": "DEBATE - The House proceeded with forty minutes of debate on H.R. 310.", "type": "Floor"}, {"actionCode": "H30000", "actionDate": "2022-07-26", "actionTime": "17:41:55", "sourceSystem": {"code": 2, "name": "House floor actions"}, "text": "Considered under suspension of the rules. (consideration: CR H7129-7131)", "type": "Floor"}, {"actionCode": "H30300", "actionDate": "2022-07-26", "actionTime": "17:41:13", "sourceSystem": {"code": 2, "name": "House floor actions"}, "text": "Ms. Waters moved to suspend the rules and pass the bill, as amended.", "type": "Floor"}, {"actionCode": "H11100", "actionDate": "2021-01-13", "committees": [{"name": "Financial Services Committee", "systemCode": "hsba00", "url": "https://api.congress.gov/v3/committee/house/hsba00?format=json"}], "sourceSystem": {"code": 2, "name": "House floor actions"}, "text": "Referred to the House Committee on Financial Services.", "type": "IntroReferral"}, {"actionCode": "Intro-H", "actionDate": "2021-01-13", "sourceSystem": {"code": 9, "name": "Library of Congress"}, "text": "Introduced in House", "type": "IntroReferral"}], "pagination": {"count": 21, "next": "https://api.congress.gov/v3/bill/117/hr/310/actions?offset=20&limit=20&format=json"}, "request": {"billNumber": "310", "billType": "hr", "billUrl": "https://api.congress.gov/v3/bill/117/hr/310?format=json", "congress": "117", "contentType": "application/json", "format": "json"}}, 200]