[{"actions": [{"actionDate": "2022-05-26", "sourceSystem": {"name": "Senate"}, "text": "Motion by Senator Schumer to reconsider the vote by which cloture was not invoked on the motion to proceed to H.R. 350 (Record Vote No. 210) entered in Senate.", "type": "Floor"}, {"actionDate": "2022-05-26", "recordedVotes": [{"chamber": "Senate", "congress": 117, "date": "2022-05-26T16:26:53Z", "rollNumber": 210, "sessionNumber": 2, "url": "https://www.senate.gov/legislative/LIS/roll_call_votes/vote1172/vote_117_2_00210.xml"}], "sourceSystem": {"name": "Senate"}, "text": "Cloture on the motion to proceed not invoked in Senate by Yea-Nay Vote. 47 - 47. Record Vote Number: 210. (CR S2721)", "type": "Floor"}, {"actionDate": "2022-05-26", "sourceSystem": {"name": "Senate"}, "text": "Motion to proceed to measure considered in Senate. (CR S2714)", "type": "Floor"}, {"actionDate": "2022-05-24", "sourceSystem": {"name": "Senate"}, "text": "Cloture motion on the motion to proceed to the measure presented in Senate. (CR S2647)", "type": "Floor"}, {"actionDate": "2022-05-24", "sourceSystem": {"name": "Senate"}, "text": "Motion to proceed to consideration of measure made in Senate. (CR S2646-2647)", "type": "Floor"}, {"actionDate": "2022-05-19", "calendarNumber": {"calendar": "Senate Calendar of Business", "number": "0371"}, "sourceSystem": {"name": "Senate"}, "text": "Read the second time. Placed on Senate Legislative Calendar under General Orders. Calendar No. 371.", "type": "Calendars"}, {"actionDate": "2022-05-19", "calendarNumber": {"calendar": "Senate Calendar of Business"}, "sourceSystem": {"name": "Senate"}, "text": "Received in the Senate. Read the first time. Placed on Senate Legislative Calendar under Read the First Time. (Legislative Day 5/17/2022).", "type": "Calendars"}, {"actionCode": "H38310", "actionDate": "2022-05-18", "actionTime": "21:51:08", "sourceSystem": {"code": 2, "name": "House floor actions"}, "text": "Motion to reconsider laid on the table Agreed to without objection.", "type": "Floor"}, {"actionCode": "H37100", "actionDate": "2022-05-18", "actionTime": "21:51:06", "recordedVotes": [{"chamber": "House", "congress": 117, "date": "2022-05-19T01:51:06Z", "rollNumber": 221, "sessionNumber": 2, "url": "https://clerk.house.gov/evs/2022/roll221.xml"}], "sourceSystem": {"code": 2, "name": "House floor actions"}, "text": "On passage Passed by the Yeas and Nays: 222 - 203 (Roll no. 221). (text: CR H5143-5145)", "type": "Floor"}, {"actionCode": "8000", "actionDate": "2022-05-18", "actionTime": "21:51:06", "recordedVotes": [{"chamber": "House", "congress": 117, "date": "2022-05-19T01:51:06Z", "rollNumber": 221, "sessionNumber": 2, "url": "https://clerk.house.gov/evs/2022/roll221.xml"}], "sourceSystem": {"code": 9, "name": "Library of Congress"}, "text": "Passed/agreed to in House: On passage Passed by the Yeas and Nays: 222 - 203 (Roll no. 221).", "type": "Floor"}, {"actionCode": "H30000", "actionDate": "2022-05-18", "actionTime": "21:39:36", "sourceSystem": {"code": 2, "name": "House floor actions"}, "text": "Considered as unfinished business. (consideration: CR H5166)", "type": "Floor"}, {"actionCode": "H8D000", "actionDate": "2022-05-18", "actionTime": "19:07:58", "sourceSystem": {"code": 2, "name": "House floor actions"}, "text": "POSTPONED PROCEEDINGS - At the conclusion of debate, the Chair put the question on passage of the bill and by voice vote, announced that the ayes had prevailed. Mr. Bishop (NC) demanded the yeas and nays and the Chair postponed further proceedings until a time to be announced.", "type": "Floor"}, {"actionCode": "H35000", "actionDate": "2022-05-18", "actionTime": "19:07:29", "sourceSystem": {"code": 2, "name": "House floor actions"}, "text": "The previous question was ordered pursuant to the rule.", "type": "Floor"}, {"actionCode": "H8D000", "actionDate": "2022-05-18", "actionTime": "18:07:53", "sourceSystem": {"code": 2, "name": "House floor actions"}, "text": "DEBATE - The House proceeded with one hour of debate on H.R. 350.", "type": "Floor"}, {"actionCode": "H8D000", "actionDate": "2022-05-18", "actionTime": "18:07:03", "sourceSystem": {"code": 2, "name": "House floor actions"}, "text": "Rule provides for consideration of H.R. 350, H.R. 7688 and H.R. 7790. Provides for one of hour of general debate and one motion to recommit for each bill. Resolution also provides for en bloc suspension authority.", "type": "Floor"}, {"actionCode": "H30000", "actionDate": "2022-05-18", "actionTime": "18:06:58", "sourceSystem": {"code": 2, "name": "House floor actions"}, "text": "Considered under the provisions of rule H. Res. 1124. (consideration: CR H5143-5152)", "type": "Floor"}, {"actionCode": "H1L210", "actionDate": "2022-05-17", "actionTime": "14:57:07", "sourceSystem": {"code": 2, "name": "House floor actions"}, "text": "Rules Committee Resolution H. Res. 1124 Reported to House. Rule provides for consideration of H.R. 350, H.R. 7688 and H.R. 7790. Provides for one of hour of general debate and one motion to recommit for each bill. Resolution also provides for en bloc suspension authority.", "type": "Floor"}, {"actionCode": "H12410", "actionDate": "2022-04-21", "calendarNumber": {"calendar": "U00214"}, "sourceSystem": {"code": 2, "name": "House floor actions"}, "text": "Placed on the Union Calendar, Calendar No. 214.", "type": "Calendars"}, {"actionCode": "H12300", "actionDate": "2022-04-21", "committees": [{"name": "Armed Services Committee", "systemCode": "hsas00", "url": "https://api.congress.gov/v3/committee/house/hsas00?format=json"}], "sourceSystem": {"code": 2, "name": "House floor actions"}, "text": "Committee on Armed Services discharged.", "type": "Discharge"}, {"actionCode": "5500", "actionDate": "2022-04-21", "committees": [{"name": "Armed Services Committee", "systemCode": "hsas00", "url": "https://api.congress.gov/v3/committee/house/hsas00?format=json"}], "sourceSystem": {"code": 9, "name": "Library of Congress"}, "text": "Committee on Armed Services discharged.", "type": "Committee"}], "pagination": {"count": 36, "next": "https://api.congress.gov/v3/bill/117/hr/350/actions?offset=20&limit=20&format=json"}, "request": {"billNumber": "350", "billType": "hr", "billUrl": "https://api.congress.gov/v3/bill/117/hr/350?format=json", "congress": "117", "contentType": "application/json", "format": "json"}}, 200]