[{"actions": [{"actionCode": "E40000", "actionDate": "2021-12-21", "sourceSystem": {"code": 9, "name": "Library of Congress"}, "text": "Became Public Law No: 117-74.", "type": "President"}, {"actionCode": "36000", "actionDate": "2021-12-21", "sourceSystem": {"code": 9, "name": "Library of Congress"}, "text": "Became Public Law No: 117-74.", "type": "BecameLaw"}, {"actionCode": "E30000", "actionDate": "2021-12-21", "sourceSystem": {"code": 9, "name": "Library of Congress"}, "text": "Signed by President.", "type": "President"}, {"actionCode": "36000", "actionDate": "2021-12-21", "sourceSystem": {"code": 9, "name": "Library of Congress"}, "text": "Signed by President.", "type": "BecameLaw"}, {"actionCode": "E20000", "actionDate": "2021-12-15", "sourceSystem": {"code": 2, "name": "House floor actions"}, "text": "Presented to President.", "type": "Floor"}, {"actionCode": "28000", "actionDate": "2021-12-15", "sourceSystem": {"code": 9, "name": "Library of Congress"}, "text": "Presented to President.", "type": "President"}, {"actionDate": "2021-12-10", "sourceSystem": {"name": "Senate"}, "text": "Message on Senate action sent to the House.", "type": "Floor"}, {"actionDate": "2021-12-09", "sourceSystem": {"name": "Senate"}, "text": "Passed Senate without amendment by Unanimous Consent. (consideration: CR S9085)", "type": "Floor"}, {"actionCode": "17000", "actionDate": "2021-12-09", "sourceSystem": {"code": 9, "name": "Library of Congress"}, "text": "Passed/agreed to in Senate: Passed Senate without amendment by Unanimous Consent.(consideration: CR S9085)", "type": "Floor"}, {"actionDate": "2021-12-01", "calendarNumber": {"calendar": "Senate Calendar of Business", "number": "0171"}, "sourceSystem": {"name": "Senate"}, "text": "Placed on Senate Legislative Calendar under General Orders. Calendar No. 171.", "type": "Calendars"}, {"actionDate": "2021-12-01", "committees": [{"name": "Environment and Public Works Committee", "systemCode": "ssev00", "url": "https://api.congress.gov/v3/committee/senate/ssev00?format=json"}], "sourceSystem": {"name": "Senate"}, "text": "Committee on Environment and Public Works. Reported by Senator Carper without amendment. Without written report.", "type": "Committee"}, {"actionCode": "14000", "actionDate": "2021-12-01", "committees": [{"name": "Environment and Public Works Committee", "systemCode": "ssev00", "url": "https://api.congress.gov/v3/committee/senate/ssev00?format=json"}], "sourceSystem": {"code": 9, "name": "Library of Congress"}, "text": "Committee on Environment and Public Works. Reported by Senator Carper without amendment. Without written report.", "type": "Committee"}, {"actionDate": "2021-12-01", "committees": [{"name": "Environment and Public Works Committee", "systemCode": "ssev00", "url": "https://api.congress.gov/v3/committee/senate/ssev00?format=json"}], "sourceSystem": {"name": "Senate"}, "text": "Committee on Environment and Public Works. Ordered to be reported without amendment favorably.", "type": "Committee"}, {"actionDate": "2021-11-15", "committees": [{"name": "Environment and Public Works Committee", "systemCode": "ssev00", "url": "https://api.congress.gov/v3/committee/senate/ssev00?format=json"}], "sourceSystem": {"name": "Senate"}, "text": "Received in the Senate and Read twice and referred to the Committee on Environment and Public Works.", "type": "IntroReferral"}, {"actionCode": "H38310", "actionDate": "2021-11-04", "actionTime": "17:07:52", "sourceSystem": {"code": 2, "name": "House floor actions"}, "text": "Motion to reconsider laid on the table Agreed to without objection.", "type": "Floor"}, {"actionCode": "H37300", "actionDate": "2021-11-04", "actionTime": "17:07:51", "recordedVotes": [{"chamber": "House", "congress": 117, "date": "2021-11-04T21:07:51Z", "rollNumber": 364, "sessionNumber": 1, "url": "https://clerk.house.gov/evs/2021/roll364.xml"}], "sourceSystem": {"code": 2, "name": "House floor actions"}, "text": "On motion to suspend the rules and pass the bill Agreed to by the Yeas and Nays: (2/3 required): 422 - 2, 1 Present (Roll no. 364). (text: 11/3/2021 CR H6145)", "type": "Floor"}, {"actionCode": "8000", "actionDate": "2021-11-04", "actionTime": "17:07:51", "recordedVotes": [{"chamber": "House", "congress": 117, "date": "2021-11-04T21:07:51Z", "rollNumber": 364, "sessionNumber": 1, "url": "https://clerk.house.gov/evs/2021/roll364.xml"}], "sourceSystem": {"code": 9, "name": "Library of Congress"}, "text": "Passed/agreed to in House: On motion to suspend the rules and pass the bill Agreed to by the Yeas and Nays: (2/3 required): 422 - 2, 1 Present (Roll no. 364).(text: 11/3/2021 CR H6145)", "type": "Floor"}, {"actionCode": "H30000", "actionDate": "2021-11-04", "actionTime": "16:42:48", "sourceSystem": {"code": 2, "name": "House floor actions"}, "text": "Considered as unfinished business. (consideration: CR H6200-6201)", "type": "Floor"}, {"actionCode": "H37220", "actionDate": "2021-11-03", "actionTime": "13:55:25", "sourceSystem": {"code": 2, "name": "House floor actions"}, "text": "At the conclusion of debate, the Yeas and Nays were demanded and ordered. Pursuant to the provisions of clause 8, rule XX, the Chair announced that further proceedings on the motion would be postponed.", "type": "Floor"}, {"actionCode": "H8D000", "actionDate": "2021-11-03", "actionTime": "13:50:20", "sourceSystem": {"code": 2, "name": "House floor actions"}, "text": "DEBATE - The House proceeded with forty minutes of debate on H.R. 390.", "type": "Floor"}], "pagination": {"count": 32, "next": "https://api.congress.gov/v3/bill/117/hr/390/actions?offset=20&limit=20&format=json"}, "request": {"billNumber": "390", "billType": "hr", "billUrl": "https://api.congress.gov/v3/bill/117/hr/390?format=json", "congress": "117", "contentType": "application/json", "format": "json"}}, 200]