[{"actions": [{"actionDate": "2021-02-25", "committees": [{"name": "Health, Education, Labor, and Pensions Committee", "systemCode": "sshr00", "url": "https://api.congress.gov/v3/committee/senate/sshr00?format=json"}], "sourceSystem": {"name": "Senate"}, "text": "Received in the Senate and Read twice and referred to the Committee on Health, Education, Labor, and Pensions.", "type": "IntroReferral"}, {"actionCode": "H8D000", "actionDate": "2021-02-24", "actionTime": "18:19:55", "sourceSystem": {"code": 2, "name": "House floor actions"}, "text": "Mr. Scott (VA) asked unanimous consent that the Clerk be directed to make a change in the engrossment of H.R. 447 to strike lines 1 through 6 on page 21 and insert revised language. Agreed to without objection.", "type": "Floor"}, {"actionCode": "H38310", "actionDate": "2021-02-05", "actionTime": "17:50:07", "sourceSystem": {"code": 2, "name": "House floor actions"}, "text": "Motion to reconsider laid on the table Agreed to without objection.", "type": "Floor"}, {"actionCode": "H37100", "actionDate": "2021-02-05", "actionTime": "17:50:06", "recordedVotes": [{"chamber": "House", "congress": 117, "date": "2021-02-05T22:50:06Z", "rollNumber": 31, "sessionNumber": 1, "url": "https://clerk.house.gov/evs/2021/roll031.xml"}], "sourceSystem": {"code": 2, "name": "House floor actions"}, "text": "On passage Passed by the Yeas and Nays: 247 - 173 (Roll no. 31).", "type": "Floor"}, {"actionCode": "8000", "actionDate": "2021-02-05", "actionTime": "17:50:06", "recordedVotes": [{"chamber": "House", "congress": 117, "date": "2021-02-05T22:50:06Z", "rollNumber": 31, "sessionNumber": 1, "url": "https://clerk.house.gov/evs/2021/roll031.xml"}], "sourceSystem": {"code": 9, "name": "Library of Congress"}, "text": "Passed/agreed to in House: On passage Passed by the Yeas and Nays: 247 - 173 (Roll no. 31).", "type": "Floor"}, {"actionCode": "H35000", "actionDate": "2021-02-05", "actionTime": "17:10:23", "sourceSystem": {"code": 2, "name": "House floor actions"}, "text": "The previous question was ordered pursuant to the rule.", "type": "Floor"}, {"actionCode": "H8D000", "actionDate": "2021-02-05", "actionTime": "17:10:16", "sourceSystem": {"code": 2, "name": "House floor actions"}, "text": "Motion to reconsider laid on the table. Agreed to without objection.", "type": "Floor"}, {"actionCode": "H8D000", "actionDate": "2021-02-05", "actionTime": "16:13:48", "sourceSystem": {"code": 2, "name": "House floor actions"}, "text": "Motion to reconsider laid on the table. Agreed to without objection.", "type": "Floor"}, {"actionCode": "H8D000", "actionDate": "2021-02-05", "actionTime": "15:23:42", "sourceSystem": {"code": 2, "name": "House floor actions"}, "text": "Motion to reconsider laid on the table. Agreed to without objection.", "type": "Floor"}, {"actionCode": "H30000", "actionDate": "2021-02-05", "actionTime": "14:24:52", "sourceSystem": {"code": 2, "name": "House floor actions"}, "text": "Considered as unfinished business. (consideration: CR H455-458)", "type": "Floor"}, {"actionCode": "H8D000", "actionDate": "2021-02-05", "actionTime": "11:44:15", "sourceSystem": {"code": 2, "name": "House floor actions"}, "text": "POSTPONED PROCEEDINGS - Pursuant to clause 1(c) of Rules 19, the Chair postponed further consideration of H.R. 447.", "type": "Floor"}, {"actionCode": "H8D000", "actionDate": "2021-02-05", "actionTime": "11:44:14", "sourceSystem": {"code": 2, "name": "House floor actions"}, "text": "POSTPONED PROCEEDINGS - At the conclusion of debate on the Stefanik amendment No. 22, the Chair put the question on the adoption of the amendment and by voice vote, announced that the nays had prevailed. Mrs. Stefanik demanded yeas and nays and the Chair postponed further proceedings until a time to be announced.", "type": "Floor"}, {"actionCode": "H8D000", "actionDate": "2021-02-05", "actionTime": "11:33:18", "sourceSystem": {"code": 2, "name": "House floor actions"}, "text": "DEBATE - Pursuant to the provisions of H. Res. 85, the House proceeded with 10 minutes of debate on the Stefanik amendment No. 22.", "type": "Floor"}, {"actionCode": "H8D000", "actionDate": "2021-02-05", "actionTime": "11:32:18", "sourceSystem": {"code": 2, "name": "House floor actions"}, "text": "POSTPONED PROCEEDINGS - At the conclusion of debate on the Hill amendment No. 10, the Chair put the question on the adoption of the amendment and by voice vote, announced that the noes had prevailed. Mr. Hill demanded yeas and nays and the Chair postponed further proceedings until a time to be announced.", "type": "Floor"}, {"actionCode": "H8D000", "actionDate": "2021-02-05", "actionTime": "11:22:00", "sourceSystem": {"code": 2, "name": "House floor actions"}, "text": "DEBATE - Pursuant to the provisions of H. Res. 85, the House proceeded with 10 minutes of debate on the Hill amendment No. 10.", "type": "Floor"}, {"actionCode": "H8D000", "actionDate": "2021-02-05", "actionTime": "11:21:33", "sourceSystem": {"code": 2, "name": "House floor actions"}, "text": "Motion to reconsider liad on the table. Agreed to without objection.", "type": "Floor"}, {"actionCode": "H8D000", "actionDate": "2021-02-05", "actionTime": "11:07:26", "sourceSystem": {"code": 2, "name": "House floor actions"}, "text": "DEBATE - Pursuant to the provisions of H. Res. 85, the House proceeded with 20 minutes of debate on the Levin amendment en bloc No. 3.", "type": "Floor"}, {"actionCode": "H8D000", "actionDate": "2021-02-05", "actionTime": "11:06:19", "sourceSystem": {"code": 2, "name": "House floor actions"}, "text": "Motion to reconsider liad on the table. Agreed to without objection.", "type": "Floor"}, {"actionCode": "H8D000", "actionDate": "2021-02-05", "actionTime": "10:53:25", "sourceSystem": {"code": 2, "name": "House floor actions"}, "text": "DEBATE - Pursuant to the provisions of H. Res. 85, the House proceeded with 20 minutes of debate on the Levin (MI) amendment en bloc 2.", "type": "Floor"}, {"actionCode": "H8D000", "actionDate": "2021-02-05", "actionTime": "10:52:32", "sourceSystem": {"code": 2, "name": "House floor actions"}, "text": "POSTPONED PROCEEDINGS - At the conclusion of debate on the Levin (MI) amendment en bloc No.1, the Chair put the question on the adoption of the amendment and by voice vote, announced that the ayes had prevailed. Mr. Biggs demanded yeas and nays and the Chair postponed further proceedings until a time to be announced.", "type": "Floor"}], "pagination": {"count": 29, "next": "https://api.congress.gov/v3/bill/117/hr/447/actions?offset=20&limit=20&format=json"}, "request": {"billNumber": "447", "billType": "hr", "billUrl": "https://api.congress.gov/v3/bill/117/hr/447?format=json", "congress": "117", "contentType": "application/json", "format": "json"}}, 200]