[{"actions": [{"actionCode": "E40000", "actionDate": "2022-10-10", "sourceSystem": {"code": 9, "name": "Library of Congress"}, "text": "Became Public Law No: 117-186.", "type": "President"}, {"actionCode": "36000", "actionDate": "2022-10-10", "sourceSystem": {"code": 9, "name": "Library of Congress"}, "text": "Became Public Law No: 117-186.", "type": "BecameLaw"}, {"actionCode": "E30000", "actionDate": "2022-10-10", "sourceSystem": {"code": 9, "name": "Library of Congress"}, "text": "Signed by President.", "type": "President"}, {"actionCode": "36000", "actionDate": "2022-10-10", "sourceSystem": {"code": 9, "name": "Library of Congress"}, "text": "Signed by President.", "type": "BecameLaw"}, {"actionCode": "E20000", "actionDate": "2022-10-04", "sourceSystem": {"code": 2, "name": "House floor actions"}, "text": "Presented to President.", "type": "Floor"}, {"actionCode": "28000", "actionDate": "2022-10-04", "sourceSystem": {"code": 9, "name": "Library of Congress"}, "text": "Presented to President.", "type": "President"}, {"actionDate": "2022-09-28", "sourceSystem": {"name": "Senate"}, "text": "Message on Senate action sent to the House.", "type": "Floor"}, {"actionDate": "2022-09-27", "sourceSystem": {"name": "Senate"}, "text": "Passed Senate without amendment by Unanimous Consent. (consideration: CR S5112)", "type": "Floor"}, {"actionCode": "17000", "actionDate": "2022-09-27", "sourceSystem": {"code": 9, "name": "Library of Congress"}, "text": "Passed/agreed to in Senate: Passed Senate without amendment by Unanimous Consent.", "type": "Floor"}, {"actionDate": "2021-06-16", "sourceSystem": {"name": "Senate"}, "text": "Received in the Senate, read twice.", "type": "IntroReferral"}, {"actionCode": "H38310", "actionDate": "2021-06-15", "actionTime": "13:36:08", "sourceSystem": {"code": 2, "name": "House floor actions"}, "text": "Motion to reconsider laid on the table Agreed to without objection.", "type": "Floor"}, {"actionCode": "H37300", "actionDate": "2021-06-15", "actionTime": "13:36:06", "sourceSystem": {"code": 2, "name": "House floor actions"}, "text": "On motion to suspend the rules and pass the bill Agreed to by voice vote. (text: CR H2768)", "type": "Floor"}, {"actionCode": "8000", "actionDate": "2021-06-15", "actionTime": "13:36:06", "sourceSystem": {"code": 9, "name": "Library of Congress"}, "text": "Passed/agreed to in House: On motion to suspend the rules and pass the bill Agreed to by voice vote.(text: CR H2768)", "type": "Floor"}, {"actionCode": "H8D000", "actionDate": "2021-06-15", "actionTime": "13:30:12", "sourceSystem": {"code": 2, "name": "House floor actions"}, "text": "DEBATE - The House proceeded with forty minutes of debate on H.R. 468.", "type": "Floor"}, {"actionCode": "H30000", "actionDate": "2021-06-15", "actionTime": "13:30:10", "sourceSystem": {"code": 2, "name": "House floor actions"}, "text": "Considered under suspension of the rules. (consideration: CR H2768-2769)", "type": "Floor"}, {"actionCode": "H30300", "actionDate": "2021-06-15", "actionTime": "13:29:45", "sourceSystem": {"code": 2, "name": "House floor actions"}, "text": "Ms. Norton moved to suspend the rules and pass the bill.", "type": "Floor"}, {"actionCode": "H12410", "actionDate": "2021-05-28", "calendarNumber": {"calendar": "U00023"}, "sourceSystem": {"code": 2, "name": "House floor actions"}, "text": "Placed on the Union Calendar, Calendar No. 23.", "type": "Calendars"}, {"actionCode": "H12200", "actionDate": "2021-05-28", "committees": [{"name": "Transportation and Infrastructure Committee", "systemCode": "hspw00", "url": "https://api.congress.gov/v3/committee/house/hspw00?format=json"}], "sourceSystem": {"code": 2, "name": "House floor actions"}, "text": "Reported by the Committee on Transportation and Infrastructure. H. Rept. 117-40.", "type": "Committee"}, {"actionCode": "5000", "actionDate": "2021-05-28", "committees": [{"name": "Transportation and Infrastructure Committee", "systemCode": "hspw00", "url": "https://api.congress.gov/v3/committee/house/hspw00?format=json"}], "sourceSystem": {"code": 9, "name": "Library of Congress"}, "text": "Reported by the Committee on Transportation and Infrastructure. H. Rept. 117-40.", "type": "Committee"}, {"actionCode": "H19000", "actionDate": "2021-03-24", "committees": [{"name": "Transportation and Infrastructure Committee", "systemCode": "hspw00", "url": "https://api.congress.gov/v3/committee/house/hspw00?format=json"}], "sourceSystem": {"code": 1, "name": "House committee actions"}, "text": "Ordered to be Reported by Voice Vote.", "type": "Committee"}], "pagination": {"count": 26, "next": "https://api.congress.gov/v3/bill/117/hr/468/actions?offset=20&limit=20&format=json"}, "request": {"billNumber": "468", "billType": "hr", "billUrl": "https://api.congress.gov/v3/bill/117/hr/468?format=json", "congress": "117", "contentType": "application/json", "format": "json"}}, 200]