[{"actions": [{"actionCode": "E40000", "actionDate": "2022-12-27", "sourceSystem": {"code": 9, "name": "Library of Congress"}, "text": "Became Public Law No: 117-267.", "type": "President"}, {"actionCode": "36000", "actionDate": "2022-12-27", "sourceSystem": {"code": 9, "name": "Library of Congress"}, "text": "Became Public Law No: 117-267.", "type": "BecameLaw"}, {"actionCode": "E30000", "actionDate": "2022-12-27", "sourceSystem": {"code": 9, "name": "Library of Congress"}, "text": "Signed by President.", "type": "President"}, {"actionCode": "36000", "actionDate": "2022-12-27", "sourceSystem": {"code": 9, "name": "Library of Congress"}, "text": "Signed by President.", "type": "BecameLaw"}, {"actionCode": "E20000", "actionDate": "2022-12-23", "sourceSystem": {"code": 2, "name": "House floor actions"}, "text": "Presented to President.", "type": "Floor"}, {"actionCode": "28000", "actionDate": "2022-12-23", "sourceSystem": {"code": 9, "name": "Library of Congress"}, "text": "Presented to President.", "type": "President"}, {"actionDate": "2022-12-20", "sourceSystem": {"name": "Senate"}, "text": "Message on Senate action sent to the House.", "type": "Floor"}, {"actionDate": "2022-12-19", "sourceSystem": {"name": "Senate"}, "text": "Passed Senate without amendment by Voice Vote. (consideration: CR S7288-7289)", "type": "Floor"}, {"actionCode": "17000", "actionDate": "2022-12-19", "sourceSystem": {"code": 9, "name": "Library of Congress"}, "text": "Passed/agreed to in Senate: Passed Senate without amendment by Voice Vote.", "type": "Floor"}, {"actionDate": "2021-05-13", "calendarNumber": {"calendar": "Senate Calendar of Business", "number": "0059"}, "sourceSystem": {"name": "Senate"}, "text": "Received in the Senate. Read twice. Placed on Senate Legislative Calendar under General Orders. Calendar No. 59.", "type": "Calendars"}, {"actionCode": "H37300", "actionDate": "2021-05-12", "actionTime": "17:38:11", "sourceSystem": {"code": 2, "name": "House floor actions"}, "text": "Pursuant to section 6 of H. Res. 380, and the motion offered by Mr. Hoyer, the following bills passed under suspension of the rules: H.R. 297; H.R. 433; H.R. 478; H.R. 586; H.R. 721, as amended; H.R. 768; H.R. 810; H.R. 1205; H.R. 1260, as amended; H.R. 1324; H.R. 1448, as amended; H.R. 1475, as amended; H.R. 1480, as amended; H.R. 2862, as amended; H.R. 2955; and H.R. 2981. (consideration: CR H2235-2246; text: CR H2236)", "type": "Floor"}, {"actionCode": "8000", "actionDate": "2021-05-12", "actionTime": "17:38:11", "sourceSystem": {"code": 9, "name": "Library of Congress"}, "text": "Passed/agreed to in House: Pursuant to section 6 of H. Res. 380, and the motion offered by Mr. Hoyer, the following bills passed under suspension of the rules: H.R. 297; H.R. 433; H.R. 478; H.R. 586; H.R. 721, as amended; H.R. 768; H.R. 810; H.R. 1205; H.R. 1260, as amended; H.R. 1324; H.R. 1448, as amended; H.R. 1475, as amended; H.R. 1480, as amended; H.R. 2862, as amended; H.R. 2955; and H.R. 2981.(consideration: CR H2235-2246; text: CR H2236)", "type": "Floor"}, {"actionCode": "H1B000", "actionDate": "2021-05-12", "actionTime": "17:38:10", "sourceSystem": {"code": 2, "name": "House floor actions"}, "text": "Pursuant to the provisions of H. Res. 380, proceedings on H.R. 478 are considered vacated.", "type": "Floor"}, {"actionCode": "H37220", "actionDate": "2021-05-12", "actionTime": "13:41:23", "sourceSystem": {"code": 2, "name": "House floor actions"}, "text": "At the conclusion of debate, the Yeas and Nays were demanded and ordered. Pursuant to the provisions of clause 8, rule XX, the Chair announced that further proceedings on the motion would be postponed.", "type": "Floor"}, {"actionCode": "H8D000", "actionDate": "2021-05-12", "actionTime": "13:37:05", "sourceSystem": {"code": 2, "name": "House floor actions"}, "text": "DEBATE - The House proceeded with forty minutes of debate on H.R. 478.", "type": "Floor"}, {"actionCode": "H30000", "actionDate": "2021-05-12", "actionTime": "13:37:03", "sourceSystem": {"code": 2, "name": "House floor actions"}, "text": "Considered under suspension of the rules. (consideration: CR H2220-2221)", "type": "Floor"}, {"actionCode": "H30300", "actionDate": "2021-05-12", "actionTime": "13:36:51", "sourceSystem": {"code": 2, "name": "House floor actions"}, "text": "Mr. Soto moved to suspend the rules and pass the bill.", "type": "Floor"}, {"actionCode": "H11000", "actionDate": "2021-02-18", "committees": [{"name": "Indian and Insular Affairs Subcommittee", "systemCode": "hsii24", "url": "https://api.congress.gov/v3/committee/house/hsii24?format=json"}], "sourceSystem": {"code": 1, "name": "House committee actions"}, "text": "Referred to the Subcommittee for Indigenous Peoples of the United States.", "type": "Committee"}, {"actionCode": "H11100", "actionDate": "2021-01-25", "committees": [{"name": "Natural Resources Committee", "systemCode": "hsii00", "url": "https://api.congress.gov/v3/committee/house/hsii00?format=json"}], "sourceSystem": {"code": 2, "name": "House floor actions"}, "text": "Referred to the House Committee on Natural Resources.", "type": "IntroReferral"}, {"actionCode": "Intro-H", "actionDate": "2021-01-25", "sourceSystem": {"code": 9, "name": "Library of Congress"}, "text": "Introduced in House", "type": "IntroReferral"}], "pagination": {"count": 21, "next": "https://api.congress.gov/v3/bill/117/hr/478/actions?offset=20&limit=20&format=json"}, "request": {"billNumber": "478", "billType": "hr", "billUrl": "https://api.congress.gov/v3/bill/117/hr/478?format=json", "congress": "117", "contentType": "application/json", "format": "json"}}, 200]