[{"actions": [{"actionDate": "2022-07-28", "committees": [{"name": "Health, Education, Labor, and Pensions Committee", "systemCode": "sshr00", "url": "https://api.congress.gov/v3/committee/senate/sshr00?format=json"}], "sourceSystem": {"name": "Senate"}, "text": "Received in the Senate and Read twice and referred to the Committee on Health, Education, Labor, and Pensions.", "type": "IntroReferral"}, {"actionCode": "H38800", "actionDate": "2022-07-27", "actionTime": "18:19:56", "sourceSystem": {"code": 2, "name": "House floor actions"}, "text": "The title of the measure was amended. Agreed to without objection.", "type": "Floor"}, {"actionCode": "H37300", "actionDate": "2022-07-27", "actionTime": "18:19:02", "sourceSystem": {"code": 2, "name": "House floor actions"}, "text": "Pursuant to section 5 of H. Res. 1254, and the motion offered by Mr. Kildee, the following bills passed under suspension of the rules: H.R. 623, as amended; H.R. 3952, as amended; H.R. 3962, as amended; H.R. 4551; H.R. 5313, as amended; H.R. 6933; H.R. 7132, as amended; H.R. 7361; H.R. 7569; H.R. 7624, as amended; H.R. 7733, as amended; and H.R. 7981, as amended. (consideration: CR H7197-7211, H7219-7220, H7223-7237; text: 07/26/2022 CR H7124-7125)", "type": "Floor"}, {"actionCode": "8000", "actionDate": "2022-07-27", "actionTime": "18:19:02", "sourceSystem": {"code": 9, "name": "Library of Congress"}, "text": "Passed/agreed to in House: Pursuant to section 5 of H. Res. 1254, and the motion offered by Mr. Kildee, the following bills passed under suspension of the rules: H.R. 623, as amended; H.R. 3952, as amended; H.R. 3962, as amended; H.R. 4551; H.R. 5313, as amended; H.R. 6933; H.R. 7132, as amended; H.R. 7361; H.R. 7569; H.R. 7624, as amended; H.R. 7733, as amended; and H.R. 7981, as amended.(consideration: CR H7197-7211, H7219-7220, H7223-7237; text: 07/26/2022 CR H7124-7125)", "type": "Floor"}, {"actionCode": "H1B000", "actionDate": "2022-07-27", "actionTime": "18:19:01", "sourceSystem": {"code": 2, "name": "House floor actions"}, "text": "Pursuant to the provisions of H. Res. 1254, proceedings on H.R. 623 are considered vacated.", "type": "Floor"}, {"actionCode": "H37220", "actionDate": "2022-07-26", "actionTime": "17:13:06", "sourceSystem": {"code": 2, "name": "House floor actions"}, "text": "At the conclusion of debate, the Yeas and Nays were demanded and ordered. Pursuant to the provisions of clause 8, rule XX, the Chair announced that further proceedings on the motion would be postponed.", "type": "Floor"}, {"actionCode": "H8D000", "actionDate": "2022-07-26", "actionTime": "17:02:43", "sourceSystem": {"code": 2, "name": "House floor actions"}, "text": "DEBATE - The House proceeded with forty minutes of debate on H.R. 623.", "type": "Floor"}, {"actionCode": "H30000", "actionDate": "2022-07-26", "actionTime": "17:02:42", "sourceSystem": {"code": 2, "name": "House floor actions"}, "text": "Considered under suspension of the rules. (consideration: CR H7124-7126)", "type": "Floor"}, {"actionCode": "H30300", "actionDate": "2022-07-26", "actionTime": "17:01:59", "sourceSystem": {"code": 2, "name": "House floor actions"}, "text": "Mr. Pallone moved to suspend the rules and pass the bill, as amended.", "type": "Floor"}, {"actionCode": "H12410", "actionDate": "2022-07-22", "calendarNumber": {"calendar": "U00337"}, "sourceSystem": {"code": 2, "name": "House floor actions"}, "text": "Placed on the Union Calendar, Calendar No. 337.", "type": "Calendars"}, {"actionCode": "H12300", "actionDate": "2022-07-22", "committees": [{"name": "Financial Services Committee", "systemCode": "hsba00", "url": "https://api.congress.gov/v3/committee/house/hsba00?format=json"}], "sourceSystem": {"code": 2, "name": "House floor actions"}, "text": "Committee on Financial Services discharged.", "type": "Discharge"}, {"actionCode": "5500", "actionDate": "2022-07-22", "committees": [{"name": "Financial Services Committee", "systemCode": "hsba00", "url": "https://api.congress.gov/v3/committee/house/hsba00?format=json"}], "sourceSystem": {"code": 9, "name": "Library of Congress"}, "text": "Committee on Financial Services discharged.", "type": "Committee"}, {"actionCode": "H12200", "actionDate": "2022-07-22", "committees": [{"name": "Energy and Commerce Committee", "systemCode": "hsif00", "url": "https://api.congress.gov/v3/committee/house/hsif00?format=json"}], "sourceSystem": {"code": 2, "name": "House floor actions"}, "text": "Reported (Amended) by the Committee on Energy and Commerce. H. Rept. 117-431, Part I.", "type": "Committee"}, {"actionCode": "5000", "actionDate": "2022-07-22", "committees": [{"name": "Energy and Commerce Committee", "systemCode": "hsif00", "url": "https://api.congress.gov/v3/committee/house/hsif00?format=json"}], "sourceSystem": {"code": 9, "name": "Library of Congress"}, "text": "Reported (Amended) by the Committee on Energy and Commerce. H. Rept. 117-431, Part I.", "type": "Committee"}, {"actionCode": "H19000", "actionDate": "2022-05-18", "committees": [{"name": "Energy and Commerce Committee", "systemCode": "hsif00", "url": "https://api.congress.gov/v3/committee/house/hsif00?format=json"}], "sourceSystem": {"code": 1, "name": "House committee actions"}, "text": "Ordered to be Reported (Amended) by the Yeas and Nays: 53 - 0.", "type": "Committee"}, {"actionCode": "H15000-B", "actionDate": "2022-05-18", "committees": [{"name": "Energy and Commerce Committee", "systemCode": "hsif00", "url": "https://api.congress.gov/v3/committee/house/hsif00?format=json"}], "sourceSystem": {"code": 1, "name": "House committee actions"}, "text": "Committee Consideration and Mark-up Session Held.", "type": "Committee"}, {"actionCode": "H23000", "actionDate": "2022-05-11", "committees": [{"name": "Health Subcommittee", "systemCode": "hsif14", "url": "https://api.congress.gov/v3/committee/house/hsif14?format=json"}], "sourceSystem": {"code": 1, "name": "House committee actions"}, "text": "Forwarded by Subcommittee to Full Committee (Amended) by Voice Vote .", "type": "Committee"}, {"actionCode": "H22000", "actionDate": "2022-05-11", "committees": [{"name": "Health Subcommittee", "systemCode": "hsif14", "url": "https://api.congress.gov/v3/committee/house/hsif14?format=json"}], "sourceSystem": {"code": 1, "name": "House committee actions"}, "text": "Subcommittee Consideration and Mark-up Session Held.", "type": "Committee"}, {"actionCode": "H11000", "actionDate": "2021-02-02", "committees": [{"name": "Health Subcommittee", "systemCode": "hsif14", "url": "https://api.congress.gov/v3/committee/house/hsif14?format=json"}], "sourceSystem": {"code": 1, "name": "House committee actions"}, "text": "Referred to the Subcommittee on Health.", "type": "Committee"}, {"actionCode": "H11100", "actionDate": "2021-01-28", "committees": [{"name": "Financial Services Committee", "systemCode": "hsba00", "url": "https://api.congress.gov/v3/committee/house/hsba00?format=json"}], "sourceSystem": {"code": 2, "name": "House floor actions"}, "text": "Referred to the Committee on Energy and Commerce, and in addition to the Committee on Financial Services, for a period to be subsequently determined by the Speaker, in each case for consideration of such provisions as fall within the jurisdiction of the committee concerned.", "type": "IntroReferral"}], "pagination": {"count": 24, "next": "https://api.congress.gov/v3/bill/117/hr/623/actions?offset=20&limit=20&format=json"}, "request": {"billNumber": "623", "billType": "hr", "billUrl": "https://api.congress.gov/v3/bill/117/hr/623?format=json", "congress": "117", "contentType": "application/json", "format": "json"}}, 200]