[{"actions": [{"actionDate": "2021-10-21", "committees": [{"name": "Judiciary Committee", "systemCode": "ssju00", "url": "https://api.congress.gov/v3/committee/senate/ssju00?format=json"}], "sourceSystem": {"name": "Senate"}, "text": "Received in the Senate and Read twice and referred to the Committee on the Judiciary.", "type": "IntroReferral"}, {"actionCode": "H38800", "actionDate": "2021-10-20", "actionTime": "14:40:12", "sourceSystem": {"code": 2, "name": "House floor actions"}, "text": "The title of the measure was amended. Agreed to without objection.", "type": "Floor"}, {"actionCode": "H38310", "actionDate": "2021-10-20", "actionTime": "14:40:10", "sourceSystem": {"code": 2, "name": "House floor actions"}, "text": "Motion to reconsider laid on the table Agreed to without objection.", "type": "Floor"}, {"actionCode": "H37300", "actionDate": "2021-10-20", "actionTime": "14:40:08", "recordedVotes": [{"chamber": "House", "congress": 117, "date": "2021-10-20T18:40:08Z", "rollNumber": 321, "sessionNumber": 1, "url": "https://clerk.house.gov/evs/2021/roll321.xml"}], "sourceSystem": {"code": 2, "name": "House floor actions"}, "text": "On motion to suspend the rules and pass the bill, as amended Agreed to by the Yeas and Nays: (2/3 required): 395 - 30 (Roll no. 321). (text: CR 10/19/2021 H5650)", "type": "Floor"}, {"actionCode": "8000", "actionDate": "2021-10-20", "actionTime": "14:40:08", "recordedVotes": [{"chamber": "House", "congress": 117, "date": "2021-10-20T18:40:08Z", "rollNumber": 321, "sessionNumber": 1, "url": "https://clerk.house.gov/evs/2021/roll321.xml"}], "sourceSystem": {"code": 9, "name": "Library of Congress"}, "text": "Passed/agreed to in House: On motion to suspend the rules and pass the bill, as amended Agreed to by the Yeas and Nays: (2/3 required): 395 - 30 (Roll no. 321).(text: CR 10/19/2021 H5650)", "type": "Floor"}, {"actionCode": "H30000", "actionDate": "2021-10-20", "actionTime": "14:22:11", "sourceSystem": {"code": 2, "name": "House floor actions"}, "text": "Considered as unfinished business. (consideration: CR H5700)", "type": "Floor"}, {"actionCode": "H37220", "actionDate": "2021-10-19", "actionTime": "16:31:11", "sourceSystem": {"code": 2, "name": "House floor actions"}, "text": "At the conclusion of debate, the Yeas and Nays were demanded and ordered. Pursuant to the provisions of clause 8, rule XX, the Chair announced that further proceedings on the motion would be postponed.", "type": "Floor"}, {"actionCode": "H8D000", "actionDate": "2021-10-19", "actionTime": "16:23:27", "sourceSystem": {"code": 2, "name": "House floor actions"}, "text": "DEBATE - The House proceeded with forty minutes of debate on H.R. 654.", "type": "Floor"}, {"actionCode": "H30000", "actionDate": "2021-10-19", "actionTime": "16:23:26", "sourceSystem": {"code": 2, "name": "House floor actions"}, "text": "Considered under suspension of the rules. (consideration: CR H5650-5651)", "type": "Floor"}, {"actionCode": "H30300", "actionDate": "2021-10-19", "actionTime": "16:23:14", "sourceSystem": {"code": 2, "name": "House floor actions"}, "text": "Mr. Pallone moved to suspend the rules and pass the bill, as amended.", "type": "Floor"}, {"actionCode": "H12410", "actionDate": "2021-10-19", "calendarNumber": {"calendar": "U00106"}, "sourceSystem": {"code": 2, "name": "House floor actions"}, "text": "Placed on the Union Calendar, Calendar No. 106.", "type": "Calendars"}, {"actionCode": "H12200", "actionDate": "2021-10-19", "committees": [{"name": "Energy and Commerce Committee", "systemCode": "hsif00", "url": "https://api.congress.gov/v3/committee/house/hsif00?format=json"}], "sourceSystem": {"code": 2, "name": "House floor actions"}, "text": "Reported (Amended) by the Committee on Energy and Commerce. H. Rept. 117-146.", "type": "Committee"}, {"actionCode": "5000", "actionDate": "2021-10-19", "committees": [{"name": "Energy and Commerce Committee", "systemCode": "hsif00", "url": "https://api.congress.gov/v3/committee/house/hsif00?format=json"}], "sourceSystem": {"code": 9, "name": "Library of Congress"}, "text": "Reported (Amended) by the Committee on Energy and Commerce. H. Rept. 117-146.", "type": "Committee"}, {"actionCode": "H19000", "actionDate": "2021-07-21", "committees": [{"name": "Energy and Commerce Committee", "systemCode": "hsif00", "url": "https://api.congress.gov/v3/committee/house/hsif00?format=json"}], "sourceSystem": {"code": 1, "name": "House committee actions"}, "text": "Ordered to be Reported (Amended) by Voice Vote.", "type": "Committee"}, {"actionCode": "H15000-B", "actionDate": "2021-07-21", "committees": [{"name": "Energy and Commerce Committee", "systemCode": "hsif00", "url": "https://api.congress.gov/v3/committee/house/hsif00?format=json"}], "sourceSystem": {"code": 1, "name": "House committee actions"}, "text": "Committee Consideration and Mark-up Session Held.", "type": "Committee"}, {"actionCode": "H23000", "actionDate": "2021-07-15", "committees": [{"name": "Health Subcommittee", "systemCode": "hsif14", "url": "https://api.congress.gov/v3/committee/house/hsif14?format=json"}], "sourceSystem": {"code": 1, "name": "House committee actions"}, "text": "Forwarded by Subcommittee to Full Committee (Amended) by Voice Vote .", "type": "Committee"}, {"actionCode": "H22000", "actionDate": "2021-07-15", "committees": [{"name": "Health Subcommittee", "systemCode": "hsif14", "url": "https://api.congress.gov/v3/committee/house/hsif14?format=json"}], "sourceSystem": {"code": 1, "name": "House committee actions"}, "text": "Subcommittee Consideration and Mark-up Session Held.", "type": "Committee"}, {"actionCode": "H11000", "actionDate": "2021-02-02", "committees": [{"name": "Health Subcommittee", "systemCode": "hsif14", "url": "https://api.congress.gov/v3/committee/house/hsif14?format=json"}], "sourceSystem": {"code": 1, "name": "House committee actions"}, "text": "Referred to the Subcommittee on Health.", "type": "Committee"}, {"actionCode": "H11100", "actionDate": "2021-02-01", "committees": [{"name": "Energy and Commerce Committee", "systemCode": "hsif00", "url": "https://api.congress.gov/v3/committee/house/hsif00?format=json"}], "sourceSystem": {"code": 2, "name": "House floor actions"}, "text": "Referred to the House Committee on Energy and Commerce.", "type": "IntroReferral"}, {"actionCode": "Intro-H", "actionDate": "2021-02-01", "sourceSystem": {"code": 9, "name": "Library of Congress"}, "text": "Introduced in House", "type": "IntroReferral"}], "pagination": {"count": 21, "next": "https://api.congress.gov/v3/bill/117/hr/654/actions?offset=20&limit=20&format=json"}, "request": {"billNumber": "654", "billType": "hr", "billUrl": "https://api.congress.gov/v3/bill/117/hr/654?format=json", "congress": "117", "contentType": "application/json", "format": "json"}}, 200]