[{"actions": [{"actionCode": "E40000", "actionDate": "2022-12-27", "sourceSystem": {"code": 9, "name": "Library of Congress"}, "text": "Became Private Law No: 117-1.", "type": "President"}, {"actionCode": "41000", "actionDate": "2022-12-27", "sourceSystem": {"code": 9, "name": "Library of Congress"}, "text": "Became Private Law No: 117-1.", "type": "BecameLaw"}, {"actionCode": "E30000", "actionDate": "2022-12-27", "sourceSystem": {"code": 9, "name": "Library of Congress"}, "text": "Signed by President.", "type": "President"}, {"actionCode": "41000", "actionDate": "2022-12-27", "sourceSystem": {"code": 9, "name": "Library of Congress"}, "text": "Signed by President.", "type": "BecameLaw"}, {"actionCode": "E20000", "actionDate": "2022-12-23", "sourceSystem": {"code": 2, "name": "House floor actions"}, "text": "Presented to President.", "type": "Floor"}, {"actionCode": "28000", "actionDate": "2022-12-23", "sourceSystem": {"code": 9, "name": "Library of Congress"}, "text": "Presented to President.", "type": "President"}, {"actionDate": "2022-12-16", "sourceSystem": {"name": "Senate"}, "text": "Message on Senate action sent to the House.", "type": "Floor"}, {"actionDate": "2022-12-15", "sourceSystem": {"name": "Senate"}, "text": "Passed Senate without amendment by Unanimous Consent. (consideration: CR S7267)", "type": "Floor"}, {"actionCode": "17000", "actionDate": "2022-12-15", "sourceSystem": {"code": 9, "name": "Library of Congress"}, "text": "Passed/agreed to in Senate: Passed Senate without amendment by Unanimous Consent.", "type": "Floor"}, {"actionDate": "2022-06-08", "sourceSystem": {"name": "Senate"}, "text": "Received in the Senate, read twice.", "type": "IntroReferral"}, {"actionCode": "H38310", "actionDate": "2022-06-07", "actionTime": "14:05:27", "sourceSystem": {"code": 2, "name": "House floor actions"}, "text": "Motion to reconsider laid on the table Agreed to without objection.", "type": "Floor"}, {"actionCode": "H37100", "actionDate": "2022-06-07", "actionTime": "14:05:23", "sourceSystem": {"code": 2, "name": "House floor actions"}, "text": "On passage Passed without objection. (text: CR H5238)", "type": "Floor"}, {"actionCode": "8000", "actionDate": "2022-06-07", "actionTime": "14:05:23", "sourceSystem": {"code": 9, "name": "Library of Congress"}, "text": "Passed/agreed to in House: On passage Passed without objection.", "type": "Floor"}, {"actionCode": "H30000", "actionDate": "2022-06-07", "actionTime": "14:05:21", "sourceSystem": {"code": 2, "name": "House floor actions"}, "text": "Considered from the Private Calendar. (consideration: CR H5238)", "type": "Floor"}, {"actionCode": "H30500", "actionDate": "2022-06-07", "actionTime": "14:05:12", "sourceSystem": {"code": 2, "name": "House floor actions"}, "text": "Called up from the Private Calendar for consideration.", "type": "Floor"}, {"actionCode": "H12430", "actionDate": "2022-02-01", "calendarNumber": {"calendar": "P00003"}, "sourceSystem": {"code": 2, "name": "House floor actions"}, "text": "Placed on the Private Calendar, Calendar No. 3.", "type": "Calendars"}, {"actionCode": "H12200", "actionDate": "2022-02-01", "committees": [{"name": "Judiciary Committee", "systemCode": "hsju00", "url": "https://api.congress.gov/v3/committee/house/hsju00?format=json"}], "sourceSystem": {"code": 2, "name": "House floor actions"}, "text": "Reported by the Committee on Judiciary. H. Rept. 117-238.", "type": "Committee"}, {"actionCode": "5000", "actionDate": "2022-02-01", "committees": [{"name": "Judiciary Committee", "systemCode": "hsju00", "url": "https://api.congress.gov/v3/committee/house/hsju00?format=json"}], "sourceSystem": {"code": 9, "name": "Library of Congress"}, "text": "Reported by the Committee on Judiciary. H. Rept. 117-238.", "type": "Committee"}, {"actionCode": "H19000", "actionDate": "2021-09-29", "committees": [{"name": "Judiciary Committee", "systemCode": "hsju00", "url": "https://api.congress.gov/v3/committee/house/hsju00?format=json"}], "sourceSystem": {"code": 1, "name": "House committee actions"}, "text": "Ordered to be Reported in the Nature of a Substitute by Voice Vote.", "type": "Committee"}, {"actionCode": "H15000-B", "actionDate": "2021-09-29", "committees": [{"name": "Judiciary Committee", "systemCode": "hsju00", "url": "https://api.congress.gov/v3/committee/house/hsju00?format=json"}], "sourceSystem": {"code": 1, "name": "House committee actions"}, "text": "Committee Consideration and Mark-up Session Held.", "type": "Committee"}], "pagination": {"count": 25, "next": "https://api.congress.gov/v3/bill/117/hr/681/actions?offset=20&limit=20&format=json"}, "request": {"billNumber": "681", "billType": "hr", "billUrl": "https://api.congress.gov/v3/bill/117/hr/681?format=json", "congress": "117", "contentType": "application/json", "format": "json"}}, 200]