[{"actions": [{"actionCode": "E40000", "actionDate": "2021-06-23", "sourceSystem": {"code": 9, "name": "Library of Congress"}, "text": "Became Public Law No: 117-18.", "type": "President"}, {"actionCode": "36000", "actionDate": "2021-06-23", "sourceSystem": {"code": 9, "name": "Library of Congress"}, "text": "Became Public Law No: 117-18.", "type": "BecameLaw"}, {"actionCode": "E30000", "actionDate": "2021-06-23", "sourceSystem": {"code": 9, "name": "Library of Congress"}, "text": "Signed by President.", "type": "President"}, {"actionCode": "36000", "actionDate": "2021-06-23", "sourceSystem": {"code": 9, "name": "Library of Congress"}, "text": "Signed by President.", "type": "BecameLaw"}, {"actionCode": "E20000", "actionDate": "2021-06-17", "sourceSystem": {"code": 2, "name": "House floor actions"}, "text": "Presented to President.", "type": "Floor"}, {"actionCode": "28000", "actionDate": "2021-06-17", "sourceSystem": {"code": 9, "name": "Library of Congress"}, "text": "Presented to President.", "type": "President"}, {"actionCode": "H41931", "actionDate": "2021-06-15", "actionTime": "14:04:18", "sourceSystem": {"code": 2, "name": "House floor actions"}, "text": "Motion to reconsider laid on the table Agreed to without objection.", "type": "ResolvingDifferences"}, {"actionCode": "H41610", "actionDate": "2021-06-15", "actionTime": "14:04:17", "sourceSystem": {"code": 2, "name": "House floor actions"}, "text": "On motion that the House agree to the Senate amendment Agreed to without objection. (text: CR H2772)", "type": "ResolvingDifferences"}, {"actionCode": "19500", "actionDate": "2021-06-15", "sourceSystem": {"code": 9, "name": "Library of Congress"}, "text": "Resolving differences -- House actions: On motion that the House agree to the Senate amendment Agreed to without objection.(text: CR H2772)", "type": "NotUsed"}, {"actionCode": "H40110", "actionDate": "2021-06-15", "actionTime": "14:04:01", "sourceSystem": {"code": 2, "name": "House floor actions"}, "text": "Mr. Takano asked unanimous consent that the House agree to the Senate amendment. (consideration: CR H2772-2773)", "type": "ResolvingDifferences"}, {"actionDate": "2021-05-28", "sourceSystem": {"name": "Senate"}, "text": "Message on Senate action sent to the House.", "type": "Floor"}, {"actionDate": "2021-05-28", "sourceSystem": {"name": "Senate"}, "text": "Passed Senate with an amendment by Unanimous Consent.", "type": "Floor"}, {"actionCode": "17000", "actionDate": "2021-05-28", "sourceSystem": {"code": 9, "name": "Library of Congress"}, "text": "Passed/agreed to in Senate: Passed Senate with an amendment by Unanimous Consent.", "type": "Floor"}, {"actionDate": "2021-05-28", "sourceSystem": {"name": "Senate"}, "text": "Measure laid before Senate by unanimous consent. (consideration: CR S3932)", "type": "Floor"}, {"actionDate": "2021-05-28", "committees": [{"name": "Veterans' Affairs Committee", "systemCode": "ssva00", "url": "https://api.congress.gov/v3/committee/senate/ssva00?format=json"}], "sourceSystem": {"name": "Senate"}, "text": "Senate Committee on Veterans' Affairs discharged by Unanimous Consent.", "type": "Discharge"}, {"actionCode": "14500", "actionDate": "2021-05-28", "committees": [{"name": "Veterans' Affairs Committee", "systemCode": "ssva00", "url": "https://api.congress.gov/v3/committee/senate/ssva00?format=json"}], "sourceSystem": {"code": 9, "name": "Library of Congress"}, "text": "Senate Committee on Veterans' Affairs discharged by Unanimous Consent.", "type": "Committee"}, {"actionDate": "2021-05-19", "committees": [{"name": "Veterans' Affairs Committee", "systemCode": "ssva00", "url": "https://api.congress.gov/v3/committee/senate/ssva00?format=json"}], "sourceSystem": {"name": "Senate"}, "text": "Received in the Senate and Read twice and referred to the Committee on Veterans' Affairs.", "type": "IntroReferral"}, {"actionCode": "H37300", "actionDate": "2021-05-18", "actionTime": "20:00:11", "sourceSystem": {"code": 2, "name": "House floor actions"}, "text": "Pursuant to section 5 of H. Res. 403, and the motion offered by Mr. Hoyer, the following bills passed under suspension of the rules: H.R. 144, as amended; H.R. 204, as amended; H.R. 210, as amended; H.R. 240; H.R. 707, as amended; H.R. 711, as amended; H.R. 1157, as amended; H.R. 1447, as amended; H.R. 1510, as amended; H.R. 1711, as amended; H.R. 2027; H.R. 2167, as amended; H.R. 2441; H.R. 2494; H.R. 2533; H.R. 2655, as amended; H.R. 2695, H.R. 2704; H.R. 2788; H.R. 2878, as amended; and H.R. 3008. (consideration: CR H2482-2520; text: CR H2490)", "type": "Floor"}, {"actionCode": "8000", "actionDate": "2021-05-18", "actionTime": "20:00:11", "sourceSystem": {"code": 9, "name": "Library of Congress"}, "text": "Passed/agreed to in House: Pursuant to section 5 of H. Res. 403, and the motion offered by Mr. Hoyer, the following bills passed under suspension of the rules: H.R. 144, as amended; H.R. 204, as amended; H.R. 210, as amended; H.R. 240; H.R. 707, as amended; H.R. 711, as amended; H.R. 1157, as amended; H.R. 1447, as amended; H.R. 1510, as amended; H.R. 1711, as amended; H.R. 2027; H.R. 2167, as amended; H.R. 2441; H.R. 2494; H.R. 2533; H.R. 2655, as amended; H.R. 2695, H.R. 2704; H.R. 2788; H.R. 2878, as amended; and H.R. 3008.(consideration: CR H2482-2520; text: CR H2490)", "type": "Floor"}, {"actionCode": "H1B000", "actionDate": "2021-05-18", "actionTime": "20:00:10", "sourceSystem": {"code": 2, "name": "House floor actions"}, "text": "Pursuant to the provisions of H. Res. 403, proceedings on H.R. 711 are considered vacated.", "type": "Floor"}], "pagination": {"count": 32, "next": "https://api.congress.gov/v3/bill/117/hr/711/actions?offset=20&limit=20&format=json"}, "request": {"billNumber": "711", "billType": "hr", "billUrl": "https://api.congress.gov/v3/bill/117/hr/711?format=json", "congress": "117", "contentType": "application/json", "format": "json"}}, 200]