[{"actions": [{"actionCode": "E40000", "actionDate": "2022-12-27", "sourceSystem": {"code": 9, "name": "Library of Congress"}, "text": "Became Private Law No: 117-2.", "type": "President"}, {"actionCode": "41000", "actionDate": "2022-12-27", "sourceSystem": {"code": 9, "name": "Library of Congress"}, "text": "Became Private Law No: 117-2.", "type": "BecameLaw"}, {"actionCode": "E30000", "actionDate": "2022-12-27", "sourceSystem": {"code": 9, "name": "Library of Congress"}, "text": "Signed by President.", "type": "President"}, {"actionCode": "41000", "actionDate": "2022-12-27", "sourceSystem": {"code": 9, "name": "Library of Congress"}, "text": "Signed by President.", "type": "BecameLaw"}, {"actionCode": "E20000", "actionDate": "2022-12-23", "sourceSystem": {"code": 2, "name": "House floor actions"}, "text": "Presented to President.", "type": "Floor"}, {"actionCode": "28000", "actionDate": "2022-12-23", "sourceSystem": {"code": 9, "name": "Library of Congress"}, "text": "Presented to President.", "type": "President"}, {"actionDate": "2022-12-20", "sourceSystem": {"name": "Senate"}, "text": "Message on Senate action sent to the House.", "type": "Floor"}, {"actionDate": "2022-12-20", "sourceSystem": {"name": "Senate"}, "text": "Passed Senate without amendment by Unanimous Consent. (consideration: CR S7804)", "type": "Floor"}, {"actionCode": "17000", "actionDate": "2022-12-20", "sourceSystem": {"code": 9, "name": "Library of Congress"}, "text": "Passed/agreed to in Senate: Passed Senate without amendment by Unanimous Consent.", "type": "Floor"}, {"actionDate": "2022-12-20", "committees": [{"name": "Judiciary Committee", "systemCode": "ssju00", "url": "https://api.congress.gov/v3/committee/senate/ssju00?format=json"}], "sourceSystem": {"name": "Senate"}, "text": "Senate Committee on the Judiciary discharged by Unanimous Consent.", "type": "Discharge"}, {"actionCode": "14500", "actionDate": "2022-12-20", "committees": [{"name": "Judiciary Committee", "systemCode": "ssju00", "url": "https://api.congress.gov/v3/committee/senate/ssju00?format=json"}], "sourceSystem": {"code": 9, "name": "Library of Congress"}, "text": "Senate Committee on the Judiciary discharged by Unanimous Consent.", "type": "Committee"}, {"actionDate": "2022-06-08", "committees": [{"name": "Judiciary Committee", "systemCode": "ssju00", "url": "https://api.congress.gov/v3/committee/senate/ssju00?format=json"}], "sourceSystem": {"name": "Senate"}, "text": "Received in the Senate and Read twice and referred to the Committee on the Judiciary.", "type": "IntroReferral"}, {"actionCode": "H38310", "actionDate": "2022-06-07", "actionTime": "14:05:59", "sourceSystem": {"code": 2, "name": "House floor actions"}, "text": "Motion to reconsider laid on the table Agreed to without objection.", "type": "Floor"}, {"actionCode": "H37100", "actionDate": "2022-06-07", "actionTime": "14:05:55", "sourceSystem": {"code": 2, "name": "House floor actions"}, "text": "On passage Passed without objection. (text: CR H5239)", "type": "Floor"}, {"actionCode": "8000", "actionDate": "2022-06-07", "actionTime": "14:05:55", "sourceSystem": {"code": 9, "name": "Library of Congress"}, "text": "Passed/agreed to in House: On passage Passed without objection.", "type": "Floor"}, {"actionCode": "H30000", "actionDate": "2022-06-07", "actionTime": "14:05:52", "sourceSystem": {"code": 2, "name": "House floor actions"}, "text": "Considered from the Private Calendar. (consideration: CR H5239)", "type": "Floor"}, {"actionCode": "H30500", "actionDate": "2022-06-07", "actionTime": "14:05:44", "sourceSystem": {"code": 2, "name": "House floor actions"}, "text": "Called up from the Private Calendar for consideration.", "type": "Floor"}, {"actionCode": "H12430", "actionDate": "2022-06-03", "calendarNumber": {"calendar": "P00005"}, "sourceSystem": {"code": 2, "name": "House floor actions"}, "text": "Placed on the Private Calendar, Calendar No. 5.", "type": "Calendars"}, {"actionCode": "H12300", "actionDate": "2022-06-03", "committees": [{"name": "Budget Committee", "systemCode": "hsbu00", "url": "https://api.congress.gov/v3/committee/house/hsbu00?format=json"}], "sourceSystem": {"code": 2, "name": "House floor actions"}, "text": "Committee on the Budget discharged.", "type": "Discharge"}, {"actionCode": "5500", "actionDate": "2022-06-03", "committees": [{"name": "Budget Committee", "systemCode": "hsbu00", "url": "https://api.congress.gov/v3/committee/house/hsbu00?format=json"}], "sourceSystem": {"code": 9, "name": "Library of Congress"}, "text": "Committee on the Budget discharged.", "type": "Committee"}], "pagination": {"count": 30, "next": "https://api.congress.gov/v3/bill/117/hr/785/actions?offset=20&limit=20&format=json"}, "request": {"billNumber": "785", "billType": "hr", "billUrl": "https://api.congress.gov/v3/bill/117/hr/785?format=json", "congress": "117", "contentType": "application/json", "format": "json"}}, 200]