[{"actions": [{"actionDate": "2021-03-02", "committees": [{"name": "Energy and Natural Resources Committee", "systemCode": "sseg00", "url": "https://api.congress.gov/v3/committee/senate/sseg00?format=json"}], "sourceSystem": {"name": "Senate"}, "text": "Received in the Senate and Read twice and referred to the Committee on Energy and Natural Resources.", "type": "IntroReferral"}, {"actionCode": "H38310", "actionDate": "2021-02-26", "actionTime": "14:46:51", "sourceSystem": {"code": 2, "name": "House floor actions"}, "text": "Motion to reconsider laid on the table Agreed to without objection.", "type": "Floor"}, {"actionCode": "H37100", "actionDate": "2021-02-26", "actionTime": "14:46:49", "recordedVotes": [{"chamber": "House", "congress": 117, "date": "2021-02-26T19:46:49Z", "rollNumber": 45, "sessionNumber": 1, "url": "https://clerk.house.gov/evs/2021/roll045.xml"}], "sourceSystem": {"code": 2, "name": "House floor actions"}, "text": "On passage Passed by the Yeas and Nays: 227 - 200 (Roll no. 45).", "type": "Floor"}, {"actionCode": "8000", "actionDate": "2021-02-26", "actionTime": "14:46:49", "recordedVotes": [{"chamber": "House", "congress": 117, "date": "2021-02-26T19:46:49Z", "rollNumber": 45, "sessionNumber": 1, "url": "https://clerk.house.gov/evs/2021/roll045.xml"}], "sourceSystem": {"code": 9, "name": "Library of Congress"}, "text": "Passed/agreed to in House: On passage Passed by the Yeas and Nays: 227 - 200 (Roll no. 45).", "type": "Floor"}, {"actionCode": "H36210", "actionDate": "2021-02-26", "actionTime": "13:58:21", "committees": [{"name": "Natural Resources Committee", "systemCode": "hsii00", "url": "https://api.congress.gov/v3/committee/house/hsii00?format=json"}], "recordedVotes": [{"chamber": "House", "congress": 117, "date": "2021-02-26T18:58:21Z", "rollNumber": 44, "sessionNumber": 1, "url": "https://clerk.house.gov/evs/2021/roll044.xml"}], "sourceSystem": {"code": 2, "name": "House floor actions"}, "text": "On motion to recommit Failed by the Yeas and Nays: 204 - 221 (Roll no. 44).", "type": "Floor"}, {"actionCode": "H8A000", "actionDate": "2021-02-26", "actionTime": "13:07:23", "sourceSystem": {"code": 2, "name": "House floor actions"}, "text": "The previous question on the motion to recommit was ordered pursuant clause 2(b) of rule XIX.", "type": "Floor"}, {"actionCode": "H36200", "actionDate": "2021-02-26", "actionTime": "13:07:05", "committees": [{"name": "Natural Resources Committee", "systemCode": "hsii00", "url": "https://api.congress.gov/v3/committee/house/hsii00?format=json"}], "sourceSystem": {"code": 2, "name": "House floor actions"}, "text": "Mr. Westerman moved to recommit to the Committee on Natural Resources. (text: CR H760)", "type": "Floor"}, {"actionCode": "H35000", "actionDate": "2021-02-26", "actionTime": "13:06:24", "sourceSystem": {"code": 2, "name": "House floor actions"}, "text": "The previous question was ordered pursuant to the rule.", "type": "Floor"}, {"actionCode": "H8D000", "actionDate": "2021-02-26", "actionTime": "13:06:09", "sourceSystem": {"code": 2, "name": "House floor actions"}, "text": "Motion to reconsider laid on the table. Agreed to without objection.", "type": "Floor"}, {"actionCode": "H8D000", "actionDate": "2021-02-26", "actionTime": "12:16:36", "sourceSystem": {"code": 2, "name": "House floor actions"}, "text": "Motion to reconsider laid on the table. Agreed to without objection.", "type": "Floor"}, {"actionCode": "H8D000", "actionDate": "2021-02-26", "actionTime": "11:29:34", "sourceSystem": {"code": 2, "name": "House floor actions"}, "text": "Motion to reconsider laid on the table. Agreed to without objection.", "type": "Floor"}, {"actionCode": "H30000", "actionDate": "2021-02-26", "actionTime": "10:34:44", "sourceSystem": {"code": 2, "name": "House floor actions"}, "text": "Considered as unfinished business. (consideration: CR H757-761)", "type": "Floor"}, {"actionCode": "H8D000", "actionDate": "2021-02-26", "actionTime": "10:23:50", "sourceSystem": {"code": 2, "name": "House floor actions"}, "text": "POSTPONED PROCEEDINGS - Pursuant to clause 1(c) of Rule XIX, further consideration of H.R. 803 is postponed.", "type": "Floor"}, {"actionCode": "H8D000", "actionDate": "2021-02-26", "actionTime": "10:23:32", "sourceSystem": {"code": 2, "name": "House floor actions"}, "text": "POSTPONED PROCEEDINGS - At the conclusion of debate on the Neguse amendment en bloc No.2, the Chair put the question on the adoption of the amendment and by voice vote, announced that the noes had prevailed. Mr. Westerman demanded the yeas and nays and the Chair postponed further proceedings until a time to be announced.", "type": "Floor"}, {"actionCode": "H8D000", "actionDate": "2021-02-26", "actionTime": "09:57:55", "sourceSystem": {"code": 2, "name": "House floor actions"}, "text": "DEBATE - Pursuant to the provisions of H. Res. 147, the House proceeded with 20 minutes of debate on the Neguse en bloc amendment No. 2.", "type": "Floor"}, {"actionCode": "H8D000", "actionDate": "2021-02-26", "actionTime": "09:56:42", "sourceSystem": {"code": 2, "name": "House floor actions"}, "text": "POSTPONED PROCEEDINGS - At the conclusion of debate on the Curtis amendment, the Chair put the question on the adoption of the amendment and by voice vote, announced that the noes had prevailed. Mr. Curtis demanded the yeas and nays and the Chair postponed further proceedings until a time to be announced.", "type": "Floor"}, {"actionCode": "H8D000", "actionDate": "2021-02-26", "actionTime": "09:45:55", "sourceSystem": {"code": 2, "name": "House floor actions"}, "text": "DEBATE - Pursuant to the provisions of H. Res. 147, the House proceeded with 10 minutes of debate on the Curtis amendment No. 3.", "type": "Floor"}, {"actionCode": "H8D000", "actionDate": "2021-02-26", "actionTime": "09:45:05", "sourceSystem": {"code": 2, "name": "House floor actions"}, "text": "POSTPONED PROCEEDINGS - At the conclusion of debate on the Neguse amendment en bloc No.1, the Chair put the question on the adoption of the amendment and by voice vote, announced that the ayes had prevailed. Mr. Westerman demanded the yeas and nays and the Chair postponed further proceedings until a time to be announced.", "type": "Floor"}, {"actionCode": "H8D000", "actionDate": "2021-02-26", "actionTime": "09:19:39", "sourceSystem": {"code": 2, "name": "House floor actions"}, "text": "DEBATE - Pursuant to the provisions of H. Res. 147, the House proceeded with 20 minutes of debate on the Neguse en bloc amendment No. 1.", "type": "Floor"}, {"actionCode": "H30000", "actionDate": "2021-02-26", "actionTime": "09:17:53", "sourceSystem": {"code": 2, "name": "House floor actions"}, "text": "Considered as unfinished business. (consideration: CR H737-757)", "type": "Floor"}], "pagination": {"count": 30, "next": "https://api.congress.gov/v3/bill/117/hr/803/actions?offset=20&limit=20&format=json"}, "request": {"billNumber": "803", "billType": "hr", "billUrl": "https://api.congress.gov/v3/bill/117/hr/803?format=json", "congress": "117", "contentType": "application/json", "format": "json"}}, 200]