[{"actions": [{"actionDate": "2021-03-11", "committees": [{"name": "Health, Education, Labor, and Pensions Committee", "systemCode": "sshr00", "url": "https://api.congress.gov/v3/committee/senate/sshr00?format=json"}], "sourceSystem": {"name": "Senate"}, "text": "Received in the Senate and Read twice and referred to the Committee on Health, Education, Labor, and Pensions.", "type": "IntroReferral"}, {"actionCode": "H38310", "actionDate": "2021-03-09", "actionTime": "20:54:52", "sourceSystem": {"code": 2, "name": "House floor actions"}, "text": "Motion to reconsider laid on the table Agreed to without objection.", "type": "Floor"}, {"actionCode": "H37100", "actionDate": "2021-03-09", "actionTime": "20:54:50", "recordedVotes": [{"chamber": "House", "congress": 117, "date": "2021-03-10T01:54:50Z", "rollNumber": 70, "sessionNumber": 1, "url": "https://clerk.house.gov/evs/2021/roll070.xml"}], "sourceSystem": {"code": 2, "name": "House floor actions"}, "text": "On passage Passed by the Yeas and Nays: 225 - 206 (Roll no. 70).", "type": "Floor"}, {"actionCode": "8000", "actionDate": "2021-03-09", "actionTime": "20:54:50", "recordedVotes": [{"chamber": "House", "congress": 117, "date": "2021-03-10T01:54:50Z", "rollNumber": 70, "sessionNumber": 1, "url": "https://clerk.house.gov/evs/2021/roll070.xml"}], "sourceSystem": {"code": 9, "name": "Library of Congress"}, "text": "Passed/agreed to in House: On passage Passed by the Yeas and Nays: 225 - 206 (Roll no. 70).", "type": "Floor"}, {"actionCode": "H36210", "actionDate": "2021-03-09", "actionTime": "20:19:31", "committees": [{"name": "Education and the Workforce Committee", "systemCode": "hsed00", "url": "https://api.congress.gov/v3/committee/house/hsed00?format=json"}], "recordedVotes": [{"chamber": "House", "congress": 117, "date": "2021-03-10T01:19:31Z", "rollNumber": 69, "sessionNumber": 1, "url": "https://clerk.house.gov/evs/2021/roll069.xml"}], "sourceSystem": {"code": 2, "name": "House floor actions"}, "text": "On motion to recommit Failed by the Yeas and Nays: 206 - 218 (Roll no. 69).", "type": "Floor"}, {"actionCode": "H8A000", "actionDate": "2021-03-09", "actionTime": "19:30:35", "sourceSystem": {"code": 2, "name": "House floor actions"}, "text": "The previous question on the motion to recommit was ordered pursuant to clause 2(b) of rule XIX.", "type": "Floor"}, {"actionCode": "H35000", "actionDate": "2021-03-09", "actionTime": "19:29:00", "sourceSystem": {"code": 2, "name": "House floor actions"}, "text": "The previous question was ordered pursuant to the rule.", "type": "Floor"}, {"actionCode": "H36200", "actionDate": "2021-03-09", "actionTime": "19:29:00", "committees": [{"name": "Education and the Workforce Committee", "systemCode": "hsed00", "url": "https://api.congress.gov/v3/committee/house/hsed00?format=json"}], "sourceSystem": {"code": 2, "name": "House floor actions"}, "text": "Mr. Banks moved to recommit to the Committee on Education and Labor. (text: CR H1176-1177)", "type": "Floor"}, {"actionCode": "H8D000", "actionDate": "2021-03-09", "actionTime": "17:57:55", "sourceSystem": {"code": 2, "name": "House floor actions"}, "text": "UNFINISHED BUSINESS - The Chair announced that the unfinished business was the question on agreeing to the amendments which had been debated earlier and on which further proceedings had been postponed.", "type": "Floor"}, {"actionCode": "H30000", "actionDate": "2021-03-09", "actionTime": "17:57:34", "sourceSystem": {"code": 2, "name": "House floor actions"}, "text": "Considered as unfinished business. (consideration: CR H1174-1178)", "type": "Floor"}, {"actionCode": "H8D000", "actionDate": "2021-03-09", "actionTime": "17:57:26", "sourceSystem": {"code": 2, "name": "House floor actions"}, "text": "Pursuant to clause 1(c) of Rule XIX, the House resumed further consideration of H.R. 842.", "type": "Floor"}, {"actionCode": "H8D000", "actionDate": "2021-03-09", "actionTime": "14:59:33", "sourceSystem": {"code": 2, "name": "House floor actions"}, "text": "Pursuant to clause 1(c) of Rule XIX, further consideration of H.R.842 is postponed.", "type": "Floor"}, {"actionCode": "H8D000", "actionDate": "2021-03-09", "actionTime": "14:59:13", "sourceSystem": {"code": 2, "name": "House floor actions"}, "text": "POSTPONED PROCEEDINGS - At the conclusion of debate on the Scott (VA) amendment en bloc No. 2, the Chair put the question on agreeing to the amendment and by voice vote, announced that the ayes had prevailed. Ms. Foxx demanded the yeas and nays and the Chair postponed further proceedings until a time to be announced.", "type": "Floor"}, {"actionCode": "H8D000", "actionDate": "2021-03-09", "actionTime": "14:35:52", "sourceSystem": {"code": 2, "name": "House floor actions"}, "text": "DEBATE - Pursuant to the provisions of H. Res. 188, the House proceeded with 20 minutes of debate on the Scott (VA) amendment en bloc No. 2.", "type": "Floor"}, {"actionCode": "H8D000", "actionDate": "2021-03-09", "actionTime": "14:34:42", "sourceSystem": {"code": 2, "name": "House floor actions"}, "text": "POSTPONED PROCEEDINGS - At the conclusion of debate on the Scott (VA) amendment en bloc No. 1, the Chair put the question on agreeing to the amendment and by voice vote, announced that the ayes had prevailed. Ms. Foxx demanded the yeas and nays and the Chair postponed further proceedings until a time to be announced.", "type": "Floor"}, {"actionCode": "H8D000", "actionDate": "2021-03-09", "actionTime": "14:14:33", "sourceSystem": {"code": 2, "name": "House floor actions"}, "text": "DEBATE - Pursuant to the provisions of H. Res. 188, the House proceeded with 20 minutes of debate on the Scott (VA) amendment en bloc No. 1.", "type": "Floor"}, {"actionCode": "H8D000", "actionDate": "2021-03-09", "actionTime": "12:37:36", "sourceSystem": {"code": 2, "name": "House floor actions"}, "text": "DEBATE - The House proceeded with one hour of debate on H.R. 842.", "type": "Floor"}, {"actionCode": "H8D000", "actionDate": "2021-03-09", "actionTime": "12:36:53", "sourceSystem": {"code": 2, "name": "House floor actions"}, "text": "Rule provides for consideration of H.R. 842, H.R. 8 and H.R. 1446. Rule provides for one hour of general debate for H.R. 842, H.R. 8, and H.R. 1446. The rule provides for a motion to recommit on H.R. 842, H.R. 8, and H.R. 1446.", "type": "Floor"}, {"actionCode": "H30000", "actionDate": "2021-03-09", "actionTime": "12:36:48", "sourceSystem": {"code": 2, "name": "House floor actions"}, "text": "Considered under the provisions of rule H. Res. 188. (consideration: CR H1134-1163; text: CR H1134-1137)", "type": "Floor"}, {"actionCode": "H1L210", "actionDate": "2021-03-08", "actionTime": "14:23:50", "sourceSystem": {"code": 2, "name": "House floor actions"}, "text": "Rules Committee Resolution H. Res. 188 Reported to House. Rule provides for consideration of H.R. 842, H.R. 8 and H.R. 1446. Rule provides for one hour of general debate for H.R. 842, H.R. 8, and H.R. 1446. The rule provides for a motion to recommit on H.R. 842, H.R. 8, and H.R. 1446.", "type": "Floor"}], "pagination": {"count": 23, "next": "https://api.congress.gov/v3/bill/117/hr/842/actions?offset=20&limit=20&format=json"}, "request": {"billNumber": "842", "billType": "hr", "billUrl": "https://api.congress.gov/v3/bill/117/hr/842?format=json", "congress": "117", "contentType": "application/json", "format": "json"}}, 200]