[{"actions": [{"actionDate": "2022-11-15", "committees": [{"name": "Commerce, Science, and Transportation Committee", "systemCode": "sscm00", "url": "https://api.congress.gov/v3/committee/senate/sscm00?format=json"}], "sourceSystem": {"name": "Senate"}, "text": "Referred to the Committee on Commerce, Science, and Transportation.", "type": "IntroReferral"}, {"actionDate": "2022-11-15", "committees": [{"name": "Homeland Security and Governmental Affairs Committee", "systemCode": "ssga00", "url": "https://api.congress.gov/v3/committee/senate/ssga00?format=json"}], "sourceSystem": {"name": "Senate"}, "text": "Senate Committee on Homeland Security and Governmental Affairs discharged by Unanimous Consent.", "type": "Discharge"}, {"actionCode": "14500", "actionDate": "2022-11-15", "committees": [{"name": "Homeland Security and Governmental Affairs Committee", "systemCode": "ssga00", "url": "https://api.congress.gov/v3/committee/senate/ssga00?format=json"}], "sourceSystem": {"code": 9, "name": "Library of Congress"}, "text": "Senate Committee on Homeland Security and Governmental Affairs discharged by Unanimous Consent.", "type": "Committee"}, {"actionDate": "2022-09-19", "committees": [{"name": "Homeland Security and Governmental Affairs Committee", "systemCode": "ssga00", "url": "https://api.congress.gov/v3/committee/senate/ssga00?format=json"}], "sourceSystem": {"name": "Senate"}, "text": "Read twice and referred to the Committee on Homeland Security and Governmental Affairs.", "type": "IntroReferral"}, {"actionDate": "2022-09-15", "sourceSystem": {"name": "Senate"}, "text": "Received in the Senate.", "type": "IntroReferral"}, {"actionCode": "H38310", "actionDate": "2022-09-14", "actionTime": "15:37:30", "sourceSystem": {"code": 2, "name": "House floor actions"}, "text": "Motion to reconsider laid on the table Agreed to without objection.", "type": "Floor"}, {"actionCode": "H37300", "actionDate": "2022-09-14", "actionTime": "15:37:29", "recordedVotes": [{"chamber": "House", "congress": 117, "date": "2022-09-14T19:37:29Z", "rollNumber": 427, "sessionNumber": 2, "url": "https://clerk.house.gov/evs/2022/roll427.xml"}], "sourceSystem": {"code": 2, "name": "House floor actions"}, "text": "On motion to suspend the rules and pass the bill, as amended Agreed to by the Yeas and Nays: (2/3 required): 293 - 133 (Roll no. 427). (text: 9/13/2022 CR H7752-7753)", "type": "Floor"}, {"actionCode": "8000", "actionDate": "2022-09-14", "actionTime": "15:37:29", "recordedVotes": [{"chamber": "House", "congress": 117, "date": "2022-09-14T19:37:29Z", "rollNumber": 427, "sessionNumber": 2, "url": "https://clerk.house.gov/evs/2022/roll427.xml"}], "sourceSystem": {"code": 9, "name": "Library of Congress"}, "text": "Passed/agreed to in House: On motion to suspend the rules and pass the bill, as amended Agreed to by the Yeas and Nays: (2/3 required): 293 - 133 (Roll no. 427).", "type": "Floor"}, {"actionCode": "H30000", "actionDate": "2022-09-14", "actionTime": "15:27:12", "sourceSystem": {"code": 2, "name": "House floor actions"}, "text": "Considered as unfinished business. (consideration: CR H7822-7823)", "type": "Floor"}, {"actionCode": "H37220", "actionDate": "2022-09-13", "actionTime": "15:06:15", "sourceSystem": {"code": 2, "name": "House floor actions"}, "text": "At the conclusion of debate, the Yeas and Nays were demanded and ordered. Pursuant to the provisions of clause 8, rule XX, the Chair announced that further proceedings on the motion would be postponed.", "type": "Floor"}, {"actionCode": "H8D000", "actionDate": "2022-09-13", "actionTime": "15:00:12", "sourceSystem": {"code": 2, "name": "House floor actions"}, "text": "DEBATE - The House proceeded with forty minutes of debate on H.R. 884.", "type": "Floor"}, {"actionCode": "H30000", "actionDate": "2022-09-13", "actionTime": "15:00:10", "sourceSystem": {"code": 2, "name": "House floor actions"}, "text": "Considered under suspension of the rules. (consideration: CR H7752-7753)", "type": "Floor"}, {"actionCode": "H30300", "actionDate": "2022-09-13", "actionTime": "14:59:51", "sourceSystem": {"code": 2, "name": "House floor actions"}, "text": "Ms. Norton moved to suspend the rules and pass the bill, as amended.", "type": "Floor"}, {"actionCode": "H12410", "actionDate": "2022-09-13", "calendarNumber": {"calendar": "U00355"}, "sourceSystem": {"code": 2, "name": "House floor actions"}, "text": "Placed on the Union Calendar, Calendar No. 355.", "type": "Calendars"}, {"actionCode": "H12200", "actionDate": "2022-09-13", "committees": [{"name": "Transportation and Infrastructure Committee", "systemCode": "hspw00", "url": "https://api.congress.gov/v3/committee/house/hspw00?format=json"}], "sourceSystem": {"code": 2, "name": "House floor actions"}, "text": "Reported (Amended) by the Committee on Transportation and Infrastructure. H. Rept. 117-458.", "type": "Committee"}, {"actionCode": "5000", "actionDate": "2022-09-13", "committees": [{"name": "Transportation and Infrastructure Committee", "systemCode": "hspw00", "url": "https://api.congress.gov/v3/committee/house/hspw00?format=json"}], "sourceSystem": {"code": 9, "name": "Library of Congress"}, "text": "Reported (Amended) by the Committee on Transportation and Infrastructure. H. Rept. 117-458.", "type": "Committee"}, {"actionCode": "H19000", "actionDate": "2022-07-20", "committees": [{"name": "Transportation and Infrastructure Committee", "systemCode": "hspw00", "url": "https://api.congress.gov/v3/committee/house/hspw00?format=json"}], "sourceSystem": {"code": 1, "name": "House committee actions"}, "text": "Ordered to be Reported (Amended) by the Yeas and Nays: 57 - 2.", "type": "Committee"}, {"actionCode": "H15000-B", "actionDate": "2022-07-20", "committees": [{"name": "Transportation and Infrastructure Committee", "systemCode": "hspw00", "url": "https://api.congress.gov/v3/committee/house/hspw00?format=json"}], "sourceSystem": {"code": 1, "name": "House committee actions"}, "text": "Committee Consideration and Mark-up Session Held.", "type": "Committee"}, {"actionCode": "H25000", "actionDate": "2022-07-20", "committees": [{"name": "Transportation and Infrastructure Committee", "systemCode": "hspw00", "url": "https://api.congress.gov/v3/committee/house/hspw00?format=json"}], "sourceSystem": {"code": 1, "name": "House committee actions"}, "text": "Subcommittee on Aviation Discharged.", "type": "Committee"}, {"actionCode": "H11000", "actionDate": "2021-02-08", "committees": [{"name": "Aviation Subcommittee", "systemCode": "hspw05", "url": "https://api.congress.gov/v3/committee/house/hspw05?format=json"}], "sourceSystem": {"code": 1, "name": "House committee actions"}, "text": "Referred to the Subcommittee on Aviation.", "type": "Committee"}], "pagination": {"count": 23, "next": "https://api.congress.gov/v3/bill/117/hr/884/actions?offset=20&limit=20&format=json"}, "request": {"billNumber": "884", "billType": "hr", "billUrl": "https://api.congress.gov/v3/bill/117/hr/884?format=json", "congress": "117", "contentType": "application/json", "format": "json"}}, 200]