[{"actions": [{"actionDate": "2022-05-16", "committees": [{"name": "Commerce, Science, and Transportation Committee", "systemCode": "sscm00", "url": "https://api.congress.gov/v3/committee/senate/sscm00?format=json"}], "sourceSystem": {"name": "Senate"}, "text": "Received in the Senate and Read twice and referred to the Committee on Commerce, Science, and Transportation.", "type": "IntroReferral"}, {"actionCode": "H38800", "actionDate": "2022-05-12", "actionTime": "16:11:22", "sourceSystem": {"code": 2, "name": "House floor actions"}, "text": "The title of the measure was amended. Agreed to without objection.", "type": "Floor"}, {"actionCode": "H38310", "actionDate": "2022-05-12", "actionTime": "15:18:14", "sourceSystem": {"code": 2, "name": "House floor actions"}, "text": "Motion to reconsider laid on the table Agreed to without objection.", "type": "Floor"}, {"actionCode": "H37100", "actionDate": "2022-05-12", "actionTime": "15:18:12", "recordedVotes": [{"chamber": "House", "congress": 117, "date": "2022-05-12T19:18:12Z", "rollNumber": 172, "sessionNumber": 2, "url": "https://clerk.house.gov/evs/2022/roll172.xml"}], "sourceSystem": {"code": 2, "name": "House floor actions"}, "text": "On passage Passed by the Yeas and Nays: 220 - 201 (Roll no. 172).", "type": "Floor"}, {"actionCode": "8000", "actionDate": "2022-05-12", "actionTime": "15:18:12", "recordedVotes": [{"chamber": "House", "congress": 117, "date": "2022-05-12T19:18:12Z", "rollNumber": 172, "sessionNumber": 2, "url": "https://clerk.house.gov/evs/2022/roll172.xml"}], "sourceSystem": {"code": 9, "name": "Library of Congress"}, "text": "Passed/agreed to in House: On passage Passed by the Yeas and Nays: 220 - 201 (Roll no. 172).", "type": "Floor"}, {"actionCode": "H36210", "actionDate": "2022-05-12", "actionTime": "15:07:50", "committees": [{"name": "Homeland Security Committee", "systemCode": "hshm00", "url": "https://api.congress.gov/v3/committee/house/hshm00?format=json"}], "recordedVotes": [{"chamber": "House", "congress": 117, "date": "2022-05-12T19:07:50Z", "rollNumber": 171, "sessionNumber": 2, "url": "https://clerk.house.gov/evs/2022/roll171.xml"}], "sourceSystem": {"code": 2, "name": "House floor actions"}, "text": "On motion to recommit Failed by the Yeas and Nays: 205 - 216 (Roll no. 171).", "type": "Floor"}, {"actionCode": "H8A000", "actionDate": "2022-05-12", "actionTime": "14:57:26", "sourceSystem": {"code": 2, "name": "House floor actions"}, "text": "The previous question on the motion to recommit was ordered pursuant to clause 2(b) of rule XIX.", "type": "Floor"}, {"actionCode": "H36200", "actionDate": "2022-05-12", "actionTime": "14:57:12", "committees": [{"name": "Homeland Security Committee", "systemCode": "hshm00", "url": "https://api.congress.gov/v3/committee/house/hshm00?format=json"}], "sourceSystem": {"code": 2, "name": "House floor actions"}, "text": "Mr. Gooden (TX) moved to recommit to the Committee on Homeland Security. (text: CR H4893-4894)", "type": "Floor"}, {"actionCode": "H35000", "actionDate": "2022-05-12", "actionTime": "14:55:48", "sourceSystem": {"code": 2, "name": "House floor actions"}, "text": "The previous question was ordered pursuant to the rule.", "type": "Floor"}, {"actionCode": "H8D000", "actionDate": "2022-05-12", "actionTime": "13:44:04", "sourceSystem": {"code": 2, "name": "House floor actions"}, "text": "POSTPONED PROCEEDINGS - At the conclusion of debate on the Guest amendment No. 5, the Chair put the question on adoption of the amendment and by voice vote, announced that the noes had prevailed. Mr. Guest demanded the yeas and nays and the Chair postponed further proceedings until a time to be announced.", "type": "Floor"}, {"actionCode": "H8D000", "actionDate": "2022-05-12", "actionTime": "13:36:50", "sourceSystem": {"code": 2, "name": "House floor actions"}, "text": "DEBATE - Pursuant to the provisions of H. Res. 1097, the House proceeded with 10 minutes of debate on the Guest amendment No. 5.", "type": "Floor"}, {"actionCode": "H8D000", "actionDate": "2022-05-12", "actionTime": "13:35:26", "sourceSystem": {"code": 2, "name": "House floor actions"}, "text": "POSTPONED PROCEEDINGS - At the conclusion of debate on the Cammack amendment No. 3, the Chair put the question on adoption of the amendment and by voice vote, announced that the noes had prevailed. Mrs. Cammack demanded the yeas and nays and the Chair postponed further proceedings until a time to be announced.", "type": "Floor"}, {"actionCode": "H8D000", "actionDate": "2022-05-12", "actionTime": "13:24:40", "sourceSystem": {"code": 2, "name": "House floor actions"}, "text": "DEBATE - Pursuant to the provisions of H. Res. 1097, the House proceeded with 10 minutes of debate on the Cammack amendment No. 3.", "type": "Floor"}, {"actionCode": "H8D000", "actionDate": "2022-05-12", "actionTime": "13:23:15", "sourceSystem": {"code": 2, "name": "House floor actions"}, "text": "POSTPONED PROCEEDINGS - At the conclusion of debate on the Thompson (MS) amendment en bloc, the Chair put the question on adoption of the amendment and by voice vote, announced that the ayes had prevailed. Mr. Cloud demanded the yeas and nays and the Chair postponed further proceedings until a time to be announced.", "type": "Floor"}, {"actionCode": "H8D000", "actionDate": "2022-05-12", "actionTime": "13:15:48", "sourceSystem": {"code": 2, "name": "House floor actions"}, "text": "DEBATE - Pursuant to the provisions of H. Res. 1097, the House proceeded with 20 minutes of debate on the Thompson (MS) amendment en bloc.", "type": "Floor"}, {"actionCode": "H8D000", "actionDate": "2022-05-12", "actionTime": "12:25:33", "sourceSystem": {"code": 2, "name": "House floor actions"}, "text": "DEBATE - The House proceeded with one hour of debate on H.R. 903.", "type": "Floor"}, {"actionCode": "H8D000", "actionDate": "2022-05-12", "actionTime": "12:23:56", "sourceSystem": {"code": 2, "name": "House floor actions"}, "text": "Rule provides for consideration of H.R. 903, H.R. 2499, H.R. 5129 and H.R. 7691. The resolution provides for consideration of H.R. 903, H.R. 2499, and H.R. 5129 under a structured rule. H.R. 7691 is considered under a closed rule. Bills considered under the rule are debatable for one hour. The rule provides that H. Res. 1096 is adopted and amends H. Res. 188 by striking May 13, 2022 and inserting June 10, 2022.", "type": "Floor"}, {"actionCode": "H30000", "actionDate": "2022-05-12", "actionTime": "12:23:51", "sourceSystem": {"code": 2, "name": "House floor actions"}, "text": "Considered under the provisions of rule H. Res. 1097. (consideration: CR H4878-4896)", "type": "Floor"}, {"actionCode": "H1L210", "actionDate": "2022-05-10", "actionTime": "18:01:27", "sourceSystem": {"code": 2, "name": "House floor actions"}, "text": "Rules Committee Resolution H. Res. 1097 Reported to House. Rule provides for consideration of H.R. 903, H.R. 2499, H.R. 5129 and H.R. 7691. The resolution provides for consideration of H.R. 903, H.R. 2499, and H.R. 5129 under a structured rule. H.R. 7691 is considered under a closed rule. Bills considered under the rule are debatable for one hour. The rule provides that H. Res. 1096 is adopted and amends H. Res. 188 by striking May 13, 2022 and inserting June 10, 2022.", "type": "Floor"}, {"actionCode": "H12410", "actionDate": "2022-05-06", "calendarNumber": {"calendar": "U00230"}, "sourceSystem": {"code": 2, "name": "House floor actions"}, "text": "Placed on the Union Calendar, Calendar No. 230.", "type": "Calendars"}], "pagination": {"count": 33, "next": "https://api.congress.gov/v3/bill/117/hr/903/actions?offset=20&limit=20&format=json"}, "request": {"billNumber": "903", "billType": "hr", "billUrl": "https://api.congress.gov/v3/bill/117/hr/903?format=json", "congress": "117", "contentType": "application/json", "format": "json"}}, 200]