[{"actions": [{"actionDate": "2022-03-21", "committees": [{"name": "Judiciary Committee", "systemCode": "ssju00", "url": "https://api.congress.gov/v3/committee/senate/ssju00?format=json"}], "sourceSystem": {"name": "Senate"}, "text": "Received in the Senate and Read twice and referred to the Committee on the Judiciary.", "type": "IntroReferral"}, {"actionCode": "H38310", "actionDate": "2022-03-17", "actionTime": "16:41:59", "sourceSystem": {"code": 2, "name": "House floor actions"}, "text": "Motion to reconsider laid on the table Agreed to without objection.", "type": "Floor"}, {"actionCode": "H37100", "actionDate": "2022-03-17", "actionTime": "16:41:57", "recordedVotes": [{"chamber": "House", "congress": 117, "date": "2022-03-17T20:41:57Z", "rollNumber": 81, "sessionNumber": 2, "url": "https://clerk.house.gov/evs/2022/roll081.xml"}], "sourceSystem": {"code": 2, "name": "House floor actions"}, "text": "On passage Passed by the Yeas and Nays: 222 - 209 (Roll no. 81).", "type": "Floor"}, {"actionCode": "8000", "actionDate": "2022-03-17", "actionTime": "16:41:57", "recordedVotes": [{"chamber": "House", "congress": 117, "date": "2022-03-17T20:41:57Z", "rollNumber": 81, "sessionNumber": 2, "url": "https://clerk.house.gov/evs/2022/roll081.xml"}], "sourceSystem": {"code": 9, "name": "Library of Congress"}, "text": "Passed/agreed to in House: On passage Passed by the Yeas and Nays: 222 - 209 (Roll no. 81).", "type": "Floor"}, {"actionCode": "H36210", "actionDate": "2022-03-17", "actionTime": "16:23:13", "committees": [{"name": "Judiciary Committee", "systemCode": "hsju00", "url": "https://api.congress.gov/v3/committee/house/hsju00?format=json"}], "recordedVotes": [{"chamber": "House", "congress": 117, "date": "2022-03-17T20:23:13Z", "rollNumber": 80, "sessionNumber": 2, "url": "https://clerk.house.gov/evs/2022/roll080.xml"}], "sourceSystem": {"code": 2, "name": "House floor actions"}, "text": "On motion to recommit Failed by the Yeas and Nays: 208 - 222 (Roll no. 80).", "type": "Floor"}, {"actionCode": "H8A000", "actionDate": "2022-03-17", "actionTime": "16:04:36", "sourceSystem": {"code": 2, "name": "House floor actions"}, "text": "The previous question on the motion to recommit was ordered pursuant to clause 2(b) of rule XIX.", "type": "Floor"}, {"actionCode": "H36200", "actionDate": "2022-03-17", "actionTime": "16:04:24", "committees": [{"name": "Judiciary Committee", "systemCode": "hsju00", "url": "https://api.congress.gov/v3/committee/house/hsju00?format=json"}], "sourceSystem": {"code": 2, "name": "House floor actions"}, "text": "Mr. Bentz moved to recommit to the Committee on the Judiciary. (text: CR H3812)", "type": "Floor"}, {"actionCode": "H8D000", "actionDate": "2022-03-17", "actionTime": "15:42:34", "sourceSystem": {"code": 2, "name": "House floor actions"}, "text": "UNFINISHED BUSINESS - The Chair announced that the unfinished business was on agreeing to the Fitgerald amendment, which had been debated earlier and on which further proceedings had been postponed.", "type": "Floor"}, {"actionCode": "H30000", "actionDate": "2022-03-17", "actionTime": "15:41:37", "sourceSystem": {"code": 2, "name": "House floor actions"}, "text": "Considered as unfinished business. (consideration: CR H3811-3813)", "type": "Floor"}, {"actionCode": "H8D000", "actionDate": "2022-03-17", "actionTime": "15:41:30", "sourceSystem": {"code": 2, "name": "House floor actions"}, "text": "Pursuant to clause 1(c) of rule XIX, the House resumed proceedings on H.R. 963.", "type": "Floor"}, {"actionCode": "H8D000", "actionDate": "2022-03-17", "actionTime": "13:33:04", "sourceSystem": {"code": 2, "name": "House floor actions"}, "text": "Pursuant to clause 1(c) of rule XIX, further proceedings on H.R. 963 were postponed.", "type": "Floor"}, {"actionCode": "H8D000", "actionDate": "2022-03-17", "actionTime": "13:32:10", "sourceSystem": {"code": 2, "name": "House floor actions"}, "text": "POSTPONED PROCEEDINGS - At the conclusion of debate on the Fitzgerald amendment, the Chair put the question on adoption of the amendment and by voice vote, announced that the noes had prevailed. Mr. Fitzgerald demanded the yeas and nays and the Chair postponed further proceedings until a time to be announced.", "type": "Floor"}, {"actionCode": "H8D000", "actionDate": "2022-03-17", "actionTime": "13:23:38", "sourceSystem": {"code": 2, "name": "House floor actions"}, "text": "DEBATE - Pursuant to the provisions of H. Res. 979, the House proceeded with 10 minutes of debate on the Fitzgerald amendment No. 1.", "type": "Floor"}, {"actionCode": "H8D000", "actionDate": "2022-03-17", "actionTime": "12:18:49", "sourceSystem": {"code": 2, "name": "House floor actions"}, "text": "DEBATE - The House proceeded with one hour of debate on H.R. 963.", "type": "Floor"}, {"actionCode": "H8D000", "actionDate": "2022-03-17", "actionTime": "12:17:26", "sourceSystem": {"code": 2, "name": "House floor actions"}, "text": "Rule provides for consideration of H.R. 963 and H.R. 2116. The rule provides for one hour of general debate on both H.R. 963 and H.R. 2116.", "type": "Floor"}, {"actionCode": "H30000", "actionDate": "2022-03-17", "actionTime": "12:17:21", "sourceSystem": {"code": 2, "name": "House floor actions"}, "text": "Considered under the provisions of rule H. Res. 979. (consideration: CR H3788-3798)", "type": "Floor"}, {"actionCode": "H1L210", "actionDate": "2022-03-15", "actionTime": "16:18:48", "sourceSystem": {"code": 2, "name": "House floor actions"}, "text": "Rules Committee Resolution H. Res. 979 Reported to House. Rule provides for consideration of H.R. 963 and H.R. 2116. The rule provides for one hour of general debate on both H.R. 963 and H.R. 2116.", "type": "Floor"}, {"actionCode": "H12410", "actionDate": "2022-03-11", "calendarNumber": {"calendar": "U00198"}, "sourceSystem": {"code": 2, "name": "House floor actions"}, "text": "Placed on the Union Calendar, Calendar No. 198.", "type": "Calendars"}, {"actionCode": "H12200", "actionDate": "2022-03-11", "committees": [{"name": "Judiciary Committee", "systemCode": "hsju00", "url": "https://api.congress.gov/v3/committee/house/hsju00?format=json"}], "sourceSystem": {"code": 2, "name": "House floor actions"}, "text": "Reported (Amended) by the Committee on Judiciary. H. Rept. 117-270.", "type": "Committee"}, {"actionCode": "5000", "actionDate": "2022-03-11", "committees": [{"name": "Judiciary Committee", "systemCode": "hsju00", "url": "https://api.congress.gov/v3/committee/house/hsju00?format=json"}], "sourceSystem": {"code": 9, "name": "Library of Congress"}, "text": "Reported (Amended) by the Committee on Judiciary. H. Rept. 117-270.", "type": "Committee"}], "pagination": {"count": 27, "next": "https://api.congress.gov/v3/bill/117/hr/963/actions?offset=20&limit=20&format=json"}, "request": {"billNumber": "963", "billType": "hr", "billUrl": "https://api.congress.gov/v3/bill/117/hr/963?format=json", "congress": "117", "contentType": "application/json", "format": "json"}}, 200]