[{"actions": [{"actionDate": "2021-05-17", "committees": [{"name": "Health, Education, Labor, and Pensions Committee", "systemCode": "sshr00", "url": "https://api.congress.gov/v3/committee/senate/sshr00?format=json"}], "sourceSystem": {"name": "Senate"}, "text": "Received in the Senate and Read twice and referred to the Committee on Health, Education, Labor, and Pensions.", "type": "IntroReferral"}, {"actionCode": "H38310", "actionDate": "2021-05-14", "actionTime": "11:06:02", "sourceSystem": {"code": 2, "name": "House floor actions"}, "text": "Motion to reconsider laid on the table Agreed to without objection.", "type": "Floor"}, {"actionCode": "H37100", "actionDate": "2021-05-14", "actionTime": "11:06:00", "recordedVotes": [{"chamber": "House", "congress": 117, "date": "2021-05-14T15:06:00Z", "rollNumber": 143, "sessionNumber": 1, "url": "https://clerk.house.gov/evs/2021/roll143.xml"}], "sourceSystem": {"code": 2, "name": "House floor actions"}, "text": "On passage Passed by the Yeas and Nays: 315 - 101 (Roll no. 143).", "type": "Floor"}, {"actionCode": "8000", "actionDate": "2021-05-14", "actionTime": "11:06:00", "recordedVotes": [{"chamber": "House", "congress": 117, "date": "2021-05-14T15:06:00Z", "rollNumber": 143, "sessionNumber": 1, "url": "https://clerk.house.gov/evs/2021/roll143.xml"}], "sourceSystem": {"code": 9, "name": "Library of Congress"}, "text": "Passed/agreed to in House: On passage Passed by the Yeas and Nays: 315 - 101 (Roll no. 143).", "type": "Floor"}, {"actionCode": "H35000", "actionDate": "2021-05-14", "actionTime": "10:26:56", "sourceSystem": {"code": 2, "name": "House floor actions"}, "text": "The previous question was ordered pursuant to the rule.", "type": "Floor"}, {"actionCode": "H8D000", "actionDate": "2021-05-14", "actionTime": "09:17:06", "sourceSystem": {"code": 2, "name": "House floor actions"}, "text": "DEBATE - The House proceeded with one hour of debate on H.R. 1065.", "type": "Floor"}, {"actionCode": "H8D000", "actionDate": "2021-05-14", "actionTime": "09:15:31", "sourceSystem": {"code": 2, "name": "House floor actions"}, "text": "Rule provides for consideration of H.R. 2547 and H.R. 1065. Measure will be considered read. Specified amendments are in order. The previous question on each measure is considered ordered without intervening motions except one hour of debate and a motion to recommit. H. Res. 379 is adopted.", "type": "Floor"}, {"actionCode": "H30000", "actionDate": "2021-05-14", "actionTime": "09:15:26", "sourceSystem": {"code": 2, "name": "House floor actions"}, "text": "Considered under the provisions of rule H. Res. 380. (consideration: CR H2321-2343)", "type": "Floor"}, {"actionCode": "H1L220", "actionDate": "2021-05-12", "actionTime": "16:22:27", "sourceSystem": {"code": 2, "name": "House floor actions"}, "text": "Rule H. Res. 380 passed House.", "type": "Floor"}, {"actionCode": "H1L210", "actionDate": "2021-05-11", "actionTime": "18:16:35", "sourceSystem": {"code": 2, "name": "House floor actions"}, "text": "Rules Committee Resolution H. Res. 380 Reported to House. Rule provides for consideration of H.R. 2547 and H.R. 1065. Measure will be considered read. Specified amendments are in order. The previous question on each measure is considered ordered without intervening motions except one hour of debate and a motion to recommit. H. Res. 379 is adopted.", "type": "Floor"}, {"actionCode": "H12410", "actionDate": "2021-05-04", "calendarNumber": {"calendar": "U00014"}, "sourceSystem": {"code": 2, "name": "House floor actions"}, "text": "Placed on the Union Calendar, Calendar No. 14.", "type": "Calendars"}, {"actionCode": "H12300", "actionDate": "2021-05-04", "committees": [{"name": "Judiciary Committee", "systemCode": "hsju00", "url": "https://api.congress.gov/v3/committee/house/hsju00?format=json"}], "sourceSystem": {"code": 2, "name": "House floor actions"}, "text": "Committee on the Judiciary discharged.", "type": "Discharge"}, {"actionCode": "5500", "actionDate": "2021-05-04", "committees": [{"name": "Judiciary Committee", "systemCode": "hsju00", "url": "https://api.congress.gov/v3/committee/house/hsju00?format=json"}], "sourceSystem": {"code": 9, "name": "Library of Congress"}, "text": "Committee on the Judiciary discharged.", "type": "Committee"}, {"actionCode": "H12300", "actionDate": "2021-05-04", "committees": [{"name": "Oversight and Accountability Committee", "systemCode": "hsgo00", "url": "https://api.congress.gov/v3/committee/house/hsgo00?format=json"}], "sourceSystem": {"code": 2, "name": "House floor actions"}, "text": "Committee on Oversight and Reform discharged.", "type": "Discharge"}, {"actionCode": "5500", "actionDate": "2021-05-04", "committees": [{"name": "Oversight and Accountability Committee", "systemCode": "hsgo00", "url": "https://api.congress.gov/v3/committee/house/hsgo00?format=json"}], "sourceSystem": {"code": 9, "name": "Library of Congress"}, "text": "Committee on Oversight and Reform discharged.", "type": "Committee"}, {"actionCode": "H12300", "actionDate": "2021-05-04", "committees": [{"name": "Committee on House Administration", "systemCode": "hsha00", "url": "https://api.congress.gov/v3/committee/house/hsha00?format=json"}], "sourceSystem": {"code": 2, "name": "House floor actions"}, "text": "Committee on House Administration discharged.", "type": "Discharge"}, {"actionCode": "5500", "actionDate": "2021-05-04", "committees": [{"name": "Committee on House Administration", "systemCode": "hsha00", "url": "https://api.congress.gov/v3/committee/house/hsha00?format=json"}], "sourceSystem": {"code": 9, "name": "Library of Congress"}, "text": "Committee on House Administration discharged.", "type": "Committee"}, {"actionCode": "H12200", "actionDate": "2021-05-04", "committees": [{"name": "Education and the Workforce Committee", "systemCode": "hsed00", "url": "https://api.congress.gov/v3/committee/house/hsed00?format=json"}], "sourceSystem": {"code": 2, "name": "House floor actions"}, "text": "Reported (Amended) by the Committee on Education and Labor. H. Rept. 117-27, Part I.", "type": "Committee"}, {"actionCode": "5000", "actionDate": "2021-05-04", "committees": [{"name": "Education and the Workforce Committee", "systemCode": "hsed00", "url": "https://api.congress.gov/v3/committee/house/hsed00?format=json"}], "sourceSystem": {"code": 9, "name": "Library of Congress"}, "text": "Reported (Amended) by the Committee on Education and Labor. H. Rept. 117-27, Part I.", "type": "Committee"}, {"actionCode": "H11000", "actionDate": "2021-04-28", "committees": [{"name": "Constitution and Limited Government Subcommittee", "systemCode": "hsju10", "url": "https://api.congress.gov/v3/committee/house/hsju10?format=json"}], "sourceSystem": {"code": 1, "name": "House committee actions"}, "text": "Referred to the Subcommittee on the Constitution, Civil Rights, and Civil Liberties.", "type": "Committee"}], "pagination": {"count": 28, "next": "https://api.congress.gov/v3/bill/117/hr/1065/actions?offset=20&limit=20&format=json"}, "request": {"billNumber": "1065", "billType": "hr", "billUrl": "https://api.congress.gov/v3/bill/117/hr/1065?format=json", "congress": "117", "contentType": "application/json", "format": "json"}}, 200]