[{"actions": [{"actionCode": "E40000", "actionDate": "2023-01-05", "sourceSystem": {"code": 9, "name": "Library of Congress"}, "text": "Became Public Law No: 117-330.", "type": "President"}, {"actionCode": "36000", "actionDate": "2023-01-05", "sourceSystem": {"code": 9, "name": "Library of Congress"}, "text": "Became Public Law No: 117-330.", "type": "BecameLaw"}, {"actionCode": "E30000", "actionDate": "2023-01-05", "sourceSystem": {"code": 9, "name": "Library of Congress"}, "text": "Signed by President.", "type": "President"}, {"actionCode": "36000", "actionDate": "2023-01-05", "sourceSystem": {"code": 9, "name": "Library of Congress"}, "text": "Signed by President.", "type": "BecameLaw"}, {"actionCode": "E20000", "actionDate": "2022-12-28", "sourceSystem": {"code": 2, "name": "House floor actions"}, "text": "Presented to President.", "type": "Floor"}, {"actionCode": "28000", "actionDate": "2022-12-28", "sourceSystem": {"code": 9, "name": "Library of Congress"}, "text": "Presented to President.", "type": "President"}, {"actionCode": "H1B000", "actionDate": "2022-12-23", "actionTime": "12:38:24", "sourceSystem": {"code": 2, "name": "House floor actions"}, "text": "Pursuant to the provisions of H. Res. 1531 the House agreed to the Senate amendments.", "type": "Floor"}, {"actionCode": "19500", "actionDate": "2022-12-23", "sourceSystem": {"code": 9, "name": "Library of Congress"}, "text": "Resolving differences -- House actions: Pursuant to the provisions of H. Res. 1531 the House agreed to the Senate amendments.", "type": "NotUsed"}, {"actionDate": "2022-12-23", "sourceSystem": {"name": "Senate"}, "text": "Message on Senate action sent to the House.", "type": "Floor"}, {"actionDate": "2022-12-22", "sourceSystem": {"name": "Senate"}, "text": "Passed Senate with an amendment and an amendment to the Title by Unanimous Consent. (text of amendment in the nature of a substitute: CR S10100)", "type": "Floor"}, {"actionCode": "17000", "actionDate": "2022-12-22", "sourceSystem": {"code": 9, "name": "Library of Congress"}, "text": "Passed/agreed to in Senate: Passed Senate with an amendment and an amendment to the Title by Unanimous Consent.(text of amendment in the nature of a substitute: CR S10100)", "type": "Floor"}, {"actionDate": "2022-12-22", "sourceSystem": {"name": "Senate"}, "text": "Measure laid before Senate by unanimous consent. (consideration: CR S10099)", "type": "Floor"}, {"actionDate": "2022-12-15", "sourceSystem": {"name": "Senate"}, "text": "Received in the Senate, read twice.", "type": "IntroReferral"}, {"actionCode": "H37300", "actionDate": "2022-12-14", "actionTime": "15:13:07", "sourceSystem": {"code": 2, "name": "House floor actions"}, "text": "Pursuant to section 5 of H. Res. 1518, and the motion offered by Mr. Hoyer, the following bills passed under suspension of the rules: H.R. 1082, as amended; H.R. 5349; H.R. 6218; H.R. 6220; H.R. 6221; H.R. 6611, as amended; H.R. 6630; H.R. 6725; H.R. 7077, agreed to Senate amendment; H.R. 7832; H.R. 8665; S. 558; and S. 789. S. 558; and S. 789. (consideration: CR H9803-9810; text: CR H9803-9804)", "type": "Floor"}, {"actionCode": "8000", "actionDate": "2022-12-14", "actionTime": "15:13:07", "sourceSystem": {"code": 9, "name": "Library of Congress"}, "text": "Passed/agreed to in House: Pursuant to section 5 of H. Res. 1518, and the motion offered by Mr. Hoyer, the following bills passed under suspension of the rules: H.R. 1082, as amended; H.R. 5349; H.R. 6218; H.R. 6220; H.R. 6221; H.R. 6611, as amended; H.R. 6630; H.R. 6725; H.R. 7077, agreed to Senate amendment; H.R. 7832; H.R. 8665; S. 558; and S. 789. S. 558; and S. 789.", "type": "Floor"}, {"actionCode": "H1B000", "actionDate": "2022-12-14", "actionTime": "15:13:06", "sourceSystem": {"code": 2, "name": "House floor actions"}, "text": "Pursuant to the provisions of H. Res. 1518, proceedings on H.R. 1082 are considered vacated.", "type": "Floor"}, {"actionCode": "H38800", "actionDate": "2022-12-14", "actionTime": "14:29:26", "sourceSystem": {"code": 2, "name": "House floor actions"}, "text": "The title of the measure was amended. Agreed to without objection.", "type": "Floor"}, {"actionCode": "H37220", "actionDate": "2022-12-13", "actionTime": "15:28:24", "sourceSystem": {"code": 2, "name": "House floor actions"}, "text": "At the conclusion of debate, the Yeas and Nays were demanded and ordered. Pursuant to the provisions of clause 8, rule XX, the Chair announced that further proceedings on the motion would be postponed.", "type": "Floor"}, {"actionCode": "H8D000", "actionDate": "2022-12-13", "actionTime": "15:10:53", "sourceSystem": {"code": 2, "name": "House floor actions"}, "text": "DEBATE - The House proceeded with forty minutes of debate on H.R. 1082.", "type": "Floor"}, {"actionCode": "H30000", "actionDate": "2022-12-13", "actionTime": "15:10:51", "sourceSystem": {"code": 2, "name": "House floor actions"}, "text": "Considered under suspension of the rules. (consideration: CR H9725-9728; text: CR H9725)", "type": "Floor"}], "pagination": {"count": 28, "next": "https://api.congress.gov/v3/bill/117/hr/1082/actions?offset=20&limit=20&format=json"}, "request": {"billNumber": "1082", "billType": "hr", "billUrl": "https://api.congress.gov/v3/bill/117/hr/1082?format=json", "congress": "117", "contentType": "application/json", "format": "json"}}, 200]