[{"actions": [{"actionCode": "E40000", "actionDate": "2022-06-23", "sourceSystem": {"code": 9, "name": "Library of Congress"}, "text": "Became Public Law No: 117-152.", "type": "President"}, {"actionCode": "36000", "actionDate": "2022-06-23", "sourceSystem": {"code": 9, "name": "Library of Congress"}, "text": "Became Public Law No: 117-152.", "type": "BecameLaw"}, {"actionCode": "E30000", "actionDate": "2022-06-23", "sourceSystem": {"code": 9, "name": "Library of Congress"}, "text": "Signed by President.", "type": "President"}, {"actionCode": "36000", "actionDate": "2022-06-23", "sourceSystem": {"code": 9, "name": "Library of Congress"}, "text": "Signed by President.", "type": "BecameLaw"}, {"actionCode": "E20000", "actionDate": "2022-06-22", "sourceSystem": {"code": 2, "name": "House floor actions"}, "text": "Presented to President.", "type": "Floor"}, {"actionCode": "28000", "actionDate": "2022-06-22", "sourceSystem": {"code": 9, "name": "Library of Congress"}, "text": "Presented to President.", "type": "President"}, {"actionDate": "2022-05-25", "sourceSystem": {"name": "Senate"}, "text": "Message on Senate action sent to the House.", "type": "Floor"}, {"actionDate": "2022-05-25", "sourceSystem": {"name": "Senate"}, "text": "Passed Senate without amendment by Unanimous Consent. (consideration: CR S2679)", "type": "Floor"}, {"actionCode": "17000", "actionDate": "2022-05-25", "sourceSystem": {"code": 9, "name": "Library of Congress"}, "text": "Passed/agreed to in Senate: Passed Senate without amendment by Unanimous Consent.", "type": "Floor"}, {"actionDate": "2021-12-16", "calendarNumber": {"calendar": "Senate Calendar of Business", "number": "0186"}, "sourceSystem": {"name": "Senate"}, "text": "Placed on Senate Legislative Calendar under General Orders. Calendar No. 186.", "type": "Calendars"}, {"actionDate": "2021-12-16", "committees": [{"name": "Homeland Security and Governmental Affairs Committee", "systemCode": "ssga00", "url": "https://api.congress.gov/v3/committee/senate/ssga00?format=json"}], "sourceSystem": {"name": "Senate"}, "text": "Committee on Homeland Security and Governmental Affairs. Reported by Senator Peters without amendment. Without written report.", "type": "Committee"}, {"actionCode": "14000", "actionDate": "2021-12-16", "committees": [{"name": "Homeland Security and Governmental Affairs Committee", "systemCode": "ssga00", "url": "https://api.congress.gov/v3/committee/senate/ssga00?format=json"}], "sourceSystem": {"code": 9, "name": "Library of Congress"}, "text": "Committee on Homeland Security and Governmental Affairs. Reported by Senator Peters without amendment. Without written report.", "type": "Committee"}, {"actionDate": "2021-12-15", "committees": [{"name": "Homeland Security and Governmental Affairs Committee", "systemCode": "ssga00", "url": "https://api.congress.gov/v3/committee/senate/ssga00?format=json"}], "sourceSystem": {"name": "Senate"}, "text": "Committee on Homeland Security and Governmental Affairs. Ordered to be reported without amendment favorably.", "type": "Committee"}, {"actionDate": "2021-10-21", "committees": [{"name": "Homeland Security and Governmental Affairs Committee", "systemCode": "ssga00", "url": "https://api.congress.gov/v3/committee/senate/ssga00?format=json"}], "sourceSystem": {"name": "Senate"}, "text": "Received in the Senate and Read twice and referred to the Committee on Homeland Security and Governmental Affairs.", "type": "IntroReferral"}, {"actionCode": "H38310", "actionDate": "2021-10-20", "actionTime": "12:37:07", "sourceSystem": {"code": 2, "name": "House floor actions"}, "text": "Motion to reconsider laid on the table Agreed to without objection.", "type": "Floor"}, {"actionCode": "H37300", "actionDate": "2021-10-20", "actionTime": "12:37:00", "sourceSystem": {"code": 2, "name": "House floor actions"}, "text": "On motion to suspend the rules and pass the bill Agreed to by voice vote. (text: CR H5691)", "type": "Floor"}, {"actionCode": "8000", "actionDate": "2021-10-20", "actionTime": "12:37:00", "sourceSystem": {"code": 9, "name": "Library of Congress"}, "text": "Passed/agreed to in House: On motion to suspend the rules and pass the bill Agreed to by voice vote.(text: CR H5691)", "type": "Floor"}, {"actionCode": "H8D000", "actionDate": "2021-10-20", "actionTime": "12:29:17", "sourceSystem": {"code": 2, "name": "House floor actions"}, "text": "DEBATE - The House proceeded with forty minutes of debate on H.R. 1170.", "type": "Floor"}, {"actionCode": "H30000", "actionDate": "2021-10-20", "actionTime": "12:29:12", "sourceSystem": {"code": 2, "name": "House floor actions"}, "text": "Considered under suspension of the rules. (consideration: CR H5691-5692)", "type": "Floor"}, {"actionCode": "H30300", "actionDate": "2021-10-20", "actionTime": "12:29:09", "sourceSystem": {"code": 2, "name": "House floor actions"}, "text": "Mrs. Maloney, Carolyn B. moved to suspend the rules and pass the bill.", "type": "Floor"}], "pagination": {"count": 25, "next": "https://api.congress.gov/v3/bill/117/hr/1170/actions?offset=20&limit=20&format=json"}, "request": {"billNumber": "1170", "billType": "hr", "billUrl": "https://api.congress.gov/v3/bill/117/hr/1170?format=json", "congress": "117", "contentType": "application/json", "format": "json"}}, 200]