[{"actions": [{"actionDate": "2021-06-17", "committees": [{"name": "Banking, Housing, and Urban Affairs Committee", "systemCode": "ssbk00", "url": "https://api.congress.gov/v3/committee/senate/ssbk00?format=json"}], "sourceSystem": {"name": "Senate"}, "text": "Received in the Senate and Read twice and referred to the Committee on Banking, Housing, and Urban Affairs.", "type": "IntroReferral"}, {"actionCode": "H38310", "actionDate": "2021-06-16", "actionTime": "17:44:21", "sourceSystem": {"code": 2, "name": "House floor actions"}, "text": "Motion to reconsider laid on the table Agreed to without objection.", "type": "Floor"}, {"actionCode": "H37100", "actionDate": "2021-06-16", "actionTime": "17:44:18", "recordedVotes": [{"chamber": "House", "congress": 117, "date": "2021-06-16T21:44:18Z", "rollNumber": 169, "sessionNumber": 1, "url": "https://clerk.house.gov/evs/2021/roll169.xml"}], "sourceSystem": {"code": 2, "name": "House floor actions"}, "text": "On passage Passed by the Yeas and Nays: 215 - 214 (Roll no. 169).", "type": "Floor"}, {"actionCode": "8000", "actionDate": "2021-06-16", "actionTime": "17:44:18", "recordedVotes": [{"chamber": "House", "congress": 117, "date": "2021-06-16T21:44:18Z", "rollNumber": 169, "sessionNumber": 1, "url": "https://clerk.house.gov/evs/2021/roll169.xml"}], "sourceSystem": {"code": 9, "name": "Library of Congress"}, "text": "Passed/agreed to in House: On passage Passed by the Yeas and Nays: 215 - 214 (Roll no. 169).", "type": "Floor"}, {"actionCode": "H36210", "actionDate": "2021-06-16", "actionTime": "17:20:04", "committees": [{"name": "Financial Services Committee", "systemCode": "hsba00", "url": "https://api.congress.gov/v3/committee/house/hsba00?format=json"}], "recordedVotes": [{"chamber": "House", "congress": 117, "date": "2021-06-16T21:20:04Z", "rollNumber": 168, "sessionNumber": 1, "url": "https://clerk.house.gov/evs/2021/roll168.xml"}], "sourceSystem": {"code": 2, "name": "House floor actions"}, "text": "On motion to recommit Failed by the Yeas and Nays: 207 - 218 (Roll no. 168).", "type": "Floor"}, {"actionCode": "H8A000", "actionDate": "2021-06-16", "actionTime": "16:58:43", "sourceSystem": {"code": 2, "name": "House floor actions"}, "text": "The previous question on the motion to recommit was ordered pursuant to clause 2(b) of rule XIX.", "type": "Floor"}, {"actionCode": "H36200", "actionDate": "2021-06-16", "actionTime": "16:58:33", "committees": [{"name": "Financial Services Committee", "systemCode": "hsba00", "url": "https://api.congress.gov/v3/committee/house/hsba00?format=json"}], "sourceSystem": {"code": 2, "name": "House floor actions"}, "text": "Mr. Barr moved to recommit to the Committee on Financial Services. (text: CR H2862)", "type": "Floor"}, {"actionCode": "H35000", "actionDate": "2021-06-16", "actionTime": "16:57:44", "sourceSystem": {"code": 2, "name": "House floor actions"}, "text": "The previous question was ordered pursuant to the rule.", "type": "Floor"}, {"actionCode": "H8D000", "actionDate": "2021-06-16", "actionTime": "16:57:28", "sourceSystem": {"code": 2, "name": "House floor actions"}, "text": "Motion to reconsider laid on the table. Agreed to without objection.", "type": "Floor"}, {"actionCode": "H8D000", "actionDate": "2021-06-16", "actionTime": "16:35:15", "sourceSystem": {"code": 2, "name": "House floor actions"}, "text": "Motion to reconsider laid on the table. Agreed to without objection.", "type": "Floor"}, {"actionCode": "H8D000", "actionDate": "2021-06-16", "actionTime": "16:09:54", "sourceSystem": {"code": 2, "name": "House floor actions"}, "text": "Motion to reconsider laid on the table. Agreed to without objection.", "type": "Floor"}, {"actionCode": "H8D000", "actionDate": "2021-06-16", "actionTime": "15:49:07", "sourceSystem": {"code": 2, "name": "House floor actions"}, "text": "Motion to reconsider laid on the table. Agreed to without objection.", "type": "Floor"}, {"actionCode": "H8D000", "actionDate": "2021-06-16", "actionTime": "15:27:11", "sourceSystem": {"code": 2, "name": "House floor actions"}, "text": "UNFINISHED BUSINESS - The Chair announced that the unfinished business was on agreeing to amendments which were debated earlier and on which previous questions were postponed.", "type": "Floor"}, {"actionCode": "H30000", "actionDate": "2021-06-16", "actionTime": "15:26:59", "sourceSystem": {"code": 2, "name": "House floor actions"}, "text": "Considered as unfinished business. (consideration: CR H2859-2863)", "type": "Floor"}, {"actionCode": "H8D000", "actionDate": "2021-06-16", "actionTime": "15:26:40", "sourceSystem": {"code": 2, "name": "House floor actions"}, "text": "Pursuant to clause 1(c) of rule XIX, the House resumed consideration of H.R. 1187.", "type": "Floor"}, {"actionCode": "H8D000", "actionDate": "2021-06-16", "actionTime": "14:30:19", "sourceSystem": {"code": 2, "name": "House floor actions"}, "text": "POSTPONED PROCEEDINGS - Pursuant to clause 1(c) of rule XIX further proceedings on H.R. 1187 were postponed.", "type": "Floor"}, {"actionCode": "H8D000", "actionDate": "2021-06-16", "actionTime": "14:23:56", "sourceSystem": {"code": 2, "name": "House floor actions"}, "text": "DEBATE - Pursuant to the provisions of H. Res. 473, the House proceeded with 10 minutes of debate on the Plaskett amendment No. 10.", "type": "Floor"}, {"actionCode": "H8D000", "actionDate": "2021-06-16", "actionTime": "14:23:02", "sourceSystem": {"code": 2, "name": "House floor actions"}, "text": "POSTPONED PROCEEDINGS - At the conclusion of debate on the Schrier amendment, the Chair put the question on adoption of the amendment and by voice vote, announced that the ayes had prevailed. Ms. Waters demanded the yeas and nays and the Chair postponed further proceedings until a time to be announced.", "type": "Floor"}, {"actionCode": "H8D000", "actionDate": "2021-06-16", "actionTime": "14:15:48", "sourceSystem": {"code": 2, "name": "House floor actions"}, "text": "DEBATE - Pursuant to the provisions of H. Res. 473, the House proceeded with 10 minutes of debate on the Schrier amendment No. 8.", "type": "Floor"}, {"actionCode": "H8D000", "actionDate": "2021-06-16", "actionTime": "14:14:58", "sourceSystem": {"code": 2, "name": "House floor actions"}, "text": "POSTPONED PROCEEDINGS - At the conclusion of debate on the Hill amendment, the Chair put the question on adoption of the amendment and by voice vote, announced that the noes had prevailed. Mr. Hill demanded the yeas and nays and the Chair postponed further proceedings until a time to be announced.", "type": "Floor"}], "pagination": {"count": 39, "next": "https://api.congress.gov/v3/bill/117/hr/1187/actions?offset=20&limit=20&format=json"}, "request": {"billNumber": "1187", "billType": "hr", "billUrl": "https://api.congress.gov/v3/bill/117/hr/1187?format=json", "congress": "117", "contentType": "application/json", "format": "json"}}, 200]