[{"actions": [{"actionCode": "E40000", "actionDate": "2022-12-20", "sourceSystem": {"code": 9, "name": "Library of Congress"}, "text": "Became Public Law No: 117-244.", "type": "President"}, {"actionCode": "36000", "actionDate": "2022-12-20", "sourceSystem": {"code": 9, "name": "Library of Congress"}, "text": "Became Public Law No: 117-244.", "type": "BecameLaw"}, {"actionCode": "E30000", "actionDate": "2022-12-20", "sourceSystem": {"code": 9, "name": "Library of Congress"}, "text": "Signed by President.", "type": "President"}, {"actionCode": "36000", "actionDate": "2022-12-20", "sourceSystem": {"code": 9, "name": "Library of Congress"}, "text": "Signed by President.", "type": "BecameLaw"}, {"actionCode": "E20000", "actionDate": "2022-12-16", "sourceSystem": {"code": 2, "name": "House floor actions"}, "text": "Presented to President.", "type": "Floor"}, {"actionCode": "28000", "actionDate": "2022-12-16", "sourceSystem": {"code": 9, "name": "Library of Congress"}, "text": "Presented to President.", "type": "President"}, {"actionCode": "H41931", "actionDate": "2022-12-05", "actionTime": "16:23:39", "sourceSystem": {"code": 2, "name": "House floor actions"}, "text": "Motion to reconsider laid on the table Agreed to without objection.", "type": "ResolvingDifferences"}, {"actionCode": "H41610", "actionDate": "2022-12-05", "actionTime": "16:23:35", "sourceSystem": {"code": 2, "name": "House floor actions"}, "text": "On motion that the House suspend the rules and agree to the Senate amendment Agreed to by voice vote. (text: CR H8755)", "type": "ResolvingDifferences"}, {"actionCode": "19500", "actionDate": "2022-12-05", "sourceSystem": {"code": 9, "name": "Library of Congress"}, "text": "Resolving differences -- House actions: On motion that the House suspend the rules and agree to the Senate amendment Agreed to by voice vote.", "type": "NotUsed"}, {"actionCode": "H8D000", "actionDate": "2022-12-05", "actionTime": "16:12:17", "sourceSystem": {"code": 2, "name": "House floor actions"}, "text": "DEBATE - The House proceeded with forty minutes of debate on the Senate amendment to H.R. 1193.", "type": "Floor"}, {"actionCode": "H40140", "actionDate": "2022-12-05", "actionTime": "16:11:59", "sourceSystem": {"code": 2, "name": "House floor actions"}, "text": "Mr. Pallone moved that the House suspend the rules and agree to the Senate amendment. (consideration: CR H8755-8756)", "type": "ResolvingDifferences"}, {"actionDate": "2022-12-05", "sourceSystem": {"name": "Senate"}, "text": "Message on Senate action sent to the House.", "type": "Floor"}, {"actionDate": "2022-12-01", "sourceSystem": {"name": "Senate"}, "text": "Passed Senate with an amendment by Unanimous Consent. (text of amendment in the nature of a substitute: CR S6947)", "type": "Floor"}, {"actionCode": "17000", "actionDate": "2022-12-01", "sourceSystem": {"code": 9, "name": "Library of Congress"}, "text": "Passed/agreed to in Senate: Passed Senate with an amendment by Unanimous Consent.(text of amendment in the nature of a substitute: CR S6947)", "type": "Floor"}, {"actionDate": "2022-12-01", "sourceSystem": {"name": "Senate"}, "text": "The committee substitute withdrawn by Unanimous Consent.", "type": "Floor"}, {"actionDate": "2022-12-01", "sourceSystem": {"name": "Senate"}, "text": "Measure laid before Senate by unanimous consent. (consideration: CR S6946-6947)", "type": "Floor"}, {"actionDate": "2022-07-12", "calendarNumber": {"calendar": "Senate Calendar of Business", "number": "0443"}, "sourceSystem": {"name": "Senate"}, "text": "Placed on Senate Legislative Calendar under General Orders. Calendar No. 443.", "type": "Calendars"}, {"actionDate": "2022-07-12", "committees": [{"name": "Health, Education, Labor, and Pensions Committee", "systemCode": "sshr00", "url": "https://api.congress.gov/v3/committee/senate/sshr00?format=json"}], "sourceSystem": {"name": "Senate"}, "text": "Committee on Health, Education, Labor, and Pensions. Reported by Senator Murray with an amendment in the nature of a substitute. Without written report.", "type": "Committee"}, {"actionCode": "14000", "actionDate": "2022-07-12", "committees": [{"name": "Health, Education, Labor, and Pensions Committee", "systemCode": "sshr00", "url": "https://api.congress.gov/v3/committee/senate/sshr00?format=json"}], "sourceSystem": {"code": 9, "name": "Library of Congress"}, "text": "Committee on Health, Education, Labor, and Pensions. Reported by Senator Murray with an amendment in the nature of a substitute. Without written report.", "type": "Committee"}, {"actionDate": "2022-06-14", "committees": [{"name": "Health, Education, Labor, and Pensions Committee", "systemCode": "sshr00", "url": "https://api.congress.gov/v3/committee/senate/sshr00?format=json"}], "sourceSystem": {"name": "Senate"}, "text": "Committee on Health, Education, Labor, and Pensions. Ordered to be reported without amendment favorably.", "type": "Committee"}], "pagination": {"count": 40, "next": "https://api.congress.gov/v3/bill/117/hr/1193/actions?offset=20&limit=20&format=json"}, "request": {"billNumber": "1193", "billType": "hr", "billUrl": "https://api.congress.gov/v3/bill/117/hr/1193?format=json", "congress": "117", "contentType": "application/json", "format": "json"}}, 200]