[{"actions": [{"actionDate": "2021-04-19", "committees": [{"name": "Health, Education, Labor, and Pensions Committee", "systemCode": "sshr00", "url": "https://api.congress.gov/v3/committee/senate/sshr00?format=json"}], "sourceSystem": {"name": "Senate"}, "text": "Received in the Senate and Read twice and referred to the Committee on Health, Education, Labor, and Pensions.", "type": "IntroReferral"}, {"actionCode": "H38310", "actionDate": "2021-04-16", "actionTime": "11:50:14", "sourceSystem": {"code": 2, "name": "House floor actions"}, "text": "Motion to reconsider laid on the table Agreed to without objection.", "type": "Floor"}, {"actionCode": "H37100", "actionDate": "2021-04-16", "actionTime": "11:50:12", "recordedVotes": [{"chamber": "House", "congress": 117, "date": "2021-04-16T15:50:12Z", "rollNumber": 118, "sessionNumber": 1, "url": "https://clerk.house.gov/evs/2021/roll118.xml"}], "sourceSystem": {"code": 2, "name": "House floor actions"}, "text": "On passage Passed by the Yeas and Nays: 254 - 166 (Roll no. 118).", "type": "Floor"}, {"actionCode": "8000", "actionDate": "2021-04-16", "actionTime": "11:50:12", "recordedVotes": [{"chamber": "House", "congress": 117, "date": "2021-04-16T15:50:12Z", "rollNumber": 118, "sessionNumber": 1, "url": "https://clerk.house.gov/evs/2021/roll118.xml"}], "sourceSystem": {"code": 9, "name": "Library of Congress"}, "text": "Passed/agreed to in House: On passage Passed by the Yeas and Nays: 254 - 166 (Roll no. 118).", "type": "Floor"}, {"actionCode": "H35000", "actionDate": "2021-04-16", "actionTime": "11:19:29", "sourceSystem": {"code": 2, "name": "House floor actions"}, "text": "The previous question was ordered pursuant to the rule.", "type": "Floor"}, {"actionCode": "H8D000", "actionDate": "2021-04-16", "actionTime": "11:19:20", "sourceSystem": {"code": 2, "name": "House floor actions"}, "text": "Motion to reconsider laid on the table. Agreed to without objection.", "type": "Floor"}, {"actionCode": "H8D000", "actionDate": "2021-04-16", "actionTime": "10:35:26", "sourceSystem": {"code": 2, "name": "House floor actions"}, "text": "DEBATE - Pursuant to the provisions of H. Res. 303, the House proceeded with 10 minutes of debate on the Keller amendment No. 5.", "type": "Floor"}, {"actionCode": "H8D000", "actionDate": "2021-04-16", "actionTime": "10:32:07", "sourceSystem": {"code": 2, "name": "House floor actions"}, "text": "Motion to reconsider laid on the table. Agreed to without objection.", "type": "Floor"}, {"actionCode": "H8D000", "actionDate": "2021-04-16", "actionTime": "10:20:24", "sourceSystem": {"code": 2, "name": "House floor actions"}, "text": "DEBATE - Pursuant to the provisions of H. Res. 303, the House proceeded with 20 minutes of debate on the Courtney amendment en bloc No. 1.", "type": "Floor"}, {"actionCode": "H8D000", "actionDate": "2021-04-16", "actionTime": "09:18:21", "sourceSystem": {"code": 2, "name": "House floor actions"}, "text": "DEBATE - The House proceeded with one hour of debate on H.R. 1195.", "type": "Floor"}, {"actionCode": "H8D000", "actionDate": "2021-04-16", "actionTime": "09:17:18", "sourceSystem": {"code": 2, "name": "House floor actions"}, "text": "Rule provides for consideration of H.R. 7 and H.R. 1195. Rule provides for one hour of general debate on H.R. 7 and provides one motion to recommit. Rule also provides for one hour of general debate on H.R. 1195 and provides one motion to recommit.", "type": "Floor"}, {"actionCode": "H30000", "actionDate": "2021-04-16", "actionTime": "09:17:13", "sourceSystem": {"code": 2, "name": "House floor actions"}, "text": "Considered under the provisions of rule H. Res. 303. (consideration: CR H1849-1872; text: CR H1849-1852)", "type": "Floor"}, {"actionCode": "H1L220", "actionDate": "2021-04-14", "actionTime": "18:53:06", "sourceSystem": {"code": 2, "name": "House floor actions"}, "text": "Rule H. Res. 303 passed House.", "type": "Floor"}, {"actionCode": "H1L210", "actionDate": "2021-04-13", "actionTime": "18:21:36", "sourceSystem": {"code": 2, "name": "House floor actions"}, "text": "Rules Committee Resolution H. Res. 303 Reported to House. Rule provides for consideration of H.R. 7 and H.R. 1195. Rule provides for one hour of general debate on H.R. 7 and provides one motion to recommit. Rule also provides for one hour of general debate on H.R. 1195 and provides one motion to recommit.", "type": "Floor"}, {"actionCode": "H12410", "actionDate": "2021-04-05", "calendarNumber": {"calendar": "U00003"}, "sourceSystem": {"code": 2, "name": "House floor actions"}, "text": "Placed on the Union Calendar, Calendar No. 3.", "type": "Calendars"}, {"actionCode": "H12300", "actionDate": "2021-04-05", "committees": [{"name": "Ways and Means Committee", "systemCode": "hswm00", "url": "https://api.congress.gov/v3/committee/house/hswm00?format=json"}], "sourceSystem": {"code": 2, "name": "House floor actions"}, "text": "Committee on Ways and Means discharged.", "type": "Discharge"}, {"actionCode": "5500", "actionDate": "2021-04-05", "committees": [{"name": "Ways and Means Committee", "systemCode": "hswm00", "url": "https://api.congress.gov/v3/committee/house/hswm00?format=json"}], "sourceSystem": {"code": 9, "name": "Library of Congress"}, "text": "Committee on Ways and Means discharged.", "type": "Committee"}, {"actionCode": "H12300", "actionDate": "2021-04-05", "committees": [{"name": "Energy and Commerce Committee", "systemCode": "hsif00", "url": "https://api.congress.gov/v3/committee/house/hsif00?format=json"}], "sourceSystem": {"code": 2, "name": "House floor actions"}, "text": "Committee on Energy and Commerce discharged.", "type": "Discharge"}, {"actionCode": "5500", "actionDate": "2021-04-05", "committees": [{"name": "Energy and Commerce Committee", "systemCode": "hsif00", "url": "https://api.congress.gov/v3/committee/house/hsif00?format=json"}], "sourceSystem": {"code": 9, "name": "Library of Congress"}, "text": "Committee on Energy and Commerce discharged.", "type": "Committee"}, {"actionCode": "H12200", "actionDate": "2021-04-05", "committees": [{"name": "Education and the Workforce Committee", "systemCode": "hsed00", "url": "https://api.congress.gov/v3/committee/house/hsed00?format=json"}], "sourceSystem": {"code": 2, "name": "House floor actions"}, "text": "Reported (Amended) by the Committee on Education and Labor. H. Rept. 117-14, Part I.", "type": "Committee"}], "pagination": {"count": 30, "next": "https://api.congress.gov/v3/bill/117/hr/1195/actions?offset=20&limit=20&format=json"}, "request": {"billNumber": "1195", "billType": "hr", "billUrl": "https://api.congress.gov/v3/bill/117/hr/1195?format=json", "congress": "117", "contentType": "application/json", "format": "json"}}, 200]