[{"actions": [{"actionCode": "E40000", "actionDate": "2022-01-20", "sourceSystem": {"code": 9, "name": "Library of Congress"}, "text": "Became Public Law No: 117-82.", "type": "President"}, {"actionCode": "36000", "actionDate": "2022-01-20", "sourceSystem": {"code": 9, "name": "Library of Congress"}, "text": "Became Public Law No: 117-82.", "type": "BecameLaw"}, {"actionCode": "E30000", "actionDate": "2022-01-20", "sourceSystem": {"code": 9, "name": "Library of Congress"}, "text": "Signed by President.", "type": "President"}, {"actionCode": "36000", "actionDate": "2022-01-20", "sourceSystem": {"code": 9, "name": "Library of Congress"}, "text": "Signed by President.", "type": "BecameLaw"}, {"actionCode": "E20000", "actionDate": "2022-01-19", "sourceSystem": {"code": 2, "name": "House floor actions"}, "text": "Presented to President.", "type": "Floor"}, {"actionCode": "28000", "actionDate": "2022-01-19", "sourceSystem": {"code": 9, "name": "Library of Congress"}, "text": "Presented to President.", "type": "President"}, {"actionCode": "H41931", "actionDate": "2022-01-19", "actionTime": "12:31:37", "sourceSystem": {"code": 2, "name": "House floor actions"}, "text": "Motion to reconsider laid on the table Agreed to without objection.", "type": "ResolvingDifferences"}, {"actionCode": "H41610", "actionDate": "2022-01-19", "actionTime": "12:31:36", "sourceSystem": {"code": 2, "name": "House floor actions"}, "text": "On motion that the House suspend the rules and agree to the Senate amendment Agreed to by voice vote. (text: CR H230-231)", "type": "ResolvingDifferences"}, {"actionCode": "19500", "actionDate": "2022-01-19", "sourceSystem": {"code": 9, "name": "Library of Congress"}, "text": "Resolving differences -- House actions: On motion that the House suspend the rules and agree to the Senate amendment Agreed to by voice vote.(text: CR H230-231)", "type": "NotUsed"}, {"actionCode": "H8D000", "actionDate": "2022-01-19", "actionTime": "12:21:28", "sourceSystem": {"code": 2, "name": "House floor actions"}, "text": "DEBATE - The House proceeded with forty minutes of debate on motion to agree to the Senate amendment to H.R. 1192.", "type": "Floor"}, {"actionCode": "H40140", "actionDate": "2022-01-19", "actionTime": "12:21:15", "sourceSystem": {"code": 2, "name": "House floor actions"}, "text": "Ms. Dean moved that the House suspend the rules and agree to the Senate amendment. (consideration: CR H230-232)", "type": "ResolvingDifferences"}, {"actionDate": "2021-12-20", "sourceSystem": {"name": "Senate"}, "text": "Message on Senate action sent to the House.", "type": "Floor"}, {"actionDate": "2021-12-18", "sourceSystem": {"name": "Senate"}, "text": "Passed Senate with an amendment by Unanimous Consent. (consideration: CR S9307-9308; text: CR S9307-9308)", "type": "Floor"}, {"actionCode": "17000", "actionDate": "2021-12-18", "sourceSystem": {"code": 9, "name": "Library of Congress"}, "text": "Passed/agreed to in Senate: Passed Senate with an amendment by Unanimous Consent.", "type": "Floor"}, {"actionDate": "2021-12-13", "calendarNumber": {"calendar": "Senate Calendar of Business", "number": "0182"}, "sourceSystem": {"name": "Senate"}, "text": "Placed on Senate Legislative Calendar under General Orders. Calendar No. 182.", "type": "Calendars"}, {"actionDate": "2021-12-13", "committees": [{"name": "Energy and Natural Resources Committee", "systemCode": "sseg00", "url": "https://api.congress.gov/v3/committee/senate/sseg00?format=json"}], "sourceSystem": {"name": "Senate"}, "text": "Committee on Energy and Natural Resources. Reported by Senator Manchin with an amendment in the nature of a substitute. With written report No. 117-48. Additional views filed.", "type": "Committee"}, {"actionCode": "14000", "actionDate": "2021-12-13", "committees": [{"name": "Energy and Natural Resources Committee", "systemCode": "sseg00", "url": "https://api.congress.gov/v3/committee/senate/sseg00?format=json"}], "sourceSystem": {"code": 9, "name": "Library of Congress"}, "text": "Committee on Energy and Natural Resources. Reported by Senator Manchin with an amendment in the nature of a substitute. With written report No. 117-48. Additional views filed.", "type": "Committee"}, {"actionDate": "2021-11-18", "committees": [{"name": "Energy and Natural Resources Committee", "systemCode": "sseg00", "url": "https://api.congress.gov/v3/committee/senate/sseg00?format=json"}], "sourceSystem": {"name": "Senate"}, "text": "Committee on Energy and Natural Resources. Ordered to be reported with an amendment in the nature of a substitute favorably.", "type": "Committee"}, {"actionDate": "2021-07-29", "committees": [{"name": "Energy and Natural Resources Committee", "systemCode": "sseg00", "url": "https://api.congress.gov/v3/committee/senate/sseg00?format=json"}], "sourceSystem": {"name": "Senate"}, "text": "Committee on Energy and Natural Resources. Hearings held.", "type": "Committee"}, {"actionDate": "2021-02-25", "committees": [{"name": "Energy and Natural Resources Committee", "systemCode": "sseg00", "url": "https://api.congress.gov/v3/committee/senate/sseg00?format=json"}], "sourceSystem": {"name": "Senate"}, "text": "Received in the Senate and Read twice and referred to the Committee on Energy and Natural Resources.", "type": "IntroReferral"}], "pagination": {"count": 31, "next": "https://api.congress.gov/v3/bill/117/hr/1192/actions?offset=20&limit=20&format=json"}, "request": {"billNumber": "1192", "billType": "hr", "billUrl": "https://api.congress.gov/v3/bill/117/hr/1192?format=json", "congress": "117", "contentType": "application/json", "format": "json"}}, 200]