[{"actions": [{"actionCode": "H11000", "actionDate": "2021-06-16", "committees": [{"name": "Health Subcommittee", "systemCode": "hsvr03", "url": "https://api.congress.gov/v3/committee/house/hsvr03?format=json"}], "sourceSystem": {"code": 1, "name": "House committee actions"}, "text": "Referred to the Subcommittee on Health.", "type": "Committee"}, {"actionCode": "E40000", "actionDate": "2021-03-24", "sourceSystem": {"code": 9, "name": "Library of Congress"}, "text": "Became Public Law No: 117-4.", "type": "President"}, {"actionCode": "36000", "actionDate": "2021-03-24", "sourceSystem": {"code": 9, "name": "Library of Congress"}, "text": "Became Public Law No: 117-4.", "type": "BecameLaw"}, {"actionCode": "E30000", "actionDate": "2021-03-24", "sourceSystem": {"code": 9, "name": "Library of Congress"}, "text": "Signed by President.", "type": "President"}, {"actionCode": "36000", "actionDate": "2021-03-24", "sourceSystem": {"code": 9, "name": "Library of Congress"}, "text": "Signed by President.", "type": "BecameLaw"}, {"actionCode": "E20000", "actionDate": "2021-03-23", "sourceSystem": {"code": 2, "name": "House floor actions"}, "text": "Presented to President.", "type": "Floor"}, {"actionCode": "28000", "actionDate": "2021-03-23", "sourceSystem": {"code": 9, "name": "Library of Congress"}, "text": "Presented to President.", "type": "President"}, {"actionCode": "H41931", "actionDate": "2021-03-19", "actionTime": "12:55:23", "sourceSystem": {"code": 2, "name": "House floor actions"}, "text": "Motion to reconsider laid on the table Agreed to without objection.", "type": "ResolvingDifferences"}, {"actionCode": "H41610", "actionDate": "2021-03-19", "actionTime": "12:55:22", "sourceSystem": {"code": 2, "name": "House floor actions"}, "text": "On motion that the House agree to the Senate amendment Agreed to without objection. (text: CR H1603)", "type": "ResolvingDifferences"}, {"actionCode": "19500", "actionDate": "2021-03-19", "sourceSystem": {"code": 9, "name": "Library of Congress"}, "text": "Resolving differences -- House actions: On motion that the House agree to the Senate amendment Agreed to without objection.(text: CR H1603)", "type": "NotUsed"}, {"actionCode": "H8D000", "actionDate": "2021-03-19", "actionTime": "12:55:08", "sourceSystem": {"code": 2, "name": "House floor actions"}, "text": "Mr. Takano asked unanimous consent to take the bill, H.R. 1276, from the Speaker's Table and agree to the Senate amendment. (consideration: CR H1603)", "type": "Floor"}, {"actionDate": "2021-03-18", "sourceSystem": {"name": "Senate"}, "text": "Message on Senate action sent to the House.", "type": "Floor"}, {"actionDate": "2021-03-17", "sourceSystem": {"name": "Senate"}, "text": "Passed Senate with an amendment by Voice Vote. (text of amendment in the nature of a substitute: CR S1620)", "type": "Floor"}, {"actionCode": "17000", "actionDate": "2021-03-17", "sourceSystem": {"code": 9, "name": "Library of Congress"}, "text": "Passed/agreed to in Senate: Passed Senate with an amendment by Voice Vote.(text of amendment in the nature of a substitute: CR S1620)", "type": "Floor"}, {"actionDate": "2021-03-17", "sourceSystem": {"name": "Senate"}, "text": "Measure laid before Senate by unanimous consent. (consideration: CR S1620)", "type": "Floor"}, {"actionDate": "2021-03-10", "sourceSystem": {"name": "Senate"}, "text": "Received in the Senate, read twice.", "type": "IntroReferral"}, {"actionCode": "H38310", "actionDate": "2021-03-09", "actionTime": "20:56:20", "sourceSystem": {"code": 2, "name": "House floor actions"}, "text": "Motion to reconsider laid on the table Agreed to without objection.", "type": "Floor"}, {"actionCode": "H37100", "actionDate": "2021-03-09", "actionTime": "20:56:10", "sourceSystem": {"code": 2, "name": "House floor actions"}, "text": "On passage Passed without objection.", "type": "Floor"}, {"actionCode": "8000", "actionDate": "2021-03-09", "actionTime": "20:56:10", "sourceSystem": {"code": 9, "name": "Library of Congress"}, "text": "Passed/agreed to in House: On passage Passed without objection.", "type": "Floor"}, {"actionCode": "H30000", "actionDate": "2021-03-09", "actionTime": "20:55:49", "sourceSystem": {"code": 2, "name": "House floor actions"}, "text": "Considered by unanimous consent. (consideration: CR H1178; text: CR H1178)", "type": "Floor"}], "pagination": {"count": 26, "next": "https://api.congress.gov/v3/bill/117/hr/1276/actions?offset=20&limit=20&format=json"}, "request": {"billNumber": "1276", "billType": "hr", "billUrl": "https://api.congress.gov/v3/bill/117/hr/1276?format=json", "congress": "117", "contentType": "application/json", "format": "json"}}, 200]