[{"actions": [{"actionCode": "E40000", "actionDate": "2021-03-11", "sourceSystem": {"code": 9, "name": "Library of Congress"}, "text": "Became Public Law No: 117-2.", "type": "President"}, {"actionCode": "36000", "actionDate": "2021-03-11", "sourceSystem": {"code": 9, "name": "Library of Congress"}, "text": "Became Public Law No: 117-2.", "type": "BecameLaw"}, {"actionCode": "E30000", "actionDate": "2021-03-11", "sourceSystem": {"code": 9, "name": "Library of Congress"}, "text": "Signed by President.", "type": "President"}, {"actionCode": "36000", "actionDate": "2021-03-11", "sourceSystem": {"code": 9, "name": "Library of Congress"}, "text": "Signed by President.", "type": "BecameLaw"}, {"actionCode": "E20000", "actionDate": "2021-03-10", "sourceSystem": {"code": 2, "name": "House floor actions"}, "text": "Presented to President.", "type": "Floor"}, {"actionCode": "28000", "actionDate": "2021-03-10", "sourceSystem": {"code": 9, "name": "Library of Congress"}, "text": "Presented to President.", "type": "President"}, {"actionCode": "H41931", "actionDate": "2021-03-10", "actionTime": "14:11:14", "sourceSystem": {"code": 2, "name": "House floor actions"}, "text": "Motion to reconsider laid on the table Agreed to without objection.", "type": "ResolvingDifferences"}, {"actionCode": "H41610", "actionDate": "2021-03-10", "actionTime": "14:11:12", "recordedVotes": [{"chamber": "House", "congress": 117, "date": "2021-03-10T19:11:12Z", "rollNumber": 72, "sessionNumber": 1, "url": "https://clerk.house.gov/evs/2021/roll072.xml"}], "sourceSystem": {"code": 2, "name": "House floor actions"}, "text": "On motion that the House agree to the Senate amendment Agreed to by the Yeas and Nays: 220 - 211 (Roll no. 72). (text: CR H1196-1259)", "type": "ResolvingDifferences"}, {"actionCode": "19500", "actionDate": "2021-03-10", "recordedVotes": [{"chamber": "House", "congress": 117, "date": "2021-03-10T19:11:12Z", "rollNumber": 72, "sessionNumber": 1, "url": "https://clerk.house.gov/evs/2021/roll072.xml"}], "sourceSystem": {"code": 9, "name": "Library of Congress"}, "text": "Resolving differences -- House actions: On motion that the House agree to the Senate amendment Agreed to by the Yeas and Nays: 220 - 211 (Roll no. 72).(text: CR H1196-1259)", "type": "NotUsed"}, {"actionCode": "H41400", "actionDate": "2021-03-10", "actionTime": "13:25:21", "sourceSystem": {"code": 2, "name": "House floor actions"}, "text": "The previous question was ordered pursuant to the rule.", "type": "ResolvingDifferences"}, {"actionCode": "H8D000", "actionDate": "2021-03-10", "actionTime": "10:13:20", "sourceSystem": {"code": 2, "name": "House floor actions"}, "text": "DEBATE - Pursuant to the provisions of H. Res. 198, the House proceeded with 2 hours of debate on the motion to concur in the Senate amendment to H.R. 1319.", "type": "Floor"}, {"actionCode": "H40150", "actionDate": "2021-03-10", "actionTime": "10:12:00", "sourceSystem": {"code": 2, "name": "House floor actions"}, "text": "Mr. Yarmuth moved that the House concur in the Senate amendment. (consideration: CR H1196-1286)", "type": "ResolvingDifferences"}, {"actionDate": "2021-03-09", "sourceSystem": {"name": "Senate"}, "text": "Message on Senate action sent to the House.", "type": "Floor"}, {"actionDate": "2021-03-06", "recordedVotes": [{"chamber": "Senate", "congress": 117, "date": "2021-03-06T17:18:11Z", "rollNumber": 110, "sessionNumber": 1, "url": "https://www.senate.gov/legislative/LIS/roll_call_votes/vote1171/vote_117_1_00110.xml"}], "sourceSystem": {"name": "Senate"}, "text": "Passed Senate with an amendment by Yea-Nay Vote. 50 - 49. Record Vote Number: 110.", "type": "Floor"}, {"actionCode": "17000", "actionDate": "2021-03-06", "recordedVotes": [{"chamber": "Senate", "congress": 117, "date": "2021-03-06T17:18:11Z", "rollNumber": 110, "sessionNumber": 1, "url": "https://www.senate.gov/legislative/LIS/roll_call_votes/vote1171/vote_117_1_00110.xml"}], "sourceSystem": {"code": 9, "name": "Library of Congress"}, "text": "Passed/agreed to in Senate: Passed Senate with an amendment by Yea-Nay Vote. 50 - 49. Record Vote Number: 110.", "type": "Floor"}, {"actionDate": "2021-03-06", "committees": [{"name": "Foreign Relations Committee", "systemCode": "ssfr00", "url": "https://api.congress.gov/v3/committee/senate/ssfr00?format=json"}], "recordedVotes": [{"chamber": "Senate", "congress": 117, "date": "2021-03-06T16:16:37Z", "rollNumber": 108, "sessionNumber": 1, "url": "https://www.senate.gov/legislative/LIS/roll_call_votes/vote1171/vote_117_1_00108.xml"}], "sourceSystem": {"name": "Senate"}, "text": "Motion by Senator Daines to commit to Senate Committee on Foreign Relations with instructions rejected in Senate by Yea-Nay Vote. 49 - 50. Record Vote Number: 108.", "type": "Floor"}, {"actionDate": "2021-03-06", "committees": [{"name": "Health, Education, Labor, and Pensions Committee", "systemCode": "sshr00", "url": "https://api.congress.gov/v3/committee/senate/sshr00?format=json"}], "recordedVotes": [{"chamber": "Senate", "congress": 117, "date": "2021-03-06T15:06:21Z", "rollNumber": 102, "sessionNumber": 1, "url": "https://www.senate.gov/legislative/LIS/roll_call_votes/vote1171/vote_117_1_00102.xml"}], "sourceSystem": {"name": "Senate"}, "text": "Motion by Senator Cornyn to commit to Senate Committee on Health, Education, Labor, and Pensions with instructions rejected in Senate by Yea-Nay Vote. 49 - 50. Record Vote Number: 102.", "type": "Floor"}, {"actionDate": "2021-03-06", "committees": [{"name": "Homeland Security and Governmental Affairs Committee", "systemCode": "ssga00", "url": "https://api.congress.gov/v3/committee/senate/ssga00?format=json"}], "recordedVotes": [{"chamber": "Senate", "congress": 117, "date": "2021-03-06T14:41:32Z", "rollNumber": 100, "sessionNumber": 1, "url": "https://www.senate.gov/legislative/LIS/roll_call_votes/vote1171/vote_117_1_00100.xml"}], "sourceSystem": {"name": "Senate"}, "text": "Motion by Senator Scott FL, to commit to Senate Committee on Homeland Security and Governmental Affairs with instructions rejected in Senate by Yea-Nay Vote. 48 - 51. Record Vote Number: 100.", "type": "Floor"}, {"actionDate": "2021-03-06", "committees": [{"name": "Small Business and Entrepreneurship Committee", "systemCode": "sssb00", "url": "https://api.congress.gov/v3/committee/senate/sssb00?format=json"}], "recordedVotes": [{"chamber": "Senate", "congress": 117, "date": "2021-03-06T14:34:22Z", "rollNumber": 99, "sessionNumber": 1, "url": "https://www.senate.gov/legislative/LIS/roll_call_votes/vote1171/vote_117_1_00099.xml"}], "sourceSystem": {"name": "Senate"}, "text": "Motion by Senator Kennedy to commit to Senate Committee on Small Business and Entrepreneurship with instructions rejected in Senate by Yea-Nay Vote. 48 - 50. Record Vote Number: 99.", "type": "Floor"}, {"actionDate": "2021-03-06", "recordedVotes": [{"chamber": "Senate", "congress": 117, "date": "2021-03-06T14:22:42Z", "rollNumber": 98, "sessionNumber": 1, "url": "https://www.senate.gov/legislative/LIS/roll_call_votes/vote1171/vote_117_1_00098.xml"}], "sourceSystem": {"name": "Senate"}, "text": "Motion by Senator Hagerty to commit to Senate Committees on Environment and Public Works; Agriculture, Nutrition, and Forestry; Health, Education, Labor, and Pensions; Banking, Housing, and Urban Affairs; Homeland Security and Governmental Affairs; Small Business and Entrepreneurship; Commerce, Science, and Transportation; Veterans' Affairs; Finance; Foreign Relations; Indian Affairs; each with instructions (11 motions considered en bloc) rejected in Senate by Yea-Nay Vote. 49 - 50. Record Vote Number: 98.", "type": "Floor"}], "pagination": {"count": 56, "next": "https://api.congress.gov/v3/bill/117/hr/1319/actions?offset=20&limit=20&format=json"}, "request": {"billNumber": "1319", "billType": "hr", "billUrl": "https://api.congress.gov/v3/bill/117/hr/1319?format=json", "congress": "117", "contentType": "application/json", "format": "json"}}, 200]