[{"actions": [{"actionDate": "2021-04-22", "committees": [{"name": "Judiciary Committee", "systemCode": "ssju00", "url": "https://api.congress.gov/v3/committee/senate/ssju00?format=json"}], "sourceSystem": {"name": "Senate"}, "text": "Received in the Senate and Read twice and referred to the Committee on the Judiciary.", "type": "IntroReferral"}, {"actionCode": "H38310", "actionDate": "2021-04-21", "actionTime": "16:50:02", "sourceSystem": {"code": 2, "name": "House floor actions"}, "text": "Motion to reconsider laid on the table Agreed to without objection.", "type": "Floor"}, {"actionCode": "H37100", "actionDate": "2021-04-21", "actionTime": "16:49:57", "recordedVotes": [{"chamber": "House", "congress": 117, "date": "2021-04-21T20:49:57Z", "rollNumber": 127, "sessionNumber": 1, "url": "https://clerk.house.gov/evs/2021/roll127.xml"}], "sourceSystem": {"code": 2, "name": "House floor actions"}, "text": "On passage Passed by the Yeas and Nays: 218 - 208 (Roll no. 127). (text: CR H2005-2006)", "type": "Floor"}, {"actionCode": "8000", "actionDate": "2021-04-21", "actionTime": "16:49:57", "recordedVotes": [{"chamber": "House", "congress": 117, "date": "2021-04-21T20:49:57Z", "rollNumber": 127, "sessionNumber": 1, "url": "https://clerk.house.gov/evs/2021/roll127.xml"}], "sourceSystem": {"code": 9, "name": "Library of Congress"}, "text": "Passed/agreed to in House: On passage Passed by the Yeas and Nays: 218 - 208 (Roll no. 127).(text: CR H2005-2006)", "type": "Floor"}, {"actionCode": "H36210", "actionDate": "2021-04-21", "actionTime": "16:18:07", "committees": [{"name": "Judiciary Committee", "systemCode": "hsju00", "url": "https://api.congress.gov/v3/committee/house/hsju00?format=json"}], "recordedVotes": [{"chamber": "House", "congress": 117, "date": "2021-04-21T20:18:07Z", "rollNumber": 126, "sessionNumber": 1, "url": "https://clerk.house.gov/evs/2021/roll126.xml"}], "sourceSystem": {"code": 2, "name": "House floor actions"}, "text": "On motion to recommit Failed by the Yeas and Nays: 208 - 216 (Roll no. 126).", "type": "Floor"}, {"actionCode": "H30000", "actionDate": "2021-04-21", "actionTime": "15:39:35", "sourceSystem": {"code": 2, "name": "House floor actions"}, "text": "Considered as unfinished business. (consideration: CR H2029-2030)", "type": "Floor"}, {"actionCode": "H8D000", "actionDate": "2021-04-21", "actionTime": "13:53:22", "sourceSystem": {"code": 2, "name": "House floor actions"}, "text": "POSTPONED PROCEEDINGS - The Chair put the question on the Wenstrup motion to recommit and by voice vote, announced that the noes had prevailed. Mr. Wenstrup demanded the yeas and nays and the Chair postponed further proceedings on the until a time to be announced.", "type": "Floor"}, {"actionCode": "H8A000", "actionDate": "2021-04-21", "actionTime": "13:53:05", "sourceSystem": {"code": 2, "name": "House floor actions"}, "text": "The previous question on the motion was ordered without objection.", "type": "Floor"}, {"actionCode": "H36200", "actionDate": "2021-04-21", "actionTime": "13:52:41", "committees": [{"name": "Judiciary Committee", "systemCode": "hsju00", "url": "https://api.congress.gov/v3/committee/house/hsju00?format=json"}], "sourceSystem": {"code": 2, "name": "House floor actions"}, "text": "Mr. Wenstrup moved to recommit to the Committee on the Judiciary. (text: CR H2015)", "type": "Floor"}, {"actionCode": "H35000", "actionDate": "2021-04-21", "actionTime": "13:52:22", "sourceSystem": {"code": 2, "name": "House floor actions"}, "text": "The previous question was ordered pursuant to the rule.", "type": "Floor"}, {"actionCode": "H8D000", "actionDate": "2021-04-21", "actionTime": "12:33:57", "sourceSystem": {"code": 2, "name": "House floor actions"}, "text": "DEBATE - The House proceeded with one hour of debate on H.R. 1333.", "type": "Floor"}, {"actionCode": "H8D000", "actionDate": "2021-04-21", "actionTime": "12:32:57", "sourceSystem": {"code": 2, "name": "House floor actions"}, "text": "Rule provides for consideration of H.R. 51, H.R. 1573 and H.R. 1333. Measure will be considered read. Bill is closed to amendments. The previous question on each measure is considered ordered without intervening motions except one hour of debate and a motion to recommit. H. Res. 316 and H. Con. Res. 30 are adopted.", "type": "Floor"}, {"actionCode": "H30000", "actionDate": "2021-04-21", "actionTime": "12:32:52", "sourceSystem": {"code": 2, "name": "House floor actions"}, "text": "Considered under the provisions of rule H. Res. 330. (consideration: CR H2005-2016)", "type": "Floor"}, {"actionCode": "H1L220", "actionDate": "2021-04-20", "actionTime": "17:33:45", "sourceSystem": {"code": 2, "name": "House floor actions"}, "text": "Rule H. Res. 330 passed House.", "type": "Floor"}, {"actionCode": "H1L210", "actionDate": "2021-04-20", "actionTime": "13:24:50", "sourceSystem": {"code": 2, "name": "House floor actions"}, "text": "Rules Committee Resolution H. Res. 330 Reported to House. Rule provides for consideration of H.R. 51, H.R. 1573 and H.R. 1333. Measure will be considered read. Bill is closed to amendments. The previous question on each measure is considered ordered without intervening motions except one hour of debate and a motion to recommit. H. Res. 316 and H. Con. Res. 30 are adopted.", "type": "Floor"}, {"actionCode": "H12410", "actionDate": "2021-04-16", "calendarNumber": {"calendar": "U00007"}, "sourceSystem": {"code": 2, "name": "House floor actions"}, "text": "Placed on the Union Calendar, Calendar No. 7.", "type": "Calendars"}, {"actionCode": "H12300", "actionDate": "2021-04-16", "committees": [{"name": "Intelligence (Permanent Select) Committee", "systemCode": "hlig00", "url": "https://api.congress.gov/v3/committee/house/hlig00?format=json"}], "sourceSystem": {"code": 2, "name": "House floor actions"}, "text": "Committee on Intelligence (Permanent) discharged.", "type": "Discharge"}, {"actionCode": "5500", "actionDate": "2021-04-16", "committees": [{"name": "Intelligence (Permanent Select) Committee", "systemCode": "hlig00", "url": "https://api.congress.gov/v3/committee/house/hlig00?format=json"}], "sourceSystem": {"code": 9, "name": "Library of Congress"}, "text": "Committee on Intelligence (Permanent) discharged.", "type": "Committee"}, {"actionCode": "H12300", "actionDate": "2021-04-16", "committees": [{"name": "Homeland Security Committee", "systemCode": "hshm00", "url": "https://api.congress.gov/v3/committee/house/hshm00?format=json"}], "sourceSystem": {"code": 2, "name": "House floor actions"}, "text": "Committee on Homeland Security discharged.", "type": "Discharge"}, {"actionCode": "5500", "actionDate": "2021-04-16", "committees": [{"name": "Homeland Security Committee", "systemCode": "hshm00", "url": "https://api.congress.gov/v3/committee/house/hshm00?format=json"}], "sourceSystem": {"code": 9, "name": "Library of Congress"}, "text": "Committee on Homeland Security discharged.", "type": "Committee"}], "pagination": {"count": 33, "next": "https://api.congress.gov/v3/bill/117/hr/1333/actions?offset=20&limit=20&format=json"}, "request": {"billNumber": "1333", "billType": "hr", "billUrl": "https://api.congress.gov/v3/bill/117/hr/1333?format=json", "congress": "117", "contentType": "application/json", "format": "json"}}, 200]