[{"actions": [{"actionCode": "E40000", "actionDate": "2022-12-16", "sourceSystem": {"code": 9, "name": "Library of Congress"}, "text": "Became Public Law No: 117-229.", "type": "President"}, {"actionCode": "36000", "actionDate": "2022-12-16", "sourceSystem": {"code": 9, "name": "Library of Congress"}, "text": "Became Public Law No: 117-229.", "type": "BecameLaw"}, {"actionCode": "E30000", "actionDate": "2022-12-16", "sourceSystem": {"code": 9, "name": "Library of Congress"}, "text": "Signed by President.", "type": "President"}, {"actionCode": "36000", "actionDate": "2022-12-16", "sourceSystem": {"code": 9, "name": "Library of Congress"}, "text": "Signed by President.", "type": "BecameLaw"}, {"actionCode": "E20000", "actionDate": "2022-12-16", "sourceSystem": {"code": 2, "name": "House floor actions"}, "text": "Presented to President.", "type": "Floor"}, {"actionCode": "28000", "actionDate": "2022-12-16", "sourceSystem": {"code": 9, "name": "Library of Congress"}, "text": "Presented to President.", "type": "President"}, {"actionDate": "2022-12-16", "sourceSystem": {"name": "Senate"}, "text": "Message on Senate action sent to the House.", "type": "Floor"}, {"actionDate": "2022-12-15", "recordedVotes": [{"chamber": "Senate", "congress": 117, "date": "2022-12-16T03:02:47Z", "rollNumber": 399, "sessionNumber": 2, "url": "https://www.senate.gov/legislative/LIS/roll_call_votes/vote1172/vote_117_2_00399.xml"}], "sourceSystem": {"name": "Senate"}, "text": "Senate agreed, under the order of 12/15/22, having achieved 60 votes in the affirmative, to the House amendment to the Senate amendment to H.R. 1437 by Yea-Nay Vote. 71 - 19. Record Vote Number: 399.", "type": "ResolvingDifferences"}, {"actionCode": "20500", "actionDate": "2022-12-15", "recordedVotes": [{"chamber": "Senate", "congress": 117, "date": "2022-12-16T03:02:47Z", "rollNumber": 399, "sessionNumber": 2, "url": "https://www.senate.gov/legislative/LIS/roll_call_votes/vote1172/vote_117_2_00399.xml"}], "sourceSystem": {"code": 9, "name": "Library of Congress"}, "text": "Resolving differences -- Senate actions: Senate agreed, under the order of 12/15/22, having achieved 60 votes in the affirmative, to the House amendment to the Senate amendment to H.R. 1437 by Yea-Nay Vote. 71 - 19. Record Vote Number: 399.", "type": "NotUsed"}, {"actionDate": "2022-12-15", "sourceSystem": {"name": "Senate"}, "text": "Motion by Senator Schumer to concur in the House amendment to the Senate amendment to H.R. 1437 with an amendment (SA 6534) withdrawn in Senate by Unanimous Consent.", "type": "Floor"}, {"actionDate": "2022-12-15", "committees": [{"name": "Appropriations Committee", "systemCode": "ssap00", "url": "https://api.congress.gov/v3/committee/senate/ssap00?format=json"}], "sourceSystem": {"name": "Senate"}, "text": "Motion by Senator Schumer to refer to Senate Committee on Appropriations the House message to accompany H.R. 1437 with instructions to report back forthwith with the following amendment (SA 6536) withdrawn in Senate by Unanimous Consent. (consideration: CR S7220)", "type": "Floor"}, {"actionDate": "2022-12-15", "recordedVotes": [{"chamber": "Senate", "congress": 117, "date": "2022-12-16T01:35:26Z", "rollNumber": 398, "sessionNumber": 2, "url": "https://www.senate.gov/legislative/LIS/roll_call_votes/vote1172/vote_117_2_00398.xml"}], "sourceSystem": {"name": "Senate"}, "text": "Motion by Senator Lee to concur in the House amendment to the Senate amendment to H.R. 1437 with an amendment (SA 6541 as modified) was not agreed to by Yea-Nay Vote. 35 - 56. Record Vote Number: 398.", "type": "Floor"}, {"actionDate": "2022-12-15", "recordedVotes": [{"chamber": "Senate", "congress": 117, "date": "2022-12-16T01:24:38Z", "rollNumber": 397, "sessionNumber": 2, "url": "https://www.senate.gov/legislative/LIS/roll_call_votes/vote1172/vote_117_2_00397.xml"}], "sourceSystem": {"name": "Senate"}, "text": "Motion by Senator Scott of Florida to concur in the House amendment to the Senate amendment to H.R. 1437 with an amendment (SA 6540) under the order of 12/15/22, not having achieved 60 votes in the affirmative, was not agreed to by Yea-Nay Vote. 45 - 47. Record Vote Number: 397.", "type": "Floor"}, {"actionDate": "2022-12-15", "sourceSystem": {"name": "Senate"}, "text": "Motion by Senator Scott of Florida to concur in the House amendment to the Senate amendment to H.R. 1437 with an amendment (SA 6540) made in Senate. (CR S7240)", "type": "Floor"}, {"actionDate": "2022-12-15", "sourceSystem": {"name": "Senate"}, "text": "Motion by Senator Lee to concur in the House amendment to the Senate amendment to H.R. 1437 with an amendment (SA 6541 as modified) made in Senate. (CR S7238)", "type": "Floor"}, {"actionDate": "2022-12-15", "committees": [{"name": "Appropriations Committee", "systemCode": "ssap00", "url": "https://api.congress.gov/v3/committee/senate/ssap00?format=json"}], "sourceSystem": {"name": "Senate"}, "text": "Motion by Senator Schumer to refer to Senate Committee on Appropriations the House message to accompany H.R. 1437 with instructions to report back forthwith with the following amendment (SA 6536) made in Senate.", "type": "Floor"}, {"actionDate": "2022-12-15", "sourceSystem": {"name": "Senate"}, "text": "Motion by Senator Schumer to concur in the House amendment to the Senate amendment to H.R. 1437 with an amendment (SA 6534) made in Senate. (CR S7220)", "type": "Floor"}, {"actionDate": "2022-12-15", "sourceSystem": {"name": "Senate"}, "text": "Motion by Senator Schumer to concur in the House amendment to the Senate amendment to H.R. 1437 made in Senate. (CR S7220)", "type": "Floor"}, {"actionDate": "2022-12-15", "sourceSystem": {"name": "Senate"}, "text": "Measure laid before Senate by motion. (consideration: CR S7219-7226, S7237-7242)", "type": "Floor"}, {"actionDate": "2022-12-15", "recordedVotes": [{"chamber": "Senate", "congress": 117, "date": "2022-12-15T20:05:08Z", "rollNumber": 393, "sessionNumber": 2, "url": "https://www.senate.gov/legislative/LIS/roll_call_votes/vote1172/vote_117_2_00393.xml"}], "sourceSystem": {"name": "Senate"}, "text": "Motion to proceed to consideration of measure agreed to in Senate by Yea-Nay Vote. 75 - 20. Record Vote Number: 393.", "type": "Floor"}], "pagination": {"count": 53, "next": "https://api.congress.gov/v3/bill/117/hr/1437/actions?offset=20&limit=20&format=json"}, "request": {"billNumber": "1437", "billType": "hr", "billUrl": "https://api.congress.gov/v3/bill/117/hr/1437?format=json", "congress": "117", "contentType": "application/json", "format": "json"}}, 200]