[{"actions": [{"actionDate": "2021-07-12", "committees": [{"name": "Banking, Housing, and Urban Affairs Committee", "systemCode": "ssbk00", "url": "https://api.congress.gov/v3/committee/senate/ssbk00?format=json"}], "sourceSystem": {"name": "Senate"}, "text": "Received in the Senate and Read twice and referred to the Committee on Banking, Housing, and Urban Affairs.", "type": "IntroReferral"}, {"actionCode": "H38310", "actionDate": "2021-06-24", "actionTime": "15:55:40", "sourceSystem": {"code": 2, "name": "House floor actions"}, "text": "Motion to reconsider laid on the table Agreed to without objection.", "type": "Floor"}, {"actionCode": "H37100", "actionDate": "2021-06-24", "actionTime": "15:55:39", "recordedVotes": [{"chamber": "House", "congress": 117, "date": "2021-06-24T19:55:39Z", "rollNumber": 182, "sessionNumber": 1, "url": "https://clerk.house.gov/evs/2021/roll182.xml"}], "sourceSystem": {"code": 2, "name": "House floor actions"}, "text": "On passage Passed by the Yeas and Nays: 252 - 176 (Roll no. 182). (text: CR H3098)", "type": "Floor"}, {"actionCode": "8000", "actionDate": "2021-06-24", "actionTime": "15:55:39", "recordedVotes": [{"chamber": "House", "congress": 117, "date": "2021-06-24T19:55:39Z", "rollNumber": 182, "sessionNumber": 1, "url": "https://clerk.house.gov/evs/2021/roll182.xml"}], "sourceSystem": {"code": 9, "name": "Library of Congress"}, "text": "Passed/agreed to in House: On passage Passed by the Yeas and Nays: 252 - 176 (Roll no. 182).(text: CR H3098)", "type": "Floor"}, {"actionCode": "H30000", "actionDate": "2021-06-24", "actionTime": "15:33:45", "sourceSystem": {"code": 2, "name": "House floor actions"}, "text": "Considered as unfinished business. (consideration: CR H3114-3115)", "type": "Floor"}, {"actionCode": "H8D000", "actionDate": "2021-06-24", "actionTime": "13:20:01", "sourceSystem": {"code": 2, "name": "House floor actions"}, "text": "POSTPONED PROCEEDINGS - At the conclusion of debate on H. R. 1443, the Chair put the question on passage of the bill and by voice vote, announced that the ayes had prevailed. Mr. Rosendale demanded the yeas and nays and the Chair postponed further proceedings on passage of the bill until a time to be announced.", "type": "Floor"}, {"actionCode": "H35000", "actionDate": "2021-06-24", "actionTime": "13:19:48", "sourceSystem": {"code": 2, "name": "House floor actions"}, "text": "The previous question was ordered pursuant to the rule.", "type": "Floor"}, {"actionCode": "H8D000", "actionDate": "2021-06-24", "actionTime": "13:04:50", "sourceSystem": {"code": 2, "name": "House floor actions"}, "text": "DEBATE - The House proceeded with one hour of debate on H.R. 1443.", "type": "Floor"}, {"actionCode": "H8D000", "actionDate": "2021-06-24", "actionTime": "13:04:02", "sourceSystem": {"code": 2, "name": "House floor actions"}, "text": "The resolution provides for 1 hour of debate, orders the previous question, and allows a motion to recommit for each measure. Provides that H. Res. 485 is adopted. Provides that anytime through the legislative day of June 25, 2021, the Speaker may entertain motions offered by the Majority Leader or his designee that the House suspend the rules with respect to multiple measures that were the object of motions to suspend the rules on the legislative days of June 22 or 23, and on which the yeas and nays were ordered and further proceedings postponed.", "type": "Floor"}, {"actionCode": "H30000", "actionDate": "2021-06-24", "actionTime": "13:03:57", "sourceSystem": {"code": 2, "name": "House floor actions"}, "text": "Considered under the provisions of rule H. Res. 486. (consideration: CR H3097-3099)", "type": "Floor"}, {"actionCode": "H1L210", "actionDate": "2021-06-22", "actionTime": "18:20:01", "sourceSystem": {"code": 2, "name": "House floor actions"}, "text": "Rules Committee Resolution H. Res. 486 Reported to House. The resolution provides for 1 hour of debate, orders the previous question, and allows a motion to recommit for each measure. Provides that H. Res. 485 is adopted. Provides that anytime through the legislative day of June 25, 2021, the Speaker may entertain motions offered by the Majority Leader or his designee that the House suspend the rules with respect to multiple measures that were the object of motions to suspend the rules on the legislative days of June 22 or 23, and on which the yeas and nays were ordered and further proceedings postponed.", "type": "Floor"}, {"actionCode": "H12410", "actionDate": "2021-06-17", "calendarNumber": {"calendar": "U00046"}, "sourceSystem": {"code": 2, "name": "House floor actions"}, "text": "Placed on the Union Calendar, Calendar No. 46.", "type": "Calendars"}, {"actionCode": "H12200", "actionDate": "2021-06-17", "committees": [{"name": "Financial Services Committee", "systemCode": "hsba00", "url": "https://api.congress.gov/v3/committee/house/hsba00?format=json"}], "sourceSystem": {"code": 2, "name": "House floor actions"}, "text": "Reported (Amended) by the Committee on Financial Services. H. Rept. 117-65.", "type": "Committee"}, {"actionCode": "5000", "actionDate": "2021-06-17", "committees": [{"name": "Financial Services Committee", "systemCode": "hsba00", "url": "https://api.congress.gov/v3/committee/house/hsba00?format=json"}], "sourceSystem": {"code": 9, "name": "Library of Congress"}, "text": "Reported (Amended) by the Committee on Financial Services. H. Rept. 117-65.", "type": "Committee"}, {"actionCode": "H37300", "actionDate": "2021-06-15", "actionTime": "17:54:02", "recordedVotes": [{"chamber": "House", "congress": 117, "date": "2021-06-15T21:54:02Z", "rollNumber": 162, "sessionNumber": 1, "url": "https://clerk.house.gov/evs/2021/roll162.xml"}], "sourceSystem": {"code": 2, "name": "House floor actions"}, "text": "On motion to suspend the rules and pass the bill, as amended Failed by the Yeas and Nays: (2/3 required): 248 - 177 (Roll no. 162).", "type": "Floor"}, {"actionCode": "9000", "actionDate": "2021-06-15", "actionTime": "17:54:02", "recordedVotes": [{"chamber": "House", "congress": 117, "date": "2021-06-15T21:54:02Z", "rollNumber": 162, "sessionNumber": 1, "url": "https://clerk.house.gov/evs/2021/roll162.xml"}], "sourceSystem": {"code": 9, "name": "Library of Congress"}, "text": "Failed of passage/not agreed to in House: On motion to suspend the rules and pass the bill, as amended Failed by the Yeas and Nays: (2/3 required): 248 - 177 (Roll no. 162).", "type": "Floor"}, {"actionCode": "H30000", "actionDate": "2021-06-15", "actionTime": "17:32:25", "sourceSystem": {"code": 2, "name": "House floor actions"}, "text": "Considered as unfinished business. (consideration: CR H2800-2801)", "type": "Floor"}, {"actionCode": "H37220", "actionDate": "2021-06-15", "actionTime": "15:51:37", "sourceSystem": {"code": 2, "name": "House floor actions"}, "text": "At the conclusion of debate, the Yeas and Nays were demanded and ordered. Pursuant to the provisions of clause 8, rule XX, the Chair announced that further proceedings on the motion would be postponed.", "type": "Floor"}, {"actionCode": "H8D000", "actionDate": "2021-06-15", "actionTime": "15:39:32", "sourceSystem": {"code": 2, "name": "House floor actions"}, "text": "DEBATE - The House proceeded with forty minutes of debate on H.R. 1443.", "type": "Floor"}, {"actionCode": "H30000", "actionDate": "2021-06-15", "actionTime": "15:39:30", "sourceSystem": {"code": 2, "name": "House floor actions"}, "text": "Considered under suspension of the rules. (consideration: CR H2787-2789)", "type": "Floor"}], "pagination": {"count": 26, "next": "https://api.congress.gov/v3/bill/117/hr/1443/actions?offset=20&limit=20&format=json"}, "request": {"billNumber": "1443", "billType": "hr", "billUrl": "https://api.congress.gov/v3/bill/117/hr/1443?format=json", "congress": "117", "contentType": "application/json", "format": "json"}}, 200]