[{"actions": [{"actionDate": "2022-09-20", "calendarNumber": {"calendar": "Senate Calendar of Business", "number": "0492"}, "sourceSystem": {"name": "Senate"}, "text": "Received in the Senate. Read twice. Placed on Senate Legislative Calendar under General Orders. Calendar No. 492.", "type": "Calendars"}, {"actionCode": "H38310", "actionDate": "2022-09-19", "actionTime": "19:36:20", "sourceSystem": {"code": 2, "name": "House floor actions"}, "text": "Motion to reconsider laid on the table Agreed to without objection.", "type": "Floor"}, {"actionCode": "H37300", "actionDate": "2022-09-19", "actionTime": "19:36:18", "recordedVotes": [{"chamber": "House", "congress": 117, "date": "2022-09-19T23:36:18Z", "rollNumber": 440, "sessionNumber": 2, "url": "https://clerk.house.gov/evs/2022/roll440.xml"}], "sourceSystem": {"code": 2, "name": "House floor actions"}, "text": "On motion to suspend the rules and pass the bill, as amended Agreed to by the Yeas and Nays: (2/3 required): 290 - 125 (Roll no. 440). (text: CR H7886-7891)", "type": "Floor"}, {"actionCode": "8000", "actionDate": "2022-09-19", "actionTime": "19:36:18", "recordedVotes": [{"chamber": "House", "congress": 117, "date": "2022-09-19T23:36:18Z", "rollNumber": 440, "sessionNumber": 2, "url": "https://clerk.house.gov/evs/2022/roll440.xml"}], "sourceSystem": {"code": 9, "name": "Library of Congress"}, "text": "Passed/agreed to in House: On motion to suspend the rules and pass the bill, as amended Agreed to by the Yeas and Nays: (2/3 required): 290 - 125 (Roll no. 440).(text: CR H7886-7891)", "type": "Floor"}, {"actionCode": "H30000", "actionDate": "2022-09-19", "actionTime": "19:27:30", "sourceSystem": {"code": 2, "name": "House floor actions"}, "text": "Considered as unfinished business. (consideration: CR H7946-7947)", "type": "Floor"}, {"actionCode": "H37220", "actionDate": "2022-09-19", "actionTime": "14:24:49", "sourceSystem": {"code": 2, "name": "House floor actions"}, "text": "At the conclusion of debate, the Yeas and Nays were demanded and ordered. Pursuant to the provisions of clause 8, rule XX, the Chair announced that further proceedings on the motion would be postponed.", "type": "Floor"}, {"actionCode": "H8D000", "actionDate": "2022-09-19", "actionTime": "14:11:56", "sourceSystem": {"code": 2, "name": "House floor actions"}, "text": "DEBATE - The House proceeded with forty minutes of debate on H.R. 1456.", "type": "Floor"}, {"actionCode": "H30000", "actionDate": "2022-09-19", "actionTime": "14:11:55", "sourceSystem": {"code": 2, "name": "House floor actions"}, "text": "Considered under suspension of the rules. (consideration: CR H7886-7893)", "type": "Floor"}, {"actionCode": "H30300", "actionDate": "2022-09-19", "actionTime": "14:11:42", "sourceSystem": {"code": 2, "name": "House floor actions"}, "text": "Mr. Malinowski moved to suspend the rules and pass the bill, as amended.", "type": "Floor"}, {"actionCode": "H12410", "actionDate": "2022-09-09", "calendarNumber": {"calendar": "U00354"}, "sourceSystem": {"code": 2, "name": "House floor actions"}, "text": "Placed on the Union Calendar, Calendar No. 354.", "type": "Calendars"}, {"actionCode": "H12300", "actionDate": "2022-09-09", "committees": [{"name": "Education and the Workforce Committee", "systemCode": "hsed00", "url": "https://api.congress.gov/v3/committee/house/hsed00?format=json"}], "sourceSystem": {"code": 2, "name": "House floor actions"}, "text": "Committee on Education and Labor discharged.", "type": "Discharge"}, {"actionCode": "5500", "actionDate": "2022-09-09", "committees": [{"name": "Education and the Workforce Committee", "systemCode": "hsed00", "url": "https://api.congress.gov/v3/committee/house/hsed00?format=json"}], "sourceSystem": {"code": 9, "name": "Library of Congress"}, "text": "Committee on Education and Labor discharged.", "type": "Committee"}, {"actionCode": "H12200", "actionDate": "2022-09-09", "committees": [{"name": "Foreign Affairs Committee", "systemCode": "hsfa00", "url": "https://api.congress.gov/v3/committee/house/hsfa00?format=json"}], "sourceSystem": {"code": 2, "name": "House floor actions"}, "text": "Reported (Amended) by the Committee on Foreign Affairs. H. Rept. 117-457, Part I.", "type": "Committee"}, {"actionCode": "5000", "actionDate": "2022-09-09", "committees": [{"name": "Foreign Affairs Committee", "systemCode": "hsfa00", "url": "https://api.congress.gov/v3/committee/house/hsfa00?format=json"}], "sourceSystem": {"code": 9, "name": "Library of Congress"}, "text": "Reported (Amended) by the Committee on Foreign Affairs. H. Rept. 117-457, Part I.", "type": "Committee"}, {"actionCode": "H19000", "actionDate": "2021-09-30", "committees": [{"name": "Foreign Affairs Committee", "systemCode": "hsfa00", "url": "https://api.congress.gov/v3/committee/house/hsfa00?format=json"}], "sourceSystem": {"code": 1, "name": "House committee actions"}, "text": "Ordered to be Reported in the Nature of a Substitute (Amended) by Voice Vote.", "type": "Committee"}, {"actionCode": "H15000-B", "actionDate": "2021-09-30", "committees": [{"name": "Foreign Affairs Committee", "systemCode": "hsfa00", "url": "https://api.congress.gov/v3/committee/house/hsfa00?format=json"}], "sourceSystem": {"code": 1, "name": "House committee actions"}, "text": "Committee Consideration and Mark-up Session Held.", "type": "Committee"}, {"actionCode": "H11100", "actionDate": "2021-03-01", "committees": [{"name": "Education and the Workforce Committee", "systemCode": "hsed00", "url": "https://api.congress.gov/v3/committee/house/hsed00?format=json"}], "sourceSystem": {"code": 2, "name": "House floor actions"}, "text": "Referred to the Committee on Foreign Affairs, and in addition to the Committee on Education and Labor, for a period to be subsequently determined by the Speaker, in each case for consideration of such provisions as fall within the jurisdiction of the committee concerned.", "type": "IntroReferral"}, {"actionCode": "H11100", "actionDate": "2021-03-01", "committees": [{"name": "Foreign Affairs Committee", "systemCode": "hsfa00", "url": "https://api.congress.gov/v3/committee/house/hsfa00?format=json"}], "sourceSystem": {"code": 2, "name": "House floor actions"}, "text": "Referred to the Committee on Foreign Affairs, and in addition to the Committee on Education and Labor, for a period to be subsequently determined by the Speaker, in each case for consideration of such provisions as fall within the jurisdiction of the committee concerned.", "type": "IntroReferral"}, {"actionCode": "B00100", "actionDate": "2021-03-01", "sourceSystem": {"code": 9, "name": "Library of Congress"}, "text": "Sponsor introductory remarks on measure. (CR  E184)", "type": "IntroReferral"}, {"actionCode": "Intro-H", "actionDate": "2021-03-01", "sourceSystem": {"code": 9, "name": "Library of Congress"}, "text": "Introduced in House", "type": "IntroReferral"}], "pagination": {"count": 21, "next": "https://api.congress.gov/v3/bill/117/hr/1456/actions?offset=20&limit=20&format=json"}, "request": {"billNumber": "1456", "billType": "hr", "billUrl": "https://api.congress.gov/v3/bill/117/hr/1456?format=json", "congress": "117", "contentType": "application/json", "format": "json"}}, 200]