[{"actions": [{"actionDate": "2021-04-22", "committees": [{"name": "Judiciary Committee", "systemCode": "ssju00", "url": "https://api.congress.gov/v3/committee/senate/ssju00?format=json"}], "sourceSystem": {"name": "Senate"}, "text": "Received in the Senate and Read twice and referred to the Committee on the Judiciary.", "type": "IntroReferral"}, {"actionCode": "H38310", "actionDate": "2021-04-21", "actionTime": "17:53:16", "sourceSystem": {"code": 2, "name": "House floor actions"}, "text": "Motion to reconsider laid on the table Agreed to without objection.", "type": "Floor"}, {"actionCode": "H37100", "actionDate": "2021-04-21", "actionTime": "17:53:14", "recordedVotes": [{"chamber": "House", "congress": 117, "date": "2021-04-21T21:53:14Z", "rollNumber": 129, "sessionNumber": 1, "url": "https://clerk.house.gov/evs/2021/roll129.xml"}], "sourceSystem": {"code": 2, "name": "House floor actions"}, "text": "On passage Passed by the Yeas and Nays: 217 - 207 (Roll no. 129). (text: CR H2016)", "type": "Floor"}, {"actionCode": "8000", "actionDate": "2021-04-21", "actionTime": "17:53:14", "recordedVotes": [{"chamber": "House", "congress": 117, "date": "2021-04-21T21:53:14Z", "rollNumber": 129, "sessionNumber": 1, "url": "https://clerk.house.gov/evs/2021/roll129.xml"}], "sourceSystem": {"code": 9, "name": "Library of Congress"}, "text": "Passed/agreed to in House: On passage Passed by the Yeas and Nays: 217 - 207 (Roll no. 129).(text: CR H2016)", "type": "Floor"}, {"actionCode": "H36210", "actionDate": "2021-04-21", "actionTime": "17:22:26", "committees": [{"name": "Judiciary Committee", "systemCode": "hsju00", "url": "https://api.congress.gov/v3/committee/house/hsju00?format=json"}], "recordedVotes": [{"chamber": "House", "congress": 117, "date": "2021-04-21T21:22:26Z", "rollNumber": 128, "sessionNumber": 1, "url": "https://clerk.house.gov/evs/2021/roll128.xml"}], "sourceSystem": {"code": 2, "name": "House floor actions"}, "text": "On motion to recommit Failed by the Yeas and Nays: 209 - 215 (Roll no. 128).", "type": "Floor"}, {"actionCode": "H30000", "actionDate": "2021-04-21", "actionTime": "16:50:27", "sourceSystem": {"code": 2, "name": "House floor actions"}, "text": "Considered as unfinished business. (consideration: CR H2030-2032)", "type": "Floor"}, {"actionCode": "H8D000", "actionDate": "2021-04-21", "actionTime": "15:04:05", "sourceSystem": {"code": 2, "name": "House floor actions"}, "text": "POSTPONED PROCEEDINGS - The Chair put the question on the Issa motion to recommit and by voice vote, announced that the noes had prevailed. Mr. Issa demanded the yeas and nays and the Chair postponed further proceedings until a time to be announced.", "type": "Floor"}, {"actionCode": "H8A000", "actionDate": "2021-04-21", "actionTime": "15:03:35", "sourceSystem": {"code": 2, "name": "House floor actions"}, "text": "The previous question on the motion was ordered without objection.", "type": "Floor"}, {"actionCode": "H36200", "actionDate": "2021-04-21", "actionTime": "15:03:01", "committees": [{"name": "Judiciary Committee", "systemCode": "hsju00", "url": "https://api.congress.gov/v3/committee/house/hsju00?format=json"}], "sourceSystem": {"code": 2, "name": "House floor actions"}, "text": "Mr. Issa moved to recommit to the Committee on the Judiciary. (text: CR H2024)", "type": "Floor"}, {"actionCode": "H35000", "actionDate": "2021-04-21", "actionTime": "15:02:17", "sourceSystem": {"code": 2, "name": "House floor actions"}, "text": "The previous question was ordered pursuant to the rule.", "type": "Floor"}, {"actionCode": "H8D000", "actionDate": "2021-04-21", "actionTime": "13:54:58", "sourceSystem": {"code": 2, "name": "House floor actions"}, "text": "DEBATE - The House proceeded with one hour of debate on H.R. 1573.", "type": "Floor"}, {"actionCode": "H8D000", "actionDate": "2021-04-21", "actionTime": "13:54:00", "sourceSystem": {"code": 2, "name": "House floor actions"}, "text": "Rule provides for consideration of H.R. 51, H.R. 1573 and H.R. 1333. Measure will be considered read. Bill is closed to amendments. The previous question on each measure is considered ordered without intervening motions except one hour of debate and a motion to recommit. H. Res. 316 and H. Con. Res. 30 are adopted.", "type": "Floor"}, {"actionCode": "H30000", "actionDate": "2021-04-21", "actionTime": "13:53:55", "sourceSystem": {"code": 2, "name": "House floor actions"}, "text": "Considered under the provisions of rule H. Res. 330. (consideration: CR H2016-2025)", "type": "Floor"}, {"actionCode": "H1L210", "actionDate": "2021-04-20", "actionTime": "13:24:50", "sourceSystem": {"code": 2, "name": "House floor actions"}, "text": "Rules Committee Resolution H. Res. 330 Reported to House. Rule provides for consideration of H.R. 51, H.R. 1573 and H.R. 1333. Measure will be considered read. Bill is closed to amendments. The previous question on each measure is considered ordered without intervening motions except one hour of debate and a motion to recommit. H. Res. 316 and H. Con. Res. 30 are adopted.", "type": "Floor"}, {"actionCode": "H12410", "actionDate": "2021-04-16", "calendarNumber": {"calendar": "U00008"}, "sourceSystem": {"code": 2, "name": "House floor actions"}, "text": "Placed on the Union Calendar, Calendar No. 8.", "type": "Calendars"}, {"actionCode": "H12200", "actionDate": "2021-04-16", "committees": [{"name": "Judiciary Committee", "systemCode": "hsju00", "url": "https://api.congress.gov/v3/committee/house/hsju00?format=json"}], "sourceSystem": {"code": 2, "name": "House floor actions"}, "text": "Reported (Amended) by the Committee on Judiciary. H. Rept. 117-21.", "type": "Committee"}, {"actionCode": "5000", "actionDate": "2021-04-16", "committees": [{"name": "Judiciary Committee", "systemCode": "hsju00", "url": "https://api.congress.gov/v3/committee/house/hsju00?format=json"}], "sourceSystem": {"code": 9, "name": "Library of Congress"}, "text": "Reported (Amended) by the Committee on Judiciary. H. Rept. 117-21.", "type": "Committee"}, {"actionCode": "H19000", "actionDate": "2021-04-14", "committees": [{"name": "Judiciary Committee", "systemCode": "hsju00", "url": "https://api.congress.gov/v3/committee/house/hsju00?format=json"}], "sourceSystem": {"code": 1, "name": "House committee actions"}, "text": "Ordered to be Reported (Amended) by the Yeas and Nays: 24 - 16.", "type": "Committee"}, {"actionCode": "H15000-B", "actionDate": "2021-04-14", "committees": [{"name": "Judiciary Committee", "systemCode": "hsju00", "url": "https://api.congress.gov/v3/committee/house/hsju00?format=json"}], "sourceSystem": {"code": 1, "name": "House committee actions"}, "text": "Committee Consideration and Mark-up Session Held.", "type": "Committee"}, {"actionCode": "H11100", "actionDate": "2021-03-03", "committees": [{"name": "Judiciary Committee", "systemCode": "hsju00", "url": "https://api.congress.gov/v3/committee/house/hsju00?format=json"}], "sourceSystem": {"code": 2, "name": "House floor actions"}, "text": "Referred to the House Committee on the Judiciary.", "type": "IntroReferral"}], "pagination": {"count": 22, "next": "https://api.congress.gov/v3/bill/117/hr/1573/actions?offset=20&limit=20&format=json"}, "request": {"billNumber": "1573", "billType": "hr", "billUrl": "https://api.congress.gov/v3/bill/117/hr/1573?format=json", "congress": "117", "contentType": "application/json", "format": "json"}}, 200]