[{"actions": [{"actionDate": "2021-03-22", "committees": [{"name": "Judiciary Committee", "systemCode": "ssju00", "url": "https://api.congress.gov/v3/committee/senate/ssju00?format=json"}], "sourceSystem": {"name": "Senate"}, "text": "Received in the Senate and Read twice and referred to the Committee on the Judiciary.", "type": "IntroReferral"}, {"actionCode": "H38310", "actionDate": "2021-03-18", "actionTime": "19:48:05", "sourceSystem": {"code": 2, "name": "House floor actions"}, "text": "Motion to reconsider laid on the table Agreed to without objection.", "type": "Floor"}, {"actionCode": "H37100", "actionDate": "2021-03-18", "actionTime": "19:48:03", "recordedVotes": [{"chamber": "House", "congress": 117, "date": "2021-03-18T23:48:03Z", "rollNumber": 93, "sessionNumber": 1, "url": "https://clerk.house.gov/evs/2021/roll093.xml"}], "sourceSystem": {"code": 2, "name": "House floor actions"}, "text": "On passage Passed by the Yeas and Nays: 247 - 174 (Roll no. 93). (text: CR H1527-1549)", "type": "Floor"}, {"actionCode": "8000", "actionDate": "2021-03-18", "actionTime": "19:48:03", "recordedVotes": [{"chamber": "House", "congress": 117, "date": "2021-03-18T23:48:03Z", "rollNumber": 93, "sessionNumber": 1, "url": "https://clerk.house.gov/evs/2021/roll093.xml"}], "sourceSystem": {"code": 9, "name": "Library of Congress"}, "text": "Passed/agreed to in House: On passage Passed by the Yeas and Nays: 247 - 174 (Roll no. 93).(text: CR H1527-1549)", "type": "Floor"}, {"actionCode": "H36210", "actionDate": "2021-03-18", "actionTime": "19:00:56", "committees": [{"name": "Judiciary Committee", "systemCode": "hsju00", "url": "https://api.congress.gov/v3/committee/house/hsju00?format=json"}], "recordedVotes": [{"chamber": "House", "congress": 117, "date": "2021-03-18T23:00:56Z", "rollNumber": 92, "sessionNumber": 1, "url": "https://clerk.house.gov/evs/2021/roll092.xml"}], "sourceSystem": {"code": 2, "name": "House floor actions"}, "text": "On motion to recommit Failed by the Yeas and Nays: 204 - 218 (Roll no. 92).", "type": "Floor"}, {"actionCode": "H30000", "actionDate": "2021-03-18", "actionTime": "18:14:03", "sourceSystem": {"code": 2, "name": "House floor actions"}, "text": "Considered as unfinished business. (consideration: CR H1569-1570)", "type": "Floor"}, {"actionCode": "H8D000", "actionDate": "2021-03-18", "actionTime": "18:14:00", "sourceSystem": {"code": 2, "name": "House floor actions"}, "text": "Pursuant to clause 1(c) of Rule XIX, the House resumed consideration of H.R. 1603.", "type": "Floor"}, {"actionCode": "H8D000", "actionDate": "2021-03-18", "actionTime": "15:41:11", "sourceSystem": {"code": 2, "name": "House floor actions"}, "text": "Pursuant to clause 1(c) of Rule XIX, further consideration of H.R. 1603 is postponed.", "type": "Floor"}, {"actionCode": "H8D000", "actionDate": "2021-03-18", "actionTime": "15:40:54", "sourceSystem": {"code": 2, "name": "House floor actions"}, "text": "POSTPONED PROCEEDINGS - At the conclusion of debate on the Fischbach motion to recommit, the Chair put the question on agreeing to the motion to recommit, and by voice vote announced that the noes had prevailed. Mrs. Fischbach demanded the yeas and nays and the Chair postponed further proceedings until a time to be announced.", "type": "Floor"}, {"actionCode": "H8A000", "actionDate": "2021-03-18", "actionTime": "15:40:35", "sourceSystem": {"code": 2, "name": "House floor actions"}, "text": "The previous question on the motion to recommit was ordered pursuant to the rule.", "type": "Floor"}, {"actionCode": "H36200", "actionDate": "2021-03-18", "actionTime": "15:40:25", "committees": [{"name": "Judiciary Committee", "systemCode": "hsju00", "url": "https://api.congress.gov/v3/committee/house/hsju00?format=json"}], "sourceSystem": {"code": 2, "name": "House floor actions"}, "text": "Mrs. Fischbach moved to recommit to the Committee on the Judiciary. (text: CR H1560)", "type": "Floor"}, {"actionCode": "H35000", "actionDate": "2021-03-18", "actionTime": "15:39:58", "sourceSystem": {"code": 2, "name": "House floor actions"}, "text": "The previous question was ordered pursuant to the rule.", "type": "Floor"}, {"actionCode": "H8D000", "actionDate": "2021-03-18", "actionTime": "14:26:42", "sourceSystem": {"code": 2, "name": "House floor actions"}, "text": "DEBATE - The House proceeded with one hour of debate on H.R. 1603.", "type": "Floor"}, {"actionCode": "H8D000", "actionDate": "2021-03-18", "actionTime": "14:25:55", "sourceSystem": {"code": 2, "name": "House floor actions"}, "text": "Rule provides for consideration of H.R. 1620, H.R. 6, H.R. 1603, H.R. 1868 and H.J. Res. 17. The resolution provides for one hour of general debate on H.R. 1620, H.R. 6, H.R. 1603, H.R. 1868, and H.J.Res. 17. The resolution provides that H.Res. 232 is hereby adopted.", "type": "Floor"}, {"actionCode": "H30000", "actionDate": "2021-03-18", "actionTime": "14:25:50", "sourceSystem": {"code": 2, "name": "House floor actions"}, "text": "Considered under the provisions of rule H. Res. 233. (consideration: CR H1527-1560)", "type": "Floor"}, {"actionCode": "H1L210", "actionDate": "2021-03-16", "actionTime": "15:49:30", "sourceSystem": {"code": 2, "name": "House floor actions"}, "text": "Rules Committee Resolution H. Res. 233 Reported to House. Rule provides for consideration of H.R. 1620, H.R. 6, H.R. 1603, H.R. 1868 and H.J. Res. 17. The resolution provides for one hour of general debate on H.R. 1620, H.R. 6, H.R. 1603, H.R. 1868, and H.J.Res. 17. The resolution provides that H.Res. 232 is hereby adopted.", "type": "Floor"}, {"actionCode": "H11100", "actionDate": "2021-03-08", "committees": [{"name": "Financial Services Committee", "systemCode": "hsba00", "url": "https://api.congress.gov/v3/committee/house/hsba00?format=json"}], "sourceSystem": {"code": 2, "name": "House floor actions"}, "text": "Referred to the Committee on the Judiciary, and in addition to the Committees on Ways and Means, Education and Labor, and Financial Services, for a period to be subsequently determined by the Speaker, in each case for consideration of such provisions as fall within the jurisdiction of the committee concerned.", "type": "IntroReferral"}, {"actionCode": "H11100", "actionDate": "2021-03-08", "committees": [{"name": "Education and the Workforce Committee", "systemCode": "hsed00", "url": "https://api.congress.gov/v3/committee/house/hsed00?format=json"}], "sourceSystem": {"code": 2, "name": "House floor actions"}, "text": "Referred to the Committee on the Judiciary, and in addition to the Committees on Ways and Means, Education and Labor, and Financial Services, for a period to be subsequently determined by the Speaker, in each case for consideration of such provisions as fall within the jurisdiction of the committee concerned.", "type": "IntroReferral"}, {"actionCode": "H11100", "actionDate": "2021-03-08", "committees": [{"name": "Ways and Means Committee", "systemCode": "hswm00", "url": "https://api.congress.gov/v3/committee/house/hswm00?format=json"}], "sourceSystem": {"code": 2, "name": "House floor actions"}, "text": "Referred to the Committee on the Judiciary, and in addition to the Committees on Ways and Means, Education and Labor, and Financial Services, for a period to be subsequently determined by the Speaker, in each case for consideration of such provisions as fall within the jurisdiction of the committee concerned.", "type": "IntroReferral"}, {"actionCode": "H11100", "actionDate": "2021-03-08", "committees": [{"name": "Judiciary Committee", "systemCode": "hsju00", "url": "https://api.congress.gov/v3/committee/house/hsju00?format=json"}], "sourceSystem": {"code": 2, "name": "House floor actions"}, "text": "Referred to the Committee on the Judiciary, and in addition to the Committees on Ways and Means, Education and Labor, and Financial Services, for a period to be subsequently determined by the Speaker, in each case for consideration of such provisions as fall within the jurisdiction of the committee concerned.", "type": "IntroReferral"}], "pagination": {"count": 22, "next": "https://api.congress.gov/v3/bill/117/hr/1603/actions?offset=20&limit=20&format=json"}, "request": {"billNumber": "1603", "billType": "hr", "billUrl": "https://api.congress.gov/v3/bill/117/hr/1603?format=json", "congress": "117", "contentType": "application/json", "format": "json"}}, 200]