[{"actions": [{"actionDate": "2022-05-24", "committees": [{"name": "Judiciary Committee", "systemCode": "ssju00", "url": "https://api.congress.gov/v3/committee/senate/ssju00?format=json"}], "sourceSystem": {"name": "Senate"}, "text": "Read twice and referred to the Committee on the Judiciary.", "type": "IntroReferral"}, {"actionDate": "2021-10-05", "committees": [{"name": "Judiciary Committee", "systemCode": "ssju00", "url": "https://api.congress.gov/v3/committee/senate/ssju00?format=json"}], "sourceSystem": {"name": "Senate"}, "text": "Committee on the Judiciary. Hearings held.", "type": "Committee"}, {"actionDate": "2021-03-18", "sourceSystem": {"name": "Senate"}, "text": "Received in the Senate.", "type": "IntroReferral"}, {"actionCode": "H38900", "actionDate": "2021-03-17", "actionTime": "19:33:15", "sourceSystem": {"code": 2, "name": "House floor actions"}, "text": "The Clerk was authorized to correct section numbers, punctuation, and cross references, and to make other necessary technical and conforming corrections in the engrossment of H.R. 1620.", "type": "Floor"}, {"actionCode": "H38310", "actionDate": "2021-03-17", "actionTime": "17:11:36", "sourceSystem": {"code": 2, "name": "House floor actions"}, "text": "Motion to reconsider laid on the table Agreed to without objection.", "type": "Floor"}, {"actionCode": "H37100", "actionDate": "2021-03-17", "actionTime": "17:11:34", "recordedVotes": [{"chamber": "House", "congress": 117, "date": "2021-03-17T21:11:34Z", "rollNumber": 86, "sessionNumber": 1, "url": "https://clerk.house.gov/evs/2021/roll086.xml"}], "sourceSystem": {"code": 2, "name": "House floor actions"}, "text": "On passage Passed by the Yeas and Nays: 244 - 172 (Roll no. 86). (text: CR H1432-1456)", "type": "Floor"}, {"actionCode": "8000", "actionDate": "2021-03-17", "actionTime": "17:11:34", "recordedVotes": [{"chamber": "House", "congress": 117, "date": "2021-03-17T21:11:34Z", "rollNumber": 86, "sessionNumber": 1, "url": "https://clerk.house.gov/evs/2021/roll086.xml"}], "sourceSystem": {"code": 9, "name": "Library of Congress"}, "text": "Passed/agreed to in House: On passage Passed by the Yeas and Nays: 244 - 172 (Roll no. 86).(text: CR H1432-1456)", "type": "Floor"}, {"actionCode": "H35000", "actionDate": "2021-03-17", "actionTime": "16:23:15", "sourceSystem": {"code": 2, "name": "House floor actions"}, "text": "The previous question was ordered pursuant to the rule.", "type": "Floor"}, {"actionCode": "H8D000", "actionDate": "2021-03-17", "actionTime": "16:22:59", "sourceSystem": {"code": 2, "name": "House floor actions"}, "text": "Motion to reconsider laid on the table. Agreed to without objection.", "type": "Floor"}, {"actionCode": "H8D000", "actionDate": "2021-03-17", "actionTime": "13:58:35", "sourceSystem": {"code": 2, "name": "House floor actions"}, "text": "UNFINISHED BUSINESS - The Chair announced that the unfinished business was the question on adoption of amendments which had been debated earlier and on which further proceedings had been postponed.", "type": "Floor"}, {"actionCode": "H30000", "actionDate": "2021-03-17", "actionTime": "13:58:25", "sourceSystem": {"code": 2, "name": "House floor actions"}, "text": "Considered as unfinished business. (consideration: CR H1476-1479)", "type": "Floor"}, {"actionCode": "H8D000", "actionDate": "2021-03-17", "actionTime": "13:58:24", "sourceSystem": {"code": 2, "name": "House floor actions"}, "text": "Pursuant to clause 1(c) of Rule XIX, the House resumed consideration of H.R. 1620.", "type": "Floor"}, {"actionCode": "H8D000", "actionDate": "2021-03-17", "actionTime": "13:06:02", "sourceSystem": {"code": 2, "name": "House floor actions"}, "text": "Pursuant to clause 1(c) of Rule XIX, further consideration of H.R. 1620 was postponed.", "type": "Floor"}, {"actionCode": "H8D000", "actionDate": "2021-03-17", "actionTime": "13:06:00", "sourceSystem": {"code": 2, "name": "House floor actions"}, "text": "POSTPONED PROCEEDINGS - At the conclusion of debate on the Wagner amendment, the Chair put the question on adoption of the amendment and by voice vote, announced that the noes had prevailed. Mrs. Wagner demanded the yeas and nays and the Chair postponed further proceedings until a time to be announced.", "type": "Floor"}, {"actionCode": "H8D000", "actionDate": "2021-03-17", "actionTime": "12:57:57", "sourceSystem": {"code": 2, "name": "House floor actions"}, "text": "DEBATE - Pursuant to the provisions of H. Res. 233, the House proceeded with 10 minutes of debate on the Wagner amendment No. 40.", "type": "Floor"}, {"actionCode": "H8D000", "actionDate": "2021-03-17", "actionTime": "12:55:20", "sourceSystem": {"code": 2, "name": "House floor actions"}, "text": "POSTPONED PROCEEDINGS - At the conclusion of debate on the Stefanik amendment, the Chair put the question on adoption of the amendment and by voice vote, announced that the noes had prevailed. Ms. Stefanik demanded the yeas and nays and the Chair postponed further proceedings until a time to be announced.", "type": "Floor"}, {"actionCode": "H8D000", "actionDate": "2021-03-17", "actionTime": "12:46:00", "sourceSystem": {"code": 2, "name": "House floor actions"}, "text": "DEBATE - Pursuant to the provisions of H. Res. 233, the House proceeded with 10 minutes of debate on the Stefanik amendment No. 36.", "type": "Floor"}, {"actionCode": "H8D000", "actionDate": "2021-03-17", "actionTime": "12:45:00", "sourceSystem": {"code": 2, "name": "House floor actions"}, "text": "POSTPONED PROCEEDINGS - At the conclusion of debate on the Nadler amendment en bloc No. 1, the Chair put the question on adoption of the amendment and by voice vote, announced that the ayes had prevailed. Mrs. Fischbach demanded the yeas and nays and the Chair postponed further proceedings until a time to be announced.", "type": "Floor"}, {"actionCode": "H8D000", "actionDate": "2021-03-17", "actionTime": "12:28:23", "sourceSystem": {"code": 2, "name": "House floor actions"}, "text": "DEBATE - Pursuant to the provisions of H. Res. 233, the House proceeded with 20 minutes of debate on the Nadler en bloc amendment No. 1.", "type": "Floor"}, {"actionCode": "H8D000", "actionDate": "2021-03-17", "actionTime": "11:32:22", "sourceSystem": {"code": 2, "name": "House floor actions"}, "text": "DEBATE - The House proceeded with one hour of debate on H.R. 1620.", "type": "Floor"}], "pagination": {"count": 34, "next": "https://api.congress.gov/v3/bill/117/hr/1620/actions?offset=20&limit=20&format=json"}, "request": {"billNumber": "1620", "billType": "hr", "billUrl": "https://api.congress.gov/v3/bill/117/hr/1620?format=json", "congress": "117", "contentType": "application/json", "format": "json"}}, 200]