[{"actions": [{"actionDate": "2021-05-20", "committees": [{"name": "Health, Education, Labor, and Pensions Committee", "systemCode": "sshr00", "url": "https://api.congress.gov/v3/committee/senate/sshr00?format=json"}], "sourceSystem": {"name": "Senate"}, "text": "Received in the Senate and Read twice and referred to the Committee on Health, Education, Labor, and Pensions.", "type": "IntroReferral"}, {"actionCode": "H38310", "actionDate": "2021-05-19", "actionTime": "14:55:22", "sourceSystem": {"code": 2, "name": "House floor actions"}, "text": "Motion to reconsider laid on the table Agreed to without objection.", "type": "Floor"}, {"actionCode": "H37100", "actionDate": "2021-05-19", "actionTime": "14:55:21", "recordedVotes": [{"chamber": "House", "congress": 117, "date": "2021-05-19T18:55:21Z", "rollNumber": 150, "sessionNumber": 1, "url": "https://clerk.house.gov/evs/2021/roll150.xml"}], "sourceSystem": {"code": 2, "name": "House floor actions"}, "text": "On passage Passed by the Yeas and Nays: 402 - 23 (Roll no. 150). (text: CR H2561)", "type": "Floor"}, {"actionCode": "8000", "actionDate": "2021-05-19", "actionTime": "14:55:21", "recordedVotes": [{"chamber": "House", "congress": 117, "date": "2021-05-19T18:55:21Z", "rollNumber": 150, "sessionNumber": 1, "url": "https://clerk.house.gov/evs/2021/roll150.xml"}], "sourceSystem": {"code": 9, "name": "Library of Congress"}, "text": "Passed/agreed to in House: On passage Passed by the Yeas and Nays: 402 - 23 (Roll no. 150).(text: CR H2561)", "type": "Floor"}, {"actionCode": "H30000", "actionDate": "2021-05-19", "actionTime": "14:23:22", "sourceSystem": {"code": 2, "name": "House floor actions"}, "text": "Considered as unfinished business. (consideration: CR H2572-2573)", "type": "Floor"}, {"actionCode": "H8D000", "actionDate": "2021-05-19", "actionTime": "12:46:14", "sourceSystem": {"code": 2, "name": "House floor actions"}, "text": "POSTPONED PROCEEDINGS - At the conclusion of debate on H.R. 1629, the Chair put the question on passage and by voice vote, announced that the ayes had prevailed. Mrs. Greene (GA) demanded the yeas and nays and the Chair postponed further proceedings on the question of passage until a time to be announced.", "type": "Floor"}, {"actionCode": "H35000", "actionDate": "2021-05-19", "actionTime": "12:45:29", "sourceSystem": {"code": 2, "name": "House floor actions"}, "text": "The previous question was ordered pursuant to the rule.", "type": "Floor"}, {"actionCode": "H8D000", "actionDate": "2021-05-19", "actionTime": "12:32:49", "sourceSystem": {"code": 2, "name": "House floor actions"}, "text": "DEBATE - The House proceeded with one hour of debate on H.R. 1629.", "type": "Floor"}, {"actionCode": "H8D000", "actionDate": "2021-05-19", "actionTime": "12:32:21", "sourceSystem": {"code": 2, "name": "House floor actions"}, "text": "Rule provides for consideration of H.R. 1629 and H. Res. 275. The resolution provides for consideration of H.R. 1629 under a closed rule and H. Res. 275 under a closed rule. The resolution provides for one hour of debate on both the bill and resolution. The rule provides that H. Res. 398 is hereby adopted. The rule provides at any time through the legislative day of Thursday, May 20, 2021, the Speaker may entertain motions offered by the Majority Leader or designee with respect to multiple measures that were object of motions to suspend the rules on the legislative days of May 17 or 18, 2021.", "type": "Floor"}, {"actionCode": "H30000", "actionDate": "2021-05-19", "actionTime": "12:32:16", "sourceSystem": {"code": 2, "name": "House floor actions"}, "text": "Considered under the provisions of rule H. Res. 403. (consideration: CR H2560-2563)", "type": "Floor"}, {"actionCode": "H1L210", "actionDate": "2021-05-17", "actionTime": "17:02:30", "sourceSystem": {"code": 2, "name": "House floor actions"}, "text": "Rules Committee Resolution H. Res. 403 Reported to House. Rule provides for consideration of H.R. 1629 and H. Res. 275. The resolution provides for consideration of H.R. 1629 under a closed rule and H. Res. 275 under a closed rule. The resolution provides for one hour of debate on both the bill and resolution. The rule provides that H. Res. 398 is hereby adopted. The rule provides at any time through the legislative day of Thursday, May 20, 2021, the Speaker may entertain motions offered by the Majority Leader or designee with respect to multiple measures that were object of motions to suspend the rules on the legislative days of May 17 or 18, 2021.", "type": "Floor"}, {"actionCode": "H37300", "actionDate": "2021-05-11", "actionTime": "19:08:53", "recordedVotes": [{"chamber": "House", "congress": 117, "date": "2021-05-11T23:08:53Z", "rollNumber": 134, "sessionNumber": 1, "url": "https://clerk.house.gov/evs/2021/roll134.xml"}], "sourceSystem": {"code": 2, "name": "House floor actions"}, "text": "On motion to suspend the rules and pass the bill Failed by the Yeas and Nays: (2/3 required): 250 - 168 (Roll no. 134).", "type": "Floor"}, {"actionCode": "9000", "actionDate": "2021-05-11", "actionTime": "19:08:53", "recordedVotes": [{"chamber": "House", "congress": 117, "date": "2021-05-11T23:08:53Z", "rollNumber": 134, "sessionNumber": 1, "url": "https://clerk.house.gov/evs/2021/roll134.xml"}], "sourceSystem": {"code": 9, "name": "Library of Congress"}, "text": "Failed of passage/not agreed to in House: On motion to suspend the rules and pass the bill Failed by the Yeas and Nays: (2/3 required): 250 - 168 (Roll no. 134).", "type": "Floor"}, {"actionCode": "H30000", "actionDate": "2021-05-11", "actionTime": "18:30:21", "sourceSystem": {"code": 2, "name": "House floor actions"}, "text": "Considered as unfinished business. (consideration: CR H2184-2185)", "type": "Floor"}, {"actionCode": "H37220", "actionDate": "2021-05-11", "actionTime": "16:20:27", "sourceSystem": {"code": 2, "name": "House floor actions"}, "text": "At the conclusion of debate, the Yeas and Nays were demanded and ordered. Pursuant to the provisions of clause 8, rule XX, the Chair announced that further proceedings on the motion would be postponed.", "type": "Floor"}, {"actionCode": "H8D000", "actionDate": "2021-05-11", "actionTime": "16:06:59", "sourceSystem": {"code": 2, "name": "House floor actions"}, "text": "DEBATE - The House proceeded with forty minutes of debate on H.R. 1629.", "type": "Floor"}, {"actionCode": "H30000", "actionDate": "2021-05-11", "actionTime": "16:06:56", "sourceSystem": {"code": 2, "name": "House floor actions"}, "text": "Considered under suspension of the rules. (consideration: CR H2181-2183; text: CR H2181-2182)", "type": "Floor"}, {"actionCode": "H30300", "actionDate": "2021-05-11", "actionTime": "16:06:26", "sourceSystem": {"code": 2, "name": "House floor actions"}, "text": "Mr. Pallone moved to suspend the rules and pass the bill.", "type": "Floor"}, {"actionCode": "H11000", "actionDate": "2021-03-09", "committees": [{"name": "Health Subcommittee", "systemCode": "hsif14", "url": "https://api.congress.gov/v3/committee/house/hsif14?format=json"}], "sourceSystem": {"code": 1, "name": "House committee actions"}, "text": "Referred to the Subcommittee on Health.", "type": "Committee"}, {"actionCode": "H11100", "actionDate": "2021-03-08", "committees": [{"name": "Budget Committee", "systemCode": "hsbu00", "url": "https://api.congress.gov/v3/committee/house/hsbu00?format=json"}], "sourceSystem": {"code": 2, "name": "House floor actions"}, "text": "Referred to the Committee on Energy and Commerce, and in addition to the Committee on the Budget, for a period to be subsequently determined by the Speaker, in each case for consideration of such provisions as fall within the jurisdiction of the committee concerned.", "type": "IntroReferral"}], "pagination": {"count": 23, "next": "https://api.congress.gov/v3/bill/117/hr/1629/actions?offset=20&limit=20&format=json"}, "request": {"billNumber": "1629", "billType": "hr", "billUrl": "https://api.congress.gov/v3/bill/117/hr/1629?format=json", "congress": "117", "contentType": "application/json", "format": "json"}}, 200]