[{"actions": [{"actionCode": "E40000", "actionDate": "2021-03-27", "sourceSystem": {"code": 9, "name": "Library of Congress"}, "text": "Became Public Law No: 117-5.", "type": "President"}, {"actionCode": "36000", "actionDate": "2021-03-27", "sourceSystem": {"code": 9, "name": "Library of Congress"}, "text": "Became Public Law No: 117-5.", "type": "BecameLaw"}, {"actionCode": "E30000", "actionDate": "2021-03-27", "sourceSystem": {"code": 9, "name": "Library of Congress"}, "text": "Signed by President.", "type": "President"}, {"actionCode": "36000", "actionDate": "2021-03-27", "sourceSystem": {"code": 9, "name": "Library of Congress"}, "text": "Signed by President.", "type": "BecameLaw"}, {"actionCode": "E20000", "actionDate": "2021-03-26", "sourceSystem": {"code": 2, "name": "House floor actions"}, "text": "Presented to President.", "type": "Floor"}, {"actionCode": "28000", "actionDate": "2021-03-26", "sourceSystem": {"code": 9, "name": "Library of Congress"}, "text": "Presented to President.", "type": "President"}, {"actionCode": "H41931", "actionDate": "2021-03-26", "actionTime": "14:07:57", "sourceSystem": {"code": 2, "name": "House floor actions"}, "text": "Motion to reconsider laid on the table Agreed to without objection.", "type": "ResolvingDifferences"}, {"actionCode": "H41610", "actionDate": "2021-03-26", "actionTime": "14:07:35", "sourceSystem": {"code": 2, "name": "House floor actions"}, "text": "On motion that the House agree to the Senate amendment Agreed to without objection. (text: CR H1687)", "type": "ResolvingDifferences"}, {"actionCode": "19500", "actionDate": "2021-03-26", "sourceSystem": {"code": 9, "name": "Library of Congress"}, "text": "Resolving differences -- House actions: On motion that the House agree to the Senate amendment Agreed to without objection.(text: CR H1687)", "type": "NotUsed"}, {"actionCode": "H40110", "actionDate": "2021-03-26", "actionTime": "14:07:15", "sourceSystem": {"code": 2, "name": "House floor actions"}, "text": "Without objection, the Chair laid before the House H.R. 1651  along with the Senate amendment thereto. (consideration: CR H1687)", "type": "ResolvingDifferences"}, {"actionDate": "2021-03-25", "sourceSystem": {"name": "Senate"}, "text": "Message on Senate action sent to the House.", "type": "Floor"}, {"actionDate": "2021-03-24", "sourceSystem": {"name": "Senate"}, "text": "Passed Senate with an amendment by Unanimous Consent.", "type": "Floor"}, {"actionCode": "17000", "actionDate": "2021-03-24", "sourceSystem": {"code": 9, "name": "Library of Congress"}, "text": "Passed/agreed to in Senate: Passed Senate with an amendment by Unanimous Consent.", "type": "Floor"}, {"actionDate": "2021-03-24", "sourceSystem": {"name": "Senate"}, "text": "Measure laid before Senate by unanimous consent. (consideration: CR S1779)", "type": "Floor"}, {"actionDate": "2021-03-18", "sourceSystem": {"name": "Senate"}, "text": "Received in the Senate, read twice.", "type": "IntroReferral"}, {"actionCode": "H38310", "actionDate": "2021-03-17", "actionTime": "18:46:54", "sourceSystem": {"code": 2, "name": "House floor actions"}, "text": "Motion to reconsider laid on the table Agreed to without objection.", "type": "Floor"}, {"actionCode": "H37300", "actionDate": "2021-03-17", "actionTime": "18:46:53", "recordedVotes": [{"chamber": "House", "congress": 117, "date": "2021-03-17T22:46:53Z", "rollNumber": 88, "sessionNumber": 1, "url": "https://clerk.house.gov/evs/2021/roll088.xml"}], "sourceSystem": {"code": 2, "name": "House floor actions"}, "text": "On motion to suspend the rules and pass the bill, as amended Agreed to by the Yeas and Nays: (2/3 required): 399 - 14 (Roll no. 88). (text: 3/16/2021 CR H1389)", "type": "Floor"}, {"actionCode": "8000", "actionDate": "2021-03-17", "actionTime": "18:46:53", "recordedVotes": [{"chamber": "House", "congress": 117, "date": "2021-03-17T22:46:53Z", "rollNumber": 88, "sessionNumber": 1, "url": "https://clerk.house.gov/evs/2021/roll088.xml"}], "sourceSystem": {"code": 9, "name": "Library of Congress"}, "text": "Passed/agreed to in House: On motion to suspend the rules and pass the bill, as amended Agreed to by the Yeas and Nays: (2/3 required): 399 - 14 (Roll no. 88).(text: 3/16/2021 CR H1389)", "type": "Floor"}, {"actionCode": "H30000", "actionDate": "2021-03-17", "actionTime": "18:00:28", "sourceSystem": {"code": 2, "name": "House floor actions"}, "text": "Considered as unfinished business. (consideration: CR H1480-1481)", "type": "Floor"}, {"actionCode": "H37220", "actionDate": "2021-03-16", "actionTime": "16:18:34", "sourceSystem": {"code": 2, "name": "House floor actions"}, "text": "At the conclusion of debate, the Yeas and Nays were demanded and ordered. Pursuant to the provisions of clause 8, rule XX, the Chair announced that further proceedings on the motion would be postponed.", "type": "Floor"}], "pagination": {"count": 26, "next": "https://api.congress.gov/v3/bill/117/hr/1651/actions?offset=20&limit=20&format=json"}, "request": {"billNumber": "1651", "billType": "hr", "billUrl": "https://api.congress.gov/v3/bill/117/hr/1651?format=json", "congress": "117", "contentType": "application/json", "format": "json"}}, 200]