[{"actions": [{"actionCode": "E40000", "actionDate": "2021-07-22", "sourceSystem": {"code": 9, "name": "Library of Congress"}, "text": "Became Public Law No: 117-27.", "type": "President"}, {"actionCode": "36000", "actionDate": "2021-07-22", "sourceSystem": {"code": 9, "name": "Library of Congress"}, "text": "Became Public Law No: 117-27.", "type": "BecameLaw"}, {"actionCode": "E30000", "actionDate": "2021-07-22", "sourceSystem": {"code": 9, "name": "Library of Congress"}, "text": "Signed by President.", "type": "President"}, {"actionCode": "36000", "actionDate": "2021-07-22", "sourceSystem": {"code": 9, "name": "Library of Congress"}, "text": "Signed by President.", "type": "BecameLaw"}, {"actionCode": "E20000", "actionDate": "2021-07-21", "sourceSystem": {"code": 2, "name": "House floor actions"}, "text": "Presented to President.", "type": "Floor"}, {"actionCode": "28000", "actionDate": "2021-07-21", "sourceSystem": {"code": 9, "name": "Library of Congress"}, "text": "Presented to President.", "type": "President"}, {"actionDate": "2021-07-21", "sourceSystem": {"name": "Senate"}, "text": "Message on Senate action sent to the House.", "type": "Floor"}, {"actionDate": "2021-07-20", "recordedVotes": [{"chamber": "Senate", "congress": 117, "date": "2021-07-20T22:31:10Z", "rollNumber": 272, "sessionNumber": 1, "url": "https://www.senate.gov/legislative/LIS/roll_call_votes/vote1171/vote_117_1_00272.xml"}], "sourceSystem": {"name": "Senate"}, "text": "Passed Senate, under the order of 7/14/21, having achieved 60 votes in the affirmative, without amendment by Yea-Nay Vote. 100 - 0. Record Vote Number: 272.", "type": "Floor"}, {"actionCode": "17000", "actionDate": "2021-07-20", "recordedVotes": [{"chamber": "Senate", "congress": 117, "date": "2021-07-20T22:31:10Z", "rollNumber": 272, "sessionNumber": 1, "url": "https://www.senate.gov/legislative/LIS/roll_call_votes/vote1171/vote_117_1_00272.xml"}], "sourceSystem": {"code": 9, "name": "Library of Congress"}, "text": "Passed/agreed to in Senate: Passed Senate, under the order of 7/14/21, having achieved 60 votes in the affirmative, without amendment by Yea-Nay Vote. 100 - 0. Record Vote Number: 272.", "type": "Floor"}, {"actionDate": "2021-07-20", "sourceSystem": {"name": "Senate"}, "text": "Measure laid before Senate by unanimous consent. (consideration: CR S4962-4965, S4967-4974)", "type": "Floor"}, {"actionDate": "2021-03-18", "sourceSystem": {"name": "Senate"}, "text": "Received in the Senate, read twice.", "type": "IntroReferral"}, {"actionCode": "H38310", "actionDate": "2021-03-17", "actionTime": "19:33:14", "sourceSystem": {"code": 2, "name": "House floor actions"}, "text": "Motion to reconsider laid on the table Agreed to without objection.", "type": "Floor"}, {"actionCode": "H37300", "actionDate": "2021-03-17", "actionTime": "19:33:13", "recordedVotes": [{"chamber": "House", "congress": 117, "date": "2021-03-17T23:33:13Z", "rollNumber": 89, "sessionNumber": 1, "url": "https://clerk.house.gov/evs/2021/roll089.xml"}], "sourceSystem": {"code": 2, "name": "House floor actions"}, "text": "On motion to suspend the rules and pass the bill, as amended Agreed to by the Yeas and Nays: 384 - 38 (Roll no. 89). (text: 3/16/2021 CR H1390-1391)", "type": "Floor"}, {"actionCode": "8000", "actionDate": "2021-03-17", "actionTime": "19:33:13", "recordedVotes": [{"chamber": "House", "congress": 117, "date": "2021-03-17T23:33:13Z", "rollNumber": 89, "sessionNumber": 1, "url": "https://clerk.house.gov/evs/2021/roll089.xml"}], "sourceSystem": {"code": 9, "name": "Library of Congress"}, "text": "Passed/agreed to in House: On motion to suspend the rules and pass the bill, as amended Agreed to by the Yeas and Nays: 384 - 38 (Roll no. 89).(text: 3/16/2021 CR H1390-1391)", "type": "Floor"}, {"actionCode": "H30000", "actionDate": "2021-03-17", "actionTime": "18:46:57", "sourceSystem": {"code": 2, "name": "House floor actions"}, "text": "Considered as unfinished business. (consideration: CR H1481-1482)", "type": "Floor"}, {"actionCode": "H37220", "actionDate": "2021-03-16", "actionTime": "16:35:48", "sourceSystem": {"code": 2, "name": "House floor actions"}, "text": "At the conclusion of debate, the Yeas and Nays were demanded and ordered. Pursuant to the provisions of clause 8, rule XX, the Chair announced that further proceedings on the motion would be postponed.", "type": "Floor"}, {"actionCode": "H8D000", "actionDate": "2021-03-16", "actionTime": "16:19:15", "sourceSystem": {"code": 2, "name": "House floor actions"}, "text": "DEBATE - The House proceeded with forty minutes of debate on H.R. 1652.", "type": "Floor"}, {"actionCode": "H30000", "actionDate": "2021-03-16", "actionTime": "16:19:12", "sourceSystem": {"code": 2, "name": "House floor actions"}, "text": "Considered under suspension of the rules. (consideration: CR H1390-1393)", "type": "Floor"}, {"actionCode": "H30300", "actionDate": "2021-03-16", "actionTime": "16:18:47", "sourceSystem": {"code": 2, "name": "House floor actions"}, "text": "Mr. Nadler moved to suspend the rules and pass the bill, as amended.", "type": "Floor"}, {"actionCode": "H11100", "actionDate": "2021-03-08", "committees": [{"name": "Judiciary Committee", "systemCode": "hsju00", "url": "https://api.congress.gov/v3/committee/house/hsju00?format=json"}], "sourceSystem": {"code": 2, "name": "House floor actions"}, "text": "Referred to the House Committee on the Judiciary.", "type": "IntroReferral"}], "pagination": {"count": 22, "next": "https://api.congress.gov/v3/bill/117/hr/1652/actions?offset=20&limit=20&format=json"}, "request": {"billNumber": "1652", "billType": "hr", "billUrl": "https://api.congress.gov/v3/bill/117/hr/1652?format=json", "congress": "117", "contentType": "application/json", "format": "json"}}, 200]