[{"actions": [{"actionCode": "E40000", "actionDate": "2021-12-27", "sourceSystem": {"code": 9, "name": "Library of Congress"}, "text": "Became Public Law No: 117-80.", "type": "President"}, {"actionCode": "36000", "actionDate": "2021-12-27", "sourceSystem": {"code": 9, "name": "Library of Congress"}, "text": "Became Public Law No: 117-80.", "type": "BecameLaw"}, {"actionCode": "E30000", "actionDate": "2021-12-27", "sourceSystem": {"code": 9, "name": "Library of Congress"}, "text": "Signed by President.", "type": "President"}, {"actionCode": "36000", "actionDate": "2021-12-27", "sourceSystem": {"code": 9, "name": "Library of Congress"}, "text": "Signed by President.", "type": "BecameLaw"}, {"actionCode": "E20000", "actionDate": "2021-12-23", "sourceSystem": {"code": 2, "name": "House floor actions"}, "text": "Presented to President.", "type": "Floor"}, {"actionCode": "28000", "actionDate": "2021-12-23", "sourceSystem": {"code": 9, "name": "Library of Congress"}, "text": "Presented to President.", "type": "President"}, {"actionDate": "2021-12-20", "sourceSystem": {"name": "Senate"}, "text": "Message on Senate action sent to the House.", "type": "Floor"}, {"actionDate": "2021-12-18", "sourceSystem": {"name": "Senate"}, "text": "Passed Senate without amendment by Unanimous Consent. (consideration: CR S9309; text: CR S9309)", "type": "Floor"}, {"actionCode": "17000", "actionDate": "2021-12-18", "sourceSystem": {"code": 9, "name": "Library of Congress"}, "text": "Passed/agreed to in Senate: Passed Senate without amendment by Unanimous Consent.", "type": "Floor"}, {"actionDate": "2021-12-16", "calendarNumber": {"calendar": "Senate Calendar of Business", "number": "0202"}, "sourceSystem": {"name": "Senate"}, "text": "Placed on Senate Legislative Calendar under General Orders. Calendar No. 202.", "type": "Calendars"}, {"actionDate": "2021-12-16", "committees": [{"name": "Energy and Natural Resources Committee", "systemCode": "sseg00", "url": "https://api.congress.gov/v3/committee/senate/sseg00?format=json"}], "sourceSystem": {"name": "Senate"}, "text": "Committee on Energy and Natural Resources. Reported by Senator Manchin without amendment. With written report No. 117-52.", "type": "Committee"}, {"actionCode": "14000", "actionDate": "2021-12-16", "committees": [{"name": "Energy and Natural Resources Committee", "systemCode": "sseg00", "url": "https://api.congress.gov/v3/committee/senate/sseg00?format=json"}], "sourceSystem": {"code": 9, "name": "Library of Congress"}, "text": "Committee on Energy and Natural Resources. Reported by Senator Manchin without amendment. With written report No. 117-52.", "type": "Committee"}, {"actionDate": "2021-11-18", "committees": [{"name": "Energy and Natural Resources Committee", "systemCode": "sseg00", "url": "https://api.congress.gov/v3/committee/senate/sseg00?format=json"}], "sourceSystem": {"name": "Senate"}, "text": "Committee on Energy and Natural Resources. Ordered to be reported without amendment favorably.", "type": "Committee"}, {"actionDate": "2021-07-27", "committees": [{"name": "Energy and Natural Resources Committee", "systemCode": "sseg00", "url": "https://api.congress.gov/v3/committee/senate/sseg00?format=json"}], "sourceSystem": {"name": "Senate"}, "text": "Received in the Senate and Read twice and referred to the Committee on Energy and Natural Resources.", "type": "IntroReferral"}, {"actionCode": "H38310", "actionDate": "2021-07-26", "actionTime": "19:25:01", "sourceSystem": {"code": 2, "name": "House floor actions"}, "text": "Motion to reconsider laid on the table Agreed to without objection.", "type": "Floor"}, {"actionCode": "H37300", "actionDate": "2021-07-26", "actionTime": "19:24:59", "recordedVotes": [{"chamber": "House", "congress": 117, "date": "2021-07-26T23:24:59Z", "rollNumber": 220, "sessionNumber": 1, "url": "https://clerk.house.gov/evs/2021/roll220.xml"}], "sourceSystem": {"code": 2, "name": "House floor actions"}, "text": "On motion to suspend the rules and pass the bill, as amended Agreed to by the Yeas and Nays: (2/3 required): 416 - 0 (Roll no. 220). (text: CR H3861)", "type": "Floor"}, {"actionCode": "8000", "actionDate": "2021-07-26", "actionTime": "19:24:59", "recordedVotes": [{"chamber": "House", "congress": 117, "date": "2021-07-26T23:24:59Z", "rollNumber": 220, "sessionNumber": 1, "url": "https://clerk.house.gov/evs/2021/roll220.xml"}], "sourceSystem": {"code": 9, "name": "Library of Congress"}, "text": "Passed/agreed to in House: On motion to suspend the rules and pass the bill, as amended Agreed to by the Yeas and Nays: (2/3 required): 416 - 0 (Roll no. 220).(text: CR H3861)", "type": "Floor"}, {"actionCode": "H30000", "actionDate": "2021-07-26", "actionTime": "19:04:29", "sourceSystem": {"code": 2, "name": "House floor actions"}, "text": "Considered as unfinished business. (consideration: CR H3886-3887)", "type": "Floor"}, {"actionCode": "H37220", "actionDate": "2021-07-26", "actionTime": "15:12:26", "sourceSystem": {"code": 2, "name": "House floor actions"}, "text": "At the conclusion of debate, the Yeas and Nays were demanded and ordered. Pursuant to the provisions of clause 8, rule XX, the Chair announced that further proceedings on the motion would be postponed.", "type": "Floor"}, {"actionCode": "H8D000", "actionDate": "2021-07-26", "actionTime": "15:06:37", "sourceSystem": {"code": 2, "name": "House floor actions"}, "text": "DEBATE - The House proceeded with forty minutes of debate on H.R. 1664.", "type": "Floor"}], "pagination": {"count": 33, "next": "https://api.congress.gov/v3/bill/117/hr/1664/actions?offset=20&limit=20&format=json"}, "request": {"billNumber": "1664", "billType": "hr", "billUrl": "https://api.congress.gov/v3/bill/117/hr/1664?format=json", "congress": "117", "contentType": "application/json", "format": "json"}}, 200]