[{"actions": [{"actionCode": "E40000", "actionDate": "2022-03-18", "sourceSystem": {"code": 9, "name": "Library of Congress"}, "text": "Became Public Law No: 117-105.", "type": "President"}, {"actionCode": "36000", "actionDate": "2022-03-18", "sourceSystem": {"code": 9, "name": "Library of Congress"}, "text": "Became Public Law No: 117-105.", "type": "BecameLaw"}, {"actionCode": "E30000", "actionDate": "2022-03-18", "sourceSystem": {"code": 9, "name": "Library of Congress"}, "text": "Signed by President.", "type": "President"}, {"actionCode": "36000", "actionDate": "2022-03-18", "sourceSystem": {"code": 9, "name": "Library of Congress"}, "text": "Signed by President.", "type": "BecameLaw"}, {"actionCode": "E20000", "actionDate": "2022-03-11", "sourceSystem": {"code": 2, "name": "House floor actions"}, "text": "Presented to President.", "type": "Floor"}, {"actionCode": "28000", "actionDate": "2022-03-11", "sourceSystem": {"code": 9, "name": "Library of Congress"}, "text": "Presented to President.", "type": "President"}, {"actionDate": "2022-02-18", "sourceSystem": {"name": "Senate"}, "text": "Message on Senate action sent to the House.", "type": "Floor"}, {"actionDate": "2022-02-17", "sourceSystem": {"name": "Senate"}, "text": "Passed Senate without amendment by Voice Vote.", "type": "Floor"}, {"actionCode": "17000", "actionDate": "2022-02-17", "sourceSystem": {"code": 9, "name": "Library of Congress"}, "text": "Passed/agreed to in Senate: Passed Senate without amendment by Voice Vote.", "type": "Floor"}, {"actionDate": "2022-02-17", "committees": [{"name": "Health, Education, Labor, and Pensions Committee", "systemCode": "sshr00", "url": "https://api.congress.gov/v3/committee/senate/sshr00?format=json"}], "sourceSystem": {"name": "Senate"}, "text": "Senate Committee on Health, Education, Labor, and Pensions discharged by Unanimous Consent. (consideration: CR S800)", "type": "Discharge"}, {"actionCode": "14500", "actionDate": "2022-02-17", "committees": [{"name": "Health, Education, Labor, and Pensions Committee", "systemCode": "sshr00", "url": "https://api.congress.gov/v3/committee/senate/sshr00?format=json"}], "sourceSystem": {"code": 9, "name": "Library of Congress"}, "text": "Senate Committee on Health, Education, Labor, and Pensions discharged by Unanimous Consent.", "type": "Committee"}, {"actionDate": "2021-12-09", "committees": [{"name": "Health, Education, Labor, and Pensions Committee", "systemCode": "sshr00", "url": "https://api.congress.gov/v3/committee/senate/sshr00?format=json"}], "sourceSystem": {"name": "Senate"}, "text": "Received in the Senate and Read twice and referred to the Committee on Health, Education, Labor, and Pensions.", "type": "IntroReferral"}, {"actionCode": "H38310", "actionDate": "2021-12-08", "actionTime": "19:48:53", "sourceSystem": {"code": 2, "name": "House floor actions"}, "text": "Motion to reconsider laid on the table Agreed to without objection.", "type": "Floor"}, {"actionCode": "H37300", "actionDate": "2021-12-08", "actionTime": "19:48:52", "recordedVotes": [{"chamber": "House", "congress": 117, "date": "2021-12-09T00:48:52Z", "rollNumber": 419, "sessionNumber": 1, "url": "https://clerk.house.gov/evs/2021/roll419.xml"}], "sourceSystem": {"code": 2, "name": "House floor actions"}, "text": "On motion to suspend the rules and pass the bill, as amended Agreed to by the Yeas and Nays: (2/3 required): 392 - 36 (Roll no. 419). (text: CR H7522-7523)", "type": "Floor"}, {"actionCode": "8000", "actionDate": "2021-12-08", "actionTime": "19:48:52", "recordedVotes": [{"chamber": "House", "congress": 117, "date": "2021-12-09T00:48:52Z", "rollNumber": 419, "sessionNumber": 1, "url": "https://clerk.house.gov/evs/2021/roll419.xml"}], "sourceSystem": {"code": 9, "name": "Library of Congress"}, "text": "Passed/agreed to in House: On motion to suspend the rules and pass the bill, as amended Agreed to by the Yeas and Nays: (2/3 required): 392 - 36 (Roll no. 419).(text: CR H7522-7523)", "type": "Floor"}, {"actionCode": "H30000", "actionDate": "2021-12-08", "actionTime": "19:41:01", "sourceSystem": {"code": 2, "name": "House floor actions"}, "text": "Considered as unfinished business. (consideration: CR H7538-7539)", "type": "Floor"}, {"actionCode": "H37220", "actionDate": "2021-12-08", "actionTime": "16:54:07", "sourceSystem": {"code": 2, "name": "House floor actions"}, "text": "At the conclusion of debate, the Yeas and Nays were demanded and ordered. Pursuant to the provisions of clause 8, rule XX, the Chair announced that further proceedings on the motion would be postponed.", "type": "Floor"}, {"actionCode": "H8D000", "actionDate": "2021-12-08", "actionTime": "16:31:49", "sourceSystem": {"code": 2, "name": "House floor actions"}, "text": "DEBATE - The House proceeded with forty minutes of debate on H.R. 1667.", "type": "Floor"}, {"actionCode": "H30000", "actionDate": "2021-12-08", "actionTime": "16:31:46", "sourceSystem": {"code": 2, "name": "House floor actions"}, "text": "Considered under suspension of the rules. (consideration: CR H7522-7525)", "type": "Floor"}, {"actionCode": "H30300", "actionDate": "2021-12-08", "actionTime": "16:31:30", "sourceSystem": {"code": 2, "name": "House floor actions"}, "text": "Mr. Pallone moved to suspend the rules and pass the bill, as amended.", "type": "Floor"}], "pagination": {"count": 31, "next": "https://api.congress.gov/v3/bill/117/hr/1667/actions?offset=20&limit=20&format=json"}, "request": {"billNumber": "1667", "billType": "hr", "billUrl": "https://api.congress.gov/v3/bill/117/hr/1667?format=json", "congress": "117", "contentType": "application/json", "format": "json"}}, 200]