[{"actions": [{"actionDate": "2021-09-29", "committees": [{"name": "Judiciary Committee", "systemCode": "ssju00", "url": "https://api.congress.gov/v3/committee/senate/ssju00?format=json"}], "sourceSystem": {"name": "Senate"}, "text": "Received in the Senate and Read twice and referred to the Committee on the Judiciary.", "type": "IntroReferral"}, {"actionCode": "H38310", "actionDate": "2021-09-28", "actionTime": "14:48:13", "sourceSystem": {"code": 2, "name": "House floor actions"}, "text": "Motion to reconsider laid on the table Agreed to without objection.", "type": "Floor"}, {"actionCode": "H37300", "actionDate": "2021-09-28", "actionTime": "14:48:12", "recordedVotes": [{"chamber": "House", "congress": 117, "date": "2021-09-28T18:48:12Z", "rollNumber": 297, "sessionNumber": 1, "url": "https://clerk.house.gov/evs/2021/roll297.xml"}], "sourceSystem": {"code": 2, "name": "House floor actions"}, "text": "On motion to suspend the rules and pass the bill, as amended Agreed to by the Yeas and Nays: (2/3 required): 361 - 66 (Roll no. 297). (text: CR H5477)", "type": "Floor"}, {"actionCode": "8000", "actionDate": "2021-09-28", "actionTime": "14:48:12", "recordedVotes": [{"chamber": "House", "congress": 117, "date": "2021-09-28T18:48:12Z", "rollNumber": 297, "sessionNumber": 1, "url": "https://clerk.house.gov/evs/2021/roll297.xml"}], "sourceSystem": {"code": 9, "name": "Library of Congress"}, "text": "Passed/agreed to in House: On motion to suspend the rules and pass the bill, as amended Agreed to by the Yeas and Nays: (2/3 required): 361 - 66 (Roll no. 297).(text: CR H5477)", "type": "Floor"}, {"actionCode": "H30000", "actionDate": "2021-09-28", "actionTime": "14:13:02", "sourceSystem": {"code": 2, "name": "House floor actions"}, "text": "Considered as unfinished business. (consideration: CR H5492-5493)", "type": "Floor"}, {"actionCode": "H37220", "actionDate": "2021-09-28", "actionTime": "13:23:23", "sourceSystem": {"code": 2, "name": "House floor actions"}, "text": "At the conclusion of debate, the Yeas and Nays were demanded and ordered. Pursuant to the provisions of clause 8, rule XX, the Chair announced that further proceedings on the motion would be postponed.", "type": "Floor"}, {"actionCode": "H8D000", "actionDate": "2021-09-28", "actionTime": "12:50:35", "sourceSystem": {"code": 2, "name": "House floor actions"}, "text": "DEBATE - The House proceeded with forty minutes of debate on H.R. 1693.", "type": "Floor"}, {"actionCode": "H30000", "actionDate": "2021-09-28", "actionTime": "12:50:33", "sourceSystem": {"code": 2, "name": "House floor actions"}, "text": "Considered under suspension of the rules. (consideration: CR H5477-5481)", "type": "Floor"}, {"actionCode": "H30300", "actionDate": "2021-09-28", "actionTime": "12:50:20", "sourceSystem": {"code": 2, "name": "House floor actions"}, "text": "Mr. Nadler moved to suspend the rules and pass the bill, as amended.", "type": "Floor"}, {"actionCode": "H12410", "actionDate": "2021-09-27", "calendarNumber": {"calendar": "U00092"}, "sourceSystem": {"code": 2, "name": "House floor actions"}, "text": "Placed on the Union Calendar, Calendar No. 92.", "type": "Calendars"}, {"actionCode": "H12300", "actionDate": "2021-09-27", "committees": [{"name": "Energy and Commerce Committee", "systemCode": "hsif00", "url": "https://api.congress.gov/v3/committee/house/hsif00?format=json"}], "sourceSystem": {"code": 2, "name": "House floor actions"}, "text": "Committee on Energy and Commerce discharged.", "type": "Discharge"}, {"actionCode": "5500", "actionDate": "2021-09-27", "committees": [{"name": "Energy and Commerce Committee", "systemCode": "hsif00", "url": "https://api.congress.gov/v3/committee/house/hsif00?format=json"}], "sourceSystem": {"code": 9, "name": "Library of Congress"}, "text": "Committee on Energy and Commerce discharged.", "type": "Committee"}, {"actionCode": "H12200", "actionDate": "2021-09-27", "committees": [{"name": "Judiciary Committee", "systemCode": "hsju00", "url": "https://api.congress.gov/v3/committee/house/hsju00?format=json"}], "sourceSystem": {"code": 2, "name": "House floor actions"}, "text": "Reported (Amended) by the Committee on Judiciary. H. Rept. 117-128, Part I.", "type": "Committee"}, {"actionCode": "5000", "actionDate": "2021-09-27", "committees": [{"name": "Judiciary Committee", "systemCode": "hsju00", "url": "https://api.congress.gov/v3/committee/house/hsju00?format=json"}], "sourceSystem": {"code": 9, "name": "Library of Congress"}, "text": "Reported (Amended) by the Committee on Judiciary. H. Rept. 117-128, Part I.", "type": "Committee"}, {"actionCode": "H19000", "actionDate": "2021-07-21", "committees": [{"name": "Judiciary Committee", "systemCode": "hsju00", "url": "https://api.congress.gov/v3/committee/house/hsju00?format=json"}], "sourceSystem": {"code": 1, "name": "House committee actions"}, "text": "Ordered to be Reported (Amended).", "type": "Committee"}, {"actionCode": "H15000-B", "actionDate": "2021-07-21", "committees": [{"name": "Judiciary Committee", "systemCode": "hsju00", "url": "https://api.congress.gov/v3/committee/house/hsju00?format=json"}], "sourceSystem": {"code": 1, "name": "House committee actions"}, "text": "Committee Consideration and Mark-up Session Held.", "type": "Committee"}, {"actionCode": "H25000", "actionDate": "2021-07-21", "committees": [{"name": "Judiciary Committee", "systemCode": "hsju00", "url": "https://api.congress.gov/v3/committee/house/hsju00?format=json"}], "sourceSystem": {"code": 1, "name": "House committee actions"}, "text": "Subcommittee on Crime, Terrorism, and Homeland Security Discharged.", "type": "Committee"}, {"actionCode": "H11000", "actionDate": "2021-05-18", "committees": [{"name": "Crime and Federal Government Surveillance Subcommittee", "systemCode": "hsju08", "url": "https://api.congress.gov/v3/committee/house/hsju08?format=json"}], "sourceSystem": {"code": 1, "name": "House committee actions"}, "text": "Referred to the Subcommittee on Crime, Terrorism, and Homeland Security.", "type": "Committee"}, {"actionCode": "H11000", "actionDate": "2021-03-10", "committees": [{"name": "Health Subcommittee", "systemCode": "hsif14", "url": "https://api.congress.gov/v3/committee/house/hsif14?format=json"}], "sourceSystem": {"code": 1, "name": "House committee actions"}, "text": "Referred to the Subcommittee on Health.", "type": "Committee"}, {"actionCode": "H11100", "actionDate": "2021-03-09", "committees": [{"name": "Energy and Commerce Committee", "systemCode": "hsif00", "url": "https://api.congress.gov/v3/committee/house/hsif00?format=json"}], "sourceSystem": {"code": 2, "name": "House floor actions"}, "text": "Referred to the Committee on the Judiciary, and in addition to the Committee on Energy and Commerce, for a period to be subsequently determined by the Speaker, in each case for consideration of such provisions as fall within the jurisdiction of the committee concerned.", "type": "IntroReferral"}], "pagination": {"count": 23, "next": "https://api.congress.gov/v3/bill/117/hr/1693/actions?offset=20&limit=20&format=json"}, "request": {"billNumber": "1693", "billType": "hr", "billUrl": "https://api.congress.gov/v3/bill/117/hr/1693?format=json", "congress": "117", "contentType": "application/json", "format": "json"}}, 200]