[{"actions": [{"actionCode": "E40000", "actionDate": "2022-10-10", "sourceSystem": {"code": 9, "name": "Library of Congress"}, "text": "Became Public Law No: 117-187.", "type": "President"}, {"actionCode": "36000", "actionDate": "2022-10-10", "sourceSystem": {"code": 9, "name": "Library of Congress"}, "text": "Became Public Law No: 117-187.", "type": "BecameLaw"}, {"actionCode": "E30000", "actionDate": "2022-10-10", "sourceSystem": {"code": 9, "name": "Library of Congress"}, "text": "Signed by President.", "type": "President"}, {"actionCode": "36000", "actionDate": "2022-10-10", "sourceSystem": {"code": 9, "name": "Library of Congress"}, "text": "Signed by President.", "type": "BecameLaw"}, {"actionCode": "E20000", "actionDate": "2022-10-04", "sourceSystem": {"code": 2, "name": "House floor actions"}, "text": "Presented to President.", "type": "Floor"}, {"actionCode": "28000", "actionDate": "2022-10-04", "sourceSystem": {"code": 9, "name": "Library of Congress"}, "text": "Presented to President.", "type": "President"}, {"actionDate": "2022-09-30", "sourceSystem": {"name": "Senate"}, "text": "Message on Senate action sent to the House.", "type": "Floor"}, {"actionDate": "2022-09-29", "sourceSystem": {"name": "Senate"}, "text": "Passed Senate without amendment by Unanimous Consent. (consideration: CR S6052)", "type": "Floor"}, {"actionCode": "17000", "actionDate": "2022-09-29", "sourceSystem": {"code": 9, "name": "Library of Congress"}, "text": "Passed/agreed to in Senate: Passed Senate without amendment by Unanimous Consent.", "type": "Floor"}, {"actionDate": "2022-09-29", "committees": [{"name": "Commerce, Science, and Transportation Committee", "systemCode": "sscm00", "url": "https://api.congress.gov/v3/committee/senate/sscm00?format=json"}], "sourceSystem": {"name": "Senate"}, "text": "Senate Committee on Commerce, Science, and Transportation discharged by Unanimous Consent.", "type": "Discharge"}, {"actionCode": "14500", "actionDate": "2022-09-29", "committees": [{"name": "Commerce, Science, and Transportation Committee", "systemCode": "sscm00", "url": "https://api.congress.gov/v3/committee/senate/sscm00?format=json"}], "sourceSystem": {"code": 9, "name": "Library of Congress"}, "text": "Senate Committee on Commerce, Science, and Transportation discharged by Unanimous Consent.", "type": "Committee"}, {"actionDate": "2021-04-15", "committees": [{"name": "Commerce, Science, and Transportation Committee", "systemCode": "sscm00", "url": "https://api.congress.gov/v3/committee/senate/sscm00?format=json"}], "sourceSystem": {"name": "Senate"}, "text": "Received in the Senate and Read twice and referred to the Committee on Commerce, Science, and Transportation.", "type": "IntroReferral"}, {"actionCode": "H38310", "actionDate": "2021-04-14", "actionTime": "14:02:35", "sourceSystem": {"code": 2, "name": "House floor actions"}, "text": "Motion to reconsider laid on the table Agreed to without objection.", "type": "Floor"}, {"actionCode": "H37300", "actionDate": "2021-04-14", "actionTime": "14:02:30", "sourceSystem": {"code": 2, "name": "House floor actions"}, "text": "On motion to suspend the rules and pass the bill Agreed to by voice vote. (text: CR H1762)", "type": "Floor"}, {"actionCode": "8000", "actionDate": "2021-04-14", "actionTime": "14:02:30", "sourceSystem": {"code": 9, "name": "Library of Congress"}, "text": "Passed/agreed to in House: On motion to suspend the rules and pass the bill Agreed to by voice vote.(text: CR H1762)", "type": "Floor"}, {"actionCode": "H8D000", "actionDate": "2021-04-14", "actionTime": "13:57:57", "sourceSystem": {"code": 2, "name": "House floor actions"}, "text": "DEBATE - The House proceeded with forty minutes of debate on H.R. 1766.", "type": "Floor"}, {"actionCode": "H30000", "actionDate": "2021-04-14", "actionTime": "13:57:54", "sourceSystem": {"code": 2, "name": "House floor actions"}, "text": "Considered under suspension of the rules. (consideration: CR H1762-1763)", "type": "Floor"}, {"actionCode": "H30300", "actionDate": "2021-04-14", "actionTime": "13:57:23", "sourceSystem": {"code": 2, "name": "House floor actions"}, "text": "Mr. Pallone moved to suspend the rules and pass the bill.", "type": "Floor"}, {"actionCode": "H11000", "actionDate": "2021-03-11", "committees": [{"name": "Innovation, Data, and Commerce Subcommittee", "systemCode": "hsif17", "url": "https://api.congress.gov/v3/committee/house/hsif17?format=json"}], "sourceSystem": {"code": 1, "name": "House committee actions"}, "text": "Referred to the Subcommittee on Consumer Protection and Commerce.", "type": "Committee"}, {"actionCode": "H11100", "actionDate": "2021-03-10", "committees": [{"name": "Energy and Commerce Committee", "systemCode": "hsif00", "url": "https://api.congress.gov/v3/committee/house/hsif00?format=json"}], "sourceSystem": {"code": 2, "name": "House floor actions"}, "text": "Referred to the House Committee on Energy and Commerce.", "type": "IntroReferral"}], "pagination": {"count": 22, "next": "https://api.congress.gov/v3/bill/117/hr/1766/actions?offset=20&limit=20&format=json"}, "request": {"billNumber": "1766", "billType": "hr", "billUrl": "https://api.congress.gov/v3/bill/117/hr/1766?format=json", "congress": "117", "contentType": "application/json", "format": "json"}}, 200]