[{"actions": [{"actionCode": "E40000", "actionDate": "2021-03-30", "sourceSystem": {"code": 9, "name": "Library of Congress"}, "text": "Became Public Law No: 117-6.", "type": "President"}, {"actionCode": "36000", "actionDate": "2021-03-30", "sourceSystem": {"code": 9, "name": "Library of Congress"}, "text": "Became Public Law No: 117-6.", "type": "BecameLaw"}, {"actionCode": "E30000", "actionDate": "2021-03-30", "sourceSystem": {"code": 9, "name": "Library of Congress"}, "text": "Signed by President.", "type": "President"}, {"actionCode": "36000", "actionDate": "2021-03-30", "sourceSystem": {"code": 9, "name": "Library of Congress"}, "text": "Signed by President.", "type": "BecameLaw"}, {"actionCode": "E20000", "actionDate": "2021-03-26", "sourceSystem": {"code": 2, "name": "House floor actions"}, "text": "Presented to President.", "type": "Floor"}, {"actionCode": "28000", "actionDate": "2021-03-26", "sourceSystem": {"code": 9, "name": "Library of Congress"}, "text": "Presented to President.", "type": "President"}, {"actionDate": "2021-03-25", "sourceSystem": {"name": "Senate"}, "text": "Message on Senate action sent to the House.", "type": "Floor"}, {"actionDate": "2021-03-25", "recordedVotes": [{"chamber": "Senate", "congress": 117, "date": "2021-03-25T18:02:50Z", "rollNumber": 140, "sessionNumber": 1, "url": "https://www.senate.gov/legislative/LIS/roll_call_votes/vote1171/vote_117_1_00140.xml"}], "sourceSystem": {"name": "Senate"}, "text": "Passed Senate, under the order of 3/24/2021, having achieved 60 votes in the affirmative, without amendment by Yea-Nay Vote. 92 - 7. Record Vote Number: 140.", "type": "Floor"}, {"actionCode": "17000", "actionDate": "2021-03-25", "recordedVotes": [{"chamber": "Senate", "congress": 117, "date": "2021-03-25T18:02:50Z", "rollNumber": 140, "sessionNumber": 1, "url": "https://www.senate.gov/legislative/LIS/roll_call_votes/vote1171/vote_117_1_00140.xml"}], "sourceSystem": {"code": 9, "name": "Library of Congress"}, "text": "Passed/agreed to in Senate: Passed Senate, under the order of 3/24/2021, having achieved 60 votes in the affirmative, without amendment by Yea-Nay Vote. 92 - 7. Record Vote Number: 140.", "type": "Floor"}, {"actionDate": "2021-03-25", "recordedVotes": [{"chamber": "Senate", "congress": 117, "date": "2021-03-25T16:57:19Z", "rollNumber": 139, "sessionNumber": 1, "url": "https://www.senate.gov/legislative/LIS/roll_call_votes/vote1171/vote_117_1_00139.xml"}], "sourceSystem": {"name": "Senate"}, "text": "Motion to waive all applicable budgetary discipline with respect to the measure agreed to in Senate by Yea-Nay Vote. 64 - 36. Record Vote Number: 139. (CR S1797)", "type": "Floor"}, {"actionDate": "2021-03-25", "sourceSystem": {"name": "Senate"}, "text": "Point of order under section 404(a) of S.Con. Res. 13, 111th Congress, against the measure raised in Senate.", "type": "Floor"}, {"actionDate": "2021-03-25", "sourceSystem": {"name": "Senate"}, "text": "Measure laid before Senate by motion. (consideration: CR S1792-1800)", "type": "Floor"}, {"actionDate": "2021-03-25", "sourceSystem": {"name": "Senate"}, "text": "Motion to proceed to consideration of measure agreed to in Senate by Unanimous Consent.", "type": "Floor"}, {"actionDate": "2021-03-25", "sourceSystem": {"name": "Senate"}, "text": "Motion to proceed to measure considered in Senate. (CR S1792)", "type": "Floor"}, {"actionDate": "2021-03-24", "sourceSystem": {"name": "Senate"}, "text": "Motion to proceed to measure considered in Senate. (CR S1746)", "type": "Floor"}, {"actionDate": "2021-03-24", "recordedVotes": [{"chamber": "Senate", "congress": 117, "date": "2021-03-24T22:27:27Z", "rollNumber": 136, "sessionNumber": 1, "url": "https://www.senate.gov/legislative/LIS/roll_call_votes/vote1171/vote_117_1_00136.xml"}], "sourceSystem": {"name": "Senate"}, "text": "Cloture on the motion to proceed to the measure invoked in Senate by Yea-Nay Vote. 96 - 4. Record Vote Number: 136. (CR S1746)", "type": "Floor"}, {"actionDate": "2021-03-18", "sourceSystem": {"name": "Senate"}, "text": "Cloture motion on the motion to proceed to the measure presented in Senate. (CR S1641)", "type": "Floor"}, {"actionDate": "2021-03-18", "sourceSystem": {"name": "Senate"}, "text": "Motion to proceed to consideration of measure made in Senate. (CR S1641)", "type": "Floor"}, {"actionDate": "2021-03-18", "calendarNumber": {"calendar": "Senate Calendar of Business", "number": "0011"}, "sourceSystem": {"name": "Senate"}, "text": "Read the second time. Placed on Senate Legislative Calendar under General Orders. Calendar No. 11.", "type": "Calendars"}, {"actionDate": "2021-03-17", "calendarNumber": {"calendar": "Senate Calendar of Business"}, "sourceSystem": {"name": "Senate"}, "text": "Received in the Senate. Read the first time. Placed on Senate Legislative Calendar under Read the First Time.", "type": "Calendars"}], "pagination": {"count": 31, "next": "https://api.congress.gov/v3/bill/117/hr/1799/actions?offset=20&limit=20&format=json"}, "request": {"billNumber": "1799", "billType": "hr", "billUrl": "https://api.congress.gov/v3/bill/117/hr/1799?format=json", "congress": "117", "contentType": "application/json", "format": "json"}}, 200]