[{"actions": [{"actionDate": "2022-08-01", "committees": [{"name": "Judiciary Committee", "systemCode": "ssju00", "url": "https://api.congress.gov/v3/committee/senate/ssju00?format=json"}], "sourceSystem": {"name": "Senate"}, "text": "Received in the Senate and Read twice and referred to the Committee on the Judiciary.", "type": "IntroReferral"}, {"actionCode": "H38900", "actionDate": "2022-07-29", "actionTime": "20:27:38", "sourceSystem": {"code": 2, "name": "House floor actions"}, "text": "The Clerk was authorized to correct section numbers, punctuation, and cross references, and to make other necessary technical and conforming corrections in the engrossment of H.R. 1808.", "type": "Floor"}, {"actionCode": "H38310", "actionDate": "2022-07-29", "actionTime": "18:29:51", "sourceSystem": {"code": 2, "name": "House floor actions"}, "text": "Motion to reconsider laid on the table Agreed to without objection.", "type": "Floor"}, {"actionCode": "H37100", "actionDate": "2022-07-29", "actionTime": "18:29:32", "recordedVotes": [{"chamber": "House", "congress": 117, "date": "2022-07-29T22:29:32Z", "rollNumber": 410, "sessionNumber": 2, "url": "https://clerk.house.gov/evs/2022/roll410.xml"}], "sourceSystem": {"code": 2, "name": "House floor actions"}, "text": "On passage Passed by the Yeas and Nays: 217 - 213 (Roll no. 410). (text: CR H7499-7511)", "type": "Floor"}, {"actionCode": "8000", "actionDate": "2022-07-29", "actionTime": "18:29:32", "recordedVotes": [{"chamber": "House", "congress": 117, "date": "2022-07-29T22:29:32Z", "rollNumber": 410, "sessionNumber": 2, "url": "https://clerk.house.gov/evs/2022/roll410.xml"}], "sourceSystem": {"code": 9, "name": "Library of Congress"}, "text": "Passed/agreed to in House: On passage Passed by the Yeas and Nays: 217 - 213 (Roll no. 410).", "type": "Floor"}, {"actionCode": "H36210", "actionDate": "2022-07-29", "actionTime": "18:12:10", "committees": [{"name": "Judiciary Committee", "systemCode": "hsju00", "url": "https://api.congress.gov/v3/committee/house/hsju00?format=json"}], "recordedVotes": [{"chamber": "House", "congress": 117, "date": "2022-07-29T22:12:10Z", "rollNumber": 409, "sessionNumber": 2, "url": "https://clerk.house.gov/evs/2022/roll409.xml"}], "sourceSystem": {"code": 2, "name": "House floor actions"}, "text": "On motion to recommit Failed by the Yeas and Nays: 207 - 220 (Roll no. 409).", "type": "Floor"}, {"actionCode": "H8A000", "actionDate": "2022-07-29", "actionTime": "17:24:52", "sourceSystem": {"code": 2, "name": "House floor actions"}, "text": "The previous question on the motion to recommit was ordered pursuant to clause 2(b) of rule XIX.", "type": "Floor"}, {"actionCode": "H36200", "actionDate": "2022-07-29", "actionTime": "17:24:40", "committees": [{"name": "Judiciary Committee", "systemCode": "hsju00", "url": "https://api.congress.gov/v3/committee/house/hsju00?format=json"}], "sourceSystem": {"code": 2, "name": "House floor actions"}, "text": "Mr. Fitzgerald moved to recommit to the Committee on the Judiciary.", "type": "Floor"}, {"actionCode": "H35000", "actionDate": "2022-07-29", "actionTime": "17:24:24", "sourceSystem": {"code": 2, "name": "House floor actions"}, "text": "The previous question was ordered pursuant to the rule.", "type": "Floor"}, {"actionCode": "H8D000", "actionDate": "2022-07-29", "actionTime": "15:51:37", "sourceSystem": {"code": 2, "name": "House floor actions"}, "text": "DEBATE - The House proceeded with one hour of debate on H.R. 1808.", "type": "Floor"}, {"actionCode": "H8D000", "actionDate": "2022-07-29", "actionTime": "15:48:47", "sourceSystem": {"code": 2, "name": "House floor actions"}, "text": "Rule provides for consideration of H.R. 1808 with 1 hour of general debate. Motion to recommit allowed. Bill is closed to amendments.", "type": "Floor"}, {"actionCode": "H30000", "actionDate": "2022-07-29", "actionTime": "15:48:42", "sourceSystem": {"code": 2, "name": "House floor actions"}, "text": "Considered under the provisions of rule H. Res. 1302. (consideration: CR H7499-7527)", "type": "Floor"}, {"actionCode": "H1L220", "actionDate": "2022-07-29", "actionTime": "15:48:26", "sourceSystem": {"code": 2, "name": "House floor actions"}, "text": "Rule H. Res. 1302 passed House.", "type": "Floor"}, {"actionCode": "H1L210", "actionDate": "2022-07-29", "actionTime": "13:57:51", "sourceSystem": {"code": 2, "name": "House floor actions"}, "text": "Rules Committee Resolution H. Res. 1302 Reported to House. Rule provides for consideration of H.R. 1808 with 1 hour of general debate. Motion to recommit allowed. Bill is closed to amendments.", "type": "Floor"}, {"actionCode": "H12410", "actionDate": "2022-07-26", "calendarNumber": {"calendar": "U00346"}, "sourceSystem": {"code": 2, "name": "House floor actions"}, "text": "Placed on the Union Calendar, Calendar No. 346.", "type": "Calendars"}, {"actionCode": "H12200", "actionDate": "2022-07-26", "committees": [{"name": "Judiciary Committee", "systemCode": "hsju00", "url": "https://api.congress.gov/v3/committee/house/hsju00?format=json"}], "sourceSystem": {"code": 2, "name": "House floor actions"}, "text": "Reported (Amended) by the Committee on Judiciary. H. Rept. 117-442.", "type": "Committee"}, {"actionCode": "5000", "actionDate": "2022-07-26", "committees": [{"name": "Judiciary Committee", "systemCode": "hsju00", "url": "https://api.congress.gov/v3/committee/house/hsju00?format=json"}], "sourceSystem": {"code": 9, "name": "Library of Congress"}, "text": "Reported (Amended) by the Committee on Judiciary. H. Rept. 117-442.", "type": "Committee"}, {"actionCode": "H19000", "actionDate": "2022-07-20", "committees": [{"name": "Judiciary Committee", "systemCode": "hsju00", "url": "https://api.congress.gov/v3/committee/house/hsju00?format=json"}], "sourceSystem": {"code": 1, "name": "House committee actions"}, "text": "Ordered to be Reported (Amended) by the Yeas and Nays: 25 - 18.", "type": "Committee"}, {"actionCode": "H15000-B", "actionDate": "2022-07-20", "committees": [{"name": "Judiciary Committee", "systemCode": "hsju00", "url": "https://api.congress.gov/v3/committee/house/hsju00?format=json"}], "sourceSystem": {"code": 1, "name": "House committee actions"}, "text": "Committee Consideration and Mark-up Session Held.", "type": "Committee"}, {"actionCode": "H25000", "actionDate": "2022-07-20", "committees": [{"name": "Judiciary Committee", "systemCode": "hsju00", "url": "https://api.congress.gov/v3/committee/house/hsju00?format=json"}], "sourceSystem": {"code": 1, "name": "House committee actions"}, "text": "Subcommittee on Crime, Terrorism, and Homeland Security Discharged.", "type": "Committee"}], "pagination": {"count": 24, "next": "https://api.congress.gov/v3/bill/117/hr/1808/actions?offset=20&limit=20&format=json"}, "request": {"billNumber": "1808", "billType": "hr", "billUrl": "https://api.congress.gov/v3/bill/117/hr/1808?format=json", "congress": "117", "contentType": "application/json", "format": "json"}}, 200]