[{"actions": [{"actionDate": "2022-01-13", "committees": [{"name": "Veterans' Affairs Committee", "systemCode": "ssva00", "url": "https://api.congress.gov/v3/committee/senate/ssva00?format=json"}], "sourceSystem": {"name": "Senate"}, "text": "Received in the Senate and Read twice and referred to the Committee on Veterans' Affairs.", "type": "IntroReferral"}, {"actionCode": "H38310", "actionDate": "2022-01-12", "actionTime": "16:23:29", "sourceSystem": {"code": 2, "name": "House floor actions"}, "text": "Motion to reconsider laid on the table Agreed to without objection.", "type": "Floor"}, {"actionCode": "H37100", "actionDate": "2022-01-12", "actionTime": "16:23:28", "recordedVotes": [{"chamber": "House", "congress": 117, "date": "2022-01-12T21:23:28Z", "rollNumber": 6, "sessionNumber": 2, "url": "https://clerk.house.gov/evs/2022/roll006.xml"}], "sourceSystem": {"code": 2, "name": "House floor actions"}, "text": "On passage Passed by the Yeas and Nays: 287 - 135 (Roll no. 6).", "type": "Floor"}, {"actionCode": "8000", "actionDate": "2022-01-12", "actionTime": "16:23:28", "recordedVotes": [{"chamber": "House", "congress": 117, "date": "2022-01-12T21:23:28Z", "rollNumber": 6, "sessionNumber": 2, "url": "https://clerk.house.gov/evs/2022/roll006.xml"}], "sourceSystem": {"code": 9, "name": "Library of Congress"}, "text": "Passed/agreed to in House: On passage Passed by the Yeas and Nays: 287 - 135 (Roll no. 6).", "type": "Floor"}, {"actionCode": "H36210", "actionDate": "2022-01-12", "actionTime": "15:22:11", "committees": [{"name": "Veterans' Affairs Committee", "systemCode": "hsvr00", "url": "https://api.congress.gov/v3/committee/house/hsvr00?format=json"}], "recordedVotes": [{"chamber": "House", "congress": 117, "date": "2022-01-12T20:22:11Z", "rollNumber": 5, "sessionNumber": 2, "url": "https://clerk.house.gov/evs/2022/roll005.xml"}], "sourceSystem": {"code": 2, "name": "House floor actions"}, "text": "On motion to recommit Failed by the Yeas and Nays: 204 - 219 (Roll no. 5).", "type": "Floor"}, {"actionCode": "H8A000", "actionDate": "2022-01-12", "actionTime": "14:56:29", "sourceSystem": {"code": 2, "name": "House floor actions"}, "text": "The previous question on the motion to recommit was ordered pursuant to clause 2(b) of rule XIX.", "type": "Floor"}, {"actionCode": "H36200", "actionDate": "2022-01-12", "actionTime": "14:56:28", "committees": [{"name": "Veterans' Affairs Committee", "systemCode": "hsvr00", "url": "https://api.congress.gov/v3/committee/house/hsvr00?format=json"}], "sourceSystem": {"code": 2, "name": "House floor actions"}, "text": "Mr. Fitzgerald moved to recommit to the Committee on Veterans' Affairs. (text: CR H62-63)", "type": "Floor"}, {"actionCode": "H35000", "actionDate": "2022-01-12", "actionTime": "14:55:26", "sourceSystem": {"code": 2, "name": "House floor actions"}, "text": "The previous question was ordered pursuant to the rule.", "type": "Floor"}, {"actionCode": "H8D000", "actionDate": "2022-01-12", "actionTime": "14:03:29", "sourceSystem": {"code": 2, "name": "House floor actions"}, "text": "DEBATE - Pursuant to the provisions of H. Res. 860, the House proceeded with 10 minutes of debate on the Moore (AL) amendment No. 2.", "type": "Floor"}, {"actionCode": "H8D000", "actionDate": "2022-01-12", "actionTime": "14:02:46", "sourceSystem": {"code": 2, "name": "House floor actions"}, "text": "Motion to reconsider laid on the table. Agreed to without objection.", "type": "Floor"}, {"actionCode": "H8D000", "actionDate": "2022-01-12", "actionTime": "13:55:38", "sourceSystem": {"code": 2, "name": "House floor actions"}, "text": "DEBATE - Pursuant to the provisions of H. Res. 860, the House proceeded with 10 minutes of debate on the Ross amendment No. 1.", "type": "Floor"}, {"actionCode": "H8D000", "actionDate": "2022-01-12", "actionTime": "12:42:12", "sourceSystem": {"code": 2, "name": "House floor actions"}, "text": "DEBATE - The House proceeded with one hour of debate on H.R. 1836.", "type": "Floor"}, {"actionCode": "H8D000", "actionDate": "2022-01-12", "actionTime": "12:41:12", "sourceSystem": {"code": 2, "name": "House floor actions"}, "text": "Rule provides for consideration of H.R. 1836 and H.R. 4673. Previous question shall be considered as ordered without intervening motions except motion to recommit. Measure will be considered read. Specified amendments are in order.", "type": "Floor"}, {"actionCode": "H30000", "actionDate": "2022-01-12", "actionTime": "12:41:07", "sourceSystem": {"code": 2, "name": "House floor actions"}, "text": "Considered under the provisions of rule H. Res. 860. (consideration: CR H50-64)", "type": "Floor"}, {"actionCode": "H1L210", "actionDate": "2022-01-10", "actionTime": "17:45:09", "sourceSystem": {"code": 2, "name": "House floor actions"}, "text": "Rules Committee Resolution H. Res. 860 Reported to House. Rule provides for consideration of H.R. 1836 and H.R. 4673. Previous question shall be considered as ordered without intervening motions except motion to recommit. Measure will be considered read. Specified amendments are in order.", "type": "Floor"}, {"actionCode": "H12410", "actionDate": "2022-01-06", "calendarNumber": {"calendar": "U00159"}, "sourceSystem": {"code": 2, "name": "House floor actions"}, "text": "Placed on the Union Calendar, Calendar No. 159.", "type": "Calendars"}, {"actionCode": "H12200", "actionDate": "2022-01-06", "committees": [{"name": "Veterans' Affairs Committee", "systemCode": "hsvr00", "url": "https://api.congress.gov/v3/committee/house/hsvr00?format=json"}], "sourceSystem": {"code": 2, "name": "House floor actions"}, "text": "Reported (Amended) by the Committee on Veterans' Affairs. H. Rept. 117-222.", "type": "Committee"}, {"actionCode": "5000", "actionDate": "2022-01-06", "committees": [{"name": "Veterans' Affairs Committee", "systemCode": "hsvr00", "url": "https://api.congress.gov/v3/committee/house/hsvr00?format=json"}], "sourceSystem": {"code": 9, "name": "Library of Congress"}, "text": "Reported (Amended) by the Committee on Veterans' Affairs. H. Rept. 117-222.", "type": "Committee"}, {"actionCode": "H19000", "actionDate": "2021-11-04", "committees": [{"name": "Veterans' Affairs Committee", "systemCode": "hsvr00", "url": "https://api.congress.gov/v3/committee/house/hsvr00?format=json"}], "sourceSystem": {"code": 1, "name": "House committee actions"}, "text": "Ordered to be Reported (Amended) by Voice Vote.", "type": "Committee"}, {"actionCode": "H15000-B", "actionDate": "2021-11-04", "committees": [{"name": "Veterans' Affairs Committee", "systemCode": "hsvr00", "url": "https://api.congress.gov/v3/committee/house/hsvr00?format=json"}], "sourceSystem": {"code": 1, "name": "House committee actions"}, "text": "Committee Consideration and Mark-up Session Held.", "type": "Committee"}], "pagination": {"count": 25, "next": "https://api.congress.gov/v3/bill/117/hr/1836/actions?offset=20&limit=20&format=json"}, "request": {"billNumber": "1836", "billType": "hr", "billUrl": "https://api.congress.gov/v3/bill/117/hr/1836?format=json", "congress": "117", "contentType": "application/json", "format": "json"}}, 200]