[{"actions": [{"actionCode": "E40000", "actionDate": "2021-04-14", "sourceSystem": {"code": 9, "name": "Library of Congress"}, "text": "Became Public Law No: 117-7.", "type": "President"}, {"actionCode": "36000", "actionDate": "2021-04-14", "sourceSystem": {"code": 9, "name": "Library of Congress"}, "text": "Became Public Law No: 117-7.", "type": "BecameLaw"}, {"actionCode": "E30000", "actionDate": "2021-04-14", "sourceSystem": {"code": 9, "name": "Library of Congress"}, "text": "Signed by President.", "type": "President"}, {"actionCode": "36000", "actionDate": "2021-04-14", "sourceSystem": {"code": 9, "name": "Library of Congress"}, "text": "Signed by President.", "type": "BecameLaw"}, {"actionCode": "E20000", "actionDate": "2021-04-14", "sourceSystem": {"code": 2, "name": "House floor actions"}, "text": "Presented to President.", "type": "Floor"}, {"actionCode": "28000", "actionDate": "2021-04-14", "sourceSystem": {"code": 9, "name": "Library of Congress"}, "text": "Presented to President.", "type": "President"}, {"actionCode": "H41931", "actionDate": "2021-04-13", "actionTime": "19:50:15", "sourceSystem": {"code": 2, "name": "House floor actions"}, "text": "Motion to reconsider laid on the table Agreed to without objection.", "type": "ResolvingDifferences"}, {"actionCode": "H41610", "actionDate": "2021-04-13", "actionTime": "19:49:52", "recordedVotes": [{"chamber": "House", "congress": 117, "date": "2021-04-13T23:49:52Z", "rollNumber": 98, "sessionNumber": 1, "url": "https://clerk.house.gov/evs/2021/roll098.xml"}], "sourceSystem": {"code": 2, "name": "House floor actions"}, "text": "On motion that the House suspend the rules and agree to the Senate amendment Agreed to by the Yeas and Nays: (2/3 required): 384 - 38 (Roll no. 98). (text: CR H1729-1730)", "type": "ResolvingDifferences"}, {"actionCode": "19500", "actionDate": "2021-04-13", "recordedVotes": [{"chamber": "House", "congress": 117, "date": "2021-04-13T23:49:52Z", "rollNumber": 98, "sessionNumber": 1, "url": "https://clerk.house.gov/evs/2021/roll098.xml"}], "sourceSystem": {"code": 9, "name": "Library of Congress"}, "text": "Resolving differences -- House actions: On motion that the House suspend the rules and agree to the Senate amendment Agreed to by the Yeas and Nays: (2/3 required): 384 - 38 (Roll no. 98).(text: CR H1729-1730)", "type": "NotUsed"}, {"actionCode": "H8D000", "actionDate": "2021-04-13", "actionTime": "19:05:20", "sourceSystem": {"code": 2, "name": "House floor actions"}, "text": "DEBATE - The House proceeded with forty minutes of debate on the motion to suspend the rules and concur in the Senate amendment to H.R. 1868.", "type": "Floor"}, {"actionCode": "H40140", "actionDate": "2021-04-13", "actionTime": "19:04:47", "sourceSystem": {"code": 2, "name": "House floor actions"}, "text": "Mr. Yarmuth moved that the House suspend the rules and concur in the Senate amendment. (consideration: CR H1729-1733)", "type": "ResolvingDifferences"}, {"actionDate": "2021-03-26", "sourceSystem": {"name": "Senate"}, "text": "Message on Senate action sent to the House.", "type": "Floor"}, {"actionDate": "2021-03-25", "recordedVotes": [{"chamber": "Senate", "congress": 117, "date": "2021-03-25T19:45:06Z", "rollNumber": 142, "sessionNumber": 1, "url": "https://www.senate.gov/legislative/LIS/roll_call_votes/vote1171/vote_117_1_00142.xml"}], "sourceSystem": {"name": "Senate"}, "text": "Passed Senate, having achieved 60 votes in the affirmative, with an amendment by Yea-Nay Vote. 90 - 2. Record Vote Number: 142. (text of amendment in the nature of a substitute: CR S1801-1802)", "type": "Floor"}, {"actionCode": "17000", "actionDate": "2021-03-25", "recordedVotes": [{"chamber": "Senate", "congress": 117, "date": "2021-03-25T19:45:06Z", "rollNumber": 142, "sessionNumber": 1, "url": "https://www.senate.gov/legislative/LIS/roll_call_votes/vote1171/vote_117_1_00142.xml"}], "sourceSystem": {"code": 9, "name": "Library of Congress"}, "text": "Passed/agreed to in Senate: Passed Senate, having achieved 60 votes in the affirmative, with an amendment by Yea-Nay Vote. 90 - 2. Record Vote Number: 142.(text of amendment in the nature of a substitute: CR S1801-1802)", "type": "Floor"}, {"actionDate": "2021-03-25", "sourceSystem": {"name": "Senate"}, "text": "Measure laid before Senate by unanimous consent. (consideration: CR S1800-1804)", "type": "Floor"}, {"actionDate": "2021-03-25", "calendarNumber": {"calendar": "Senate Calendar of Business", "number": "0031"}, "sourceSystem": {"name": "Senate"}, "text": "Read the second time. Placed on Senate Legislative Calendar under General Orders. Calendar No. 31.", "type": "Calendars"}, {"actionDate": "2021-03-24", "calendarNumber": {"calendar": "Senate Calendar of Business"}, "sourceSystem": {"name": "Senate"}, "text": "Read the first time. Placed on Senate Legislative Calendar under Read the First Time.", "type": "Calendars"}, {"actionDate": "2021-03-22", "sourceSystem": {"name": "Senate"}, "text": "Received in the Senate.", "type": "IntroReferral"}, {"actionCode": "H38310", "actionDate": "2021-03-19", "actionTime": "12:03:24", "sourceSystem": {"code": 2, "name": "House floor actions"}, "text": "Motion to reconsider laid on the table Agreed to without objection.", "type": "Floor"}, {"actionCode": "H37100", "actionDate": "2021-03-19", "actionTime": "12:03:23", "recordedVotes": [{"chamber": "House", "congress": 117, "date": "2021-03-19T16:03:23Z", "rollNumber": 96, "sessionNumber": 1, "url": "https://clerk.house.gov/evs/2021/roll096.xml"}], "sourceSystem": {"code": 2, "name": "House floor actions"}, "text": "On passage Passed by the Yeas and Nays: 246 - 175 (Roll no. 96). (text: CR H1589-1590)", "type": "Floor"}], "pagination": {"count": 34, "next": "https://api.congress.gov/v3/bill/117/hr/1868/actions?offset=20&limit=20&format=json"}, "request": {"billNumber": "1868", "billType": "hr", "billUrl": "https://api.congress.gov/v3/bill/117/hr/1868?format=json", "congress": "117", "contentType": "application/json", "format": "json"}}, 200]