[{"actions": [{"actionCode": "E40000", "actionDate": "2021-11-10", "sourceSystem": {"code": 9, "name": "Library of Congress"}, "text": "Became Public Law No: 117-53.", "type": "President"}, {"actionCode": "36000", "actionDate": "2021-11-10", "sourceSystem": {"code": 9, "name": "Library of Congress"}, "text": "Became Public Law No: 117-53.", "type": "BecameLaw"}, {"actionCode": "E30000", "actionDate": "2021-11-10", "sourceSystem": {"code": 9, "name": "Library of Congress"}, "text": "Signed by President.", "type": "President"}, {"actionCode": "36000", "actionDate": "2021-11-10", "sourceSystem": {"code": 9, "name": "Library of Congress"}, "text": "Signed by President.", "type": "BecameLaw"}, {"actionCode": "E20000", "actionDate": "2021-11-02", "sourceSystem": {"code": 2, "name": "House floor actions"}, "text": "Presented to President.", "type": "Floor"}, {"actionCode": "28000", "actionDate": "2021-11-02", "sourceSystem": {"code": 9, "name": "Library of Congress"}, "text": "Presented to President.", "type": "President"}, {"actionDate": "2021-10-27", "sourceSystem": {"name": "Senate"}, "text": "Message on Senate action sent to the House.", "type": "Floor"}, {"actionDate": "2021-10-26", "sourceSystem": {"name": "Senate"}, "text": "Passed Senate without amendment by Unanimous Consent.", "type": "Floor"}, {"actionCode": "17000", "actionDate": "2021-10-26", "sourceSystem": {"code": 9, "name": "Library of Congress"}, "text": "Passed/agreed to in Senate: Passed Senate without amendment by Unanimous Consent.", "type": "Floor"}, {"actionDate": "2021-10-26", "committees": [{"name": "Judiciary Committee", "systemCode": "ssju00", "url": "https://api.congress.gov/v3/committee/senate/ssju00?format=json"}], "sourceSystem": {"name": "Senate"}, "text": "Senate Committee on the Judiciary discharged by Unanimous Consent. (consideration: CR S7391)", "type": "Discharge"}, {"actionCode": "14500", "actionDate": "2021-10-26", "committees": [{"name": "Judiciary Committee", "systemCode": "ssju00", "url": "https://api.congress.gov/v3/committee/senate/ssju00?format=json"}], "sourceSystem": {"code": 9, "name": "Library of Congress"}, "text": "Senate Committee on the Judiciary discharged by Unanimous Consent.(consideration: CR S7391)", "type": "Committee"}, {"actionDate": "2021-04-19", "committees": [{"name": "Judiciary Committee", "systemCode": "ssju00", "url": "https://api.congress.gov/v3/committee/senate/ssju00?format=json"}], "sourceSystem": {"name": "Senate"}, "text": "Received in the Senate and Read twice and referred to the Committee on the Judiciary.", "type": "IntroReferral"}, {"actionCode": "H38310", "actionDate": "2021-04-15", "actionTime": "20:03:23", "sourceSystem": {"code": 2, "name": "House floor actions"}, "text": "Motion to reconsider laid on the table Agreed to without objection.", "type": "Floor"}, {"actionCode": "H37300", "actionDate": "2021-04-15", "actionTime": "20:03:21", "recordedVotes": [{"chamber": "House", "congress": 117, "date": "2021-04-16T00:03:21Z", "rollNumber": 113, "sessionNumber": 1, "url": "https://clerk.house.gov/evs/2021/roll113.xml"}], "sourceSystem": {"code": 2, "name": "House floor actions"}, "text": "On motion to suspend the rules and pass the bill Agreed to by the Yeas and Nays: (2/3 required): 412 - 5 (Roll no. 113). (text: 04/14/2021 CR H1764)", "type": "Floor"}, {"actionCode": "8000", "actionDate": "2021-04-15", "actionTime": "20:03:21", "recordedVotes": [{"chamber": "House", "congress": 117, "date": "2021-04-16T00:03:21Z", "rollNumber": 113, "sessionNumber": 1, "url": "https://clerk.house.gov/evs/2021/roll113.xml"}], "sourceSystem": {"code": 9, "name": "Library of Congress"}, "text": "Passed/agreed to in House: On motion to suspend the rules and pass the bill Agreed to by the Yeas and Nays: (2/3 required): 412 - 5 (Roll no. 113).(text: 04/14/2021 CR H1764)", "type": "Floor"}, {"actionCode": "H30000", "actionDate": "2021-04-15", "actionTime": "19:30:37", "sourceSystem": {"code": 2, "name": "House floor actions"}, "text": "Considered as unfinished business. (consideration: CR H1832)", "type": "Floor"}, {"actionCode": "H37220", "actionDate": "2021-04-14", "actionTime": "14:17:46", "sourceSystem": {"code": 2, "name": "House floor actions"}, "text": "At the conclusion of debate, the Yeas and Nays were demanded and ordered. Pursuant to the provisions of clause 8, rule XX, the Chair announced that further proceedings on the motion would be postponed.", "type": "Floor"}, {"actionCode": "H8D000", "actionDate": "2021-04-14", "actionTime": "14:11:18", "sourceSystem": {"code": 2, "name": "House floor actions"}, "text": "DEBATE - The House proceeded with forty minutes of debate on H.R. 1899.", "type": "Floor"}, {"actionCode": "H30000", "actionDate": "2021-04-14", "actionTime": "14:11:15", "sourceSystem": {"code": 2, "name": "House floor actions"}, "text": "Considered under suspension of the rules. (consideration: CR H1764-1765)", "type": "Floor"}, {"actionCode": "H30300", "actionDate": "2021-04-14", "actionTime": "14:10:38", "sourceSystem": {"code": 2, "name": "House floor actions"}, "text": "Mr. Pallone moved to suspend the rules and pass the bill.", "type": "Floor"}], "pagination": {"count": 26, "next": "https://api.congress.gov/v3/bill/117/hr/1899/actions?offset=20&limit=20&format=json"}, "request": {"billNumber": "1899", "billType": "hr", "billUrl": "https://api.congress.gov/v3/bill/117/hr/1899?format=json", "congress": "117", "contentType": "application/json", "format": "json"}}, 200]