[{"actions": [{"actionDate": "2022-11-14", "sourceSystem": {"name": "Senate"}, "text": "Star Print ordered on the reported bill.", "type": "Floor"}, {"actionDate": "2022-09-27", "calendarNumber": {"calendar": "Senate Calendar of Business", "number": "0512"}, "sourceSystem": {"name": "Senate"}, "text": "Placed on Senate Legislative Calendar under General Orders. Calendar No. 512.", "type": "Calendars"}, {"actionDate": "2022-09-27", "committees": [{"name": "Energy and Natural Resources Committee", "systemCode": "sseg00", "url": "https://api.congress.gov/v3/committee/senate/sseg00?format=json"}], "sourceSystem": {"name": "Senate"}, "text": "Committee on Energy and Natural Resources. Reported by Senator Manchin with an amendment. With written report No. 117-170.", "type": "Committee"}, {"actionCode": "14000", "actionDate": "2022-09-27", "committees": [{"name": "Energy and Natural Resources Committee", "systemCode": "sseg00", "url": "https://api.congress.gov/v3/committee/senate/sseg00?format=json"}], "sourceSystem": {"code": 9, "name": "Library of Congress"}, "text": "Committee on Energy and Natural Resources. Reported by Senator Manchin with an amendment. With written report No. 117-170.", "type": "Committee"}, {"actionDate": "2022-07-21", "committees": [{"name": "Energy and Natural Resources Committee", "systemCode": "sseg00", "url": "https://api.congress.gov/v3/committee/senate/sseg00?format=json"}], "sourceSystem": {"name": "Senate"}, "text": "Committee on Energy and Natural Resources. Ordered to be reported with an amendment favorably.", "type": "Committee"}, {"actionDate": "2022-05-11", "committees": [{"name": "National Parks Subcommittee", "systemCode": "sseg04", "url": "https://api.congress.gov/v3/committee/senate/sseg04?format=json"}], "sourceSystem": {"name": "Senate"}, "text": "Committee on Energy and Natural Resources Subcommittee on National Parks. Hearings held.", "type": "Committee"}, {"actionDate": "2022-03-16", "committees": [{"name": "Energy and Natural Resources Committee", "systemCode": "sseg00", "url": "https://api.congress.gov/v3/committee/senate/sseg00?format=json"}], "sourceSystem": {"name": "Senate"}, "text": "Received in the Senate and Read twice and referred to the Committee on Energy and Natural Resources.", "type": "IntroReferral"}, {"actionCode": "H38310", "actionDate": "2022-03-15", "actionTime": "15:02:05", "sourceSystem": {"code": 2, "name": "House floor actions"}, "text": "Motion to reconsider laid on the table Agreed to without objection.", "type": "Floor"}, {"actionCode": "H37300", "actionDate": "2022-03-15", "actionTime": "15:02:01", "sourceSystem": {"code": 2, "name": "House floor actions"}, "text": "On motion to suspend the rules and pass the bill, as amended Agreed to by voice vote. (text: CR H3723-3724)", "type": "Floor"}, {"actionCode": "8000", "actionDate": "2022-03-15", "actionTime": "15:02:01", "sourceSystem": {"code": 9, "name": "Library of Congress"}, "text": "Passed/agreed to in House: On motion to suspend the rules and pass the bill, as amended Agreed to by voice vote.", "type": "Floor"}, {"actionCode": "H8D000", "actionDate": "2022-03-15", "actionTime": "14:51:44", "sourceSystem": {"code": 2, "name": "House floor actions"}, "text": "DEBATE - The House proceeded with forty minutes of debate on H.R. 1931.", "type": "Floor"}, {"actionCode": "H30000", "actionDate": "2022-03-15", "actionTime": "14:51:31", "sourceSystem": {"code": 2, "name": "House floor actions"}, "text": "Considered under suspension of the rules. (consideration: CR H3723-3725)", "type": "Floor"}, {"actionCode": "H30300", "actionDate": "2022-03-15", "actionTime": "14:51:12", "sourceSystem": {"code": 2, "name": "House floor actions"}, "text": "Mr. Grijalva moved to suspend the rules and pass the bill, as amended.", "type": "Floor"}, {"actionCode": "H12410", "actionDate": "2022-03-15", "calendarNumber": {"calendar": "U00199"}, "sourceSystem": {"code": 2, "name": "House floor actions"}, "text": "Placed on the Union Calendar, Calendar No. 199.", "type": "Calendars"}, {"actionCode": "H12200", "actionDate": "2022-03-15", "committees": [{"name": "Natural Resources Committee", "systemCode": "hsii00", "url": "https://api.congress.gov/v3/committee/house/hsii00?format=json"}], "sourceSystem": {"code": 2, "name": "House floor actions"}, "text": "Reported (Amended) by the Committee on Natural Resources. H. Rept. 117-271.", "type": "Committee"}, {"actionCode": "5000", "actionDate": "2022-03-15", "committees": [{"name": "Natural Resources Committee", "systemCode": "hsii00", "url": "https://api.congress.gov/v3/committee/house/hsii00?format=json"}], "sourceSystem": {"code": 9, "name": "Library of Congress"}, "text": "Reported (Amended) by the Committee on Natural Resources. H. Rept. 117-271.", "type": "Committee"}, {"actionCode": "H19000", "actionDate": "2021-11-17", "committees": [{"name": "Natural Resources Committee", "systemCode": "hsii00", "url": "https://api.congress.gov/v3/committee/house/hsii00?format=json"}], "sourceSystem": {"code": 1, "name": "House committee actions"}, "text": "Ordered to be Reported (Amended) by Unanimous Consent.", "type": "Committee"}, {"actionCode": "H15000-B", "actionDate": "2021-11-17", "committees": [{"name": "Natural Resources Committee", "systemCode": "hsii00", "url": "https://api.congress.gov/v3/committee/house/hsii00?format=json"}], "sourceSystem": {"code": 1, "name": "House committee actions"}, "text": "Committee Consideration and Mark-up Session Held.", "type": "Committee"}, {"actionCode": "H25000", "actionDate": "2021-11-17", "committees": [{"name": "Natural Resources Committee", "systemCode": "hsii00", "url": "https://api.congress.gov/v3/committee/house/hsii00?format=json"}], "sourceSystem": {"code": 1, "name": "House committee actions"}, "text": "Subcommittee on National Parks, Forests, and Public Lands Discharged.", "type": "Committee"}, {"actionCode": "H21000", "actionDate": "2021-05-27", "committees": [{"name": "Federal Lands Subcommittee", "systemCode": "hsii10", "url": "https://api.congress.gov/v3/committee/house/hsii10?format=json"}], "sourceSystem": {"code": 1, "name": "House committee actions"}, "text": "Subcommittee Hearings Held.", "type": "Committee"}], "pagination": {"count": 24, "next": "https://api.congress.gov/v3/bill/117/hr/1931/actions?offset=20&limit=20&format=json"}, "request": {"billNumber": "1931", "billType": "hr", "billUrl": "https://api.congress.gov/v3/bill/117/hr/1931?format=json", "congress": "117", "contentType": "application/json", "format": "json"}}, 200]