[{"actions": [{"actionDate": "2022-12-15", "sourceSystem": {"name": "Senate"}, "text": "Received in the Senate.", "type": "IntroReferral"}, {"actionCode": "H38310", "actionDate": "2022-12-15", "actionTime": "13:34:42", "sourceSystem": {"code": 2, "name": "House floor actions"}, "text": "Motion to reconsider laid on the table Agreed to without objection.", "type": "Floor"}, {"actionCode": "H37100", "actionDate": "2022-12-15", "actionTime": "13:34:40", "recordedVotes": [{"chamber": "House", "congress": 117, "date": "2022-12-15T18:34:40Z", "rollNumber": 530, "sessionNumber": 2, "url": "https://clerk.house.gov/evs/2022/roll530.xml"}], "sourceSystem": {"code": 2, "name": "House floor actions"}, "text": "On passage Passed by the Yeas and Nays: 219 - 201 (Roll no. 530). (text: CR H9863)", "type": "Floor"}, {"actionCode": "8000", "actionDate": "2022-12-15", "actionTime": "13:34:40", "recordedVotes": [{"chamber": "House", "congress": 117, "date": "2022-12-15T18:34:40Z", "rollNumber": 530, "sessionNumber": 2, "url": "https://clerk.house.gov/evs/2022/roll530.xml"}], "sourceSystem": {"code": 9, "name": "Library of Congress"}, "text": "Passed/agreed to in House: On passage Passed by the Yeas and Nays: 219 - 201 (Roll no. 530).", "type": "Floor"}, {"actionCode": "H30000", "actionDate": "2022-12-15", "actionTime": "13:18:24", "sourceSystem": {"code": 2, "name": "House floor actions"}, "text": "Considered as unfinished business. (consideration: CR H9882-9883)", "type": "Floor"}, {"actionCode": "H8D000", "actionDate": "2022-12-15", "actionTime": "10:59:26", "sourceSystem": {"code": 2, "name": "House floor actions"}, "text": "POSTPONED PROCEEDINGS - At the conclusion of debate on H.R. 1948, the Chair put the question on passage of the bill and by voice vote, announced that the ayes had prevailed. Mr. Bost demanded the yeas and nays and the Chair postponed further proceedings until a time to be announced.", "type": "Floor"}, {"actionCode": "H35000", "actionDate": "2022-12-15", "actionTime": "10:58:27", "sourceSystem": {"code": 2, "name": "House floor actions"}, "text": "The previous question was ordered pursuant to the rule.", "type": "Floor"}, {"actionCode": "H8D000", "actionDate": "2022-12-15", "actionTime": "10:28:42", "sourceSystem": {"code": 2, "name": "House floor actions"}, "text": "DEBATE - The House proceeded with one hour of debate on H.R. 1948.", "type": "Floor"}, {"actionCode": "H8D000", "actionDate": "2022-12-15", "actionTime": "10:28:15", "sourceSystem": {"code": 2, "name": "House floor actions"}, "text": "Rule provides for consideration of H.R. 1948, S. 3905 and S. 4003. Rule provides for one hour of general debate each for H.R. 1948, S. 3905, S. 4003. Rule provides for one hour of general debate on the Senate amendment to H.R. 1437. Rule provides that H. Res. 1516 and H. Con. Res. 124 are adopted. Rule provides that the House shall be considered to have taken from the Speaker's table H.R. 2617, with the Senate amendments thereto, to have concurred in the Senate amendments numbered 1, 2, 3, and 5, and to have concurred in the Senate amendment numbered 4 with an amendment consisting of the text of Rules Committee Print 117-73.", "type": "Floor"}, {"actionCode": "H30000", "actionDate": "2022-12-15", "actionTime": "10:28:10", "sourceSystem": {"code": 2, "name": "House floor actions"}, "text": "Considered under the provisions of rule H. Res. 1518. (consideration: CR H9863-9866)", "type": "Floor"}, {"actionCode": "H1L210", "actionDate": "2022-12-14", "actionTime": "10:09:04", "sourceSystem": {"code": 2, "name": "House floor actions"}, "text": "Rules Committee Resolution H. Res. 1518 Reported to House. Rule provides for consideration of H.R. 1948, S. 3905 and S. 4003. Rule provides for one hour of general debate each for H.R. 1948, S. 3905, S. 4003. Rule provides for one hour of general debate on the Senate amendment to H.R. 1437. Rule provides that H. Res. 1516 and H. Con. Res. 124 are adopted. Rule provides that the House shall be considered to have taken from the Speaker's table H.R. 2617, with the Senate amendments thereto, to have concurred in the Senate amendments numbered 1, 2, 3, and 5, and to have concurred in the Senate amendment numbered 4 with an amendment consisting of the text of Rules Committee Print 117-73. (consideration: CR H9745-9751)", "type": "Floor"}, {"actionCode": "H12410", "actionDate": "2022-12-12", "calendarNumber": {"calendar": "U00446"}, "sourceSystem": {"code": 2, "name": "House floor actions"}, "text": "Placed on the Union Calendar, Calendar No. 446.", "type": "Calendars"}, {"actionCode": "H12200", "actionDate": "2022-12-12", "committees": [{"name": "Veterans' Affairs Committee", "systemCode": "hsvr00", "url": "https://api.congress.gov/v3/committee/house/hsvr00?format=json"}], "sourceSystem": {"code": 2, "name": "House floor actions"}, "text": "Reported by the Committee on Veterans' Affairs. H. Rept. 117-618.", "type": "Committee"}, {"actionCode": "5000", "actionDate": "2022-12-12", "committees": [{"name": "Veterans' Affairs Committee", "systemCode": "hsvr00", "url": "https://api.congress.gov/v3/committee/house/hsvr00?format=json"}], "sourceSystem": {"code": 9, "name": "Library of Congress"}, "text": "Reported by the Committee on Veterans' Affairs. H. Rept. 117-618.", "type": "Committee"}, {"actionCode": "H15000-B", "actionDate": "2021-05-04", "committees": [{"name": "Veterans' Affairs Committee", "systemCode": "hsvr00", "url": "https://api.congress.gov/v3/committee/house/hsvr00?format=json"}], "sourceSystem": {"code": 1, "name": "House committee actions"}, "text": "Committee Consideration and Mark-up Session Held.", "type": "Committee"}, {"actionCode": "H25000", "actionDate": "2021-05-04", "committees": [{"name": "Veterans' Affairs Committee", "systemCode": "hsvr00", "url": "https://api.congress.gov/v3/committee/house/hsvr00?format=json"}], "sourceSystem": {"code": 1, "name": "House committee actions"}, "text": "Subcommittee on Oversight and Investigations Discharged.", "type": "Committee"}, {"actionCode": "H19000", "actionDate": "2021-05-04", "committees": [{"name": "Veterans' Affairs Committee", "systemCode": "hsvr00", "url": "https://api.congress.gov/v3/committee/house/hsvr00?format=json"}], "sourceSystem": {"code": 1, "name": "House committee actions"}, "text": "Ordered to be Reported by the Yeas and Nays: 17 - 11.", "type": "Committee"}, {"actionCode": "H21000", "actionDate": "2021-04-21", "committees": [{"name": "Oversight and Investigations Subcommittee", "systemCode": "hsvr08", "url": "https://api.congress.gov/v3/committee/house/hsvr08?format=json"}], "sourceSystem": {"code": 1, "name": "House committee actions"}, "text": "Subcommittee Hearings Held.", "type": "Committee"}, {"actionCode": "H11000", "actionDate": "2021-04-20", "committees": [{"name": "Oversight and Investigations Subcommittee", "systemCode": "hsvr08", "url": "https://api.congress.gov/v3/committee/house/hsvr08?format=json"}], "sourceSystem": {"code": 1, "name": "House committee actions"}, "text": "Referred to the Subcommittee on Oversight and Investigations.", "type": "Committee"}, {"actionCode": "H11100", "actionDate": "2021-03-16", "committees": [{"name": "Veterans' Affairs Committee", "systemCode": "hsvr00", "url": "https://api.congress.gov/v3/committee/house/hsvr00?format=json"}], "sourceSystem": {"code": 2, "name": "House floor actions"}, "text": "Referred to the House Committee on Veterans' Affairs.", "type": "IntroReferral"}], "pagination": {"count": 22, "next": "https://api.congress.gov/v3/bill/117/hr/1948/actions?offset=20&limit=20&format=json"}, "request": {"billNumber": "1948", "billType": "hr", "billUrl": "https://api.congress.gov/v3/bill/117/hr/1948?format=json", "congress": "117", "contentType": "application/json", "format": "json"}}, 200]