[{"actions": [{"actionDate": "2022-06-23", "calendarNumber": {"calendar": "Senate Calendar of Business", "number": "0431"}, "sourceSystem": {"name": "Senate"}, "text": "Placed on Senate Legislative Calendar under General Orders. Calendar No. 431.", "type": "Calendars"}, {"actionDate": "2022-06-23", "committees": [{"name": "Indian Affairs Committee", "systemCode": "slia00", "url": "https://api.congress.gov/v3/committee/senate/slia00?format=json"}], "sourceSystem": {"name": "Senate"}, "text": "Committee on Indian Affairs. Reported by Senator Schatz without amendment. With written report No. 117-126.", "type": "Committee"}, {"actionCode": "14000", "actionDate": "2022-06-23", "committees": [{"name": "Indian Affairs Committee", "systemCode": "slia00", "url": "https://api.congress.gov/v3/committee/senate/slia00?format=json"}], "sourceSystem": {"code": 9, "name": "Library of Congress"}, "text": "Committee on Indian Affairs. Reported by Senator Schatz without amendment. With written report No. 117-126.", "type": "Committee"}, {"actionDate": "2022-04-06", "committees": [{"name": "Indian Affairs Committee", "systemCode": "slia00", "url": "https://api.congress.gov/v3/committee/senate/slia00?format=json"}], "sourceSystem": {"name": "Senate"}, "text": "Committee on Indian Affairs. Ordered to be reported without amendment favorably.", "type": "Committee"}, {"actionDate": "2021-11-17", "committees": [{"name": "Indian Affairs Committee", "systemCode": "slia00", "url": "https://api.congress.gov/v3/committee/senate/slia00?format=json"}], "sourceSystem": {"name": "Senate"}, "text": "Committee on Indian Affairs. Hearings held. Hearings printed: S.Hrg. 117-115.", "type": "Committee"}, {"actionDate": "2021-11-03", "committees": [{"name": "Indian Affairs Committee", "systemCode": "slia00", "url": "https://api.congress.gov/v3/committee/senate/slia00?format=json"}], "sourceSystem": {"name": "Senate"}, "text": "Received in the Senate and Read twice and referred to the Committee on Indian Affairs.", "type": "IntroReferral"}, {"actionCode": "H38310", "actionDate": "2021-11-02", "actionTime": "14:19:48", "sourceSystem": {"code": 2, "name": "House floor actions"}, "text": "Motion to reconsider laid on the table Agreed to without objection.", "type": "Floor"}, {"actionCode": "H37300", "actionDate": "2021-11-02", "actionTime": "14:19:47", "recordedVotes": [{"chamber": "House", "congress": 117, "date": "2021-11-02T18:19:47Z", "rollNumber": 342, "sessionNumber": 1, "url": "https://clerk.house.gov/evs/2021/roll342.xml"}], "sourceSystem": {"code": 2, "name": "House floor actions"}, "text": "On motion to suspend the rules and pass the bill Agreed to by the Yeas and Nays: (2/3 required): 397 - 25 (Roll no. 342). (text: 11/1/2021 CR H6043)", "type": "Floor"}, {"actionCode": "8000", "actionDate": "2021-11-02", "actionTime": "14:19:47", "recordedVotes": [{"chamber": "House", "congress": 117, "date": "2021-11-02T18:19:47Z", "rollNumber": 342, "sessionNumber": 1, "url": "https://clerk.house.gov/evs/2021/roll342.xml"}], "sourceSystem": {"code": 9, "name": "Library of Congress"}, "text": "Passed/agreed to in House: On motion to suspend the rules and pass the bill Agreed to by the Yeas and Nays: (2/3 required): 397 - 25 (Roll no. 342).(text: 11/1/2021 CR H6043)", "type": "Floor"}, {"actionCode": "H30000", "actionDate": "2021-11-02", "actionTime": "13:40:16", "sourceSystem": {"code": 2, "name": "House floor actions"}, "text": "Considered as unfinished business. (consideration: CR H6094-6095)", "type": "Floor"}, {"actionCode": "H37220", "actionDate": "2021-11-01", "actionTime": "16:40:32", "sourceSystem": {"code": 2, "name": "House floor actions"}, "text": "At the conclusion of debate, the Yeas and Nays were demanded and ordered. Pursuant to the provisions of clause 8, rule XX, the Chair announced that further proceedings on the motion would be postponed.", "type": "Floor"}, {"actionCode": "H8D000", "actionDate": "2021-11-01", "actionTime": "16:31:58", "sourceSystem": {"code": 2, "name": "House floor actions"}, "text": "DEBATE - The House proceeded with forty minutes of debate on H.R. 1975.", "type": "Floor"}, {"actionCode": "H30000", "actionDate": "2021-11-01", "actionTime": "16:31:52", "sourceSystem": {"code": 2, "name": "House floor actions"}, "text": "Considered under suspension of the rules. (consideration: CR H6043-6044)", "type": "Floor"}, {"actionCode": "H30300", "actionDate": "2021-11-01", "actionTime": "16:31:23", "sourceSystem": {"code": 2, "name": "House floor actions"}, "text": "Ms. Leger Fernandez moved to suspend the rules and pass the bill.", "type": "Floor"}, {"actionCode": "H12410", "actionDate": "2021-11-01", "calendarNumber": {"calendar": "U00118"}, "sourceSystem": {"code": 2, "name": "House floor actions"}, "text": "Placed on the Union Calendar, Calendar No. 118.", "type": "Calendars"}, {"actionCode": "H12200", "actionDate": "2021-11-01", "committees": [{"name": "Natural Resources Committee", "systemCode": "hsii00", "url": "https://api.congress.gov/v3/committee/house/hsii00?format=json"}], "sourceSystem": {"code": 2, "name": "House floor actions"}, "text": "Reported by the Committee on Natural Resources. H. Rept. 117-163.", "type": "Committee"}, {"actionCode": "5000", "actionDate": "2021-11-01", "committees": [{"name": "Natural Resources Committee", "systemCode": "hsii00", "url": "https://api.congress.gov/v3/committee/house/hsii00?format=json"}], "sourceSystem": {"code": 9, "name": "Library of Congress"}, "text": "Reported by the Committee on Natural Resources. H. Rept. 117-163.", "type": "Committee"}, {"actionCode": "H19000", "actionDate": "2021-10-13", "committees": [{"name": "Natural Resources Committee", "systemCode": "hsii00", "url": "https://api.congress.gov/v3/committee/house/hsii00?format=json"}], "sourceSystem": {"code": 1, "name": "House committee actions"}, "text": "Ordered to be Reported by Unanimous Consent.", "type": "Committee"}, {"actionCode": "H15000-B", "actionDate": "2021-10-13", "committees": [{"name": "Natural Resources Committee", "systemCode": "hsii00", "url": "https://api.congress.gov/v3/committee/house/hsii00?format=json"}], "sourceSystem": {"code": 1, "name": "House committee actions"}, "text": "Committee Consideration and Mark-up Session Held.", "type": "Committee"}, {"actionCode": "H25000", "actionDate": "2021-10-13", "committees": [{"name": "Natural Resources Committee", "systemCode": "hsii00", "url": "https://api.congress.gov/v3/committee/house/hsii00?format=json"}], "sourceSystem": {"code": 1, "name": "House committee actions"}, "text": "Subcommittee for Indigenous Peoples of the United States Discharged.", "type": "Committee"}], "pagination": {"count": 24, "next": "https://api.congress.gov/v3/bill/117/hr/1975/actions?offset=20&limit=20&format=json"}, "request": {"billNumber": "1975", "billType": "hr", "billUrl": "https://api.congress.gov/v3/bill/117/hr/1975?format=json", "congress": "117", "contentType": "application/json", "format": "json"}}, 200]