[{"actions": [{"actionDate": "2021-06-24", "committees": [{"name": "Health, Education, Labor, and Pensions Committee", "systemCode": "sshr00", "url": "https://api.congress.gov/v3/committee/senate/sshr00?format=json"}], "sourceSystem": {"name": "Senate"}, "text": "Received in the Senate and Read twice and referred to the Committee on Health, Education, Labor, and Pensions.", "type": "IntroReferral"}, {"actionCode": "H38310", "actionDate": "2021-06-23", "actionTime": "17:36:06", "sourceSystem": {"code": 2, "name": "House floor actions"}, "text": "Motion to reconsider laid on the table Agreed to without objection.", "type": "Floor"}, {"actionCode": "H37100", "actionDate": "2021-06-23", "actionTime": "17:36:03", "recordedVotes": [{"chamber": "House", "congress": 117, "date": "2021-06-23T21:36:03Z", "rollNumber": 180, "sessionNumber": 1, "url": "https://clerk.house.gov/evs/2021/roll180.xml"}], "sourceSystem": {"code": 2, "name": "House floor actions"}, "text": "On passage Passed by the Yeas and Nays: 247 - 178 (Roll no. 180).", "type": "Floor"}, {"actionCode": "8000", "actionDate": "2021-06-23", "actionTime": "17:36:03", "recordedVotes": [{"chamber": "House", "congress": 117, "date": "2021-06-23T21:36:03Z", "rollNumber": 180, "sessionNumber": 1, "url": "https://clerk.house.gov/evs/2021/roll180.xml"}], "sourceSystem": {"code": 9, "name": "Library of Congress"}, "text": "Passed/agreed to in House: On passage Passed by the Yeas and Nays: 247 - 178 (Roll no. 180).", "type": "Floor"}, {"actionCode": "H35000", "actionDate": "2021-06-23", "actionTime": "17:14:09", "sourceSystem": {"code": 2, "name": "House floor actions"}, "text": "The previous question was ordered pursuant to the rule.", "type": "Floor"}, {"actionCode": "H8D000", "actionDate": "2021-06-23", "actionTime": "17:13:33", "sourceSystem": {"code": 2, "name": "House floor actions"}, "text": "Motion to reconsider laid on the table. Agreed to without objection.", "type": "Floor"}, {"actionCode": "H8D000", "actionDate": "2021-06-23", "actionTime": "16:51:22", "sourceSystem": {"code": 2, "name": "House floor actions"}, "text": "Motion to reconsider laid on the table. Agreed to without objection.", "type": "Floor"}, {"actionCode": "H8D000", "actionDate": "2021-06-23", "actionTime": "16:19:55", "sourceSystem": {"code": 2, "name": "House floor actions"}, "text": "UNFINISHED BUSINESS - The Chair announced that the unfinished business was the question on the Scott amendment en bloc No. 1 which had been debated earlier and on which further proceedings had been postponed.", "type": "Floor"}, {"actionCode": "H8D000", "actionDate": "2021-06-23", "actionTime": "16:15:45", "sourceSystem": {"code": 2, "name": "House floor actions"}, "text": "DEBATE - Pursuant to the provisions of H. Res 486, the House proceeded with 10 minutes of debate on the Davis (IL) amendment.", "type": "Floor"}, {"actionCode": "H8D000", "actionDate": "2021-06-23", "actionTime": "16:14:38", "sourceSystem": {"code": 2, "name": "House floor actions"}, "text": "POSTPONED PROCEEDINGS - At the conclusion of debate on the Scott (VA) amendment en bloc No. 2, the Chair put the question on adoption of the amendment and by voice vote, announced that the noes had prevailed. Mrs. Foxx demanded the yeas and nays an d the Chair postponed further proceedings until a time to be announced.", "type": "Floor"}, {"actionCode": "H8D000", "actionDate": "2021-06-23", "actionTime": "15:54:13", "sourceSystem": {"code": 2, "name": "House floor actions"}, "text": "DEBATE - Pursuant to the provisions of H. Res 486, the House proceeded with 20 minutes of debate on the Scott (VA) amendment en bloc No. 2.", "type": "Floor"}, {"actionCode": "H8D000", "actionDate": "2021-06-23", "actionTime": "15:52:45", "sourceSystem": {"code": 2, "name": "House floor actions"}, "text": "POSTPONED PROCEEDINGS - At the conclusion of debate on the Scott (VA) amendment en bloc No. 1, the Chair put the question on adoption of the amendment and by voice vote, announced that the ayes had prevailed. Mrs. Foxx demanded the yeas and nays and the Chair postponed further proceedings until a time to be announced.", "type": "Floor"}, {"actionCode": "H8D000", "actionDate": "2021-06-23", "actionTime": "15:38:46", "sourceSystem": {"code": 2, "name": "House floor actions"}, "text": "DEBATE - Pursuant to the provisions of H. Res 486, the House proceeded with 20 minutes of debate on the Scott (VA) amendment en bloc No. 1.", "type": "Floor"}, {"actionCode": "H8D000", "actionDate": "2021-06-23", "actionTime": "14:48:59", "sourceSystem": {"code": 2, "name": "House floor actions"}, "text": "DEBATE - The House proceeded with one hour of debate on H.R. 2062.", "type": "Floor"}, {"actionCode": "H8D000", "actionDate": "2021-06-23", "actionTime": "14:48:05", "sourceSystem": {"code": 2, "name": "House floor actions"}, "text": "The resolution provides for 1 hour of debate, orders the previous question, and allows a motion to recommit for each measure. Provides that H. Res. 485 is adopted. Provides that anytime through the legislative day of June 25, 2021, the Speaker may entertain motions offered by the Majority Leader or his designee that the House suspend the rules with respect to multiple measures that were the object of motions to suspend the rules on the legislative days of June 22 or 23, and on which the yeas and nays were ordered and further proceedings postponed.", "type": "Floor"}, {"actionCode": "H30000", "actionDate": "2021-06-23", "actionTime": "14:48:00", "sourceSystem": {"code": 2, "name": "House floor actions"}, "text": "Considered under the provisions of rule H. Res. 486. (consideration: CR H3052-3067; text: CR H3052-3053)", "type": "Floor"}, {"actionCode": "H1L210", "actionDate": "2021-06-22", "actionTime": "18:20:01", "sourceSystem": {"code": 2, "name": "House floor actions"}, "text": "Rules Committee Resolution H. Res. 486 Reported to House. The resolution provides for 1 hour of debate, orders the previous question, and allows a motion to recommit for each measure. Provides that H. Res. 485 is adopted. Provides that anytime through the legislative day of June 25, 2021, the Speaker may entertain motions offered by the Majority Leader or his designee that the House suspend the rules with respect to multiple measures that were the object of motions to suspend the rules on the legislative days of June 22 or 23, and on which the yeas and nays were ordered and further proceedings postponed.", "type": "Floor"}, {"actionCode": "H12410", "actionDate": "2021-06-17", "calendarNumber": {"calendar": "U00044"}, "sourceSystem": {"code": 2, "name": "House floor actions"}, "text": "Placed on the Union Calendar, Calendar No. 44.", "type": "Calendars"}, {"actionCode": "H12200", "actionDate": "2021-06-17", "committees": [{"name": "Education and the Workforce Committee", "systemCode": "hsed00", "url": "https://api.congress.gov/v3/committee/house/hsed00?format=json"}], "sourceSystem": {"code": 2, "name": "House floor actions"}, "text": "Reported (Amended) by the Committee on Education and Labor. H. Rept. 117-63.", "type": "Committee"}, {"actionCode": "5000", "actionDate": "2021-06-17", "committees": [{"name": "Education and the Workforce Committee", "systemCode": "hsed00", "url": "https://api.congress.gov/v3/committee/house/hsed00?format=json"}], "sourceSystem": {"code": 9, "name": "Library of Congress"}, "text": "Reported (Amended) by the Committee on Education and Labor. H. Rept. 117-63.", "type": "Committee"}], "pagination": {"count": 25, "next": "https://api.congress.gov/v3/bill/117/hr/2062/actions?offset=20&limit=20&format=json"}, "request": {"billNumber": "2062", "billType": "hr", "billUrl": "https://api.congress.gov/v3/bill/117/hr/2062?format=json", "congress": "117", "contentType": "application/json", "format": "json"}}, 200]