[{"actions": [{"actionCode": "E40000", "actionDate": "2021-11-22", "sourceSystem": {"code": 9, "name": "Library of Congress"}, "text": "Became Public Law No: 117-62.", "type": "President"}, {"actionCode": "36000", "actionDate": "2021-11-22", "sourceSystem": {"code": 9, "name": "Library of Congress"}, "text": "Became Public Law No: 117-62.", "type": "BecameLaw"}, {"actionCode": "E30000", "actionDate": "2021-11-22", "sourceSystem": {"code": 9, "name": "Library of Congress"}, "text": "Signed by President.", "type": "President"}, {"actionCode": "36000", "actionDate": "2021-11-22", "sourceSystem": {"code": 9, "name": "Library of Congress"}, "text": "Signed by President.", "type": "BecameLaw"}, {"actionCode": "E20000", "actionDate": "2021-11-16", "sourceSystem": {"code": 2, "name": "House floor actions"}, "text": "Presented to President.", "type": "Floor"}, {"actionCode": "28000", "actionDate": "2021-11-16", "sourceSystem": {"code": 9, "name": "Library of Congress"}, "text": "Presented to President.", "type": "President"}, {"actionDate": "2021-11-03", "sourceSystem": {"name": "Senate"}, "text": "Message on Senate action sent to the House.", "type": "Floor"}, {"actionDate": "2021-11-02", "sourceSystem": {"name": "Senate"}, "text": "Passed Senate without amendment by Voice Vote.", "type": "Floor"}, {"actionCode": "17000", "actionDate": "2021-11-02", "sourceSystem": {"code": 9, "name": "Library of Congress"}, "text": "Passed/agreed to in Senate: Passed Senate without amendment by Voice Vote.", "type": "Floor"}, {"actionDate": "2021-11-02", "committees": [{"name": "Veterans' Affairs Committee", "systemCode": "ssva00", "url": "https://api.congress.gov/v3/committee/senate/ssva00?format=json"}], "sourceSystem": {"name": "Senate"}, "text": "Senate Committee on Veterans' Affairs discharged by Unanimous Consent. (consideration: CR S7685)", "type": "Discharge"}, {"actionCode": "14500", "actionDate": "2021-11-02", "committees": [{"name": "Veterans' Affairs Committee", "systemCode": "ssva00", "url": "https://api.congress.gov/v3/committee/senate/ssva00?format=json"}], "sourceSystem": {"code": 9, "name": "Library of Congress"}, "text": "Senate Committee on Veterans' Affairs discharged by Unanimous Consent.(consideration: CR S7685)", "type": "Committee"}, {"actionDate": "2021-06-16", "committees": [{"name": "Veterans' Affairs Committee", "systemCode": "ssva00", "url": "https://api.congress.gov/v3/committee/senate/ssva00?format=json"}], "sourceSystem": {"name": "Senate"}, "text": "Received in the Senate and Read twice and referred to the Committee on Veterans' Affairs.", "type": "IntroReferral"}, {"actionCode": "H38310", "actionDate": "2021-06-15", "actionTime": "14:15:04", "sourceSystem": {"code": 2, "name": "House floor actions"}, "text": "Motion to reconsider laid on the table Agreed to without objection.", "type": "Floor"}, {"actionCode": "H37300", "actionDate": "2021-06-15", "actionTime": "14:15:01", "sourceSystem": {"code": 2, "name": "House floor actions"}, "text": "On motion to suspend the rules and pass the bill Agreed to by voice vote. (text: CR H2773)", "type": "Floor"}, {"actionCode": "8000", "actionDate": "2021-06-15", "actionTime": "14:15:01", "sourceSystem": {"code": 9, "name": "Library of Congress"}, "text": "Passed/agreed to in House: On motion to suspend the rules and pass the bill Agreed to by voice vote.(text: CR H2773)", "type": "Floor"}, {"actionCode": "H8D000", "actionDate": "2021-06-15", "actionTime": "14:05:20", "sourceSystem": {"code": 2, "name": "House floor actions"}, "text": "DEBATE - The House proceeded with forty minutes of debate on H.R. 2093.", "type": "Floor"}, {"actionCode": "H30000", "actionDate": "2021-06-15", "actionTime": "14:05:16", "sourceSystem": {"code": 2, "name": "House floor actions"}, "text": "Considered under suspension of the rules. (consideration: CR H2773-2774)", "type": "Floor"}, {"actionCode": "H30300", "actionDate": "2021-06-15", "actionTime": "14:05:14", "sourceSystem": {"code": 2, "name": "House floor actions"}, "text": "Mr. Takano moved to suspend the rules and pass the bill.", "type": "Floor"}, {"actionCode": "H19000", "actionDate": "2021-05-04", "committees": [{"name": "Veterans' Affairs Committee", "systemCode": "hsvr00", "url": "https://api.congress.gov/v3/committee/house/hsvr00?format=json"}], "sourceSystem": {"code": 1, "name": "House committee actions"}, "text": "Ordered to be Reported by the Yeas and Nays: 22 - 6.", "type": "Committee"}, {"actionCode": "H15000-B", "actionDate": "2021-05-04", "committees": [{"name": "Veterans' Affairs Committee", "systemCode": "hsvr00", "url": "https://api.congress.gov/v3/committee/house/hsvr00?format=json"}], "sourceSystem": {"code": 1, "name": "House committee actions"}, "text": "Committee Consideration and Mark-up Session Held.", "type": "Committee"}], "pagination": {"count": 26, "next": "https://api.congress.gov/v3/bill/117/hr/2093/actions?offset=20&limit=20&format=json"}, "request": {"billNumber": "2093", "billType": "hr", "billUrl": "https://api.congress.gov/v3/bill/117/hr/2093?format=json", "congress": "117", "contentType": "application/json", "format": "json"}}, 200]