[{"actions": [{"actionDate": "2022-03-21", "committees": [{"name": "Judiciary Committee", "systemCode": "ssju00", "url": "https://api.congress.gov/v3/committee/senate/ssju00?format=json"}], "sourceSystem": {"name": "Senate"}, "text": "Received in the Senate and Read twice and referred to the Committee on the Judiciary.", "type": "IntroReferral"}, {"actionCode": "H38310", "actionDate": "2022-03-18", "actionTime": "10:55:09", "sourceSystem": {"code": 2, "name": "House floor actions"}, "text": "Motion to reconsider laid on the table Agreed to without objection.", "type": "Floor"}, {"actionCode": "H37100", "actionDate": "2022-03-18", "actionTime": "10:55:07", "recordedVotes": [{"chamber": "House", "congress": 117, "date": "2022-03-18T14:55:07Z", "rollNumber": 82, "sessionNumber": 2, "url": "https://clerk.house.gov/evs/2022/roll082.xml"}], "sourceSystem": {"code": 2, "name": "House floor actions"}, "text": "On passage Passed by the Yeas and Nays: 235 - 189 (Roll no. 82). (text: CR H3833-3834)", "type": "Floor"}, {"actionCode": "8000", "actionDate": "2022-03-18", "actionTime": "10:55:07", "recordedVotes": [{"chamber": "House", "congress": 117, "date": "2022-03-18T14:55:07Z", "rollNumber": 82, "sessionNumber": 2, "url": "https://clerk.house.gov/evs/2022/roll082.xml"}], "sourceSystem": {"code": 9, "name": "Library of Congress"}, "text": "Passed/agreed to in House: On passage Passed by the Yeas and Nays: 235 - 189 (Roll no. 82).", "type": "Floor"}, {"actionCode": "H35000", "actionDate": "2022-03-18", "actionTime": "10:17:19", "sourceSystem": {"code": 2, "name": "House floor actions"}, "text": "The previous question was ordered pursuant to the rule.", "type": "Floor"}, {"actionCode": "H8D000", "actionDate": "2022-03-18", "actionTime": "09:18:57", "sourceSystem": {"code": 2, "name": "House floor actions"}, "text": "DEBATE - The House proceeded with one hour of debate on H.R. 2116.", "type": "Floor"}, {"actionCode": "H8D000", "actionDate": "2022-03-18", "actionTime": "09:17:51", "sourceSystem": {"code": 2, "name": "House floor actions"}, "text": "Rule provides for consideration of H.R. 963 and H.R. 2116. The rule provides for one hour of general debate on both H.R. 963 and H.R. 2116.", "type": "Floor"}, {"actionCode": "H30000", "actionDate": "2022-03-18", "actionTime": "09:17:46", "sourceSystem": {"code": 2, "name": "House floor actions"}, "text": "Considered under the provisions of rule H. Res. 979. (consideration: CR H3833-3842)", "type": "Floor"}, {"actionCode": "H1L220", "actionDate": "2022-03-16", "actionTime": "16:22:17", "sourceSystem": {"code": 2, "name": "House floor actions"}, "text": "Rule H. Res. 979 passed House.", "type": "Floor"}, {"actionCode": "H1L210", "actionDate": "2022-03-15", "actionTime": "16:18:48", "sourceSystem": {"code": 2, "name": "House floor actions"}, "text": "Rules Committee Resolution H. Res. 979 Reported to House. Rule provides for consideration of H.R. 963 and H.R. 2116. The rule provides for one hour of general debate on both H.R. 963 and H.R. 2116.", "type": "Floor"}, {"actionCode": "H37300", "actionDate": "2022-02-28", "actionTime": "19:53:05", "recordedVotes": [{"chamber": "House", "congress": 117, "date": "2022-03-01T00:53:05Z", "rollNumber": 48, "sessionNumber": 2, "url": "https://clerk.house.gov/evs/2022/roll048.xml"}], "sourceSystem": {"code": 2, "name": "House floor actions"}, "text": "On motion to suspend the rules and pass the bill, as amended Failed by the Yeas and Nays: (2/3 required): 235 - 188 (Roll no. 48). (text: CR H1160-1162)", "type": "Floor"}, {"actionCode": "9000", "actionDate": "2022-02-28", "actionTime": "19:53:05", "recordedVotes": [{"chamber": "House", "congress": 117, "date": "2022-03-01T00:53:05Z", "rollNumber": 48, "sessionNumber": 2, "url": "https://clerk.house.gov/evs/2022/roll048.xml"}], "sourceSystem": {"code": 9, "name": "Library of Congress"}, "text": "Failed of passage/not agreed to in House: On motion to suspend the rules and pass the bill, as amended Failed by the Yeas and Nays: (2/3 required): 235 - 188 (Roll no. 48).(text: CR H1160-1162)", "type": "Floor"}, {"actionCode": "H30000", "actionDate": "2022-02-28", "actionTime": "19:32:27", "sourceSystem": {"code": 2, "name": "House floor actions"}, "text": "Considered as unfinished business. (consideration: CR H1172-1173)", "type": "Floor"}, {"actionCode": "H37220", "actionDate": "2022-02-28", "actionTime": "16:09:28", "sourceSystem": {"code": 2, "name": "House floor actions"}, "text": "At the conclusion of debate, the Yeas and Nays were demanded and ordered. Pursuant to the provisions of clause 8, rule XX, the Chair announced that further proceedings on the motion would be postponed.", "type": "Floor"}, {"actionCode": "H8D000", "actionDate": "2022-02-28", "actionTime": "15:41:48", "sourceSystem": {"code": 2, "name": "House floor actions"}, "text": "DEBATE - The House proceeded with forty minutes of debate on H.R. 2116.", "type": "Floor"}, {"actionCode": "H30000", "actionDate": "2022-02-28", "actionTime": "15:41:44", "sourceSystem": {"code": 2, "name": "House floor actions"}, "text": "Considered under suspension of the rules. (consideration: CR H1160-1166)", "type": "Floor"}, {"actionCode": "H30300", "actionDate": "2022-02-28", "actionTime": "15:40:07", "sourceSystem": {"code": 2, "name": "House floor actions"}, "text": "Mr. Nadler moved to suspend the rules and pass the bill, as amended.", "type": "Floor"}, {"actionCode": "H12410", "actionDate": "2022-02-25", "calendarNumber": {"calendar": "U00182"}, "sourceSystem": {"code": 2, "name": "House floor actions"}, "text": "Placed on the Union Calendar, Calendar No. 182.", "type": "Calendars"}, {"actionCode": "H12300", "actionDate": "2022-02-25", "committees": [{"name": "Budget Committee", "systemCode": "hsbu00", "url": "https://api.congress.gov/v3/committee/house/hsbu00?format=json"}], "sourceSystem": {"code": 2, "name": "House floor actions"}, "text": "Committee on the Budget discharged.", "type": "Discharge"}, {"actionCode": "5500", "actionDate": "2022-02-25", "committees": [{"name": "Budget Committee", "systemCode": "hsbu00", "url": "https://api.congress.gov/v3/committee/house/hsbu00?format=json"}], "sourceSystem": {"code": 9, "name": "Library of Congress"}, "text": "Committee on the Budget discharged.", "type": "Committee"}], "pagination": {"count": 32, "next": "https://api.congress.gov/v3/bill/117/hr/2116/actions?offset=20&limit=20&format=json"}, "request": {"billNumber": "2116", "billType": "hr", "billUrl": "https://api.congress.gov/v3/bill/117/hr/2116?format=json", "congress": "117", "contentType": "application/json", "format": "json"}}, 200]