[{"actions": [{"actionDate": "2021-10-27", "calendarNumber": {"calendar": "Senate Calendar of Business", "number": "0156"}, "sourceSystem": {"name": "Senate"}, "text": "Received in the Senate. Read twice. Placed on Senate Legislative Calendar under General Orders. Calendar No. 156.", "type": "Calendars"}, {"actionCode": "H38310", "actionDate": "2021-10-26", "actionTime": "15:56:47", "sourceSystem": {"code": 2, "name": "House floor actions"}, "text": "Motion to reconsider laid on the table Agreed to without objection.", "type": "Floor"}, {"actionCode": "H37100", "actionDate": "2021-10-26", "actionTime": "15:56:45", "recordedVotes": [{"chamber": "House", "congress": 117, "date": "2021-10-26T19:56:45Z", "rollNumber": 336, "sessionNumber": 1, "url": "https://clerk.house.gov/evs/2021/roll336.xml"}], "sourceSystem": {"code": 2, "name": "House floor actions"}, "text": "On passage Passed by the Yeas and Nays: 228 - 200 (Roll no. 336).", "type": "Floor"}, {"actionCode": "8000", "actionDate": "2021-10-26", "actionTime": "15:56:45", "recordedVotes": [{"chamber": "House", "congress": 117, "date": "2021-10-26T19:56:45Z", "rollNumber": 336, "sessionNumber": 1, "url": "https://clerk.house.gov/evs/2021/roll336.xml"}], "sourceSystem": {"code": 9, "name": "Library of Congress"}, "text": "Passed/agreed to in House: On passage Passed by the Yeas and Nays: 228 - 200 (Roll no. 336).", "type": "Floor"}, {"actionCode": "H35000", "actionDate": "2021-10-26", "actionTime": "15:37:20", "sourceSystem": {"code": 2, "name": "House floor actions"}, "text": "The previous question was ordered pursuant to the rule.", "type": "Floor"}, {"actionCode": "H30000", "actionDate": "2021-10-26", "actionTime": "14:31:17", "sourceSystem": {"code": 2, "name": "House floor actions"}, "text": "Considered as unfinished business. (consideration: H5908-5911)", "type": "Floor"}, {"actionCode": "H8D000", "actionDate": "2021-10-26", "actionTime": "14:31:15", "sourceSystem": {"code": 2, "name": "House floor actions"}, "text": "Pursuant to clause 1(c) of rule XIX, the House proceeded with further consideration of H.R. 2119.", "type": "Floor"}, {"actionCode": "H8D000", "actionDate": "2021-10-26", "actionTime": "13:39:19", "sourceSystem": {"code": 2, "name": "House floor actions"}, "text": "Pursuant to clause 1(c) of rule XIX, the Chair announced that further proceedings on H.R. 2119 is postponed.", "type": "Floor"}, {"actionCode": "H8D000", "actionDate": "2021-10-26", "actionTime": "13:38:46", "sourceSystem": {"code": 2, "name": "House floor actions"}, "text": "POSTPONED PROCEEDINGS - At the conclusion of debate on the Scott (VA) en bloc No. 2, the Chair put the question on adoption of the amendment and by voice vote, announced that the noes had prevailed. Ms. Foxx demanded the yeas and nays and the Chair postponed further proceedings until a time to be announced.", "type": "Floor"}, {"actionCode": "H8D000", "actionDate": "2021-10-26", "actionTime": "13:28:00", "sourceSystem": {"code": 2, "name": "House floor actions"}, "text": "DEBATE - Pursuant to the provisions of H. Res. 716, the House proceeded with 20 minutes of debate on the Scott (VA) en bloc No. 2.", "type": "Floor"}, {"actionCode": "H8D000", "actionDate": "2021-10-26", "actionTime": "13:26:59", "sourceSystem": {"code": 2, "name": "House floor actions"}, "text": "POSTPONED PROCEEDINGS - At the conclusion of debate on the Scott (VA) en bloc No. 1, the Chair put the question on adoption of the amendment and by voice vote, announced that the ayes had prevailed. Mr. Clyde demanded the yeas and nays and the Chair postponed further proceedings until a time to be announced.", "type": "Floor"}, {"actionCode": "H8D000", "actionDate": "2021-10-26", "actionTime": "13:16:06", "sourceSystem": {"code": 2, "name": "House floor actions"}, "text": "DEBATE - Pursuant to the provisions of H. Res. 716, the House proceeded with 20 minutes of debate on the Scott (VA) en bloc No. 1.", "type": "Floor"}, {"actionCode": "H8D000", "actionDate": "2021-10-26", "actionTime": "12:25:49", "sourceSystem": {"code": 2, "name": "House floor actions"}, "text": "DEBATE - The House proceeded with one hour of debate on H.R. 2119.", "type": "Floor"}, {"actionCode": "H8D000", "actionDate": "2021-10-26", "actionTime": "12:24:49", "sourceSystem": {"code": 2, "name": "House floor actions"}, "text": "Rule provides for consideration of H.R. 2119, H.R. 3110 and H.R. 3992. The resolution provides that H. Res. 188, agreed to March 8, 2021, is amended by striking \"October 27, 2021\" each place it appears and inserting \"November 18, 2021.", "type": "Floor"}, {"actionCode": "H30000", "actionDate": "2021-10-26", "actionTime": "12:24:44", "sourceSystem": {"code": 2, "name": "House floor actions"}, "text": "Considered under the provisions of rule H. Res. 716. (consideration: H5885-5908; text: CR H5885-5895)", "type": "Floor"}, {"actionCode": "H1L210", "actionDate": "2021-10-12", "actionTime": "16:02:22", "sourceSystem": {"code": 2, "name": "House floor actions"}, "text": "Rules Committee Resolution H. Res. 716 Reported to House. Rule provides for consideration of H.R. 2119, H.R. 3110 and H.R. 3992. The resolution provides that H. Res. 188, agreed to March 8, 2021, is amended by striking \"October 27, 2021\" each place it appears and inserting \"November 18, 2021.", "type": "Floor"}, {"actionCode": "H12410", "actionDate": "2021-09-23", "calendarNumber": {"calendar": "U00090"}, "sourceSystem": {"code": 2, "name": "House floor actions"}, "text": "Placed on the Union Calendar, Calendar No. 90.", "type": "Calendars"}, {"actionCode": "H12200", "actionDate": "2021-09-23", "committees": [{"name": "Education and the Workforce Committee", "systemCode": "hsed00", "url": "https://api.congress.gov/v3/committee/house/hsed00?format=json"}], "sourceSystem": {"code": 2, "name": "House floor actions"}, "text": "Reported (Amended) by the Committee on Education and Labor. H. Rept. 117-126.", "type": "Committee"}, {"actionCode": "5000", "actionDate": "2021-09-23", "committees": [{"name": "Education and the Workforce Committee", "systemCode": "hsed00", "url": "https://api.congress.gov/v3/committee/house/hsed00?format=json"}], "sourceSystem": {"code": 9, "name": "Library of Congress"}, "text": "Reported (Amended) by the Committee on Education and Labor. H. Rept. 117-126.", "type": "Committee"}, {"actionCode": "H19000", "actionDate": "2021-07-15", "committees": [{"name": "Education and the Workforce Committee", "systemCode": "hsed00", "url": "https://api.congress.gov/v3/committee/house/hsed00?format=json"}], "sourceSystem": {"code": 1, "name": "House committee actions"}, "text": "Ordered to be Reported (Amended) by the Yeas and Nays: 26 - 20.", "type": "Committee"}], "pagination": {"count": 24, "next": "https://api.congress.gov/v3/bill/117/hr/2119/actions?offset=20&limit=20&format=json"}, "request": {"billNumber": "2119", "billType": "hr", "billUrl": "https://api.congress.gov/v3/bill/117/hr/2119?format=json", "congress": "117", "contentType": "application/json", "format": "json"}}, 200]