[{"actions": [{"actionDate": "2021-07-12", "committees": [{"name": "Health, Education, Labor, and Pensions Committee", "systemCode": "sshr00", "url": "https://api.congress.gov/v3/committee/senate/sshr00?format=json"}], "sourceSystem": {"name": "Senate"}, "text": "Received in the Senate and Read twice and referred to the Committee on Health, Education, Labor, and Pensions.", "type": "IntroReferral"}, {"actionCode": "H38310", "actionDate": "2021-06-28", "actionTime": "19:02:10", "sourceSystem": {"code": 2, "name": "House floor actions"}, "text": "Motion to reconsider laid on the table Agreed to without objection.", "type": "Floor"}, {"actionCode": "H37300", "actionDate": "2021-06-28", "actionTime": "19:02:09", "recordedVotes": [{"chamber": "House", "congress": 117, "date": "2021-06-28T23:02:09Z", "rollNumber": 186, "sessionNumber": 1, "url": "https://clerk.house.gov/evs/2021/roll186.xml"}], "sourceSystem": {"code": 2, "name": "House floor actions"}, "text": "On motion to suspend the rules and pass the bill, as amended Agreed to by the Yeas and Nays: (2/3 required): 345 - 67 (Roll no. 186). (text: CR H3187-3202)", "type": "Floor"}, {"actionCode": "8000", "actionDate": "2021-06-28", "actionTime": "19:02:09", "recordedVotes": [{"chamber": "House", "congress": 117, "date": "2021-06-28T23:02:09Z", "rollNumber": 186, "sessionNumber": 1, "url": "https://clerk.house.gov/evs/2021/roll186.xml"}], "sourceSystem": {"code": 9, "name": "Library of Congress"}, "text": "Passed/agreed to in House: On motion to suspend the rules and pass the bill, as amended Agreed to by the Yeas and Nays: (2/3 required): 345 - 67 (Roll no. 186).(text: CR H3187-3202)", "type": "Floor"}, {"actionCode": "H30000", "actionDate": "2021-06-28", "actionTime": "18:31:08", "sourceSystem": {"code": 2, "name": "House floor actions"}, "text": "Considered as unfinished business. (consideration: CR H3222-3223)", "type": "Floor"}, {"actionCode": "H37220", "actionDate": "2021-06-28", "actionTime": "17:30:06", "sourceSystem": {"code": 2, "name": "House floor actions"}, "text": "At the conclusion of debate, the Yeas and Nays were demanded and ordered. Pursuant to the provisions of clause 8, rule XX, the Chair announced that further proceedings on the motion would be postponed.", "type": "Floor"}, {"actionCode": "H8D000", "actionDate": "2021-06-28", "actionTime": "16:54:48", "sourceSystem": {"code": 2, "name": "House floor actions"}, "text": "DEBATE - The House proceeded with forty minutes of debate on H.R. 2225.", "type": "Floor"}, {"actionCode": "H30000", "actionDate": "2021-06-28", "actionTime": "16:54:46", "sourceSystem": {"code": 2, "name": "House floor actions"}, "text": "Considered under suspension of the rules. (consideration: CR H3187-3206)", "type": "Floor"}, {"actionCode": "H30300", "actionDate": "2021-06-28", "actionTime": "16:53:58", "sourceSystem": {"code": 2, "name": "House floor actions"}, "text": "Ms. Johnson (TX) moved to suspend the rules and pass the bill, as amended.", "type": "Floor"}, {"actionCode": "H12410", "actionDate": "2021-06-28", "calendarNumber": {"calendar": "U00051"}, "sourceSystem": {"code": 2, "name": "House floor actions"}, "text": "Placed on the Union Calendar, Calendar No. 51.", "type": "Calendars"}, {"actionCode": "H12200", "actionDate": "2021-06-28", "committees": [{"name": "Science, Space, and Technology Committee", "systemCode": "hssy00", "url": "https://api.congress.gov/v3/committee/house/hssy00?format=json"}], "sourceSystem": {"code": 2, "name": "House floor actions"}, "text": "Reported (Amended) by the Committee on Science, Space, and Technology. H. Rept. 117-73.", "type": "Committee"}, {"actionCode": "5000", "actionDate": "2021-06-28", "committees": [{"name": "Science, Space, and Technology Committee", "systemCode": "hssy00", "url": "https://api.congress.gov/v3/committee/house/hssy00?format=json"}], "sourceSystem": {"code": 9, "name": "Library of Congress"}, "text": "Reported (Amended) by the Committee on Science, Space, and Technology. H. Rept. 117-73.", "type": "Committee"}, {"actionCode": "H19000", "actionDate": "2021-06-15", "committees": [{"name": "Science, Space, and Technology Committee", "systemCode": "hssy00", "url": "https://api.congress.gov/v3/committee/house/hssy00?format=json"}], "sourceSystem": {"code": 1, "name": "House committee actions"}, "text": "Ordered to be Reported (Amended) by Voice Vote.", "type": "Committee"}, {"actionCode": "H15000-B", "actionDate": "2021-06-15", "committees": [{"name": "Science, Space, and Technology Committee", "systemCode": "hssy00", "url": "https://api.congress.gov/v3/committee/house/hssy00?format=json"}], "sourceSystem": {"code": 1, "name": "House committee actions"}, "text": "Committee Consideration and Mark-up Session Held.", "type": "Committee"}, {"actionCode": "H23000", "actionDate": "2021-05-13", "committees": [{"name": "Research and Technology Subcommittee", "systemCode": "hssy15", "url": "https://api.congress.gov/v3/committee/house/hssy15?format=json"}], "sourceSystem": {"code": 1, "name": "House committee actions"}, "text": "Forwarded by Subcommittee to Full Committee by Voice Vote .", "type": "Committee"}, {"actionCode": "H22000", "actionDate": "2021-05-13", "committees": [{"name": "Research and Technology Subcommittee", "systemCode": "hssy15", "url": "https://api.congress.gov/v3/committee/house/hssy15?format=json"}], "sourceSystem": {"code": 1, "name": "House committee actions"}, "text": "Subcommittee Consideration and Mark-up Session Held.", "type": "Committee"}, {"actionCode": "H11000", "actionDate": "2021-05-04", "committees": [{"name": "Research and Technology Subcommittee", "systemCode": "hssy15", "url": "https://api.congress.gov/v3/committee/house/hssy15?format=json"}], "sourceSystem": {"code": 1, "name": "House committee actions"}, "text": "Referred to the Subcommittee on Research and Technology.", "type": "Committee"}, {"actionCode": "H11100", "actionDate": "2021-03-26", "committees": [{"name": "Science, Space, and Technology Committee", "systemCode": "hssy00", "url": "https://api.congress.gov/v3/committee/house/hssy00?format=json"}], "sourceSystem": {"code": 2, "name": "House floor actions"}, "text": "Referred to the House Committee on Science, Space, and Technology.", "type": "IntroReferral"}, {"actionCode": "B00100", "actionDate": "2021-03-26", "sourceSystem": {"code": 9, "name": "Library of Congress"}, "text": "Sponsor introductory remarks on measure. (CR E305)", "type": "IntroReferral"}, {"actionCode": "Intro-H", "actionDate": "2021-03-26", "sourceSystem": {"code": 9, "name": "Library of Congress"}, "text": "Introduced in House", "type": "IntroReferral"}], "pagination": {"count": 21, "next": "https://api.congress.gov/v3/bill/117/hr/2225/actions?offset=20&limit=20&format=json"}, "request": {"billNumber": "2225", "billType": "hr", "billUrl": "https://api.congress.gov/v3/bill/117/hr/2225?format=json", "congress": "117", "contentType": "application/json", "format": "json"}}, 200]