[{"actions": [{"actionCode": "E40000", "actionDate": "2022-12-21", "sourceSystem": {"code": 9, "name": "Library of Congress"}, "text": "Became Public Law No: 117-257.", "type": "President"}, {"actionCode": "36000", "actionDate": "2022-12-21", "sourceSystem": {"code": 9, "name": "Library of Congress"}, "text": "Became Public Law No: 117-257.", "type": "BecameLaw"}, {"actionCode": "E30000", "actionDate": "2022-12-21", "sourceSystem": {"code": 9, "name": "Library of Congress"}, "text": "Signed by President.", "type": "President"}, {"actionCode": "36000", "actionDate": "2022-12-21", "sourceSystem": {"code": 9, "name": "Library of Congress"}, "text": "Signed by President.", "type": "BecameLaw"}, {"actionCode": "E20000", "actionDate": "2022-12-16", "sourceSystem": {"code": 2, "name": "House floor actions"}, "text": "Presented to President.", "type": "Floor"}, {"actionCode": "28000", "actionDate": "2022-12-16", "sourceSystem": {"code": 9, "name": "Library of Congress"}, "text": "Presented to President.", "type": "President"}, {"actionDate": "2022-12-01", "sourceSystem": {"name": "Senate"}, "text": "Message on Senate action sent to the House.", "type": "Floor"}, {"actionDate": "2022-11-30", "sourceSystem": {"name": "Senate"}, "text": "Passed Senate without amendment by Unanimous Consent. (consideration: CR S6912)", "type": "Floor"}, {"actionCode": "17000", "actionDate": "2022-11-30", "sourceSystem": {"code": 9, "name": "Library of Congress"}, "text": "Passed/agreed to in Senate: Passed Senate without amendment by Unanimous Consent.", "type": "Floor"}, {"actionDate": "2022-11-30", "committees": [{"name": "Environment and Public Works Committee", "systemCode": "ssev00", "url": "https://api.congress.gov/v3/committee/senate/ssev00?format=json"}], "sourceSystem": {"name": "Senate"}, "text": "Senate Committee on Environment and Public Works discharged by Unanimous Consent.", "type": "Discharge"}, {"actionCode": "14500", "actionDate": "2022-11-30", "committees": [{"name": "Environment and Public Works Committee", "systemCode": "ssev00", "url": "https://api.congress.gov/v3/committee/senate/ssev00?format=json"}], "sourceSystem": {"code": 9, "name": "Library of Congress"}, "text": "Senate Committee on Environment and Public Works discharged by Unanimous Consent.", "type": "Committee"}, {"actionDate": "2021-11-15", "committees": [{"name": "Environment and Public Works Committee", "systemCode": "ssev00", "url": "https://api.congress.gov/v3/committee/senate/ssev00?format=json"}], "sourceSystem": {"name": "Senate"}, "text": "Received in the Senate and Read twice and referred to the Committee on Environment and Public Works.", "type": "IntroReferral"}, {"actionCode": "H38310", "actionDate": "2021-11-04", "actionTime": "16:42:25", "sourceSystem": {"code": 2, "name": "House floor actions"}, "text": "Motion to reconsider laid on the table Agreed to without objection.", "type": "Floor"}, {"actionCode": "H37300", "actionDate": "2021-11-04", "actionTime": "16:42:24", "recordedVotes": [{"chamber": "House", "congress": 117, "date": "2021-11-04T20:42:24Z", "rollNumber": 363, "sessionNumber": 1, "url": "https://clerk.house.gov/evs/2021/roll363.xml"}], "sourceSystem": {"code": 2, "name": "House floor actions"}, "text": "On motion to suspend the rules and pass the bill Agreed to by the Yeas and Nays: (2/3 required): 416 - 4 (Roll no. 363). (text: 11/3/2021 CR H6144)", "type": "Floor"}, {"actionCode": "8000", "actionDate": "2021-11-04", "actionTime": "16:42:24", "recordedVotes": [{"chamber": "House", "congress": 117, "date": "2021-11-04T20:42:24Z", "rollNumber": 363, "sessionNumber": 1, "url": "https://clerk.house.gov/evs/2021/roll363.xml"}], "sourceSystem": {"code": 9, "name": "Library of Congress"}, "text": "Passed/agreed to in House: On motion to suspend the rules and pass the bill Agreed to by the Yeas and Nays: (2/3 required): 416 - 4 (Roll no. 363).(text: 11/3/2021 CR H6144)", "type": "Floor"}, {"actionCode": "H30000", "actionDate": "2021-11-04", "actionTime": "16:24:05", "sourceSystem": {"code": 2, "name": "House floor actions"}, "text": "Considered as unfinished business. (consideration: CR H6200)", "type": "Floor"}, {"actionCode": "H37220", "actionDate": "2021-11-03", "actionTime": "13:49:30", "sourceSystem": {"code": 2, "name": "House floor actions"}, "text": "At the conclusion of debate, the Yeas and Nays were demanded and ordered. Pursuant to the provisions of clause 8, rule XX, the Chair announced that further proceedings on the motion would be postponed.", "type": "Floor"}, {"actionCode": "H8D000", "actionDate": "2021-11-03", "actionTime": "13:42:43", "sourceSystem": {"code": 2, "name": "House floor actions"}, "text": "DEBATE - The House proceeded with forty minutes of debate on H.R. 2220.", "type": "Floor"}, {"actionCode": "H30000", "actionDate": "2021-11-03", "actionTime": "13:42:40", "sourceSystem": {"code": 2, "name": "House floor actions"}, "text": "Considered under suspension of the rules. (consideration: CR H6144)", "type": "Floor"}, {"actionCode": "H30300", "actionDate": "2021-11-03", "actionTime": "13:42:30", "sourceSystem": {"code": 2, "name": "House floor actions"}, "text": "Mr. Pappas moved to suspend the rules and pass the bill.", "type": "Floor"}], "pagination": {"count": 30, "next": "https://api.congress.gov/v3/bill/117/hr/2220/actions?offset=20&limit=20&format=json"}, "request": {"billNumber": "2220", "billType": "hr", "billUrl": "https://api.congress.gov/v3/bill/117/hr/2220?format=json", "congress": "117", "contentType": "application/json", "format": "json"}}, 200]