[{"actions": [{"actionCode": "E40000", "actionDate": "2021-10-13", "sourceSystem": {"code": 9, "name": "Library of Congress"}, "text": "Became Public Law No: 117-48.", "type": "President"}, {"actionCode": "36000", "actionDate": "2021-10-13", "sourceSystem": {"code": 9, "name": "Library of Congress"}, "text": "Became Public Law No: 117-48.", "type": "BecameLaw"}, {"actionCode": "E30000", "actionDate": "2021-10-13", "sourceSystem": {"code": 9, "name": "Library of Congress"}, "text": "Signed by President.", "type": "President"}, {"actionCode": "36000", "actionDate": "2021-10-13", "sourceSystem": {"code": 9, "name": "Library of Congress"}, "text": "Signed by President.", "type": "BecameLaw"}, {"actionCode": "E20000", "actionDate": "2021-10-05", "sourceSystem": {"code": 2, "name": "House floor actions"}, "text": "Presented to President.", "type": "Floor"}, {"actionCode": "28000", "actionDate": "2021-10-05", "sourceSystem": {"code": 9, "name": "Library of Congress"}, "text": "Presented to President.", "type": "President"}, {"actionDate": "2021-10-02", "sourceSystem": {"name": "Senate"}, "text": "Message on Senate action sent to the House.", "type": "Floor"}, {"actionDate": "2021-10-01", "sourceSystem": {"name": "Senate"}, "text": "Passed Senate without amendment by Unanimous Consent. (consideration: CR S6875)", "type": "Floor"}, {"actionCode": "17000", "actionDate": "2021-10-01", "sourceSystem": {"code": 9, "name": "Library of Congress"}, "text": "Passed/agreed to in Senate: Passed Senate without amendment by Unanimous Consent.(consideration: CR S6875)", "type": "Floor"}, {"actionDate": "2021-07-30", "sourceSystem": {"name": "Senate"}, "text": "Received in the Senate, read twice.", "type": "IntroReferral"}, {"actionCode": "H38800", "actionDate": "2021-07-29", "actionTime": "18:08:03", "sourceSystem": {"code": 2, "name": "House floor actions"}, "text": "The title of the measure was amended. Agreed to without objection.", "type": "Floor"}, {"actionCode": "H36610", "actionDate": "2021-07-29", "actionTime": "17:02:41", "recordedVotes": [{"chamber": "House", "congress": 117, "date": "2021-07-29T21:02:41Z", "rollNumber": 252, "sessionNumber": 1, "url": "https://clerk.house.gov/evs/2021/roll252.xml"}], "sourceSystem": {"code": 2, "name": "House floor actions"}, "text": "On motion to table the motion to reconsider Agreed to by the Yeas and Nays: 239 - 181 (Roll no. 252).", "type": "Floor"}, {"actionCode": "H36600", "actionDate": "2021-07-29", "actionTime": "16:40:14", "sourceSystem": {"code": 2, "name": "House floor actions"}, "text": "Ms. DeLauro moved to table the motion to reconsider.", "type": "Floor"}, {"actionCode": "H8D000", "actionDate": "2021-07-29", "actionTime": "16:39:51", "sourceSystem": {"code": 2, "name": "House floor actions"}, "text": "Mr. Stanton moved to reconsider the vote.", "type": "Floor"}, {"actionCode": "H38310", "actionDate": "2021-07-29", "actionTime": "16:39:22", "sourceSystem": {"code": 2, "name": "House floor actions"}, "text": "Motion to reconsider laid on the table Objection heard.", "type": "Floor"}, {"actionCode": "H37300", "actionDate": "2021-07-29", "actionTime": "16:39:21", "recordedVotes": [{"chamber": "House", "congress": 117, "date": "2021-07-29T20:39:21Z", "rollNumber": 251, "sessionNumber": 1, "url": "https://clerk.house.gov/evs/2021/roll251.xml"}], "sourceSystem": {"code": 2, "name": "House floor actions"}, "text": "On motion to suspend the rules and pass the bill, as amended Agreed to by the Yeas and Nays: (2/3 required): 423 - 0 (Roll no. 251). (text: 07/26/2021 CR H3857)", "type": "Floor"}, {"actionCode": "8000", "actionDate": "2021-07-29", "actionTime": "16:39:21", "recordedVotes": [{"chamber": "House", "congress": 117, "date": "2021-07-29T20:39:21Z", "rollNumber": 251, "sessionNumber": 1, "url": "https://clerk.house.gov/evs/2021/roll251.xml"}], "sourceSystem": {"code": 9, "name": "Library of Congress"}, "text": "Passed/agreed to in House: On motion to suspend the rules and pass the bill, as amended Agreed to by the Yeas and Nays: (2/3 required): 423 - 0 (Roll no. 251).(text: 07/26/2021 CR H3857)", "type": "Floor"}, {"actionCode": "H30000", "actionDate": "2021-07-29", "actionTime": "16:15:59", "sourceSystem": {"code": 2, "name": "House floor actions"}, "text": "Considered as unfinished business. (consideration: CR H4270-4271)", "type": "Floor"}, {"actionCode": "H37220", "actionDate": "2021-07-26", "actionTime": "14:52:43", "sourceSystem": {"code": 2, "name": "House floor actions"}, "text": "At the conclusion of debate, the Yeas and Nays were demanded and ordered. Pursuant to the provisions of clause 8, rule XX, the Chair announced that further proceedings on the motion would be postponed.", "type": "Floor"}, {"actionCode": "H8D000", "actionDate": "2021-07-26", "actionTime": "14:43:34", "sourceSystem": {"code": 2, "name": "House floor actions"}, "text": "DEBATE - The House proceeded with forty minutes of debate on H.R. 2278.", "type": "Floor"}], "pagination": {"count": 33, "next": "https://api.congress.gov/v3/bill/117/hr/2278/actions?offset=20&limit=20&format=json"}, "request": {"billNumber": "2278", "billType": "hr", "billUrl": "https://api.congress.gov/v3/bill/117/hr/2278?format=json", "congress": "117", "contentType": "application/json", "format": "json"}}, 200]