[{"actions": [{"actionDate": "2021-07-22", "committees": [{"name": "Environment and Public Works Committee", "systemCode": "ssev00", "url": "https://api.congress.gov/v3/committee/senate/ssev00?format=json"}], "sourceSystem": {"name": "Senate"}, "text": "Received in the Senate and Read twice and referred to the Committee on Environment and Public Works.", "type": "IntroReferral"}, {"actionCode": "H38900", "actionDate": "2021-07-21", "actionTime": "15:23:15", "sourceSystem": {"code": 2, "name": "House floor actions"}, "text": "The Clerk was authorized to correct section numbers, punctuation, and cross references, and to make other necessary technical and conforming corrections in the engrossment of H.R. 2467.", "type": "Floor"}, {"actionCode": "H38310", "actionDate": "2021-07-21", "actionTime": "15:23:14", "sourceSystem": {"code": 2, "name": "House floor actions"}, "text": "Motion to reconsider laid on the table Agreed to without objection.", "type": "Floor"}, {"actionCode": "H37100", "actionDate": "2021-07-21", "actionTime": "15:23:12", "recordedVotes": [{"chamber": "House", "congress": 117, "date": "2021-07-21T19:23:12Z", "rollNumber": 217, "sessionNumber": 1, "url": "https://clerk.house.gov/evs/2021/roll217.xml"}], "sourceSystem": {"code": 2, "name": "House floor actions"}, "text": "On passage Passed by the Yeas and Nays: 241 - 183 (Roll no. 217).", "type": "Floor"}, {"actionCode": "8000", "actionDate": "2021-07-21", "actionTime": "15:23:12", "recordedVotes": [{"chamber": "House", "congress": 117, "date": "2021-07-21T19:23:12Z", "rollNumber": 217, "sessionNumber": 1, "url": "https://clerk.house.gov/evs/2021/roll217.xml"}], "sourceSystem": {"code": 9, "name": "Library of Congress"}, "text": "Passed/agreed to in House: On passage Passed by the Yeas and Nays: 241 - 183 (Roll no. 217).", "type": "Floor"}, {"actionCode": "H36210", "actionDate": "2021-07-21", "actionTime": "15:01:17", "committees": [{"name": "Energy and Commerce Committee", "systemCode": "hsif00", "url": "https://api.congress.gov/v3/committee/house/hsif00?format=json"}], "recordedVotes": [{"chamber": "House", "congress": 117, "date": "2021-07-21T19:01:17Z", "rollNumber": 216, "sessionNumber": 1, "url": "https://clerk.house.gov/evs/2021/roll216.xml"}], "sourceSystem": {"code": 2, "name": "House floor actions"}, "text": "On motion to recommit Failed by the Yeas and Nays: 204 - 218 (Roll no. 216).", "type": "Floor"}, {"actionCode": "H8A000", "actionDate": "2021-07-21", "actionTime": "14:40:06", "sourceSystem": {"code": 2, "name": "House floor actions"}, "text": "The previous question on the motion to recommit was ordered pursuant to clause 2(b) of rule XIX.", "type": "Floor"}, {"actionCode": "H36200", "actionDate": "2021-07-21", "actionTime": "14:39:54", "committees": [{"name": "Energy and Commerce Committee", "systemCode": "hsif00", "url": "https://api.congress.gov/v3/committee/house/hsif00?format=json"}], "sourceSystem": {"code": 2, "name": "House floor actions"}, "text": "Mr. Crenshaw moved to recommit to the Committee on Energy and Commerce. (text: CR H3789)", "type": "Floor"}, {"actionCode": "H35000", "actionDate": "2021-07-21", "actionTime": "14:38:00", "sourceSystem": {"code": 2, "name": "House floor actions"}, "text": "The previous question was ordered pursuant to the rule.", "type": "Floor"}, {"actionCode": "H8D000", "actionDate": "2021-07-21", "actionTime": "13:48:33", "sourceSystem": {"code": 2, "name": "House floor actions"}, "text": "DEBATE - Pursuant to the provisions of H. Res. 535, the House proceeded with 20 minutes of debate on the Tonko amendment en bloc.", "type": "Floor"}, {"actionCode": "H8D000", "actionDate": "2021-07-21", "actionTime": "12:28:43", "sourceSystem": {"code": 2, "name": "House floor actions"}, "text": "DEBATE - The House proceeded with one hour of debate on H.R. 2467.", "type": "Floor"}, {"actionCode": "H8D000", "actionDate": "2021-07-21", "actionTime": "12:27:39", "sourceSystem": {"code": 2, "name": "House floor actions"}, "text": "Rule provides for consideration of H.R. 2467, H.R. 2668 and H.R. 3985. The resolution provides for one hour of general debate on H.R. 2467, H.R. 2668 and H.R. 3985. The resolution provides en bloc suspension authority and provides at any time through the legislative day of Thursday, July 22, 2021, the Speaker may entertain motions offered by the Majority Leader or a designee that the House suspend the rules with respect to multiple measures that were the object of motions to suspend the rules on the legislative days of July 19 or 20, 2021, and on which the yeas and nays were ordered and further proceedings postponed.", "type": "Floor"}, {"actionCode": "H30000", "actionDate": "2021-07-21", "actionTime": "12:27:34", "sourceSystem": {"code": 2, "name": "House floor actions"}, "text": "Considered under the provisions of rule H. Res. 535. (consideration: CR H3770-3791; text: CR H3770-3773)", "type": "Floor"}, {"actionCode": "H1L210", "actionDate": "2021-07-19", "actionTime": "17:24:19", "sourceSystem": {"code": 2, "name": "House floor actions"}, "text": "Rules Committee Resolution H. Res. 535 Reported to House. Rule provides for consideration of H.R. 2467, H.R. 2668 and H.R. 3985. The resolution provides for one hour of general debate on H.R. 2467, H.R. 2668 and H.R. 3985. The resolution provides en bloc suspension authority and provides at any time through the legislative day of Thursday, July 22, 2021, the Speaker may entertain motions offered by the Majority Leader or a designee that the House suspend the rules with respect to multiple measures that were the object of motions to suspend the rules on the legislative days of July 19 or 20, 2021, and on which the yeas and nays were ordered and further proceedings postponed.", "type": "Floor"}, {"actionCode": "H12410", "actionDate": "2021-07-13", "calendarNumber": {"calendar": "U00061"}, "sourceSystem": {"code": 2, "name": "House floor actions"}, "text": "Placed on the Union Calendar, Calendar No. 61.", "type": "Calendars"}, {"actionCode": "H12300", "actionDate": "2021-07-13", "committees": [{"name": "Transportation and Infrastructure Committee", "systemCode": "hspw00", "url": "https://api.congress.gov/v3/committee/house/hspw00?format=json"}], "sourceSystem": {"code": 2, "name": "House floor actions"}, "text": "Committee on Transportation discharged.", "type": "Discharge"}, {"actionCode": "5500", "actionDate": "2021-07-13", "committees": [{"name": "Transportation and Infrastructure Committee", "systemCode": "hspw00", "url": "https://api.congress.gov/v3/committee/house/hspw00?format=json"}], "sourceSystem": {"code": 9, "name": "Library of Congress"}, "text": "Committee on Transportation discharged.", "type": "Committee"}, {"actionCode": "H12200", "actionDate": "2021-07-13", "committees": [{"name": "Energy and Commerce Committee", "systemCode": "hsif00", "url": "https://api.congress.gov/v3/committee/house/hsif00?format=json"}], "sourceSystem": {"code": 2, "name": "House floor actions"}, "text": "Reported by the Committee on Energy and Commerce. H. Rept. 117-86, Part I.", "type": "Committee"}, {"actionCode": "5000", "actionDate": "2021-07-13", "committees": [{"name": "Energy and Commerce Committee", "systemCode": "hsif00", "url": "https://api.congress.gov/v3/committee/house/hsif00?format=json"}], "sourceSystem": {"code": 9, "name": "Library of Congress"}, "text": "Reported by the Committee on Energy and Commerce. H. Rept. 117-86, Part I.", "type": "Committee"}, {"actionCode": "H19000", "actionDate": "2021-06-23", "committees": [{"name": "Energy and Commerce Committee", "systemCode": "hsif00", "url": "https://api.congress.gov/v3/committee/house/hsif00?format=json"}], "sourceSystem": {"code": 1, "name": "House committee actions"}, "text": "Ordered to be Reported by the Yeas and Nays: 33 - 20.", "type": "Committee"}], "pagination": {"count": 29, "next": "https://api.congress.gov/v3/bill/117/hr/2467/actions?offset=20&limit=20&format=json"}, "request": {"billNumber": "2467", "billType": "hr", "billUrl": "https://api.congress.gov/v3/bill/117/hr/2467?format=json", "congress": "117", "contentType": "application/json", "format": "json"}}, 200]