[{"actions": [{"actionCode": "H11000", "actionDate": "2021-06-07", "committees": [{"name": "Commodity Markets, Digital Assets, and Rural Development Subcommittee", "systemCode": "hsag22", "url": "https://api.congress.gov/v3/committee/house/hsag22?format=json"}], "sourceSystem": {"code": 1, "name": "House committee actions"}, "text": "Referred to the Subcommittee on Commodity Exchanges, Energy, and Credit.", "type": "Committee"}, {"actionCode": "H11000", "actionDate": "2021-06-05", "committees": [{"name": "Indian and Insular Affairs Subcommittee", "systemCode": "hsii24", "url": "https://api.congress.gov/v3/committee/house/hsii24?format=json"}], "sourceSystem": {"code": 1, "name": "House committee actions"}, "text": "Referred to the Subcommittee for Indigenous Peoples of the United States.", "type": "Committee"}, {"actionCode": "H11000", "actionDate": "2021-06-05", "committees": [{"name": "Energy and Mineral Resources Subcommittee", "systemCode": "hsii06", "url": "https://api.congress.gov/v3/committee/house/hsii06?format=json"}], "sourceSystem": {"code": 1, "name": "House committee actions"}, "text": "Referred to the Subcommittee on Energy and Mineral Resources.", "type": "Committee"}, {"actionCode": "H11000", "actionDate": "2021-06-05", "committees": [{"name": "Federal Lands Subcommittee", "systemCode": "hsii10", "url": "https://api.congress.gov/v3/committee/house/hsii10?format=json"}], "sourceSystem": {"code": 1, "name": "House committee actions"}, "text": "Referred to the Subcommittee on National Parks, Forests, and Public Lands.", "type": "Committee"}, {"actionCode": "H11000", "actionDate": "2021-04-14", "committees": [{"name": "Transportation and Maritime Security Subcommittee", "systemCode": "hshm07", "url": "https://api.congress.gov/v3/committee/house/hshm07?format=json"}], "sourceSystem": {"code": 1, "name": "House committee actions"}, "text": "Referred to the Subcommittee on Transportation and Maritime Security.", "type": "Committee"}, {"actionCode": "H11000", "actionDate": "2021-04-14", "committees": [{"name": "Innovation, Data, and Commerce Subcommittee", "systemCode": "hsif17", "url": "https://api.congress.gov/v3/committee/house/hsif17?format=json"}], "sourceSystem": {"code": 1, "name": "House committee actions"}, "text": "Referred to the Subcommittee on Consumer Protection and Commerce.", "type": "Committee"}, {"actionCode": "H11000", "actionDate": "2021-04-14", "committees": [{"name": "Water Resources and Environment Subcommittee", "systemCode": "hspw02", "url": "https://api.congress.gov/v3/committee/house/hspw02?format=json"}], "sourceSystem": {"code": 1, "name": "House committee actions"}, "text": "Referred to the Subcommittee on Water Resources and Environment.", "type": "Committee"}, {"actionCode": "H11000", "actionDate": "2021-04-14", "committees": [{"name": "Railroads, Pipelines, and Hazardous Materials Subcommittee", "systemCode": "hspw14", "url": "https://api.congress.gov/v3/committee/house/hspw14?format=json"}], "sourceSystem": {"code": 1, "name": "House committee actions"}, "text": "Referred to the Subcommittee on Railroads, Pipelines, and Hazardous Materials.", "type": "Committee"}, {"actionCode": "H11000", "actionDate": "2021-04-14", "committees": [{"name": "Highways and Transit Subcommittee", "systemCode": "hspw12", "url": "https://api.congress.gov/v3/committee/house/hspw12?format=json"}], "sourceSystem": {"code": 1, "name": "House committee actions"}, "text": "Referred to the Subcommittee on Highways and Transit.", "type": "Committee"}, {"actionCode": "H11000", "actionDate": "2021-04-14", "committees": [{"name": "Economic Development, Public Buildings, and Emergency Management Subcommittee", "systemCode": "hspw13", "url": "https://api.congress.gov/v3/committee/house/hspw13?format=json"}], "sourceSystem": {"code": 1, "name": "House committee actions"}, "text": "Referred to the Subcommittee on Economic Development, Public Buildings, and Emergency Management.", "type": "Committee"}, {"actionCode": "H11000", "actionDate": "2021-04-14", "committees": [{"name": "Coast Guard and Maritime Transportation Subcommittee", "systemCode": "hspw07", "url": "https://api.congress.gov/v3/committee/house/hspw07?format=json"}], "sourceSystem": {"code": 1, "name": "House committee actions"}, "text": "Referred to the Subcommittee on Coast Guard and Maritime Transportation.", "type": "Committee"}, {"actionCode": "H11000", "actionDate": "2021-04-14", "committees": [{"name": "Aviation Subcommittee", "systemCode": "hspw05", "url": "https://api.congress.gov/v3/committee/house/hspw05?format=json"}], "sourceSystem": {"code": 1, "name": "House committee actions"}, "text": "Referred to the Subcommittee on Aviation.", "type": "Committee"}, {"actionCode": "H11100", "actionDate": "2021-04-13", "committees": [{"name": "Natural Resources Committee", "systemCode": "hsii00", "url": "https://api.congress.gov/v3/committee/house/hsii00?format=json"}], "sourceSystem": {"code": 2, "name": "House floor actions"}, "text": "Referred to the Committee on Transportation and Infrastructure, and in addition to the Committees on Agriculture, Energy and Commerce, Financial Services, Homeland Security, and Natural Resources, for a period to be subsequently determined by the Speaker, in each case for consideration of such provisions as fall within the jurisdiction of the committee concerned.", "type": "IntroReferral"}, {"actionCode": "H11100", "actionDate": "2021-04-13", "committees": [{"name": "Homeland Security Committee", "systemCode": "hshm00", "url": "https://api.congress.gov/v3/committee/house/hshm00?format=json"}], "sourceSystem": {"code": 2, "name": "House floor actions"}, "text": "Referred to the Committee on Transportation and Infrastructure, and in addition to the Committees on Agriculture, Energy and Commerce, Financial Services, Homeland Security, and Natural Resources, for a period to be subsequently determined by the Speaker, in each case for consideration of such provisions as fall within the jurisdiction of the committee concerned.", "type": "IntroReferral"}, {"actionCode": "H11100", "actionDate": "2021-04-13", "committees": [{"name": "Financial Services Committee", "systemCode": "hsba00", "url": "https://api.congress.gov/v3/committee/house/hsba00?format=json"}], "sourceSystem": {"code": 2, "name": "House floor actions"}, "text": "Referred to the Committee on Transportation and Infrastructure, and in addition to the Committees on Agriculture, Energy and Commerce, Financial Services, Homeland Security, and Natural Resources, for a period to be subsequently determined by the Speaker, in each case for consideration of such provisions as fall within the jurisdiction of the committee concerned.", "type": "IntroReferral"}, {"actionCode": "H11100", "actionDate": "2021-04-13", "committees": [{"name": "Energy and Commerce Committee", "systemCode": "hsif00", "url": "https://api.congress.gov/v3/committee/house/hsif00?format=json"}], "sourceSystem": {"code": 2, "name": "House floor actions"}, "text": "Referred to the Committee on Transportation and Infrastructure, and in addition to the Committees on Agriculture, Energy and Commerce, Financial Services, Homeland Security, and Natural Resources, for a period to be subsequently determined by the Speaker, in each case for consideration of such provisions as fall within the jurisdiction of the committee concerned.", "type": "IntroReferral"}, {"actionCode": "H11100", "actionDate": "2021-04-13", "committees": [{"name": "Agriculture Committee", "systemCode": "hsag00", "url": "https://api.congress.gov/v3/committee/house/hsag00?format=json"}], "sourceSystem": {"code": 2, "name": "House floor actions"}, "text": "Referred to the Committee on Transportation and Infrastructure, and in addition to the Committees on Agriculture, Energy and Commerce, Financial Services, Homeland Security, and Natural Resources, for a period to be subsequently determined by the Speaker, in each case for consideration of such provisions as fall within the jurisdiction of the committee concerned.", "type": "IntroReferral"}, {"actionCode": "H11100", "actionDate": "2021-04-13", "committees": [{"name": "Transportation and Infrastructure Committee", "systemCode": "hspw00", "url": "https://api.congress.gov/v3/committee/house/hspw00?format=json"}], "sourceSystem": {"code": 2, "name": "House floor actions"}, "text": "Referred to the Committee on Transportation and Infrastructure, and in addition to the Committees on Agriculture, Energy and Commerce, Financial Services, Homeland Security, and Natural Resources, for a period to be subsequently determined by the Speaker, in each case for consideration of such provisions as fall within the jurisdiction of the committee concerned.", "type": "IntroReferral"}, {"actionCode": "B00100", "actionDate": "2021-04-13", "sourceSystem": {"code": 9, "name": "Library of Congress"}, "text": "Sponsor introductory remarks on measure. (CR E375)", "type": "IntroReferral"}, {"actionCode": "Intro-H", "actionDate": "2021-04-13", "sourceSystem": {"code": 9, "name": "Library of Congress"}, "text": "Introduced in House", "type": "IntroReferral"}], "pagination": {"count": 21, "next": "https://api.congress.gov/v3/bill/117/hr/2468/actions?offset=20&limit=20&format=json"}, "request": {"billNumber": "2468", "billType": "hr", "billUrl": "https://api.congress.gov/v3/bill/117/hr/2468?format=json", "congress": "117", "contentType": "application/json", "format": "json"}}, 200]