[{"actions": [{"actionCode": "E40000", "actionDate": "2022-12-27", "sourceSystem": {"code": 9, "name": "Library of Congress"}, "text": "Became Public Law No: 117-269.", "type": "President"}, {"actionCode": "36000", "actionDate": "2022-12-27", "sourceSystem": {"code": 9, "name": "Library of Congress"}, "text": "Became Public Law No: 117-269.", "type": "BecameLaw"}, {"actionCode": "E30000", "actionDate": "2022-12-27", "sourceSystem": {"code": 9, "name": "Library of Congress"}, "text": "Signed by President.", "type": "President"}, {"actionCode": "36000", "actionDate": "2022-12-27", "sourceSystem": {"code": 9, "name": "Library of Congress"}, "text": "Signed by President.", "type": "BecameLaw"}, {"actionCode": "E20000", "actionDate": "2022-12-23", "sourceSystem": {"code": 2, "name": "House floor actions"}, "text": "Presented to President.", "type": "Floor"}, {"actionCode": "28000", "actionDate": "2022-12-23", "sourceSystem": {"code": 9, "name": "Library of Congress"}, "text": "Presented to President.", "type": "President"}, {"actionDate": "2022-12-20", "sourceSystem": {"name": "Senate"}, "text": "Message on Senate action sent to the House.", "type": "Floor"}, {"actionDate": "2022-12-19", "sourceSystem": {"name": "Senate"}, "text": "Passed Senate without amendment by Unanimous Consent. (consideration: CR S7282)", "type": "Floor"}, {"actionCode": "17000", "actionDate": "2022-12-19", "sourceSystem": {"code": 9, "name": "Library of Congress"}, "text": "Passed/agreed to in Senate: Passed Senate without amendment by Unanimous Consent.", "type": "Floor"}, {"actionDate": "2022-12-19", "committees": [{"name": "Homeland Security and Governmental Affairs Committee", "systemCode": "ssga00", "url": "https://api.congress.gov/v3/committee/senate/ssga00?format=json"}], "sourceSystem": {"name": "Senate"}, "text": "Senate Committee on Homeland Security and Governmental Affairs discharged by Unanimous Consent.", "type": "Discharge"}, {"actionCode": "14500", "actionDate": "2022-12-19", "committees": [{"name": "Homeland Security and Governmental Affairs Committee", "systemCode": "ssga00", "url": "https://api.congress.gov/v3/committee/senate/ssga00?format=json"}], "sourceSystem": {"code": 9, "name": "Library of Congress"}, "text": "Senate Committee on Homeland Security and Governmental Affairs discharged by Unanimous Consent.", "type": "Committee"}, {"actionDate": "2022-07-13", "committees": [{"name": "Homeland Security and Governmental Affairs Committee", "systemCode": "ssga00", "url": "https://api.congress.gov/v3/committee/senate/ssga00?format=json"}], "sourceSystem": {"name": "Senate"}, "text": "Received in the Senate and Read twice and referred to the Committee on Homeland Security and Governmental Affairs.", "type": "IntroReferral"}, {"actionCode": "H38310", "actionDate": "2022-07-12", "actionTime": "16:01:09", "sourceSystem": {"code": 2, "name": "House floor actions"}, "text": "Motion to reconsider laid on the table Agreed to without objection.", "type": "Floor"}, {"actionCode": "H37300", "actionDate": "2022-07-12", "actionTime": "16:01:06", "sourceSystem": {"code": 2, "name": "House floor actions"}, "text": "On motion to suspend the rules and pass the bill Agreed to by voice vote. (text: CR H5965)", "type": "Floor"}, {"actionCode": "8000", "actionDate": "2022-07-12", "actionTime": "16:01:06", "sourceSystem": {"code": 9, "name": "Library of Congress"}, "text": "Passed/agreed to in House: On motion to suspend the rules and pass the bill Agreed to by voice vote.", "type": "Floor"}, {"actionCode": "H8D000", "actionDate": "2022-07-12", "actionTime": "15:56:54", "sourceSystem": {"code": 2, "name": "House floor actions"}, "text": "DEBATE - The House proceeded with forty minutes of debate on H.R. 2472.", "type": "Floor"}, {"actionCode": "H30000", "actionDate": "2022-07-12", "actionTime": "15:56:52", "sourceSystem": {"code": 2, "name": "House floor actions"}, "text": "Considered under suspension of the rules. (consideration: CR H5965-5966)", "type": "Floor"}, {"actionCode": "H30300", "actionDate": "2022-07-12", "actionTime": "15:56:38", "sourceSystem": {"code": 2, "name": "House floor actions"}, "text": "Mrs. Maloney, Carolyn B. moved to suspend the rules and pass the bill.", "type": "Floor"}, {"actionCode": "H19000", "actionDate": "2021-06-29", "committees": [{"name": "Oversight and Accountability Committee", "systemCode": "hsgo00", "url": "https://api.congress.gov/v3/committee/house/hsgo00?format=json"}], "sourceSystem": {"code": 1, "name": "House committee actions"}, "text": "Ordered to be Reported by Unanimous Consent.", "type": "Committee"}, {"actionCode": "H15000-B", "actionDate": "2021-06-29", "committees": [{"name": "Oversight and Accountability Committee", "systemCode": "hsgo00", "url": "https://api.congress.gov/v3/committee/house/hsgo00?format=json"}], "sourceSystem": {"code": 1, "name": "House committee actions"}, "text": "Committee Consideration and Mark-up Session Held.", "type": "Committee"}], "pagination": {"count": 23, "next": "https://api.congress.gov/v3/bill/117/hr/2472/actions?offset=20&limit=20&format=json"}, "request": {"billNumber": "2472", "billType": "hr", "billUrl": "https://api.congress.gov/v3/bill/117/hr/2472?format=json", "congress": "117", "contentType": "application/json", "format": "json"}}, 200]