[{"actions": [{"actionCode": "E40000", "actionDate": "2022-03-15", "sourceSystem": {"code": 9, "name": "Library of Congress"}, "text": "Became Public Law No: 117-103.", "type": "President"}, {"actionCode": "36000", "actionDate": "2022-03-15", "sourceSystem": {"code": 9, "name": "Library of Congress"}, "text": "Became Public Law No: 117-103.", "type": "BecameLaw"}, {"actionCode": "E30000", "actionDate": "2022-03-15", "sourceSystem": {"code": 9, "name": "Library of Congress"}, "text": "Signed by President.", "type": "President"}, {"actionCode": "36000", "actionDate": "2022-03-15", "sourceSystem": {"code": 9, "name": "Library of Congress"}, "text": "Signed by President.", "type": "BecameLaw"}, {"actionCode": "E20000", "actionDate": "2022-03-14", "sourceSystem": {"code": 2, "name": "House floor actions"}, "text": "Presented to President.", "type": "Floor"}, {"actionCode": "28000", "actionDate": "2022-03-14", "sourceSystem": {"code": 9, "name": "Library of Congress"}, "text": "Presented to President.", "type": "President"}, {"actionDate": "2022-03-11", "sourceSystem": {"name": "Senate"}, "text": "Message on Senate action sent to the House.", "type": "Floor"}, {"actionDate": "2022-03-10", "recordedVotes": [{"chamber": "Senate", "congress": 117, "date": "2022-03-11T04:02:38Z", "rollNumber": 78, "sessionNumber": 2, "url": "https://www.senate.gov/legislative/LIS/roll_call_votes/vote1172/vote_117_2_00078.xml"}], "sourceSystem": {"name": "Senate"}, "text": "Senate agreed to the House amendment to the Senate Amendment to H.R. 2471, under the order of 3/10/2022, having achieved 60 votes in the affirmative by Yea-Nay Vote. 68 - 31. Record Vote Number: 78.", "type": "ResolvingDifferences"}, {"actionCode": "20500", "actionDate": "2022-03-10", "recordedVotes": [{"chamber": "Senate", "congress": 117, "date": "2022-03-11T04:02:38Z", "rollNumber": 78, "sessionNumber": 2, "url": "https://www.senate.gov/legislative/LIS/roll_call_votes/vote1172/vote_117_2_00078.xml"}], "sourceSystem": {"code": 9, "name": "Library of Congress"}, "text": "Resolving differences -- Senate actions: Senate agreed to the House amendment to the Senate Amendment to H.R. 2471, under the order of 3/10/2022, having achieved 60 votes in the affirmative by Yea-Nay Vote. 68 - 31. Record Vote Number: 78.", "type": "NotUsed"}, {"actionDate": "2022-03-10", "sourceSystem": {"name": "Senate"}, "text": "Motion by Senator Schumer to concur in the House amendment to the Senate amendment to H.R. 2471 with an amendment (SA 4984) withdrawn in Senate.", "type": "Floor"}, {"actionDate": "2022-03-10", "committees": [{"name": "Appropriations Committee", "systemCode": "ssap00", "url": "https://api.congress.gov/v3/committee/senate/ssap00?format=json"}], "sourceSystem": {"name": "Senate"}, "text": "Motion by Senator Schumer to refer to Senate Committee on Appropriations the House message to accompany H.R. 2471 with instructions to report back forthwith with the following amendment (SA 4986) withdrawn in Senate.", "type": "Floor"}, {"actionDate": "2022-03-10", "committees": [{"name": "Appropriations Committee", "systemCode": "ssap00", "url": "https://api.congress.gov/v3/committee/senate/ssap00?format=json"}], "sourceSystem": {"name": "Senate"}, "text": "Motion by Senator Schumer to refer to Senate Committee on Appropriations the House message to accompany H.R. 2471 with instructions to report back forthwith with the following amendment (SA 4986) made in Senate. (CR S1089)", "type": "Floor"}, {"actionDate": "2022-03-10", "sourceSystem": {"name": "Senate"}, "text": "Motion by Senator Schumer to concur in the House amendment to the Senate amendment to H.R. 2471 with an amendment (SA 4984) made in Senate. (CR S1089)", "type": "Floor"}, {"actionDate": "2022-03-10", "sourceSystem": {"name": "Senate"}, "text": "Motion by Senator Schumer to concur in the House amendment to the Senate amendment to H.R. 2471 made in Senate. (CR S1089)", "type": "Floor"}, {"actionDate": "2022-03-10", "sourceSystem": {"name": "Senate"}, "text": "Measure laid before Senate by unanimous consent. (consideration: CR S1088-1089, S1110-1111)", "type": "Floor"}, {"actionDate": "2022-03-10", "sourceSystem": {"name": "Senate"}, "text": "Message on House action received in Senate and at desk: House amendment to Senate amendment.", "type": "Floor"}, {"actionCode": "H41610", "actionDate": "2022-03-09", "actionTime": "22:50:51", "sourceSystem": {"code": 2, "name": "House floor actions"}, "text": "On motion that the House agree with an amendment to the Senate amendment Agreed to by voice vote.", "type": "ResolvingDifferences"}, {"actionCode": "19500", "actionDate": "2022-03-09", "sourceSystem": {"code": 9, "name": "Library of Congress"}, "text": "Resolving differences -- House actions: On motion that the House agree with an amendment to the Senate amendment Agreed to by voice vote.", "type": "NotUsed"}, {"actionCode": "H41931", "actionDate": "2022-03-09", "actionTime": "22:50:49", "recordedVotes": [{"chamber": "House", "congress": 117, "date": "2022-03-10T03:50:49Z", "rollNumber": 68, "sessionNumber": 2, "url": "https://clerk.house.gov/evs/2022/roll068.xml"}], "sourceSystem": {"code": 2, "name": "House floor actions"}, "text": "Table motion to reconsider second divided question Agreed to by the Yeas and Nays: 249 - 180 (Roll no. 68). (text: CR H1405-1407)", "type": "ResolvingDifferences"}, {"actionCode": "H82000", "actionDate": "2022-03-09", "actionTime": "22:33:07", "sourceSystem": {"code": 2, "name": "House floor actions"}, "text": "Mr. Gomez moved to table the motion to reconsider the vote", "type": "ResolvingDifferences"}], "pagination": {"count": 56, "next": "https://api.congress.gov/v3/bill/117/hr/2471/actions?offset=20&limit=20&format=json"}, "request": {"billNumber": "2471", "billType": "hr", "billUrl": "https://api.congress.gov/v3/bill/117/hr/2471?format=json", "congress": "117", "contentType": "application/json", "format": "json"}}, 200]