[{"actions": [{"actionDate": "2022-05-12", "committees": [{"name": "Homeland Security and Governmental Affairs Committee", "systemCode": "ssga00", "url": "https://api.congress.gov/v3/committee/senate/ssga00?format=json"}], "sourceSystem": {"name": "Senate"}, "text": "Received in the Senate and Read twice and referred to the Committee on Homeland Security and Governmental Affairs.", "type": "IntroReferral"}, {"actionCode": "H38310", "actionDate": "2022-05-11", "actionTime": "15:32:06", "sourceSystem": {"code": 2, "name": "House floor actions"}, "text": "Motion to reconsider laid on the table Agreed to without objection.", "type": "Floor"}, {"actionCode": "H37100", "actionDate": "2022-05-11", "actionTime": "15:32:04", "recordedVotes": [{"chamber": "House", "congress": 117, "date": "2022-05-11T19:32:04Z", "rollNumber": 149, "sessionNumber": 2, "url": "https://clerk.house.gov/evs/2022/roll149.xml"}], "sourceSystem": {"code": 2, "name": "House floor actions"}, "text": "On passage Passed by the Yeas and Nays: 288 - 131 (Roll no. 149). (text of amendment in the nature of a substiute: CR H4816-4817)", "type": "Floor"}, {"actionCode": "8000", "actionDate": "2022-05-11", "actionTime": "15:32:04", "recordedVotes": [{"chamber": "House", "congress": 117, "date": "2022-05-11T19:32:04Z", "rollNumber": 149, "sessionNumber": 2, "url": "https://clerk.house.gov/evs/2022/roll149.xml"}], "sourceSystem": {"code": 9, "name": "Library of Congress"}, "text": "Passed/agreed to in House: On passage Passed by the Yeas and Nays: 288 - 131 (Roll no. 149).", "type": "Floor"}, {"actionCode": "H8D000", "actionDate": "2022-05-11", "actionTime": "14:01:49", "sourceSystem": {"code": 2, "name": "House floor actions"}, "text": "POSTPONED PROCEEDINGS - At the conclusion of debate on the Keller amendment, the Chair put the question on adoption of the amendment and by voice vote, announced that the noes had prevailed. Mr. Keller demanded the yeas and nays and the Chair postponed further proceedings until a time to be announced.", "type": "Floor"}, {"actionCode": "H8D000", "actionDate": "2022-05-11", "actionTime": "13:53:51", "sourceSystem": {"code": 2, "name": "House floor actions"}, "text": "DEBATE - Pursuant to the provisions of H. Res. 1097, the House proceeded with 10 minutes of debate on Keller amendment No. 4.", "type": "Floor"}, {"actionCode": "H8D000", "actionDate": "2022-05-11", "actionTime": "13:52:36", "sourceSystem": {"code": 2, "name": "House floor actions"}, "text": "POSTPONED PROCEEDINGS - At the conclusion of debate on the Joyce (OH) amendment, the Chair put the question on adoption of the amendment and by voice vote, announced that the ayes had prevailed. Mrs. Greene (GA) demanded the yeas and nays and the Chair postponed further proceedings until a time to be announced.", "type": "Floor"}, {"actionCode": "H8D000", "actionDate": "2022-05-11", "actionTime": "13:49:29", "sourceSystem": {"code": 2, "name": "House floor actions"}, "text": "DEBATE - Pursuant to the provisions of H. Res. 1097, the House proceeded with 10 minutes of debate on the Joyce (OH) amendment No. 3.", "type": "Floor"}, {"actionCode": "H8D000", "actionDate": "2022-05-11", "actionTime": "13:48:33", "sourceSystem": {"code": 2, "name": "House floor actions"}, "text": "POSTPONED PROCEEDINGS - At the conclusion of debate on the Scott (VA) amendment en bloc, the Chair put the question on adoption of the amendment and by voice vote, announced that the ayes had prevailed. Mrs. Greene (GA) demanded the yeas and nays and the Chair postponed further proceedings until a time to be announced.", "type": "Floor"}, {"actionCode": "H8D000", "actionDate": "2022-05-11", "actionTime": "13:23:30", "sourceSystem": {"code": 2, "name": "House floor actions"}, "text": "DEBATE - Pursuant to the provisions of H. Res. 1097, the House proceeded with 20 minutes of debate on the Scott (VA) amendment en bloc No. 1.", "type": "Floor"}, {"actionCode": "H8D000", "actionDate": "2022-05-11", "actionTime": "12:46:46", "sourceSystem": {"code": 2, "name": "House floor actions"}, "text": "DEBATE - The House proceeded with one hour of debate on H.R. 2499.", "type": "Floor"}, {"actionCode": "H8D000", "actionDate": "2022-05-11", "actionTime": "12:45:34", "sourceSystem": {"code": 2, "name": "House floor actions"}, "text": "Rule provides for consideration of H.R. 903, H.R. 2499, H.R. 5129 and H.R. 7691. The resolution provides for consideration of H.R. 903, H.R. 2499, and H.R. 5129 under a structured rule. H.R. 7691 is considered under a closed rule. Bills considered under the rule are debatable for one hour. The rule provides that H. Res. 1096 is adopted and amends H. Res. 188 by striking May 13, 2022 and inserting June 10, 2022.", "type": "Floor"}, {"actionCode": "H30000", "actionDate": "2022-05-11", "actionTime": "12:45:29", "sourceSystem": {"code": 2, "name": "House floor actions"}, "text": "Considered under the provisions of rule H. Res. 1097. (consideration: CR H4816-4831)", "type": "Floor"}, {"actionCode": "H1L210", "actionDate": "2022-05-10", "actionTime": "18:01:27", "sourceSystem": {"code": 2, "name": "House floor actions"}, "text": "Rules Committee Resolution H. Res. 1097 Reported to House. Rule provides for consideration of H.R. 903, H.R. 2499, H.R. 5129 and H.R. 7691. The resolution provides for consideration of H.R. 903, H.R. 2499, and H.R. 5129 under a structured rule. H.R. 7691 is considered under a closed rule. Bills considered under the rule are debatable for one hour. The rule provides that H. Res. 1096 is adopted and amends H. Res. 188 by striking May 13, 2022 and inserting June 10, 2022.", "type": "Floor"}, {"actionCode": "H12410", "actionDate": "2022-05-06", "calendarNumber": {"calendar": "U00226"}, "sourceSystem": {"code": 2, "name": "House floor actions"}, "text": "Placed on the Union Calendar, Calendar No. 226.", "type": "Calendars"}, {"actionCode": "H12200", "actionDate": "2022-05-06", "committees": [{"name": "Education and the Workforce Committee", "systemCode": "hsed00", "url": "https://api.congress.gov/v3/committee/house/hsed00?format=json"}], "sourceSystem": {"code": 2, "name": "House floor actions"}, "text": "Reported (Amended) by the Committee on Education and Labor. H. Rept. 117-306.", "type": "Committee"}, {"actionCode": "5000", "actionDate": "2022-05-06", "committees": [{"name": "Education and the Workforce Committee", "systemCode": "hsed00", "url": "https://api.congress.gov/v3/committee/house/hsed00?format=json"}], "sourceSystem": {"code": 9, "name": "Library of Congress"}, "text": "Reported (Amended) by the Committee on Education and Labor. H. Rept. 117-306.", "type": "Committee"}, {"actionCode": "H19000", "actionDate": "2022-03-16", "committees": [{"name": "Education and the Workforce Committee", "systemCode": "hsed00", "url": "https://api.congress.gov/v3/committee/house/hsed00?format=json"}], "sourceSystem": {"code": 1, "name": "House committee actions"}, "text": "Ordered to be Reported in the Nature of a Substitute by the Yeas and Nays: 31 - 18.", "type": "Committee"}, {"actionCode": "H15000-B", "actionDate": "2022-03-16", "committees": [{"name": "Education and the Workforce Committee", "systemCode": "hsed00", "url": "https://api.congress.gov/v3/committee/house/hsed00?format=json"}], "sourceSystem": {"code": 1, "name": "House committee actions"}, "text": "Committee Consideration and Mark-up Session Held.", "type": "Committee"}, {"actionCode": "H11100", "actionDate": "2021-04-14", "committees": [{"name": "Education and the Workforce Committee", "systemCode": "hsed00", "url": "https://api.congress.gov/v3/committee/house/hsed00?format=json"}], "sourceSystem": {"code": 2, "name": "House floor actions"}, "text": "Referred to the House Committee on Education and Labor.", "type": "IntroReferral"}], "pagination": {"count": 22, "next": "https://api.congress.gov/v3/bill/117/hr/2499/actions?offset=20&limit=20&format=json"}, "request": {"billNumber": "2499", "billType": "hr", "billUrl": "https://api.congress.gov/v3/bill/117/hr/2499?format=json", "congress": "117", "contentType": "application/json", "format": "json"}}, 200]