[{"actions": [{"actionCode": "E40000", "actionDate": "2022-03-18", "sourceSystem": {"code": 9, "name": "Library of Congress"}, "text": "Became Public Law No: 117-106.", "type": "President"}, {"actionCode": "36000", "actionDate": "2022-03-18", "sourceSystem": {"code": 9, "name": "Library of Congress"}, "text": "Became Public Law No: 117-106.", "type": "BecameLaw"}, {"actionCode": "E30000", "actionDate": "2022-03-18", "sourceSystem": {"code": 9, "name": "Library of Congress"}, "text": "Signed by President.", "type": "President"}, {"actionCode": "36000", "actionDate": "2022-03-18", "sourceSystem": {"code": 9, "name": "Library of Congress"}, "text": "Signed by President.", "type": "BecameLaw"}, {"actionCode": "E20000", "actionDate": "2022-03-11", "sourceSystem": {"code": 2, "name": "House floor actions"}, "text": "Presented to President.", "type": "Floor"}, {"actionCode": "28000", "actionDate": "2022-03-11", "sourceSystem": {"code": 9, "name": "Library of Congress"}, "text": "Presented to President.", "type": "President"}, {"actionCode": "H41931", "actionDate": "2022-02-18", "actionTime": "10:04:17", "sourceSystem": {"code": 2, "name": "House floor actions"}, "text": "Motion to reconsider laid on the table Agreed to without objection.", "type": "ResolvingDifferences"}, {"actionCode": "H41610", "actionDate": "2022-02-18", "actionTime": "10:04:16", "sourceSystem": {"code": 2, "name": "House floor actions"}, "text": "On motion that the House agree to the Senate amendments Agreed to without objection. (text: CR H1127-1128)", "type": "ResolvingDifferences"}, {"actionCode": "19500", "actionDate": "2022-02-18", "sourceSystem": {"code": 9, "name": "Library of Congress"}, "text": "Resolving differences -- House actions: On motion that the House agree to the Senate amendments Agreed to without objection.", "type": "NotUsed"}, {"actionCode": "H8D000", "actionDate": "2022-02-18", "actionTime": "10:04:09", "sourceSystem": {"code": 2, "name": "House floor actions"}, "text": "The Chair laid before the House H.R. 2497, with the Senate amendments.", "type": "Floor"}, {"actionCode": "H40110", "actionDate": "2022-02-18", "actionTime": "10:04:09", "sourceSystem": {"code": 2, "name": "House floor actions"}, "text": "Mr. Raskin asked unanimous consent that the House agree to the Senate amendments. (consideration: CR H1127-1128)", "type": "ResolvingDifferences"}, {"actionDate": "2022-02-15", "sourceSystem": {"name": "Senate"}, "text": "Message on Senate action sent to the House.", "type": "Floor"}, {"actionDate": "2022-02-14", "sourceSystem": {"name": "Senate"}, "text": "Passed Senate with amendments by Unanimous Consent. (text: CR S676)", "type": "Floor"}, {"actionCode": "17000", "actionDate": "2022-02-14", "sourceSystem": {"code": 9, "name": "Library of Congress"}, "text": "Passed/agreed to in Senate: Passed Senate with amendments by Unanimous Consent.", "type": "Floor"}, {"actionDate": "2022-02-14", "sourceSystem": {"name": "Senate"}, "text": "The committee amendments agreed to by Unanimous Consent.", "type": "Floor"}, {"actionDate": "2022-02-14", "sourceSystem": {"name": "Senate"}, "text": "Measure laid before Senate by unanimous consent. (consideration: CR S675-676)", "type": "Floor"}, {"actionDate": "2022-01-19", "calendarNumber": {"calendar": "Senate Calendar of Business", "number": "0255"}, "sourceSystem": {"name": "Senate"}, "text": "Placed on Senate Legislative Calendar under General Orders. Calendar No. 255.", "type": "Calendars"}, {"actionDate": "2022-01-19", "committees": [{"name": "Energy and Natural Resources Committee", "systemCode": "sseg00", "url": "https://api.congress.gov/v3/committee/senate/sseg00?format=json"}], "sourceSystem": {"name": "Senate"}, "text": "Committee on Energy and Natural Resources. Reported by Senator Manchin with amendments. With written report No. 117-58.", "type": "Committee"}, {"actionCode": "14000", "actionDate": "2022-01-19", "committees": [{"name": "Energy and Natural Resources Committee", "systemCode": "sseg00", "url": "https://api.congress.gov/v3/committee/senate/sseg00?format=json"}], "sourceSystem": {"code": 9, "name": "Library of Congress"}, "text": "Committee on Energy and Natural Resources. Reported by Senator Manchin with amendments. With written report No. 117-58.", "type": "Committee"}, {"actionDate": "2021-11-18", "committees": [{"name": "Energy and Natural Resources Committee", "systemCode": "sseg00", "url": "https://api.congress.gov/v3/committee/senate/sseg00?format=json"}], "sourceSystem": {"name": "Senate"}, "text": "Committee on Energy and Natural Resources. Ordered to be reported with amendments favorably.", "type": "Committee"}], "pagination": {"count": 42, "next": "https://api.congress.gov/v3/bill/117/hr/2497/actions?offset=20&limit=20&format=json"}, "request": {"billNumber": "2497", "billType": "hr", "billUrl": "https://api.congress.gov/v3/bill/117/hr/2497?format=json", "congress": "117", "contentType": "application/json", "format": "json"}}, 200]