[{"actions": [{"actionDate": "2022-06-21", "committees": [{"name": "Banking, Housing, and Urban Affairs Committee", "systemCode": "ssbk00", "url": "https://api.congress.gov/v3/committee/senate/ssbk00?format=json"}], "sourceSystem": {"name": "Senate"}, "text": "Received in the Senate and Read twice and referred to the Committee on Banking, Housing, and Urban Affairs.", "type": "IntroReferral"}, {"actionCode": "H38310", "actionDate": "2022-06-15", "actionTime": "15:57:16", "sourceSystem": {"code": 2, "name": "House floor actions"}, "text": "Motion to reconsider laid on the table Agreed to without objection.", "type": "Floor"}, {"actionCode": "H37100", "actionDate": "2022-06-15", "actionTime": "15:57:14", "recordedVotes": [{"chamber": "House", "congress": 117, "date": "2022-06-15T19:57:14Z", "rollNumber": 275, "sessionNumber": 2, "url": "https://clerk.house.gov/evs/2022/roll275.xml"}], "sourceSystem": {"code": 2, "name": "House floor actions"}, "text": "On passage Passed by the Yeas and Nays: 215 - 207 (Roll no. 275).", "type": "Floor"}, {"actionCode": "8000", "actionDate": "2022-06-15", "actionTime": "15:57:14", "recordedVotes": [{"chamber": "House", "congress": 117, "date": "2022-06-15T19:57:14Z", "rollNumber": 275, "sessionNumber": 2, "url": "https://clerk.house.gov/evs/2022/roll275.xml"}], "sourceSystem": {"code": 9, "name": "Library of Congress"}, "text": "Passed/agreed to in House: On passage Passed by the Yeas and Nays: 215 - 207 (Roll no. 275).", "type": "Floor"}, {"actionCode": "H36210", "actionDate": "2022-06-15", "actionTime": "15:43:16", "committees": [{"name": "Financial Services Committee", "systemCode": "hsba00", "url": "https://api.congress.gov/v3/committee/house/hsba00?format=json"}], "recordedVotes": [{"chamber": "House", "congress": 117, "date": "2022-06-15T19:43:16Z", "rollNumber": 274, "sessionNumber": 2, "url": "https://clerk.house.gov/evs/2022/roll274.xml"}], "sourceSystem": {"code": 2, "name": "House floor actions"}, "text": "On motion to recommit Failed by the Yeas and Nays: 202 - 219 (Roll no. 274).", "type": "Floor"}, {"actionCode": "H8A000", "actionDate": "2022-06-15", "actionTime": "15:34:53", "sourceSystem": {"code": 2, "name": "House floor actions"}, "text": "The previous question on the motion to recommit was ordered pursuant to clause 2(b) of rule XIX.", "type": "Floor"}, {"actionCode": "H36200", "actionDate": "2022-06-15", "actionTime": "15:34:05", "committees": [{"name": "Financial Services Committee", "systemCode": "hsba00", "url": "https://api.congress.gov/v3/committee/house/hsba00?format=json"}], "sourceSystem": {"code": 2, "name": "House floor actions"}, "text": "Mr. Hill moved to recommit to the Committee on Financial Services. (text: CR H5589)", "type": "Floor"}, {"actionCode": "H35000", "actionDate": "2022-06-15", "actionTime": "15:33:51", "sourceSystem": {"code": 2, "name": "House floor actions"}, "text": "The previous question was ordered pursuant to the rule.", "type": "Floor"}, {"actionCode": "H8D000", "actionDate": "2022-06-15", "actionTime": "14:19:30", "sourceSystem": {"code": 2, "name": "House floor actions"}, "text": "POSTPONED PROCEEDINGS - At the conclusion of debate on the Payne amendment, the Chair put the question on adoption of the amendment and by voice vote, announced that the ayes had prevailed. Mr. McHenry demanded the yeas and nays and the Chair postponed further proceedings until a time to be announced.", "type": "Floor"}, {"actionCode": "H8D000", "actionDate": "2022-06-15", "actionTime": "14:08:12", "sourceSystem": {"code": 2, "name": "House floor actions"}, "text": "DEBATE - Pursuant to the provisions of H. Res. 1170, the House proceeded with 10 minutes of debate on the Payne amendment No. 19.", "type": "Floor"}, {"actionCode": "H8D000", "actionDate": "2022-06-15", "actionTime": "14:06:35", "sourceSystem": {"code": 2, "name": "House floor actions"}, "text": "POSTPONED PROCEEDINGS - At the conclusion of debate on the Vicente Gonzalez amendment, the Chair put the question on adoption of the amendment and by voice vote, announced that the ayes had prevailed. Mr. Posey demanded the yeas and nays and the Chair postponed further proceedings until a time to be announced.", "type": "Floor"}, {"actionCode": "H8D000", "actionDate": "2022-06-15", "actionTime": "14:01:52", "sourceSystem": {"code": 2, "name": "House floor actions"}, "text": "DEBATE - Pursuant to the provisions of H. Res. 1170, the House proceeded with 10 minutes of debate on the Vicente Gonzalez amendment No. 10.", "type": "Floor"}, {"actionCode": "H8D000", "actionDate": "2022-06-15", "actionTime": "14:00:20", "sourceSystem": {"code": 2, "name": "House floor actions"}, "text": "POSTPONED PROCEEDINGS - At the conclusion of debate on the Green (TX) amendment en bloc No. 2, the Chair put the question on adoption of the amendment and by voice vote, announced that the ayes had prevailed. Mr. Al Green (TX) demanded the yeas and nays and the Chair postponed further proceedings until a time to be announced.", "type": "Floor"}, {"actionCode": "H8D000", "actionDate": "2022-06-15", "actionTime": "13:53:34", "sourceSystem": {"code": 2, "name": "House floor actions"}, "text": "DEBATE - Pursuant to the provisions of H. Res. 1170, the House proceeded with 20 minutes of debate on the Al Green (TX) amendment en bloc No. 2.", "type": "Floor"}, {"actionCode": "H8D000", "actionDate": "2022-06-15", "actionTime": "13:52:18", "sourceSystem": {"code": 2, "name": "House floor actions"}, "text": "POSTPONED PROCEEDINGS - At the conclusion of debate on the Green (TX) amendment en bloc No. 1, the Chair put the question on adoption of the amendment and by voice vote, announced that the ayes had prevailed. Mr. McHenry demanded the yeas and nays and the Chair postponed further proceedings until a time to be announced.", "type": "Floor"}, {"actionCode": "H8D000", "actionDate": "2022-06-15", "actionTime": "13:31:36", "sourceSystem": {"code": 2, "name": "House floor actions"}, "text": "DEBATE - Pursuant to the provisions of H. Res. 1170, the House proceeded with 20 minutes of debate on the Al Green (TX) amendment en bloc No. 1.", "type": "Floor"}, {"actionCode": "H8D000", "actionDate": "2022-06-15", "actionTime": "12:21:24", "sourceSystem": {"code": 2, "name": "House floor actions"}, "text": "DEBATE - The House proceeded with one hour of debate on H.R. 2543.", "type": "Floor"}, {"actionCode": "H8D000", "actionDate": "2022-06-15", "actionTime": "12:20:49", "sourceSystem": {"code": 2, "name": "House floor actions"}, "text": "Rule provides for consideration of H.R. 2543, H.R. 2773 and H.R. 7606. Resolution provides for one hour of general debate on each bill and one motion to recommit. Rule also amends House Resolution 188 by striking \"June 17, 2022\" and inserting \"June 22, 2022\".", "type": "Floor"}, {"actionCode": "H30000", "actionDate": "2022-06-15", "actionTime": "12:20:44", "sourceSystem": {"code": 2, "name": "House floor actions"}, "text": "Considered under the provisions of rule H. Res. 1170. (consideration: CR H5556-5591; text: CR H5556-5567)", "type": "Floor"}, {"actionCode": "H1L210", "actionDate": "2022-06-13", "actionTime": "19:25:01", "sourceSystem": {"code": 2, "name": "House floor actions"}, "text": "Rules Committee Resolution H. Res. 1170 Reported to House. Rule provides for consideration of H.R. 2543, H.R. 2773 and H.R. 7606. Resolution provides for one hour of general debate on each bill and one motion to recommit. Rule also amends House Resolution 188 by striking \"June 17, 2022\" and inserting \"June 22, 2022\".", "type": "Floor"}], "pagination": {"count": 29, "next": "https://api.congress.gov/v3/bill/117/hr/2543/actions?offset=20&limit=20&format=json"}, "request": {"billNumber": "2543", "billType": "hr", "billUrl": "https://api.congress.gov/v3/bill/117/hr/2543?format=json", "congress": "117", "contentType": "application/json", "format": "json"}}, 200]