[{"actions": [{"actionDate": "2021-05-17", "committees": [{"name": "Banking, Housing, and Urban Affairs Committee", "systemCode": "ssbk00", "url": "https://api.congress.gov/v3/committee/senate/ssbk00?format=json"}], "sourceSystem": {"name": "Senate"}, "text": "Received in the Senate and Read twice and referred to the Committee on Banking, Housing, and Urban Affairs.", "type": "IntroReferral"}, {"actionCode": "H38310", "actionDate": "2021-05-13", "actionTime": "16:10:30", "sourceSystem": {"code": 2, "name": "House floor actions"}, "text": "Motion to reconsider laid on the table Agreed to without objection.", "type": "Floor"}, {"actionCode": "H37100", "actionDate": "2021-05-13", "actionTime": "16:10:29", "recordedVotes": [{"chamber": "House", "congress": 117, "date": "2021-05-13T20:10:29Z", "rollNumber": 141, "sessionNumber": 1, "url": "https://clerk.house.gov/evs/2021/roll141.xml"}], "sourceSystem": {"code": 2, "name": "House floor actions"}, "text": "On passage Passed by the Yeas and Nays: 215 - 207 (Roll no. 141).", "type": "Floor"}, {"actionCode": "8000", "actionDate": "2021-05-13", "actionTime": "16:10:29", "recordedVotes": [{"chamber": "House", "congress": 117, "date": "2021-05-13T20:10:29Z", "rollNumber": 141, "sessionNumber": 1, "url": "https://clerk.house.gov/evs/2021/roll141.xml"}], "sourceSystem": {"code": 9, "name": "Library of Congress"}, "text": "Passed/agreed to in House: On passage Passed by the Yeas and Nays: 215 - 207 (Roll no. 141).", "type": "Floor"}, {"actionCode": "H35000", "actionDate": "2021-05-13", "actionTime": "15:38:45", "sourceSystem": {"code": 2, "name": "House floor actions"}, "text": "The previous question was ordered pursuant to the rule.", "type": "Floor"}, {"actionCode": "H8D000", "actionDate": "2021-05-13", "actionTime": "15:38:36", "sourceSystem": {"code": 2, "name": "House floor actions"}, "text": "Motion to reconsider laid on the table. Agreed to without objection.", "type": "Floor"}, {"actionCode": "H8D000", "actionDate": "2021-05-13", "actionTime": "15:05:42", "sourceSystem": {"code": 2, "name": "House floor actions"}, "text": "Motion to reconsider laid on the table. Agreed to without objection.", "type": "Floor"}, {"actionCode": "H8D000", "actionDate": "2021-05-13", "actionTime": "14:33:50", "sourceSystem": {"code": 2, "name": "House floor actions"}, "text": "Motion to reconsider laid on the table. Agreed to without objection.", "type": "Floor"}, {"actionCode": "H8D000", "actionDate": "2021-05-13", "actionTime": "13:56:39", "sourceSystem": {"code": 2, "name": "House floor actions"}, "text": "POSTPONED PROCEEDINGS - At the conclusion of debate on the Wagner amendment, the Chair put the question on adoption of the amendment and by voice vote, announced that the noes had prevailed. Mrs. Wagner demanded the yeas and nays and the Chair postponed further proceedings until a time to be announced.", "type": "Floor"}, {"actionCode": "H8D000", "actionDate": "2021-05-13", "actionTime": "13:45:21", "sourceSystem": {"code": 2, "name": "House floor actions"}, "text": "DEBATE - Pursuant to the provisions of H. Res. 380, the House proceeded with 10 minutes of debate on the Wagner amendment No. 9.", "type": "Floor"}, {"actionCode": "H8D000", "actionDate": "2021-05-13", "actionTime": "13:44:02", "sourceSystem": {"code": 2, "name": "House floor actions"}, "text": "POSTPONED PROCEEDINGS - At the conclusion of debate on the Waters amendment en bloc No. 2, the Chair put the question on adoption of the amendment and by voice vote, announced that the noes had prevailed. Mrs. Wagner demanded the yeas and nays and the Chair postponed further proceedings until a time to be announced.", "type": "Floor"}, {"actionCode": "H8D000", "actionDate": "2021-05-13", "actionTime": "13:35:21", "sourceSystem": {"code": 2, "name": "House floor actions"}, "text": "DEBATE - Pursuant to the provisions of H. Res. 380, the House proceeded with 20 minutes of debate on the Waters amendment en bloc No. 2.", "type": "Floor"}, {"actionCode": "H8D000", "actionDate": "2021-05-13", "actionTime": "13:33:37", "sourceSystem": {"code": 2, "name": "House floor actions"}, "text": "POSTPONED PROCEEDINGS - At the conclusion of debate on the Waters amendment en bloc No. 1, the Chair put the question on adoption of the amendment and by voice vote, announced that the ayes had prevailed. Mrs. Wagner demanded the yeas and nays and the Chair postponed further proceedings until a time to be announced.", "type": "Floor"}, {"actionCode": "H8D000", "actionDate": "2021-05-13", "actionTime": "13:15:28", "sourceSystem": {"code": 2, "name": "House floor actions"}, "text": "DEBATE - Pursuant to the provisions of H. Res. 380, the House proceeded with 20 minutes of debate on the Waters amendment en bloc No. 1.", "type": "Floor"}, {"actionCode": "H8D000", "actionDate": "2021-05-13", "actionTime": "12:29:45", "sourceSystem": {"code": 2, "name": "House floor actions"}, "text": "DEBATE - The House proceeded with one hour of debate on H.R. 2547.", "type": "Floor"}, {"actionCode": "H8D000", "actionDate": "2021-05-13", "actionTime": "12:28:23", "sourceSystem": {"code": 2, "name": "House floor actions"}, "text": "Rule provides for consideration of H.R. 2547 and H.R. 1065. Measure will be considered read. Specified amendments are in order. The previous question on each measure is considered ordered without intervening motions except one hour of debate and a motion to recommit. H. Res. 379 is adopted.", "type": "Floor"}, {"actionCode": "H30000", "actionDate": "2021-05-13", "actionTime": "12:28:18", "sourceSystem": {"code": 2, "name": "House floor actions"}, "text": "Considered under the provisions of rule H. Res. 380. (consideration: CR H2276-2295; text: CR H2276-2279)", "type": "Floor"}, {"actionCode": "H1L210", "actionDate": "2021-05-11", "actionTime": "18:16:35", "sourceSystem": {"code": 2, "name": "House floor actions"}, "text": "Rules Committee Resolution H. Res. 380 Reported to House. Rule provides for consideration of H.R. 2547 and H.R. 1065. Measure will be considered read. Specified amendments are in order. The previous question on each measure is considered ordered without intervening motions except one hour of debate and a motion to recommit. H. Res. 379 is adopted.", "type": "Floor"}, {"actionCode": "H12410", "actionDate": "2021-04-30", "calendarNumber": {"calendar": "U00010"}, "sourceSystem": {"code": 2, "name": "House floor actions"}, "text": "Placed on the Union Calendar, Calendar No. 10.", "type": "Calendars"}, {"actionCode": "H12200", "actionDate": "2021-04-30", "committees": [{"name": "Financial Services Committee", "systemCode": "hsba00", "url": "https://api.congress.gov/v3/committee/house/hsba00?format=json"}], "sourceSystem": {"code": 2, "name": "House floor actions"}, "text": "Reported (Amended) by the Committee on Financial Services. H. Rept. 117-23.", "type": "Committee"}], "pagination": {"count": 27, "next": "https://api.congress.gov/v3/bill/117/hr/2547/actions?offset=20&limit=20&format=json"}, "request": {"billNumber": "2547", "billType": "hr", "billUrl": "https://api.congress.gov/v3/bill/117/hr/2547?format=json", "congress": "117", "contentType": "application/json", "format": "json"}}, 200]