[{"actions": [{"actionCode": "E40000", "actionDate": "2022-12-29", "sourceSystem": {"code": 9, "name": "Library of Congress"}, "text": "Became Public Law No: 117-328.", "type": "President"}, {"actionCode": "36000", "actionDate": "2022-12-29", "sourceSystem": {"code": 9, "name": "Library of Congress"}, "text": "Became Public Law No: 117-328.", "type": "BecameLaw"}, {"actionCode": "E30000", "actionDate": "2022-12-29", "sourceSystem": {"code": 9, "name": "Library of Congress"}, "text": "Signed by President.", "type": "President"}, {"actionCode": "36000", "actionDate": "2022-12-29", "sourceSystem": {"code": 9, "name": "Library of Congress"}, "text": "Signed by President.", "type": "BecameLaw"}, {"actionCode": "E20000", "actionDate": "2022-12-28", "sourceSystem": {"code": 2, "name": "House floor actions"}, "text": "Presented to President.", "type": "Floor"}, {"actionCode": "28000", "actionDate": "2022-12-28", "sourceSystem": {"code": 9, "name": "Library of Congress"}, "text": "Presented to President.", "type": "President"}, {"actionCode": "H41931", "actionDate": "2022-12-23", "actionTime": "14:04:02", "sourceSystem": {"code": 2, "name": "House floor actions"}, "text": "Motion to reconsider laid on the table Agreed to without objection.", "type": "ResolvingDifferences"}, {"actionCode": "H41610", "actionDate": "2022-12-23", "actionTime": "14:04:00", "recordedVotes": [{"chamber": "House", "congress": 117, "date": "2022-12-23T19:04:00Z", "rollNumber": 549, "sessionNumber": 2, "url": "https://clerk.house.gov/evs/2022/roll549.xml"}], "sourceSystem": {"code": 2, "name": "House floor actions"}, "text": "On motion that the House agree to the Senate amendment to the House amendment to the Senate amendment Agreed to by the Yeas and Nays: 225 - 201, 1 Present (Roll no. 549).", "type": "ResolvingDifferences"}, {"actionCode": "19500", "actionDate": "2022-12-23", "recordedVotes": [{"chamber": "House", "congress": 117, "date": "2022-12-23T19:04:00Z", "rollNumber": 549, "sessionNumber": 2, "url": "https://clerk.house.gov/evs/2022/roll549.xml"}], "sourceSystem": {"code": 9, "name": "Library of Congress"}, "text": "Resolving differences -- House actions: On motion that the House agree to the Senate amendment to the House amendment to the Senate amendment Agreed to by the Yeas and Nays: 225 - 201, 1 Present (Roll no. 549).", "type": "NotUsed"}, {"actionCode": "H35000", "actionDate": "2022-12-23", "actionTime": "13:23:40", "sourceSystem": {"code": 2, "name": "House floor actions"}, "text": "The previous question was ordered pursuant to the rule.", "type": "Floor"}, {"actionCode": "H8D000", "actionDate": "2022-12-23", "actionTime": "13:18:19", "sourceSystem": {"code": 2, "name": "House floor actions"}, "text": "DEBATE - The House proceeded with one hour of debate on the motion to agree to the Senate amendment to the House amendment to the Senate amendment to H.R. 2617.", "type": "Floor"}, {"actionCode": "H40150", "actionDate": "2022-12-23", "actionTime": "13:18:18", "sourceSystem": {"code": 2, "name": "House floor actions"}, "text": "Pursuant to the provisions of H. Res. 1531, Ms. DeLauro moved to agree to the Senate amendment to the House amendment to the Senate amendment to H.R. 2617.", "type": "ResolvingDifferences"}, {"actionCode": "H8D000", "actionDate": "2022-12-23", "actionTime": "13:17:58", "sourceSystem": {"code": 2, "name": "House floor actions"}, "text": "Pursuant to the provisions of H. Res. 1531, Ms. DeLauro moved to agree to the Senate amendment to the House amendment to the Senate amendment to H.R. 2617.", "type": "Floor"}, {"actionDate": "2022-12-23", "sourceSystem": {"name": "Senate"}, "text": "Message on Senate action sent to the House.", "type": "Floor"}, {"actionDate": "2022-12-22", "recordedVotes": [{"chamber": "Senate", "congress": 117, "date": "2022-12-22T19:20:15Z", "rollNumber": 421, "sessionNumber": 2, "url": "https://www.senate.gov/legislative/LIS/roll_call_votes/vote1172/vote_117_2_00421.xml"}], "sourceSystem": {"name": "Senate"}, "text": "Senate concurred in the House amendment to Senate amendment SA 4 to H.R. 2617 with an amendment (SA 6552), under the order of 12/22/22, having achieved 60 votes in the affirmative, by Yea-Nay Vote. 68 - 29. Record Vote Number: 421.", "type": "ResolvingDifferences"}, {"actionCode": "20500", "actionDate": "2022-12-22", "recordedVotes": [{"chamber": "Senate", "congress": 117, "date": "2022-12-22T19:20:15Z", "rollNumber": 421, "sessionNumber": 2, "url": "https://www.senate.gov/legislative/LIS/roll_call_votes/vote1172/vote_117_2_00421.xml"}], "sourceSystem": {"code": 9, "name": "Library of Congress"}, "text": "Resolving differences -- Senate actions: Senate concurred in the House amendment to Senate amendment SA 4 to H.R. 2617 with an amendment (SA 6552), under the order of 12/22/22, having achieved 60 votes in the affirmative, by Yea-Nay Vote. 68 - 29. Record Vote Number: 421.", "type": "NotUsed"}, {"actionDate": "2022-12-22", "committees": [{"name": "Appropriations Committee", "systemCode": "ssap00", "url": "https://api.congress.gov/v3/committee/senate/ssap00?format=json"}], "sourceSystem": {"name": "Senate"}, "text": "Motion by Senator Schumer to refer to Senate Committee on Appropriations the House message to accompany H.R. 2617 with instructions to report back forthwith with the following amendment (SA 6572) withdrawn in Senate by Unanimous Consent. (CR S10075)", "type": "Floor"}, {"actionDate": "2022-12-22", "sourceSystem": {"name": "Senate"}, "text": "Considered by Senate (Message from the House considered). (consideration: CR S10062-10077)", "type": "Floor"}, {"actionDate": "2022-12-21", "sourceSystem": {"name": "Senate"}, "text": "Cloture motion on the motion to concur in the House amendment to Senate amendment SA 4 to H.R. 2617 with an amendment (SA 6552) presented in Senate. (CR S9759)", "type": "Floor"}, {"actionDate": "2022-12-21", "sourceSystem": {"name": "Senate"}, "text": "Considered by Senate (Message from the House considered). (consideration: CR S9719, S9735, S9739-9740, S9759)", "type": "Floor"}], "pagination": {"count": 48, "next": "https://api.congress.gov/v3/bill/117/hr/2617/actions?offset=20&limit=20&format=json"}, "request": {"billNumber": "2617", "billType": "hr", "billUrl": "https://api.congress.gov/v3/bill/117/hr/2617?format=json", "congress": "117", "contentType": "application/json", "format": "json"}}, 200]