[{"actions": [{"actionCode": "H11000", "actionDate": "2021-10-19", "committees": [{"name": "Crime and Federal Government Surveillance Subcommittee", "systemCode": "hsju08", "url": "https://api.congress.gov/v3/committee/house/hsju08?format=json"}], "sourceSystem": {"code": 1, "name": "House committee actions"}, "text": "Referred to the Subcommittee on Crime, Terrorism, and Homeland Security.", "type": "Committee"}, {"actionCode": "E40000", "actionDate": "2021-05-04", "sourceSystem": {"code": 9, "name": "Library of Congress"}, "text": "Became Public Law No: 117-12.", "type": "President"}, {"actionCode": "36000", "actionDate": "2021-05-04", "sourceSystem": {"code": 9, "name": "Library of Congress"}, "text": "Became Public Law No: 117-12.", "type": "BecameLaw"}, {"actionCode": "E30000", "actionDate": "2021-05-04", "sourceSystem": {"code": 9, "name": "Library of Congress"}, "text": "Signed by President.", "type": "President"}, {"actionCode": "36000", "actionDate": "2021-05-04", "sourceSystem": {"code": 9, "name": "Library of Congress"}, "text": "Signed by President.", "type": "BecameLaw"}, {"actionCode": "E20000", "actionDate": "2021-04-30", "sourceSystem": {"code": 2, "name": "House floor actions"}, "text": "Presented to President.", "type": "Floor"}, {"actionCode": "28000", "actionDate": "2021-04-30", "sourceSystem": {"code": 9, "name": "Library of Congress"}, "text": "Presented to President.", "type": "President"}, {"actionDate": "2021-04-29", "sourceSystem": {"name": "Senate"}, "text": "Message on Senate action sent to the House.", "type": "Floor"}, {"actionDate": "2021-04-29", "sourceSystem": {"name": "Senate"}, "text": "Passed Senate without amendment by Voice Vote. (consideration: CR S2323-2324)", "type": "Floor"}, {"actionCode": "17000", "actionDate": "2021-04-29", "sourceSystem": {"code": 9, "name": "Library of Congress"}, "text": "Passed/agreed to in Senate: Passed Senate without amendment by Voice Vote.(consideration: CR S2323-2324)", "type": "Floor"}, {"actionDate": "2021-04-22", "sourceSystem": {"name": "Senate"}, "text": "Received in the Senate, read twice.", "type": "IntroReferral"}, {"actionCode": "H38800", "actionDate": "2021-04-21", "actionTime": "15:38:31", "sourceSystem": {"code": 2, "name": "House floor actions"}, "text": "The title of the measure was amended. Agreed to without objection.", "type": "Floor"}, {"actionCode": "H38310", "actionDate": "2021-04-21", "actionTime": "15:38:27", "sourceSystem": {"code": 2, "name": "House floor actions"}, "text": "Motion to reconsider laid on the table Agreed to without objection.", "type": "Floor"}, {"actionCode": "H37300", "actionDate": "2021-04-21", "actionTime": "15:38:23", "sourceSystem": {"code": 2, "name": "House floor actions"}, "text": "On motion to suspend the rules and pass the bill, as amended Agreed to by voice vote. (text: CR H2025)", "type": "Floor"}, {"actionCode": "8000", "actionDate": "2021-04-21", "actionTime": "15:38:23", "sourceSystem": {"code": 9, "name": "Library of Congress"}, "text": "Passed/agreed to in House: On motion to suspend the rules and pass the bill, as amended Agreed to by voice vote.(text: CR H2025)", "type": "Floor"}, {"actionCode": "H8D000", "actionDate": "2021-04-21", "actionTime": "15:05:58", "sourceSystem": {"code": 2, "name": "House floor actions"}, "text": "DEBATE - The House proceeded with forty minutes of debate on H.R. 2630.", "type": "Floor"}, {"actionCode": "H30000", "actionDate": "2021-04-21", "actionTime": "15:05:55", "sourceSystem": {"code": 2, "name": "House floor actions"}, "text": "Considered under suspension of the rules. (consideration: CR H2025-2029)", "type": "Floor"}, {"actionCode": "H30300", "actionDate": "2021-04-21", "actionTime": "15:05:33", "sourceSystem": {"code": 2, "name": "House floor actions"}, "text": "Mr. Pallone moved to suspend the rules and pass the bill, as amended.", "type": "Floor"}, {"actionCode": "H11000", "actionDate": "2021-04-19", "committees": [{"name": "Health Subcommittee", "systemCode": "hsif14", "url": "https://api.congress.gov/v3/committee/house/hsif14?format=json"}], "sourceSystem": {"code": 1, "name": "House committee actions"}, "text": "Referred to the Subcommittee on Health.", "type": "Committee"}, {"actionCode": "H11100", "actionDate": "2021-04-16", "committees": [{"name": "Judiciary Committee", "systemCode": "hsju00", "url": "https://api.congress.gov/v3/committee/house/hsju00?format=json"}], "sourceSystem": {"code": 2, "name": "House floor actions"}, "text": "Referred to the Committee on Energy and Commerce, and in addition to the Committee on the Judiciary, for a period to be subsequently determined by the Speaker, in each case for consideration of such provisions as fall within the jurisdiction of the committee concerned.", "type": "IntroReferral"}], "pagination": {"count": 23, "next": "https://api.congress.gov/v3/bill/117/hr/2630/actions?offset=20&limit=20&format=json"}, "request": {"billNumber": "2630", "billType": "hr", "billUrl": "https://api.congress.gov/v3/bill/117/hr/2630?format=json", "congress": "117", "contentType": "application/json", "format": "json"}}, 200]