[{"actions": [{"actionDate": "2021-07-21", "sourceSystem": {"name": "Senate"}, "text": "Received in the Senate.", "type": "IntroReferral"}, {"actionCode": "H38310", "actionDate": "2021-07-20", "actionTime": "18:25:46", "sourceSystem": {"code": 2, "name": "House floor actions"}, "text": "Motion to reconsider laid on the table Agreed to without objection.", "type": "Floor"}, {"actionCode": "H37100", "actionDate": "2021-07-20", "actionTime": "18:25:44", "recordedVotes": [{"chamber": "House", "congress": 117, "date": "2021-07-20T22:25:44Z", "rollNumber": 214, "sessionNumber": 1, "url": "https://clerk.house.gov/evs/2021/roll214.xml"}], "sourceSystem": {"code": 2, "name": "House floor actions"}, "text": "On passage Passed by the Yeas and Nays: 221 - 205 (Roll no. 214). (text: CR H3730)", "type": "Floor"}, {"actionCode": "8000", "actionDate": "2021-07-20", "actionTime": "18:25:44", "recordedVotes": [{"chamber": "House", "congress": 117, "date": "2021-07-20T22:25:44Z", "rollNumber": 214, "sessionNumber": 1, "url": "https://clerk.house.gov/evs/2021/roll214.xml"}], "sourceSystem": {"code": 9, "name": "Library of Congress"}, "text": "Passed/agreed to in House: On passage Passed by the Yeas and Nays: 221 - 205 (Roll no. 214).(text: CR H3730)", "type": "Floor"}, {"actionCode": "H36210", "actionDate": "2021-07-20", "actionTime": "18:05:34", "committees": [{"name": "Energy and Commerce Committee", "systemCode": "hsif00", "url": "https://api.congress.gov/v3/committee/house/hsif00?format=json"}], "recordedVotes": [{"chamber": "House", "congress": 117, "date": "2021-07-20T22:05:34Z", "rollNumber": 213, "sessionNumber": 1, "url": "https://clerk.house.gov/evs/2021/roll213.xml"}], "sourceSystem": {"code": 2, "name": "House floor actions"}, "text": "On motion to recommit Failed by the Yeas and Nays: 207 - 217 (Roll no. 213).", "type": "Floor"}, {"actionCode": "H8A000", "actionDate": "2021-07-20", "actionTime": "17:31:24", "sourceSystem": {"code": 2, "name": "House floor actions"}, "text": "The previous question on the motion to recommit was ordered pursuant to clause 2(b) of rule XIX.", "type": "Floor"}, {"actionCode": "H36200", "actionDate": "2021-07-20", "actionTime": "17:31:10", "committees": [{"name": "Energy and Commerce Committee", "systemCode": "hsif00", "url": "https://api.congress.gov/v3/committee/house/hsif00?format=json"}], "sourceSystem": {"code": 2, "name": "House floor actions"}, "text": "Mr. Davis, Rodney moved to recommit to the Committee on Energy and Commerce. (text: CR H3736)", "type": "Floor"}, {"actionCode": "H35000", "actionDate": "2021-07-20", "actionTime": "17:30:36", "sourceSystem": {"code": 2, "name": "House floor actions"}, "text": "The previous question was ordered pursuant to the rule.", "type": "Floor"}, {"actionCode": "H8D000", "actionDate": "2021-07-20", "actionTime": "16:34:22", "sourceSystem": {"code": 2, "name": "House floor actions"}, "text": "DEBATE - The House proceeded with one hour of debate on H.R. 2668.", "type": "Floor"}, {"actionCode": "H8D000", "actionDate": "2021-07-20", "actionTime": "16:33:14", "sourceSystem": {"code": 2, "name": "House floor actions"}, "text": "Rule provides for consideration of H.R. 2467, H.R. 2668 and H.R. 3985. The resolution provides for one hour of general debate on H.R. 2467, H.R. 2668 and H.R. 3985. The resolution provides en bloc suspension authority and provides at any time through the legislative day of Thursday, July 22, 2021, the Speaker may entertain motions offered by the Majority Leader or a designee that the House suspend the rules with respect to multiple measures that were the object of motions to suspend the rules on the legislative days of July 19 or 20, 2021, and on which the yeas and nays were ordered and further proceedings postponed.", "type": "Floor"}, {"actionCode": "H30000", "actionDate": "2021-07-20", "actionTime": "16:33:09", "sourceSystem": {"code": 2, "name": "House floor actions"}, "text": "Considered under the provisions of rule H. Res. 535. (consideration: CR H3730-3738)", "type": "Floor"}, {"actionCode": "H1L210", "actionDate": "2021-07-19", "actionTime": "17:24:19", "sourceSystem": {"code": 2, "name": "House floor actions"}, "text": "Rules Committee Resolution H. Res. 535 Reported to House. Rule provides for consideration of H.R. 2467, H.R. 2668 and H.R. 3985. The resolution provides for one hour of general debate on H.R. 2467, H.R. 2668 and H.R. 3985. The resolution provides en bloc suspension authority and provides at any time through the legislative day of Thursday, July 22, 2021, the Speaker may entertain motions offered by the Majority Leader or a designee that the House suspend the rules with respect to multiple measures that were the object of motions to suspend the rules on the legislative days of July 19 or 20, 2021, and on which the yeas and nays were ordered and further proceedings postponed.", "type": "Floor"}, {"actionCode": "H12410", "actionDate": "2021-07-16", "calendarNumber": {"calendar": "U00064"}, "sourceSystem": {"code": 2, "name": "House floor actions"}, "text": "Placed on the Union Calendar, Calendar No. 64.", "type": "Calendars"}, {"actionCode": "H12300", "actionDate": "2021-07-16", "committees": [{"name": "Judiciary Committee", "systemCode": "hsju00", "url": "https://api.congress.gov/v3/committee/house/hsju00?format=json"}], "sourceSystem": {"code": 2, "name": "House floor actions"}, "text": "Committee on the Judiciary discharged.", "type": "Discharge"}, {"actionCode": "5500", "actionDate": "2021-07-16", "committees": [{"name": "Judiciary Committee", "systemCode": "hsju00", "url": "https://api.congress.gov/v3/committee/house/hsju00?format=json"}], "sourceSystem": {"code": 9, "name": "Library of Congress"}, "text": "Committee on the Judiciary discharged.", "type": "Committee"}, {"actionCode": "H12200", "actionDate": "2021-07-16", "committees": [{"name": "Energy and Commerce Committee", "systemCode": "hsif00", "url": "https://api.congress.gov/v3/committee/house/hsif00?format=json"}], "sourceSystem": {"code": 2, "name": "House floor actions"}, "text": "Reported (Amended) by the Committee on Energy and Commerce. H. Rept. 117-90, Part I.", "type": "Committee"}, {"actionCode": "5000", "actionDate": "2021-07-16", "committees": [{"name": "Energy and Commerce Committee", "systemCode": "hsif00", "url": "https://api.congress.gov/v3/committee/house/hsif00?format=json"}], "sourceSystem": {"code": 9, "name": "Library of Congress"}, "text": "Reported (Amended) by the Committee on Energy and Commerce. H. Rept. 117-90, Part I.", "type": "Committee"}, {"actionCode": "H19000", "actionDate": "2021-06-10", "committees": [{"name": "Energy and Commerce Committee", "systemCode": "hsif00", "url": "https://api.congress.gov/v3/committee/house/hsif00?format=json"}], "sourceSystem": {"code": 1, "name": "House committee actions"}, "text": "Ordered to be Reported (Amended) by the Yeas and Nays: 30 - 22.", "type": "Committee"}, {"actionCode": "H15000-B", "actionDate": "2021-06-10", "committees": [{"name": "Energy and Commerce Committee", "systemCode": "hsif00", "url": "https://api.congress.gov/v3/committee/house/hsif00?format=json"}], "sourceSystem": {"code": 1, "name": "House committee actions"}, "text": "Committee Consideration and Mark-up Session Held.", "type": "Committee"}, {"actionCode": "H25000", "actionDate": "2021-06-09", "committees": [{"name": "Energy and Commerce Committee", "systemCode": "hsif00", "url": "https://api.congress.gov/v3/committee/house/hsif00?format=json"}], "sourceSystem": {"code": 1, "name": "House committee actions"}, "text": "Subcommittee on Consumer Protection and Commerce Discharged.", "type": "Committee"}], "pagination": {"count": 25, "next": "https://api.congress.gov/v3/bill/117/hr/2668/actions?offset=20&limit=20&format=json"}, "request": {"billNumber": "2668", "billType": "hr", "billUrl": "https://api.congress.gov/v3/bill/117/hr/2668?format=json", "congress": "117", "contentType": "application/json", "format": "json"}}, 200]