[{"actions": [{"actionDate": "2022-12-05", "calendarNumber": {"calendar": "Senate Calendar of Business", "number": "0585"}, "sourceSystem": {"name": "Senate"}, "text": "Placed on Senate Legislative Calendar under General Orders. Calendar No. 585.", "type": "Calendars"}, {"actionDate": "2022-12-05", "committees": [{"name": "Homeland Security and Governmental Affairs Committee", "systemCode": "ssga00", "url": "https://api.congress.gov/v3/committee/senate/ssga00?format=json"}], "sourceSystem": {"name": "Senate"}, "text": "Committee on Homeland Security and Governmental Affairs. Reported by Senator Peters with an amendment in the nature of a substitute. With written report No. 117-226.", "type": "Committee"}, {"actionCode": "14000", "actionDate": "2022-12-05", "committees": [{"name": "Homeland Security and Governmental Affairs Committee", "systemCode": "ssga00", "url": "https://api.congress.gov/v3/committee/senate/ssga00?format=json"}], "sourceSystem": {"code": 9, "name": "Library of Congress"}, "text": "Committee on Homeland Security and Governmental Affairs. Reported by Senator Peters with an amendment in the nature of a substitute. With written report No. 117-226.", "type": "Committee"}, {"actionDate": "2021-11-03", "committees": [{"name": "Homeland Security and Governmental Affairs Committee", "systemCode": "ssga00", "url": "https://api.congress.gov/v3/committee/senate/ssga00?format=json"}], "sourceSystem": {"name": "Senate"}, "text": "Committee on Homeland Security and Governmental Affairs. Ordered to be reported with an amendment in the nature of a substitute favorably.", "type": "Committee"}, {"actionDate": "2021-10-21", "committees": [{"name": "Homeland Security and Governmental Affairs Committee", "systemCode": "ssga00", "url": "https://api.congress.gov/v3/committee/senate/ssga00?format=json"}], "sourceSystem": {"name": "Senate"}, "text": "Committee on Homeland Security and Governmental Affairs. Hearings held.", "type": "Committee"}, {"actionDate": "2021-07-12", "committees": [{"name": "Homeland Security and Governmental Affairs Committee", "systemCode": "ssga00", "url": "https://api.congress.gov/v3/committee/senate/ssga00?format=json"}], "sourceSystem": {"name": "Senate"}, "text": "Received in the Senate and Read twice and referred to the Committee on Homeland Security and Governmental Affairs.", "type": "IntroReferral"}, {"actionCode": "H38310", "actionDate": "2021-06-29", "actionTime": "19:05:48", "sourceSystem": {"code": 2, "name": "House floor actions"}, "text": "Motion to reconsider laid on the table Agreed to without objection.", "type": "Floor"}, {"actionCode": "H37100", "actionDate": "2021-06-29", "actionTime": "19:05:47", "recordedVotes": [{"chamber": "House", "congress": 117, "date": "2021-06-29T23:05:47Z", "rollNumber": 195, "sessionNumber": 1, "url": "https://clerk.house.gov/evs/2021/roll195.xml"}], "sourceSystem": {"code": 2, "name": "House floor actions"}, "text": "On passage Passed by the Yeas and Nays: 221 - 182 (Roll no. 195).", "type": "Floor"}, {"actionCode": "8000", "actionDate": "2021-06-29", "actionTime": "19:05:47", "recordedVotes": [{"chamber": "House", "congress": 117, "date": "2021-06-29T23:05:47Z", "rollNumber": 195, "sessionNumber": 1, "url": "https://clerk.house.gov/evs/2021/roll195.xml"}], "sourceSystem": {"code": 9, "name": "Library of Congress"}, "text": "Passed/agreed to in House: On passage Passed by the Yeas and Nays: 221 - 182 (Roll no. 195).", "type": "Floor"}, {"actionCode": "H8D000", "actionDate": "2021-06-29", "actionTime": "18:43:42", "sourceSystem": {"code": 2, "name": "House floor actions"}, "text": "Motion to reconsider laid on the table. Agreed to without objection.", "type": "Floor"}, {"actionCode": "H8D000", "actionDate": "2021-06-29", "actionTime": "18:17:37", "sourceSystem": {"code": 2, "name": "House floor actions"}, "text": "Motion to reconsider laid on the table. Agreed to without objection.", "type": "Floor"}, {"actionCode": "H8D000", "actionDate": "2021-06-29", "actionTime": "17:45:01", "sourceSystem": {"code": 2, "name": "House floor actions"}, "text": "POSTPONED PROCEEDINGS - At the conclusion of debate on the Comer amendment No. 4, the Chair put the question on adoption of the amendment and by voice vote, announced that the noes had prevailed. Mr. Comer demanded the yeas and nays and the Chair postponed further proceedings until a time to be announced.", "type": "Floor"}, {"actionCode": "H8D000", "actionDate": "2021-06-29", "actionTime": "17:36:21", "sourceSystem": {"code": 2, "name": "House floor actions"}, "text": "DEBATE - Pursuant to the provisions of H. Res. 504, the House proceeded with 10 minutes of debate on the Comer amendment No. 4.", "type": "Floor"}, {"actionCode": "H8D000", "actionDate": "2021-06-29", "actionTime": "17:35:29", "sourceSystem": {"code": 2, "name": "House floor actions"}, "text": "POSTPONED PROCEEDINGS - At the conclusion of debate on the Carolyn B. Maloney (NY) amendment en bloc No. 1, the Chair put the question on adoption of the amendment and by voice vote, announced that the ayes had prevailed. Mr. Comer demanded the yeas and nays and the Chair postponed further proceedings until a time to be announced.", "type": "Floor"}, {"actionCode": "H8D000", "actionDate": "2021-06-29", "actionTime": "17:26:58", "sourceSystem": {"code": 2, "name": "House floor actions"}, "text": "DEBATE - Pursuant to the provisions of H. Res. 504, the House proceeded with 20 minutes of debate on the Carolyn B. Maloney (NY) amendment en bloc No. 1.", "type": "Floor"}, {"actionCode": "H8D000", "actionDate": "2021-06-29", "actionTime": "16:37:38", "sourceSystem": {"code": 2, "name": "House floor actions"}, "text": "DEBATE - The House proceeded with one hour of debate on H.R. 2662.", "type": "Floor"}, {"actionCode": "H8D000", "actionDate": "2021-06-29", "actionTime": "16:35:14", "sourceSystem": {"code": 2, "name": "House floor actions"}, "text": "Rule provides for consideration of H.R. 2662, H.R. 3005, H.R. 3684 and H. Res. 503. The resolution provides for one hour of general debate on H.R. 2662, under a structured rule; one hour of general debate on H.R. 3005, under a closed rule; 90 minutes of general debate on H.R. 3684; and one hour of general debate on H. Res. 503, under a closed rule. Resolution provides en bloc suspension authority.", "type": "Floor"}, {"actionCode": "H30000", "actionDate": "2021-06-29", "actionTime": "16:35:09", "sourceSystem": {"code": 2, "name": "House floor actions"}, "text": "Considered under the provisions of rule H. Res. 504. (consideration: CR H3276-3290; text of amendment in the nature of a substitute: CR H3276-3279)", "type": "Floor"}, {"actionCode": "H1L210", "actionDate": "2021-06-28", "actionTime": "18:59:50", "sourceSystem": {"code": 2, "name": "House floor actions"}, "text": "Rules Committee Resolution H. Res. 504 Reported to House. Rule provides for consideration of H.R. 2662, H.R. 3005, H.R. 3684 and H. Res. 503. The resolution provides for one hour of general debate on H.R. 2662, under a structured rule; one hour of general debate on H.R. 3005, under a closed rule; 90 minutes of general debate on H.R. 3684; and one hour of general debate on H. Res. 503, under a closed rule. Resolution provides en bloc suspension authority.", "type": "Floor"}, {"actionCode": "H12410", "actionDate": "2021-06-17", "calendarNumber": {"calendar": "U00047"}, "sourceSystem": {"code": 2, "name": "House floor actions"}, "text": "Placed on the Union Calendar, Calendar No. 47.", "type": "Calendars"}], "pagination": {"count": 30, "next": "https://api.congress.gov/v3/bill/117/hr/2662/actions?offset=20&limit=20&format=json"}, "request": {"billNumber": "2662", "billType": "hr", "billUrl": "https://api.congress.gov/v3/bill/117/hr/2662?format=json", "congress": "117", "contentType": "application/json", "format": "json"}}, 200]