[{"actions": [{"actionDate": "2022-06-15", "calendarNumber": {"calendar": "Senate Calendar of Business", "number": "0424"}, "sourceSystem": {"name": "Senate"}, "text": "Received in the Senate. Read twice. Placed on Senate Legislative Calendar under General Orders. Calendar No. 424.", "type": "Calendars"}, {"actionCode": "H38310", "actionDate": "2022-06-14", "actionTime": "18:10:23", "sourceSystem": {"code": 2, "name": "House floor actions"}, "text": "Motion to reconsider laid on the table Agreed to without objection.", "type": "Floor"}, {"actionCode": "H37100", "actionDate": "2022-06-14", "actionTime": "18:10:21", "recordedVotes": [{"chamber": "House", "congress": 117, "date": "2022-06-14T22:10:21Z", "rollNumber": 267, "sessionNumber": 2, "url": "https://clerk.house.gov/evs/2022/roll267.xml"}], "sourceSystem": {"code": 2, "name": "House floor actions"}, "text": "On passage Passed by the Yeas and Nays: 231 - 190 (Roll no. 267).", "type": "Floor"}, {"actionCode": "8000", "actionDate": "2022-06-14", "actionTime": "18:10:21", "recordedVotes": [{"chamber": "House", "congress": 117, "date": "2022-06-14T22:10:21Z", "rollNumber": 267, "sessionNumber": 2, "url": "https://clerk.house.gov/evs/2022/roll267.xml"}], "sourceSystem": {"code": 9, "name": "Library of Congress"}, "text": "Passed/agreed to in House: On passage Passed by the Yeas and Nays: 231 - 190 (Roll no. 267).", "type": "Floor"}, {"actionCode": "H36210", "actionDate": "2022-06-14", "actionTime": "18:02:34", "committees": [{"name": "Natural Resources Committee", "systemCode": "hsii00", "url": "https://api.congress.gov/v3/committee/house/hsii00?format=json"}], "recordedVotes": [{"chamber": "House", "congress": 117, "date": "2022-06-14T22:02:34Z", "rollNumber": 266, "sessionNumber": 2, "url": "https://clerk.house.gov/evs/2022/roll266.xml"}], "sourceSystem": {"code": 2, "name": "House floor actions"}, "text": "On motion to recommit Failed by the Yeas and Nays: 202 - 220 (Roll no. 266).", "type": "Floor"}, {"actionCode": "H8A000", "actionDate": "2022-06-14", "actionTime": "17:55:14", "sourceSystem": {"code": 2, "name": "House floor actions"}, "text": "The previous question on the motion to recommit was ordered pursuant to clause 2(b) of rule XIX.", "type": "Floor"}, {"actionCode": "H36200", "actionDate": "2022-06-14", "actionTime": "17:54:54", "committees": [{"name": "Natural Resources Committee", "systemCode": "hsii00", "url": "https://api.congress.gov/v3/committee/house/hsii00?format=json"}], "sourceSystem": {"code": 2, "name": "House floor actions"}, "text": "Mr. Fulcher moved to recommit to the Committee on Natural Resources. (text: CR H5529)", "type": "Floor"}, {"actionCode": "H35000", "actionDate": "2022-06-14", "actionTime": "17:54:12", "sourceSystem": {"code": 2, "name": "House floor actions"}, "text": "The previous question was ordered pursuant to the rule.", "type": "Floor"}, {"actionCode": "H8D000", "actionDate": "2022-06-14", "actionTime": "16:39:30", "sourceSystem": {"code": 2, "name": "House floor actions"}, "text": "POSTPONED PROCEEDINGS - At the conclusion of debate on the Butterfield amendment, the Chair put the question on adoption of the amendment and by voice vote, announced that the ayes had prevailed. Mr. Westerman demanded the yeas and nays and the Chair postponed further proceedings until a time to be announced.", "type": "Floor"}, {"actionCode": "H8D000", "actionDate": "2022-06-14", "actionTime": "16:30:20", "sourceSystem": {"code": 2, "name": "House floor actions"}, "text": "DEBATE - Pursuant to the provisions of H. Res. 1170, the House proceeded with 10 minutes of debate on the Butterfield amendment No. 5.", "type": "Floor"}, {"actionCode": "H8D000", "actionDate": "2022-06-14", "actionTime": "16:28:53", "sourceSystem": {"code": 2, "name": "House floor actions"}, "text": "POSTPONED PROCEEDINGS - At the conclusion of debate on the Kildee amendment, the Chair put the question on adoption of the amendment and by voice vote, announced that the ayes had prevailed. Mr. Westerman demanded the yeas and nays and the Chair postponed further proceedings until a time to be announced.", "type": "Floor"}, {"actionCode": "H8D000", "actionDate": "2022-06-14", "actionTime": "16:21:58", "sourceSystem": {"code": 2, "name": "House floor actions"}, "text": "DEBATE - Pursuant to the provisions of H. Res. 1170, the House proceeded with 10 minutes of debate on the Kildee amendment No. 4.", "type": "Floor"}, {"actionCode": "H8D000", "actionDate": "2022-06-14", "actionTime": "16:19:33", "sourceSystem": {"code": 2, "name": "House floor actions"}, "text": "POSTPONED PROCEEDINGS - At the conclusion of debate on the Dingell amendment en bloc No. 2, the Chair put the question on adoption of the amendment and by voice vote, announced that the ayes had prevailed. Mrs. Dingell demanded the yeas and nays and the Chair postponed further proceedings until a time to be announced.", "type": "Floor"}, {"actionCode": "H8D000", "actionDate": "2022-06-14", "actionTime": "16:12:24", "sourceSystem": {"code": 2, "name": "House floor actions"}, "text": "DEBATE - Pursuant to the provisions of H. Res. 1170, the House proceeded with 20 minutes of debate on the Dingell amendment en bloc No. 2.", "type": "Floor"}, {"actionCode": "H8D000", "actionDate": "2022-06-14", "actionTime": "16:11:14", "sourceSystem": {"code": 2, "name": "House floor actions"}, "text": "POSTPONED PROCEEDINGS - At the conclusion of debate on the Dingell amendment en bloc No. 1, the Chair put the question on adoption of the amendment and by voice vote, announced that the ayes had prevailed. Mr. Tiffany demanded the yeas and nays and the Chair postponed further proceedings until a time to be announced.", "type": "Floor"}, {"actionCode": "H8D000", "actionDate": "2022-06-14", "actionTime": "15:56:40", "sourceSystem": {"code": 2, "name": "House floor actions"}, "text": "DEBATE - Pursuant to the provisions of H. Res. 1170, the House proceeded with 20 minutes of debate on the Dingell amendment en bloc No. 1.", "type": "Floor"}, {"actionCode": "H8D000", "actionDate": "2022-06-14", "actionTime": "14:55:27", "sourceSystem": {"code": 2, "name": "House floor actions"}, "text": "DEBATE - The House proceeded with one hour of debate on H.R. 2773.", "type": "Floor"}, {"actionCode": "H8D000", "actionDate": "2022-06-14", "actionTime": "14:54:17", "sourceSystem": {"code": 2, "name": "House floor actions"}, "text": "Rule provides for consideration of H.R. 2543, H.R. 2773 and H.R. 7606. Resolution provides for one hour of general debate on each bill and one motion to recommit. Rule also amends House Resolution 188 by striking \"June 17, 2022\" and inserting \"June 22, 2022\".", "type": "Floor"}, {"actionCode": "H30000", "actionDate": "2022-06-14", "actionTime": "14:54:12", "sourceSystem": {"code": 2, "name": "House floor actions"}, "text": "Considered under the provisions of rule H. Res. 1170. (consideration: CR H5507-5530; text: CR H5507-5510)", "type": "Floor"}, {"actionCode": "H1L210", "actionDate": "2022-06-13", "actionTime": "19:25:01", "sourceSystem": {"code": 2, "name": "House floor actions"}, "text": "Rules Committee Resolution H. Res. 1170 Reported to House. Rule provides for consideration of H.R. 2543, H.R. 2773 and H.R. 7606. Resolution provides for one hour of general debate on each bill and one motion to recommit. Rule also amends House Resolution 188 by striking \"June 17, 2022\" and inserting \"June 22, 2022\".", "type": "Floor"}], "pagination": {"count": 33, "next": "https://api.congress.gov/v3/bill/117/hr/2773/actions?offset=20&limit=20&format=json"}, "request": {"billNumber": "2773", "billType": "hr", "billUrl": "https://api.congress.gov/v3/bill/117/hr/2773?format=json", "congress": "117", "contentType": "application/json", "format": "json"}}, 200]