[{"actions": [{"actionDate": "2022-03-30", "committees": [{"name": "Finance Committee", "systemCode": "ssfi00", "url": "https://api.congress.gov/v3/committee/senate/ssfi00?format=json"}], "sourceSystem": {"name": "Senate"}, "text": "Received in the Senate and Read twice and referred to the Committee on Finance.", "type": "IntroReferral"}, {"actionCode": "H38310", "actionDate": "2022-03-29", "actionTime": "18:00:42", "sourceSystem": {"code": 2, "name": "House floor actions"}, "text": "Motion to reconsider laid on the table Agreed to without objection.", "type": "Floor"}, {"actionCode": "H37300", "actionDate": "2022-03-29", "actionTime": "18:00:41", "recordedVotes": [{"chamber": "House", "congress": 117, "date": "2022-03-29T22:00:41Z", "rollNumber": 86, "sessionNumber": 2, "url": "https://clerk.house.gov/evs/2022/roll086.xml"}], "sourceSystem": {"code": 2, "name": "House floor actions"}, "text": "On motion to suspend the rules and pass the bill, as amended Agreed to by the Yeas and Nays: (2/3 required): 414 - 5 (Roll no. 86). (text: CR H3925-3939)", "type": "Floor"}, {"actionCode": "8000", "actionDate": "2022-03-29", "actionTime": "18:00:41", "recordedVotes": [{"chamber": "House", "congress": 117, "date": "2022-03-29T22:00:41Z", "rollNumber": 86, "sessionNumber": 2, "url": "https://clerk.house.gov/evs/2022/roll086.xml"}], "sourceSystem": {"code": 9, "name": "Library of Congress"}, "text": "Passed/agreed to in House: On motion to suspend the rules and pass the bill, as amended Agreed to by the Yeas and Nays: (2/3 required): 414 - 5 (Roll no. 86).(text: CR H3925-3939)", "type": "Floor"}, {"actionCode": "H30000", "actionDate": "2022-03-29", "actionTime": "17:52:49", "sourceSystem": {"code": 2, "name": "House floor actions"}, "text": "Considered as unfinished business. (consideration: CR H3951-3952)", "type": "Floor"}, {"actionCode": "H37220", "actionDate": "2022-03-29", "actionTime": "17:15:22", "sourceSystem": {"code": 2, "name": "House floor actions"}, "text": "At the conclusion of debate, the Yeas and Nays were demanded and ordered. Pursuant to the provisions of clause 8, rule XX, the Chair announced that further proceedings on the motion would be postponed.", "type": "Floor"}, {"actionCode": "H8D000", "actionDate": "2022-03-29", "actionTime": "16:08:09", "sourceSystem": {"code": 2, "name": "House floor actions"}, "text": "DEBATE - The House proceeded with eighty minutes of debate on H.R. 2954.", "type": "Floor"}, {"actionCode": "H30000", "actionDate": "2022-03-29", "actionTime": "16:08:08", "sourceSystem": {"code": 2, "name": "House floor actions"}, "text": "Considered under suspension of the rules. (consideration: CR H3925-3950)", "type": "Floor"}, {"actionCode": "H8D000", "actionDate": "2022-03-29", "actionTime": "16:08:07", "sourceSystem": {"code": 2, "name": "House floor actions"}, "text": "UNANIMOUS CONSENT - Mr. Neal asked unanimous consent that debate under clause 1(c) of rule 15 on a motion to suspend the rules and pass H.R. 2954, as amended be extended to eighty minutes of debate. Agreed to without objection.", "type": "Floor"}, {"actionCode": "H30300", "actionDate": "2022-03-29", "actionTime": "16:08:06", "sourceSystem": {"code": 2, "name": "House floor actions"}, "text": "Mr. Neal moved to suspend the rules and pass the bill, as amended.", "type": "Floor"}, {"actionCode": "H12410", "actionDate": "2022-03-29", "calendarNumber": {"calendar": "U00210"}, "sourceSystem": {"code": 2, "name": "House floor actions"}, "text": "Placed on the Union Calendar, Calendar No. 210.", "type": "Calendars"}, {"actionCode": "H12300", "actionDate": "2022-03-29", "committees": [{"name": "Education and the Workforce Committee", "systemCode": "hsed00", "url": "https://api.congress.gov/v3/committee/house/hsed00?format=json"}], "sourceSystem": {"code": 2, "name": "House floor actions"}, "text": "Committee on Education and Labor discharged.", "type": "Discharge"}, {"actionCode": "5500", "actionDate": "2022-03-29", "committees": [{"name": "Education and the Workforce Committee", "systemCode": "hsed00", "url": "https://api.congress.gov/v3/committee/house/hsed00?format=json"}], "sourceSystem": {"code": 9, "name": "Library of Congress"}, "text": "Committee on Education and Labor discharged.", "type": "Committee"}, {"actionCode": "H12300", "actionDate": "2022-03-29", "committees": [{"name": "Financial Services Committee", "systemCode": "hsba00", "url": "https://api.congress.gov/v3/committee/house/hsba00?format=json"}], "sourceSystem": {"code": 2, "name": "House floor actions"}, "text": "Committee on Financial Services discharged.", "type": "Discharge"}, {"actionCode": "5500", "actionDate": "2022-03-29", "committees": [{"name": "Financial Services Committee", "systemCode": "hsba00", "url": "https://api.congress.gov/v3/committee/house/hsba00?format=json"}], "sourceSystem": {"code": 9, "name": "Library of Congress"}, "text": "Committee on Financial Services discharged.", "type": "Committee"}, {"actionCode": "H12200", "actionDate": "2022-03-29", "committees": [{"name": "Ways and Means Committee", "systemCode": "hswm00", "url": "https://api.congress.gov/v3/committee/house/hswm00?format=json"}], "sourceSystem": {"code": 2, "name": "House floor actions"}, "text": "Reported (Amended) by the Committee on Ways and Means. H. Rept. 117-283, Part I.", "type": "Committee"}, {"actionCode": "5000", "actionDate": "2022-03-29", "committees": [{"name": "Ways and Means Committee", "systemCode": "hswm00", "url": "https://api.congress.gov/v3/committee/house/hswm00?format=json"}], "sourceSystem": {"code": 9, "name": "Library of Congress"}, "text": "Reported (Amended) by the Committee on Ways and Means. H. Rept. 117-283, Part I.", "type": "Committee"}, {"actionCode": "H19000", "actionDate": "2021-05-05", "committees": [{"name": "Ways and Means Committee", "systemCode": "hswm00", "url": "https://api.congress.gov/v3/committee/house/hswm00?format=json"}], "sourceSystem": {"code": 1, "name": "House committee actions"}, "text": "Ordered to be Reported in the Nature of a Substitute (Amended) by Voice Vote.", "type": "Committee"}, {"actionCode": "H15000-B", "actionDate": "2021-05-05", "committees": [{"name": "Ways and Means Committee", "systemCode": "hswm00", "url": "https://api.congress.gov/v3/committee/house/hswm00?format=json"}], "sourceSystem": {"code": 1, "name": "House committee actions"}, "text": "Committee Consideration and Mark-up Session Held.", "type": "Committee"}, {"actionCode": "H11100", "actionDate": "2021-05-04", "committees": [{"name": "Education and the Workforce Committee", "systemCode": "hsed00", "url": "https://api.congress.gov/v3/committee/house/hsed00?format=json"}], "sourceSystem": {"code": 2, "name": "House floor actions"}, "text": "Referred to the Committee on Ways and Means, and in addition to the Committees on Financial Services, and Education and Labor, for a period to be subsequently determined by the Speaker, in each case for consideration of such provisions as fall within the jurisdiction of the committee concerned.", "type": "IntroReferral"}], "pagination": {"count": 24, "next": "https://api.congress.gov/v3/bill/117/hr/2954/actions?offset=20&limit=20&format=json"}, "request": {"billNumber": "2954", "billType": "hr", "billUrl": "https://api.congress.gov/v3/bill/117/hr/2954?format=json", "congress": "117", "contentType": "application/json", "format": "json"}}, 200]