[{"actions": [{"actionDate": "2022-09-19", "committees": [{"name": "Homeland Security and Governmental Affairs Committee", "systemCode": "ssga00", "url": "https://api.congress.gov/v3/committee/senate/ssga00?format=json"}], "sourceSystem": {"name": "Senate"}, "text": "Received in the Senate and Read twice and referred to the Committee on Homeland Security and Governmental Affairs.", "type": "IntroReferral"}, {"actionCode": "H38310", "actionDate": "2022-09-15", "actionTime": "15:43:01", "sourceSystem": {"code": 2, "name": "House floor actions"}, "text": "Motion to reconsider laid on the table Agreed to without objection.", "type": "Floor"}, {"actionCode": "H37100", "actionDate": "2022-09-15", "actionTime": "15:42:59", "recordedVotes": [{"chamber": "House", "congress": 117, "date": "2022-09-15T19:42:59Z", "rollNumber": 437, "sessionNumber": 2, "url": "https://clerk.house.gov/evs/2022/roll437.xml"}], "sourceSystem": {"code": 2, "name": "House floor actions"}, "text": "On passage Passed by the Yeas and Nays: 221 - 203 (Roll no. 437).", "type": "Floor"}, {"actionCode": "8000", "actionDate": "2022-09-15", "actionTime": "15:42:59", "recordedVotes": [{"chamber": "House", "congress": 117, "date": "2022-09-15T19:42:59Z", "rollNumber": 437, "sessionNumber": 2, "url": "https://clerk.house.gov/evs/2022/roll437.xml"}], "sourceSystem": {"code": 9, "name": "Library of Congress"}, "text": "Passed/agreed to in House: On passage Passed by the Yeas and Nays: 221 - 203 (Roll no. 437).", "type": "Floor"}, {"actionCode": "H34400", "actionDate": "2022-09-15", "actionTime": "15:30:36", "sourceSystem": {"code": 2, "name": "House floor actions"}, "text": "The House adopted the amendments en gross as agreed to by the Committee of the Whole House on the state of the Union.", "type": "Floor"}, {"actionCode": "H35000", "actionDate": "2022-09-15", "actionTime": "15:30:22", "sourceSystem": {"code": 2, "name": "House floor actions"}, "text": "The previous question was ordered pursuant to the rule.", "type": "Floor"}, {"actionCode": "H32600", "actionDate": "2022-09-15", "actionTime": "15:29:32", "sourceSystem": {"code": 2, "name": "House floor actions"}, "text": "The House rose from the Committee of the Whole House on the state of the Union to report H.R. 2988.", "type": "Floor"}, {"actionCode": "H8D000", "actionDate": "2022-09-15", "actionTime": "15:19:04", "sourceSystem": {"code": 2, "name": "House floor actions"}, "text": "UNFINISHED BUSINESS - The Chair announced that the unfinished business was on agreeing to an amendment, which had been debated earlier and on which further proceedings had been postponed.", "type": "Floor"}, {"actionCode": "H32050", "actionDate": "2022-09-15", "actionTime": "15:19:01", "sourceSystem": {"code": 2, "name": "House floor actions"}, "text": "The House resolved into Committee of the Whole House on the state of the Union for further consideration.", "type": "Floor"}, {"actionCode": "H30000", "actionDate": "2022-09-15", "actionTime": "15:18:41", "sourceSystem": {"code": 2, "name": "House floor actions"}, "text": "Considered as unfinished business. (consideration: CR H7860-7862)", "type": "Floor"}, {"actionCode": "H32700", "actionDate": "2022-09-14", "actionTime": "16:41:42", "sourceSystem": {"code": 2, "name": "House floor actions"}, "text": "Committee of the Whole House on the state of the Union rises leaving H.R. 2988 as unfinished business.", "type": "Floor"}, {"actionCode": "H32341", "actionDate": "2022-09-14", "actionTime": "16:41:23", "sourceSystem": {"code": 2, "name": "House floor actions"}, "text": "On motion that the committee rise Agreed to by voice vote.", "type": "Floor"}, {"actionCode": "H32340", "actionDate": "2022-09-14", "actionTime": "16:41:04", "sourceSystem": {"code": 2, "name": "House floor actions"}, "text": "Mrs. Maloney, Carolyn B. moved that the committee rise.", "type": "Floor"}, {"actionCode": "H8D000", "actionDate": "2022-09-14", "actionTime": "16:40:39", "sourceSystem": {"code": 2, "name": "House floor actions"}, "text": "POSTPONED PROCEEDINGS - At the conclusion of debate on the Carolyn B. Maloney amendment, the Chair put the question on the amendment and by voice vote, announced that the noes had prevailed. Mrs. Maloney demanded a recorded vote and the Chair postponed further proceedings until a time to be announced.", "type": "Floor"}, {"actionCode": "H8D000", "actionDate": "2022-09-14", "actionTime": "16:28:45", "sourceSystem": {"code": 2, "name": "House floor actions"}, "text": "DEBATE - Pursuant to the provisions of H. Res. 1339, the Committee of the Whole proceeded with 20 minutes of debate on the Carolyn B. Maloney en bloc amendment.", "type": "Floor"}, {"actionCode": "H8D000", "actionDate": "2022-09-14", "actionTime": "16:09:08", "sourceSystem": {"code": 2, "name": "House floor actions"}, "text": "GENERAL DEBATE - The Committee of the Whole proceeded with one hour of general debate on H.R. 2988.", "type": "Floor"}, {"actionCode": "H32400", "actionDate": "2022-09-14", "actionTime": "16:09:00", "sourceSystem": {"code": 2, "name": "House floor actions"}, "text": "The Speaker designated the Honorable Earl Blumenauer to act as Chairman of the Committee.", "type": "Floor"}, {"actionCode": "H32020", "actionDate": "2022-09-14", "actionTime": "16:08:59", "sourceSystem": {"code": 2, "name": "House floor actions"}, "text": "House resolved itself into the Committee of the Whole House on the state of the Union pursuant to H. Res. 1339 and Rule XVIII.", "type": "Floor"}, {"actionCode": "H8D000", "actionDate": "2022-09-14", "actionTime": "16:08:37", "sourceSystem": {"code": 2, "name": "House floor actions"}, "text": "Rule provides for consideration of H.R. 302, H.R. 2988 and H.R. 8326. Rule provides for one hour of general debate each for H.R. 302, H.R. 2988, and H.R. 8326. Rule also provides for one motion to recommit on each bill.", "type": "Floor"}, {"actionCode": "H30000", "actionDate": "2022-09-14", "actionTime": "16:08:32", "sourceSystem": {"code": 2, "name": "House floor actions"}, "text": "Considered under the provisions of rule H. Res. 1339. (consideration: CR H7825-7833; text: CR H7825-7831)", "type": "Floor"}], "pagination": {"count": 29, "next": "https://api.congress.gov/v3/bill/117/hr/2988/actions?offset=20&limit=20&format=json"}, "request": {"billNumber": "2988", "billType": "hr", "billUrl": "https://api.congress.gov/v3/bill/117/hr/2988?format=json", "congress": "117", "contentType": "application/json", "format": "json"}}, 200]