[{"actions": [{"actionCode": "H11000", "actionDate": "2021-11-09", "committees": [{"name": "Courts, Intellectual Property, and the Internet Subcommittee", "systemCode": "hsju03", "url": "https://api.congress.gov/v3/committee/house/hsju03?format=json"}], "sourceSystem": {"code": 1, "name": "House committee actions"}, "text": "Referred to the Subcommittee on Courts, Intellectual Property, and the Internet.", "type": "Committee"}, {"actionCode": "H11000", "actionDate": "2021-07-14", "committees": [{"name": "Economic Opportunity Subcommittee", "systemCode": "hsvr10", "url": "https://api.congress.gov/v3/committee/house/hsvr10?format=json"}], "sourceSystem": {"code": 1, "name": "House committee actions"}, "text": "Referred to the Subcommittee on Economic Opportunity.", "type": "Committee"}, {"actionCode": "H11000", "actionDate": "2021-07-05", "committees": [{"name": "Indian and Insular Affairs Subcommittee", "systemCode": "hsii24", "url": "https://api.congress.gov/v3/committee/house/hsii24?format=json"}], "sourceSystem": {"code": 1, "name": "House committee actions"}, "text": "Referred to the Subcommittee for Indigenous Peoples of the United States.", "type": "Committee"}, {"actionCode": "H11000", "actionDate": "2021-07-05", "committees": [{"name": "Federal Lands Subcommittee", "systemCode": "hsii10", "url": "https://api.congress.gov/v3/committee/house/hsii10?format=json"}], "sourceSystem": {"code": 1, "name": "House committee actions"}, "text": "Referred to the Subcommittee on National Parks, Forests, and Public Lands.", "type": "Committee"}, {"actionCode": "H11000", "actionDate": "2021-05-05", "committees": [{"name": "Oversight, Investigations, and Accountability Subcommittee", "systemCode": "hshm09", "url": "https://api.congress.gov/v3/committee/house/hshm09?format=json"}], "sourceSystem": {"code": 1, "name": "House committee actions"}, "text": "Referred to the Subcommittee on Oversight, Management, and Accountability.", "type": "Committee"}, {"actionCode": "H11000", "actionDate": "2021-05-05", "committees": [{"name": "Health Subcommittee", "systemCode": "hsif14", "url": "https://api.congress.gov/v3/committee/house/hsif14?format=json"}], "sourceSystem": {"code": 1, "name": "House committee actions"}, "text": "Referred to the Subcommittee on Health.", "type": "Committee"}, {"actionCode": "H11100", "actionDate": "2021-05-04", "committees": [{"name": "Energy and Commerce Committee", "systemCode": "hsif00", "url": "https://api.congress.gov/v3/committee/house/hsif00?format=json"}], "sourceSystem": {"code": 2, "name": "House floor actions"}, "text": "Referred to the Committee on Education and Labor, and in addition to the Committees on Armed Services, Foreign Affairs, Agriculture, Natural Resources, Ways and Means, Oversight and Reform, Veterans' Affairs, Homeland Security, Intelligence (Permanent Select), House Administration, the Judiciary, and Energy and Commerce, for a period to be subsequently determined by the Speaker, in each case for consideration of such provisions as fall within the jurisdiction of the committee concerned.", "type": "IntroReferral"}, {"actionCode": "H11100", "actionDate": "2021-05-04", "committees": [{"name": "Judiciary Committee", "systemCode": "hsju00", "url": "https://api.congress.gov/v3/committee/house/hsju00?format=json"}], "sourceSystem": {"code": 2, "name": "House floor actions"}, "text": "Referred to the Committee on Education and Labor, and in addition to the Committees on Armed Services, Foreign Affairs, Agriculture, Natural Resources, Ways and Means, Oversight and Reform, Veterans' Affairs, Homeland Security, Intelligence (Permanent Select), House Administration, the Judiciary, and Energy and Commerce, for a period to be subsequently determined by the Speaker, in each case for consideration of such provisions as fall within the jurisdiction of the committee concerned.", "type": "IntroReferral"}, {"actionCode": "H11100", "actionDate": "2021-05-04", "committees": [{"name": "Committee on House Administration", "systemCode": "hsha00", "url": "https://api.congress.gov/v3/committee/house/hsha00?format=json"}], "sourceSystem": {"code": 2, "name": "House floor actions"}, "text": "Referred to the Committee on Education and Labor, and in addition to the Committees on Armed Services, Foreign Affairs, Agriculture, Natural Resources, Ways and Means, Oversight and Reform, Veterans' Affairs, Homeland Security, Intelligence (Permanent Select), House Administration, the Judiciary, and Energy and Commerce, for a period to be subsequently determined by the Speaker, in each case for consideration of such provisions as fall within the jurisdiction of the committee concerned.", "type": "IntroReferral"}, {"actionCode": "H11100", "actionDate": "2021-05-04", "committees": [{"name": "Intelligence (Permanent Select) Committee", "systemCode": "hlig00", "url": "https://api.congress.gov/v3/committee/house/hlig00?format=json"}], "sourceSystem": {"code": 2, "name": "House floor actions"}, "text": "Referred to the Committee on Education and Labor, and in addition to the Committees on Armed Services, Foreign Affairs, Agriculture, Natural Resources, Ways and Means, Oversight and Reform, Veterans' Affairs, Homeland Security, Intelligence (Permanent Select), House Administration, the Judiciary, and Energy and Commerce, for a period to be subsequently determined by the Speaker, in each case for consideration of such provisions as fall within the jurisdiction of the committee concerned.", "type": "IntroReferral"}, {"actionCode": "H11100", "actionDate": "2021-05-04", "committees": [{"name": "Homeland Security Committee", "systemCode": "hshm00", "url": "https://api.congress.gov/v3/committee/house/hshm00?format=json"}], "sourceSystem": {"code": 2, "name": "House floor actions"}, "text": "Referred to the Committee on Education and Labor, and in addition to the Committees on Armed Services, Foreign Affairs, Agriculture, Natural Resources, Ways and Means, Oversight and Reform, Veterans' Affairs, Homeland Security, Intelligence (Permanent Select), House Administration, the Judiciary, and Energy and Commerce, for a period to be subsequently determined by the Speaker, in each case for consideration of such provisions as fall within the jurisdiction of the committee concerned.", "type": "IntroReferral"}, {"actionCode": "H11100", "actionDate": "2021-05-04", "committees": [{"name": "Veterans' Affairs Committee", "systemCode": "hsvr00", "url": "https://api.congress.gov/v3/committee/house/hsvr00?format=json"}], "sourceSystem": {"code": 2, "name": "House floor actions"}, "text": "Referred to the Committee on Education and Labor, and in addition to the Committees on Armed Services, Foreign Affairs, Agriculture, Natural Resources, Ways and Means, Oversight and Reform, Veterans' Affairs, Homeland Security, Intelligence (Permanent Select), House Administration, the Judiciary, and Energy and Commerce, for a period to be subsequently determined by the Speaker, in each case for consideration of such provisions as fall within the jurisdiction of the committee concerned.", "type": "IntroReferral"}, {"actionCode": "H11100", "actionDate": "2021-05-04", "committees": [{"name": "Oversight and Accountability Committee", "systemCode": "hsgo00", "url": "https://api.congress.gov/v3/committee/house/hsgo00?format=json"}], "sourceSystem": {"code": 2, "name": "House floor actions"}, "text": "Referred to the Committee on Education and Labor, and in addition to the Committees on Armed Services, Foreign Affairs, Agriculture, Natural Resources, Ways and Means, Oversight and Reform, Veterans' Affairs, Homeland Security, Intelligence (Permanent Select), House Administration, the Judiciary, and Energy and Commerce, for a period to be subsequently determined by the Speaker, in each case for consideration of such provisions as fall within the jurisdiction of the committee concerned.", "type": "IntroReferral"}, {"actionCode": "H11100", "actionDate": "2021-05-04", "committees": [{"name": "Ways and Means Committee", "systemCode": "hswm00", "url": "https://api.congress.gov/v3/committee/house/hswm00?format=json"}], "sourceSystem": {"code": 2, "name": "House floor actions"}, "text": "Referred to the Committee on Education and Labor, and in addition to the Committees on Armed Services, Foreign Affairs, Agriculture, Natural Resources, Ways and Means, Oversight and Reform, Veterans' Affairs, Homeland Security, Intelligence (Permanent Select), House Administration, the Judiciary, and Energy and Commerce, for a period to be subsequently determined by the Speaker, in each case for consideration of such provisions as fall within the jurisdiction of the committee concerned.", "type": "IntroReferral"}, {"actionCode": "H11100", "actionDate": "2021-05-04", "committees": [{"name": "Natural Resources Committee", "systemCode": "hsii00", "url": "https://api.congress.gov/v3/committee/house/hsii00?format=json"}], "sourceSystem": {"code": 2, "name": "House floor actions"}, "text": "Referred to the Committee on Education and Labor, and in addition to the Committees on Armed Services, Foreign Affairs, Agriculture, Natural Resources, Ways and Means, Oversight and Reform, Veterans' Affairs, Homeland Security, Intelligence (Permanent Select), House Administration, the Judiciary, and Energy and Commerce, for a period to be subsequently determined by the Speaker, in each case for consideration of such provisions as fall within the jurisdiction of the committee concerned.", "type": "IntroReferral"}, {"actionCode": "H11100", "actionDate": "2021-05-04", "committees": [{"name": "Agriculture Committee", "systemCode": "hsag00", "url": "https://api.congress.gov/v3/committee/house/hsag00?format=json"}], "sourceSystem": {"code": 2, "name": "House floor actions"}, "text": "Referred to the Committee on Education and Labor, and in addition to the Committees on Armed Services, Foreign Affairs, Agriculture, Natural Resources, Ways and Means, Oversight and Reform, Veterans' Affairs, Homeland Security, Intelligence (Permanent Select), House Administration, the Judiciary, and Energy and Commerce, for a period to be subsequently determined by the Speaker, in each case for consideration of such provisions as fall within the jurisdiction of the committee concerned.", "type": "IntroReferral"}, {"actionCode": "H11100", "actionDate": "2021-05-04", "committees": [{"name": "Foreign Affairs Committee", "systemCode": "hsfa00", "url": "https://api.congress.gov/v3/committee/house/hsfa00?format=json"}], "sourceSystem": {"code": 2, "name": "House floor actions"}, "text": "Referred to the Committee on Education and Labor, and in addition to the Committees on Armed Services, Foreign Affairs, Agriculture, Natural Resources, Ways and Means, Oversight and Reform, Veterans' Affairs, Homeland Security, Intelligence (Permanent Select), House Administration, the Judiciary, and Energy and Commerce, for a period to be subsequently determined by the Speaker, in each case for consideration of such provisions as fall within the jurisdiction of the committee concerned.", "type": "IntroReferral"}, {"actionCode": "H11100", "actionDate": "2021-05-04", "committees": [{"name": "Armed Services Committee", "systemCode": "hsas00", "url": "https://api.congress.gov/v3/committee/house/hsas00?format=json"}], "sourceSystem": {"code": 2, "name": "House floor actions"}, "text": "Referred to the Committee on Education and Labor, and in addition to the Committees on Armed Services, Foreign Affairs, Agriculture, Natural Resources, Ways and Means, Oversight and Reform, Veterans' Affairs, Homeland Security, Intelligence (Permanent Select), House Administration, the Judiciary, and Energy and Commerce, for a period to be subsequently determined by the Speaker, in each case for consideration of such provisions as fall within the jurisdiction of the committee concerned.", "type": "IntroReferral"}, {"actionCode": "H11100", "actionDate": "2021-05-04", "committees": [{"name": "Education and the Workforce Committee", "systemCode": "hsed00", "url": "https://api.congress.gov/v3/committee/house/hsed00?format=json"}], "sourceSystem": {"code": 2, "name": "House floor actions"}, "text": "Referred to the Committee on Education and Labor, and in addition to the Committees on Armed Services, Foreign Affairs, Agriculture, Natural Resources, Ways and Means, Oversight and Reform, Veterans' Affairs, Homeland Security, Intelligence (Permanent Select), House Administration, the Judiciary, and Energy and Commerce, for a period to be subsequently determined by the Speaker, in each case for consideration of such provisions as fall within the jurisdiction of the committee concerned.", "type": "IntroReferral"}, {"actionCode": "Intro-H", "actionDate": "2021-05-04", "sourceSystem": {"code": 9, "name": "Library of Congress"}, "text": "Introduced in House", "type": "IntroReferral"}], "pagination": {"count": 21, "next": "https://api.congress.gov/v3/bill/117/hr/3000/actions?offset=20&limit=20&format=json"}, "request": {"billNumber": "3000", "billType": "hr", "billUrl": "https://api.congress.gov/v3/bill/117/hr/3000?format=json", "congress": "117", "contentType": "application/json", "format": "json"}}, 200]