[{"actions": [{"actionCode": "H12410", "actionDate": "2022-12-30", "calendarNumber": {"calendar": "U00493"}, "sourceSystem": {"code": 2, "name": "House floor actions"}, "text": "Placed on the Union Calendar, Calendar No. 493.", "type": "Calendars"}, {"actionCode": "H12300", "actionDate": "2022-12-30", "committees": [{"name": "Energy and Commerce Committee", "systemCode": "hsif00", "url": "https://api.congress.gov/v3/committee/house/hsif00?format=json"}], "sourceSystem": {"code": 2, "name": "House floor actions"}, "text": "Committee on Energy and Commerce discharged.", "type": "Discharge"}, {"actionCode": "5500", "actionDate": "2022-12-30", "committees": [{"name": "Energy and Commerce Committee", "systemCode": "hsif00", "url": "https://api.congress.gov/v3/committee/house/hsif00?format=json"}], "sourceSystem": {"code": 9, "name": "Library of Congress"}, "text": "Committee on Energy and Commerce discharged.", "type": "Committee"}, {"actionCode": "H12300", "actionDate": "2022-12-30", "committees": [{"name": "Agriculture Committee", "systemCode": "hsag00", "url": "https://api.congress.gov/v3/committee/house/hsag00?format=json"}], "sourceSystem": {"code": 2, "name": "House floor actions"}, "text": "Committee on Agriculture discharged.", "type": "Discharge"}, {"actionCode": "5500", "actionDate": "2022-12-30", "committees": [{"name": "Agriculture Committee", "systemCode": "hsag00", "url": "https://api.congress.gov/v3/committee/house/hsag00?format=json"}], "sourceSystem": {"code": 9, "name": "Library of Congress"}, "text": "Committee on Agriculture discharged.", "type": "Committee"}, {"actionCode": "H12300", "actionDate": "2022-12-30", "committees": [{"name": "Transportation and Infrastructure Committee", "systemCode": "hspw00", "url": "https://api.congress.gov/v3/committee/house/hspw00?format=json"}], "sourceSystem": {"code": 2, "name": "House floor actions"}, "text": "Committee on Transportation discharged.", "type": "Discharge"}, {"actionCode": "5500", "actionDate": "2022-12-30", "committees": [{"name": "Transportation and Infrastructure Committee", "systemCode": "hspw00", "url": "https://api.congress.gov/v3/committee/house/hspw00?format=json"}], "sourceSystem": {"code": 9, "name": "Library of Congress"}, "text": "Committee on Transportation discharged.", "type": "Committee"}, {"actionCode": "H12300", "actionDate": "2022-12-30", "committees": [{"name": "Ways and Means Committee", "systemCode": "hswm00", "url": "https://api.congress.gov/v3/committee/house/hswm00?format=json"}], "sourceSystem": {"code": 2, "name": "House floor actions"}, "text": "Committee on Ways and Means discharged.", "type": "Discharge"}, {"actionCode": "5500", "actionDate": "2022-12-30", "committees": [{"name": "Ways and Means Committee", "systemCode": "hswm00", "url": "https://api.congress.gov/v3/committee/house/hswm00?format=json"}], "sourceSystem": {"code": 9, "name": "Library of Congress"}, "text": "Committee on Ways and Means discharged.", "type": "Committee"}, {"actionCode": "H12200", "actionDate": "2022-12-30", "committees": [{"name": "Natural Resources Committee", "systemCode": "hsii00", "url": "https://api.congress.gov/v3/committee/house/hsii00?format=json"}], "sourceSystem": {"code": 2, "name": "House floor actions"}, "text": "Reported (Amended) by the Committee on Natural Resources. H. Rept. 117-674, Part I.", "type": "Committee"}, {"actionCode": "5000", "actionDate": "2022-12-30", "committees": [{"name": "Natural Resources Committee", "systemCode": "hsii00", "url": "https://api.congress.gov/v3/committee/house/hsii00?format=json"}], "sourceSystem": {"code": 9, "name": "Library of Congress"}, "text": "Reported (Amended) by the Committee on Natural Resources. H. Rept. 117-674, Part I.", "type": "Committee"}, {"actionCode": "H19000", "actionDate": "2021-10-13", "committees": [{"name": "Natural Resources Committee", "systemCode": "hsii00", "url": "https://api.congress.gov/v3/committee/house/hsii00?format=json"}], "sourceSystem": {"code": 1, "name": "House committee actions"}, "text": "Ordered to be Reported (Amended) by Voice Vote.", "type": "Committee"}, {"actionCode": "H15000-B", "actionDate": "2021-10-13", "committees": [{"name": "Natural Resources Committee", "systemCode": "hsii00", "url": "https://api.congress.gov/v3/committee/house/hsii00?format=json"}], "sourceSystem": {"code": 1, "name": "House committee actions"}, "text": "Committee Consideration and Mark-up Session Held.", "type": "Committee"}, {"actionCode": "H25000", "actionDate": "2021-10-13", "committees": [{"name": "Natural Resources Committee", "systemCode": "hsii00", "url": "https://api.congress.gov/v3/committee/house/hsii00?format=json"}], "sourceSystem": {"code": 1, "name": "House committee actions"}, "text": "Subcommittee on Water, Oceans, and Wildlife Discharged.", "type": "Committee"}, {"actionCode": "H21000", "actionDate": "2021-07-29", "committees": [{"name": "Water, Wildlife and Fisheries Subcommittee", "systemCode": "hsii13", "url": "https://api.congress.gov/v3/committee/house/hsii13?format=json"}], "sourceSystem": {"code": 1, "name": "House committee actions"}, "text": "Subcommittee Hearings Held.", "type": "Committee"}, {"actionCode": "H11000", "actionDate": "2021-07-01", "committees": [{"name": "Livestock, Dairy, and Poultry Subcommittee", "systemCode": "hsag29", "url": "https://api.congress.gov/v3/committee/house/hsag29?format=json"}], "sourceSystem": {"code": 1, "name": "House committee actions"}, "text": "Referred to the Subcommittee on Livestock and Foreign Agriculture.", "type": "Committee"}, {"actionCode": "H11000", "actionDate": "2021-06-18", "committees": [{"name": "Water, Wildlife and Fisheries Subcommittee", "systemCode": "hsii13", "url": "https://api.congress.gov/v3/committee/house/hsii13?format=json"}], "sourceSystem": {"code": 1, "name": "House committee actions"}, "text": "Referred to the Subcommittee on Water, Oceans, and Wildlife.", "type": "Committee"}, {"actionCode": "H11000", "actionDate": "2021-05-12", "committees": [{"name": "Health Subcommittee", "systemCode": "hsif14", "url": "https://api.congress.gov/v3/committee/house/hsif14?format=json"}], "sourceSystem": {"code": 1, "name": "House committee actions"}, "text": "Referred to the Subcommittee on Health.", "type": "Committee"}, {"actionCode": "H11000", "actionDate": "2021-05-12", "committees": [{"name": "Coast Guard and Maritime Transportation Subcommittee", "systemCode": "hspw07", "url": "https://api.congress.gov/v3/committee/house/hspw07?format=json"}], "sourceSystem": {"code": 1, "name": "House committee actions"}, "text": "Referred to the Subcommittee on Coast Guard and Maritime Transportation.", "type": "Committee"}, {"actionCode": "H11100", "actionDate": "2021-05-11", "committees": [{"name": "Energy and Commerce Committee", "systemCode": "hsif00", "url": "https://api.congress.gov/v3/committee/house/hsif00?format=json"}], "sourceSystem": {"code": 2, "name": "House floor actions"}, "text": "Referred to the Committee on Natural Resources, and in addition to the Committees on Ways and Means, Transportation and Infrastructure, Agriculture, and Energy and Commerce, for a period to be subsequently determined by the Speaker, in each case for consideration of such provisions as fall within the jurisdiction of the committee concerned.", "type": "IntroReferral"}], "pagination": {"count": 26, "next": "https://api.congress.gov/v3/bill/117/hr/3075/actions?offset=20&limit=20&format=json"}, "request": {"billNumber": "3075", "billType": "hr", "billUrl": "https://api.congress.gov/v3/bill/117/hr/3075?format=json", "congress": "117", "contentType": "application/json", "format": "json"}}, 200]