[{"actions": [{"actionDate": "2021-10-26", "calendarNumber": {"calendar": "Senate Calendar of Business", "number": "0155"}, "sourceSystem": {"name": "Senate"}, "text": "Read twice. Placed on Senate Legislative Calendar under General Orders. Calendar No. 155.", "type": "Calendars"}, {"actionDate": "2021-10-25", "sourceSystem": {"name": "Senate"}, "text": "Received in the Senate.", "type": "IntroReferral"}, {"actionCode": "H38310", "actionDate": "2021-10-22", "actionTime": "11:37:04", "sourceSystem": {"code": 2, "name": "House floor actions"}, "text": "Motion to reconsider laid on the table Agreed to without objection.", "type": "Floor"}, {"actionCode": "H37100", "actionDate": "2021-10-22", "actionTime": "11:37:03", "recordedVotes": [{"chamber": "House", "congress": 117, "date": "2021-10-22T15:37:03Z", "rollNumber": 331, "sessionNumber": 1, "url": "https://clerk.house.gov/evs/2021/roll331.xml"}], "sourceSystem": {"code": 2, "name": "House floor actions"}, "text": "On passage Passed by the Yeas and Nays: 276 - 149 (Roll no. 331). (text: CR H5798)", "type": "Floor"}, {"actionCode": "8000", "actionDate": "2021-10-22", "actionTime": "11:37:03", "recordedVotes": [{"chamber": "House", "congress": 117, "date": "2021-10-22T15:37:03Z", "rollNumber": 331, "sessionNumber": 1, "url": "https://clerk.house.gov/evs/2021/roll331.xml"}], "sourceSystem": {"code": 9, "name": "Library of Congress"}, "text": "Passed/agreed to in House: On passage Passed by the Yeas and Nays: 276 - 149 (Roll no. 331).(text: CR H5798)", "type": "Floor"}, {"actionCode": "H36210", "actionDate": "2021-10-22", "actionTime": "11:02:34", "committees": [{"name": "Education and the Workforce Committee", "systemCode": "hsed00", "url": "https://api.congress.gov/v3/committee/house/hsed00?format=json"}], "recordedVotes": [{"chamber": "House", "congress": 117, "date": "2021-10-22T15:02:34Z", "rollNumber": 330, "sessionNumber": 1, "url": "https://clerk.house.gov/evs/2021/roll330.xml"}], "sourceSystem": {"code": 2, "name": "House floor actions"}, "text": "On motion to recommit Failed by the Yeas and Nays: 200 - 224 (Roll no. 330).", "type": "Floor"}, {"actionCode": "H8A000", "actionDate": "2021-10-22", "actionTime": "10:24:59", "sourceSystem": {"code": 2, "name": "House floor actions"}, "text": "The previous question on the motion to recommit was ordered pursuant to clause 2(b) of rule XIX.", "type": "Floor"}, {"actionCode": "H36200", "actionDate": "2021-10-22", "actionTime": "10:24:48", "committees": [{"name": "Education and the Workforce Committee", "systemCode": "hsed00", "url": "https://api.congress.gov/v3/committee/house/hsed00?format=json"}], "sourceSystem": {"code": 2, "name": "House floor actions"}, "text": "Ms. Van Duyne moved to recommit to the Committee on Education and Labor.", "type": "Floor"}, {"actionCode": "H35000", "actionDate": "2021-10-22", "actionTime": "10:24:22", "sourceSystem": {"code": 2, "name": "House floor actions"}, "text": "The previous question was ordered pursuant to the rule.", "type": "Floor"}, {"actionCode": "H8D000", "actionDate": "2021-10-22", "actionTime": "10:16:42", "sourceSystem": {"code": 2, "name": "House floor actions"}, "text": "DEBATE - Pursuant to the provisions of H. Res. 716, the House proceeded with 10 minutes of debate on the Strickland amendment No. 2.", "type": "Floor"}, {"actionCode": "H8D000", "actionDate": "2021-10-22", "actionTime": "10:08:46", "sourceSystem": {"code": 2, "name": "House floor actions"}, "text": "DEBATE - Pursuant to the provisions of H. Res. 716, the House proceeded with 10 minutes of debate on the Ross amendment No. 1.", "type": "Floor"}, {"actionCode": "H8D000", "actionDate": "2021-10-22", "actionTime": "09:18:53", "sourceSystem": {"code": 2, "name": "House floor actions"}, "text": "DEBATE - The House proceeded with one hour of debate on H.R. 3110.", "type": "Floor"}, {"actionCode": "H8D000", "actionDate": "2021-10-22", "actionTime": "09:18:00", "sourceSystem": {"code": 2, "name": "House floor actions"}, "text": "Rule provides for consideration of H.R. 2119, H.R. 3110 and H.R. 3992. The resolution provides that H. Res. 188, agreed to March 8, 2021, is amended by striking \"October 27, 2021\" each place it appears and inserting \"November 18, 2021.", "type": "Floor"}, {"actionCode": "H30000", "actionDate": "2021-10-22", "actionTime": "09:17:55", "sourceSystem": {"code": 2, "name": "House floor actions"}, "text": "Considered under the provisions of rule H. Res. 716. (consideration: CR H5798-5816; text: CR H5814)", "type": "Floor"}, {"actionCode": "H1L210", "actionDate": "2021-10-12", "actionTime": "16:02:22", "sourceSystem": {"code": 2, "name": "House floor actions"}, "text": "Rules Committee Resolution H. Res. 716 Reported to House. Rule provides for consideration of H.R. 2119, H.R. 3110 and H.R. 3992. The resolution provides that H. Res. 188, agreed to March 8, 2021, is amended by striking \"October 27, 2021\" each place it appears and inserting \"November 18, 2021.", "type": "Floor"}, {"actionCode": "H12410", "actionDate": "2021-07-22", "calendarNumber": {"calendar": "U00075"}, "sourceSystem": {"code": 2, "name": "House floor actions"}, "text": "Placed on the Union Calendar, Calendar No. 75.", "type": "Calendars"}, {"actionCode": "H12200", "actionDate": "2021-07-22", "committees": [{"name": "Education and the Workforce Committee", "systemCode": "hsed00", "url": "https://api.congress.gov/v3/committee/house/hsed00?format=json"}], "sourceSystem": {"code": 2, "name": "House floor actions"}, "text": "Reported (Amended) by the Committee on Education and Labor. H. Rept. 117-102.", "type": "Committee"}, {"actionCode": "5000", "actionDate": "2021-07-22", "committees": [{"name": "Education and the Workforce Committee", "systemCode": "hsed00", "url": "https://api.congress.gov/v3/committee/house/hsed00?format=json"}], "sourceSystem": {"code": 9, "name": "Library of Congress"}, "text": "Reported (Amended) by the Committee on Education and Labor. H. Rept. 117-102.", "type": "Committee"}, {"actionCode": "H19000", "actionDate": "2021-05-26", "committees": [{"name": "Education and the Workforce Committee", "systemCode": "hsed00", "url": "https://api.congress.gov/v3/committee/house/hsed00?format=json"}], "sourceSystem": {"code": 1, "name": "House committee actions"}, "text": "Ordered to be Reported (Amended) by the Yeas and Nays: 28 - 19.", "type": "Committee"}, {"actionCode": "H15000-B", "actionDate": "2021-05-26", "committees": [{"name": "Education and the Workforce Committee", "systemCode": "hsed00", "url": "https://api.congress.gov/v3/committee/house/hsed00?format=json"}], "sourceSystem": {"code": 1, "name": "House committee actions"}, "text": "Committee Consideration and Mark-up Session Held.", "type": "Committee"}], "pagination": {"count": 23, "next": "https://api.congress.gov/v3/bill/117/hr/3110/actions?offset=20&limit=20&format=json"}, "request": {"billNumber": "3110", "billType": "hr", "billUrl": "https://api.congress.gov/v3/bill/117/hr/3110?format=json", "congress": "117", "contentType": "application/json", "format": "json"}}, 200]