[{"actions": [{"actionCode": "E40000", "actionDate": "2022-05-16", "sourceSystem": {"code": 9, "name": "Library of Congress"}, "text": "Became Public Law No: 117-126.", "type": "President"}, {"actionCode": "36000", "actionDate": "2022-05-16", "sourceSystem": {"code": 9, "name": "Library of Congress"}, "text": "Became Public Law No: 117-126.", "type": "BecameLaw"}, {"actionCode": "E30000", "actionDate": "2022-05-16", "sourceSystem": {"code": 9, "name": "Library of Congress"}, "text": "Signed by President.", "type": "President"}, {"actionCode": "36000", "actionDate": "2022-05-16", "sourceSystem": {"code": 9, "name": "Library of Congress"}, "text": "Signed by President.", "type": "BecameLaw"}, {"actionCode": "E20000", "actionDate": "2022-05-11", "sourceSystem": {"code": 2, "name": "House floor actions"}, "text": "Presented to President.", "type": "Floor"}, {"actionCode": "28000", "actionDate": "2022-05-11", "sourceSystem": {"code": 9, "name": "Library of Congress"}, "text": "Presented to President.", "type": "President"}, {"actionDate": "2022-05-04", "sourceSystem": {"name": "Senate"}, "text": "Message on Senate action sent to the House.", "type": "Floor"}, {"actionDate": "2022-05-03", "sourceSystem": {"name": "Senate"}, "text": "Passed Senate without amendment by Voice Vote. (consideration: CR S2291)", "type": "Floor"}, {"actionCode": "17000", "actionDate": "2022-05-03", "sourceSystem": {"code": 9, "name": "Library of Congress"}, "text": "Passed/agreed to in Senate: Passed Senate without amendment by Voice Vote.", "type": "Floor"}, {"actionDate": "2022-05-03", "committees": [{"name": "Commerce, Science, and Transportation Committee", "systemCode": "sscm00", "url": "https://api.congress.gov/v3/committee/senate/sscm00?format=json"}], "sourceSystem": {"name": "Senate"}, "text": "Senate Committee on Commerce, Science, and Transportation discharged by Unanimous Consent.", "type": "Discharge"}, {"actionCode": "14500", "actionDate": "2022-05-03", "committees": [{"name": "Commerce, Science, and Transportation Committee", "systemCode": "sscm00", "url": "https://api.congress.gov/v3/committee/senate/sscm00?format=json"}], "sourceSystem": {"code": 9, "name": "Library of Congress"}, "text": "Senate Committee on Commerce, Science, and Transportation discharged by Unanimous Consent.", "type": "Committee"}, {"actionDate": "2021-06-24", "committees": [{"name": "Commerce, Science, and Transportation Committee", "systemCode": "sscm00", "url": "https://api.congress.gov/v3/committee/senate/sscm00?format=json"}], "sourceSystem": {"name": "Senate"}, "text": "Received in the Senate and Read twice and referred to the Committee on Commerce, Science, and Transportation.", "type": "IntroReferral"}, {"actionCode": "H37300", "actionDate": "2021-06-23", "actionTime": "14:21:25", "sourceSystem": {"code": 2, "name": "House floor actions"}, "text": "Pursuant to section 11 of H. Res. 486, and the motion offered by Mr. McGovern, the following bills passed under suspension of the rules: H.R. 482; H.R. 704; H.R. 961, as amended; H.R. 1314; H.R. 2571, as amended; H.R. 2679, as amended; H.R. 2694; H.R. 2922, as amended; H.R. 3182; H.R. 3239; H.R. 3241, as amended; H.R. 3723; H.R. 3752; H.R. 3841; S. 409; and S. 1340. (consideration: CR H3026-3052; text: CR H3029)", "type": "Floor"}, {"actionCode": "8000", "actionDate": "2021-06-23", "actionTime": "14:21:25", "sourceSystem": {"code": 9, "name": "Library of Congress"}, "text": "Passed/agreed to in House: Pursuant to section 11 of H. Res. 486, and the motion offered by Mr. McGovern, the following bills passed under suspension of the rules: H.R. 482; H.R. 704; H.R. 961, as amended; H.R. 1314; H.R. 2571, as amended; H.R. 2679, as amended; H.R. 2694; H.R. 2922, as amended; H.R. 3182; H.R. 3239; H.R. 3241, as amended; H.R. 3723; H.R. 3752; H.R. 3841; S. 409; and S. 1340.(consideration: CR H3026-3052; text: CR H3029)", "type": "Floor"}, {"actionCode": "H1B000", "actionDate": "2021-06-23", "actionTime": "14:21:24", "sourceSystem": {"code": 2, "name": "House floor actions"}, "text": "Pursuant to the provisions of H. Res. 486, proceedings on H.R. 3182 are considered vacated.", "type": "Floor"}, {"actionCode": "H37220", "actionDate": "2021-06-22", "actionTime": "15:12:09", "sourceSystem": {"code": 2, "name": "House floor actions"}, "text": "At the conclusion of debate, the Yeas and Nays were demanded and ordered. Pursuant to the provisions of clause 8, rule XX, the Chair announced that further proceedings on the motion would be postponed.", "type": "Floor"}, {"actionCode": "H8D000", "actionDate": "2021-06-22", "actionTime": "15:02:25", "sourceSystem": {"code": 2, "name": "House floor actions"}, "text": "DEBATE - The House proceeded with forty minutes of debate on H.R. 3182.", "type": "Floor"}, {"actionCode": "H30000", "actionDate": "2021-06-22", "actionTime": "15:02:22", "sourceSystem": {"code": 2, "name": "House floor actions"}, "text": "Considered under suspension of the rules. (consideration: CR H2947-2948; text: CR H2947)", "type": "Floor"}, {"actionCode": "H30300", "actionDate": "2021-06-22", "actionTime": "15:01:49", "sourceSystem": {"code": 2, "name": "House floor actions"}, "text": "Mr. Pallone moved to suspend the rules and pass the bill.", "type": "Floor"}, {"actionCode": "H11000", "actionDate": "2021-05-14", "committees": [{"name": "Innovation, Data, and Commerce Subcommittee", "systemCode": "hsif17", "url": "https://api.congress.gov/v3/committee/house/hsif17?format=json"}], "sourceSystem": {"code": 1, "name": "House committee actions"}, "text": "Referred to the Subcommittee on Consumer Protection and Commerce.", "type": "Committee"}], "pagination": {"count": 23, "next": "https://api.congress.gov/v3/bill/117/hr/3182/actions?offset=20&limit=20&format=json"}, "request": {"billNumber": "3182", "billType": "hr", "billUrl": "https://api.congress.gov/v3/bill/117/hr/3182?format=json", "congress": "117", "contentType": "application/json", "format": "json"}}, 200]