[{"actions": [{"actionDate": "2021-11-15", "committees": [{"name": "Environment and Public Works Committee", "systemCode": "ssev00", "url": "https://api.congress.gov/v3/committee/senate/ssev00?format=json"}], "sourceSystem": {"name": "Senate"}, "text": "Received in the Senate and Read twice and referred to the Committee on Environment and Public Works.", "type": "IntroReferral"}, {"actionCode": "H38310", "actionDate": "2021-11-04", "actionTime": "16:06:12", "sourceSystem": {"code": 2, "name": "House floor actions"}, "text": "Motion to reconsider laid on the table Agreed to without objection.", "type": "Floor"}, {"actionCode": "H37300", "actionDate": "2021-11-04", "actionTime": "16:06:11", "recordedVotes": [{"chamber": "House", "congress": 117, "date": "2021-11-04T20:06:11Z", "rollNumber": 361, "sessionNumber": 1, "url": "https://clerk.house.gov/evs/2021/roll361.xml"}], "sourceSystem": {"code": 2, "name": "House floor actions"}, "text": "On motion to suspend the rules and pass the bill, as amended Agreed to by the Yeas and Nays: (2/3 required): 410 - 16 (Roll no. 361). (text: 11/3/2021 CR H6141)", "type": "Floor"}, {"actionCode": "8000", "actionDate": "2021-11-04", "actionTime": "16:06:11", "recordedVotes": [{"chamber": "House", "congress": 117, "date": "2021-11-04T20:06:11Z", "rollNumber": 361, "sessionNumber": 1, "url": "https://clerk.house.gov/evs/2021/roll361.xml"}], "sourceSystem": {"code": 9, "name": "Library of Congress"}, "text": "Passed/agreed to in House: On motion to suspend the rules and pass the bill, as amended Agreed to by the Yeas and Nays: (2/3 required): 410 - 16 (Roll no. 361).(text: 11/3/2021 CR H6141)", "type": "Floor"}, {"actionCode": "H30000", "actionDate": "2021-11-04", "actionTime": "15:40:34", "sourceSystem": {"code": 2, "name": "House floor actions"}, "text": "Considered as unfinished business. (consideration: CR H6198-6199)", "type": "Floor"}, {"actionCode": "H37220", "actionDate": "2021-11-03", "actionTime": "13:37:30", "sourceSystem": {"code": 2, "name": "House floor actions"}, "text": "At the conclusion of debate, the Yeas and Nays were demanded and ordered. Pursuant to the provisions of clause 8, rule XX, the Chair announced that further proceedings on the motion would be postponed.", "type": "Floor"}, {"actionCode": "H8D000", "actionDate": "2021-11-03", "actionTime": "13:30:55", "sourceSystem": {"code": 2, "name": "House floor actions"}, "text": "DEBATE - The House proceeded with forty minutes of debate on H.R. 3193.", "type": "Floor"}, {"actionCode": "H30000", "actionDate": "2021-11-03", "actionTime": "13:30:51", "sourceSystem": {"code": 2, "name": "House floor actions"}, "text": "Considered under suspension of the rules. (consideration: CR H6141-6143)", "type": "Floor"}, {"actionCode": "H30300", "actionDate": "2021-11-03", "actionTime": "13:30:01", "sourceSystem": {"code": 2, "name": "House floor actions"}, "text": "Mr. Pappas moved to suspend the rules and pass the bill, as amended.", "type": "Floor"}, {"actionCode": "H12410", "actionDate": "2021-11-03", "calendarNumber": {"calendar": "U00125"}, "sourceSystem": {"code": 2, "name": "House floor actions"}, "text": "Placed on the Union Calendar, Calendar No. 125.", "type": "Calendars"}, {"actionCode": "H12300", "actionDate": "2021-11-03", "committees": [{"name": "Financial Services Committee", "systemCode": "hsba00", "url": "https://api.congress.gov/v3/committee/house/hsba00?format=json"}], "sourceSystem": {"code": 2, "name": "House floor actions"}, "text": "Committee on Financial Services discharged.", "type": "Discharge"}, {"actionCode": "5500", "actionDate": "2021-11-03", "committees": [{"name": "Financial Services Committee", "systemCode": "hsba00", "url": "https://api.congress.gov/v3/committee/house/hsba00?format=json"}], "sourceSystem": {"code": 9, "name": "Library of Congress"}, "text": "Committee on Financial Services discharged.", "type": "Committee"}, {"actionCode": "H12200", "actionDate": "2021-11-03", "committees": [{"name": "Transportation and Infrastructure Committee", "systemCode": "hspw00", "url": "https://api.congress.gov/v3/committee/house/hspw00?format=json"}], "sourceSystem": {"code": 2, "name": "House floor actions"}, "text": "Reported by the Committee on Transportation and Infrastructure. H. Rept. 117-171, Part I.", "type": "Committee"}, {"actionCode": "5000", "actionDate": "2021-11-03", "committees": [{"name": "Transportation and Infrastructure Committee", "systemCode": "hspw00", "url": "https://api.congress.gov/v3/committee/house/hspw00?format=json"}], "sourceSystem": {"code": 9, "name": "Library of Congress"}, "text": "Reported by the Committee on Transportation and Infrastructure. H. Rept. 117-171, Part I.", "type": "Committee"}, {"actionCode": "H19000", "actionDate": "2021-07-28", "committees": [{"name": "Transportation and Infrastructure Committee", "systemCode": "hspw00", "url": "https://api.congress.gov/v3/committee/house/hspw00?format=json"}], "sourceSystem": {"code": 1, "name": "House committee actions"}, "text": "Ordered to be Reported by Voice Vote.", "type": "Committee"}, {"actionCode": "H15000-B", "actionDate": "2021-07-28", "committees": [{"name": "Transportation and Infrastructure Committee", "systemCode": "hspw00", "url": "https://api.congress.gov/v3/committee/house/hspw00?format=json"}], "sourceSystem": {"code": 1, "name": "House committee actions"}, "text": "Committee Consideration and Mark-up Session Held.", "type": "Committee"}, {"actionCode": "H25000", "actionDate": "2021-07-28", "committees": [{"name": "Transportation and Infrastructure Committee", "systemCode": "hspw00", "url": "https://api.congress.gov/v3/committee/house/hspw00?format=json"}], "sourceSystem": {"code": 1, "name": "House committee actions"}, "text": "Subcommittee on Economic Development, Public Buildings, and Emergency Management Discharged.", "type": "Committee"}, {"actionCode": "H11000", "actionDate": "2021-05-14", "committees": [{"name": "Economic Development, Public Buildings, and Emergency Management Subcommittee", "systemCode": "hspw13", "url": "https://api.congress.gov/v3/committee/house/hspw13?format=json"}], "sourceSystem": {"code": 1, "name": "House committee actions"}, "text": "Referred to the Subcommittee on Economic Development, Public Buildings, and Emergency Management.", "type": "Committee"}, {"actionCode": "H11100", "actionDate": "2021-05-13", "committees": [{"name": "Financial Services Committee", "systemCode": "hsba00", "url": "https://api.congress.gov/v3/committee/house/hsba00?format=json"}], "sourceSystem": {"code": 2, "name": "House floor actions"}, "text": "Referred to the Committee on Transportation and Infrastructure, and in addition to the Committee on Financial Services, for a period to be subsequently determined by the Speaker, in each case for consideration of such provisions as fall within the jurisdiction of the committee concerned.", "type": "IntroReferral"}, {"actionCode": "H11100", "actionDate": "2021-05-13", "committees": [{"name": "Transportation and Infrastructure Committee", "systemCode": "hspw00", "url": "https://api.congress.gov/v3/committee/house/hspw00?format=json"}], "sourceSystem": {"code": 2, "name": "House floor actions"}, "text": "Referred to the Committee on Transportation and Infrastructure, and in addition to the Committee on Financial Services, for a period to be subsequently determined by the Speaker, in each case for consideration of such provisions as fall within the jurisdiction of the committee concerned.", "type": "IntroReferral"}], "pagination": {"count": 22, "next": "https://api.congress.gov/v3/bill/117/hr/3193/actions?offset=20&limit=20&format=json"}, "request": {"billNumber": "3193", "billType": "hr", "billUrl": "https://api.congress.gov/v3/bill/117/hr/3193?format=json", "congress": "117", "contentType": "application/json", "format": "json"}}, 200]