[{"actions": [{"actionCode": "E40000", "actionDate": "2022-04-19", "sourceSystem": {"code": 9, "name": "Library of Congress"}, "text": "Became Public Law No: 117-112.", "type": "President"}, {"actionCode": "36000", "actionDate": "2022-04-19", "sourceSystem": {"code": 9, "name": "Library of Congress"}, "text": "Became Public Law No: 117-112.", "type": "BecameLaw"}, {"actionCode": "E30000", "actionDate": "2022-04-19", "sourceSystem": {"code": 9, "name": "Library of Congress"}, "text": "Signed by President.", "type": "President"}, {"actionCode": "36000", "actionDate": "2022-04-19", "sourceSystem": {"code": 9, "name": "Library of Congress"}, "text": "Signed by President.", "type": "BecameLaw"}, {"actionCode": "E20000", "actionDate": "2022-04-07", "sourceSystem": {"code": 2, "name": "House floor actions"}, "text": "Presented to President.", "type": "Floor"}, {"actionCode": "28000", "actionDate": "2022-04-07", "sourceSystem": {"code": 9, "name": "Library of Congress"}, "text": "Presented to President.", "type": "President"}, {"actionDate": "2022-04-04", "sourceSystem": {"name": "Senate"}, "text": "Message on Senate action sent to the House.", "type": "Floor"}, {"actionDate": "2022-03-31", "sourceSystem": {"name": "Senate"}, "text": "Passed Senate without amendment by Unanimous Consent. (consideration: CR S1886-1887)", "type": "Floor"}, {"actionCode": "17000", "actionDate": "2022-03-31", "sourceSystem": {"code": 9, "name": "Library of Congress"}, "text": "Passed/agreed to in Senate: Passed Senate without amendment by Unanimous Consent.(consideration: CR S1886-1887)", "type": "Floor"}, {"actionDate": "2022-03-17", "calendarNumber": {"calendar": "Senate Calendar of Business", "number": "0309"}, "sourceSystem": {"name": "Senate"}, "text": "Received in the Senate. Read twice. Placed on Senate Legislative Calendar under General Orders. Calendar No. 309.", "type": "Calendars"}, {"actionCode": "H38310", "actionDate": "2022-03-16", "actionTime": "16:40:44", "sourceSystem": {"code": 2, "name": "House floor actions"}, "text": "Motion to reconsider laid on the table Agreed to without objection.", "type": "Floor"}, {"actionCode": "H37300", "actionDate": "2022-03-16", "actionTime": "16:40:43", "recordedVotes": [{"chamber": "House", "congress": 117, "date": "2022-03-16T20:40:43Z", "rollNumber": 75, "sessionNumber": 2, "url": "https://clerk.house.gov/evs/2022/roll075.xml"}], "sourceSystem": {"code": 2, "name": "House floor actions"}, "text": "On motion to suspend the rules and pass the bill Agreed to by the Yeas and Nays: (2/3 required): 422 - 4 (Roll no. 75). (text: 3/15/2022 CR H3728)", "type": "Floor"}, {"actionCode": "8000", "actionDate": "2022-03-16", "actionTime": "16:40:43", "recordedVotes": [{"chamber": "House", "congress": 117, "date": "2022-03-16T20:40:43Z", "rollNumber": 75, "sessionNumber": 2, "url": "https://clerk.house.gov/evs/2022/roll075.xml"}], "sourceSystem": {"code": 9, "name": "Library of Congress"}, "text": "Passed/agreed to in House: On motion to suspend the rules and pass the bill Agreed to by the Yeas and Nays: (2/3 required): 422 - 4 (Roll no. 75).(text: 3/15/2022 CR H3728)", "type": "Floor"}, {"actionCode": "H30000", "actionDate": "2022-03-16", "actionTime": "16:22:32", "sourceSystem": {"code": 2, "name": "House floor actions"}, "text": "Considered as unfinished business. (consideration: CR H3760-3761)", "type": "Floor"}, {"actionCode": "H37220", "actionDate": "2022-03-15", "actionTime": "15:21:38", "sourceSystem": {"code": 2, "name": "House floor actions"}, "text": "At the conclusion of debate, the Yeas and Nays were demanded and ordered. Pursuant to the provisions of clause 8, rule XX, the Chair announced that further proceedings on the motion would be postponed.", "type": "Floor"}, {"actionCode": "H8D000", "actionDate": "2022-03-15", "actionTime": "15:17:44", "sourceSystem": {"code": 2, "name": "House floor actions"}, "text": "DEBATE - The House proceeded with forty minutes of debate on H.R. 3197.", "type": "Floor"}, {"actionCode": "H30000", "actionDate": "2022-03-15", "actionTime": "15:17:40", "sourceSystem": {"code": 2, "name": "House floor actions"}, "text": "Considered under suspension of the rules. (consideration: CR H3728-3729)", "type": "Floor"}, {"actionCode": "H30300", "actionDate": "2022-03-15", "actionTime": "15:17:16", "sourceSystem": {"code": 2, "name": "House floor actions"}, "text": "Mr. Grijalva moved to suspend the rules and pass the bill.", "type": "Floor"}, {"actionCode": "H12410", "actionDate": "2022-03-09", "calendarNumber": {"calendar": "U00195"}, "sourceSystem": {"code": 2, "name": "House floor actions"}, "text": "Placed on the Union Calendar, Calendar No. 195.", "type": "Calendars"}, {"actionCode": "H12200", "actionDate": "2022-03-09", "committees": [{"name": "Natural Resources Committee", "systemCode": "hsii00", "url": "https://api.congress.gov/v3/committee/house/hsii00?format=json"}], "sourceSystem": {"code": 2, "name": "House floor actions"}, "text": "Reported by the Committee on Natural Resources. H. Rept. 117-266.", "type": "Committee"}], "pagination": {"count": 29, "next": "https://api.congress.gov/v3/bill/117/hr/3197/actions?offset=20&limit=20&format=json"}, "request": {"billNumber": "3197", "billType": "hr", "billUrl": "https://api.congress.gov/v3/bill/117/hr/3197?format=json", "congress": "117", "contentType": "application/json", "format": "json"}}, 200]