[{"actions": [{"actionCode": "E40000", "actionDate": "2021-07-30", "sourceSystem": {"code": 9, "name": "Library of Congress"}, "text": "Became Public Law No: 117-31.", "type": "President"}, {"actionCode": "36000", "actionDate": "2021-07-30", "sourceSystem": {"code": 9, "name": "Library of Congress"}, "text": "Became Public Law No: 117-31.", "type": "BecameLaw"}, {"actionCode": "E30000", "actionDate": "2021-07-30", "sourceSystem": {"code": 9, "name": "Library of Congress"}, "text": "Signed by President.", "type": "President"}, {"actionCode": "36000", "actionDate": "2021-07-30", "sourceSystem": {"code": 9, "name": "Library of Congress"}, "text": "Signed by President.", "type": "BecameLaw"}, {"actionCode": "E20000", "actionDate": "2021-07-30", "sourceSystem": {"code": 2, "name": "House floor actions"}, "text": "Presented to President.", "type": "Floor"}, {"actionCode": "28000", "actionDate": "2021-07-30", "sourceSystem": {"code": 9, "name": "Library of Congress"}, "text": "Presented to President.", "type": "President"}, {"actionCode": "H41931", "actionDate": "2021-07-29", "actionTime": "16:15:23", "sourceSystem": {"code": 2, "name": "House floor actions"}, "text": "Motion to reconsider laid on the table Agreed to without objection.", "type": "ResolvingDifferences"}, {"actionCode": "H41610", "actionDate": "2021-07-29", "actionTime": "16:15:21", "recordedVotes": [{"chamber": "House", "congress": 117, "date": "2021-07-29T20:15:21Z", "rollNumber": 250, "sessionNumber": 1, "url": "https://clerk.house.gov/evs/2021/roll250.xml"}], "sourceSystem": {"code": 2, "name": "House floor actions"}, "text": "On motion that the House suspend the rules and agree to the Senate amendment Agreed to by the Yeas and Nays: (2/3 required): 416 - 11 (Roll no. 250). (text: CR H4265-4267)", "type": "ResolvingDifferences"}, {"actionCode": "19500", "actionDate": "2021-07-29", "recordedVotes": [{"chamber": "House", "congress": 117, "date": "2021-07-29T20:15:21Z", "rollNumber": 250, "sessionNumber": 1, "url": "https://clerk.house.gov/evs/2021/roll250.xml"}], "sourceSystem": {"code": 9, "name": "Library of Congress"}, "text": "Resolving differences -- House actions: On motion that the House suspend the rules and agree to the Senate amendment Agreed to by the Yeas and Nays: (2/3 required): 416 - 11 (Roll no. 250).(text: CR H4265-4267)", "type": "NotUsed"}, {"actionDate": "2021-07-29", "sourceSystem": {"name": "Senate"}, "text": "Message on Senate action sent to the House.", "type": "Floor"}, {"actionCode": "H8D000", "actionDate": "2021-07-29", "actionTime": "15:19:04", "sourceSystem": {"code": 2, "name": "House floor actions"}, "text": "The House proceeded with 40 minutes of debate on the motion to suspend the rules and concur in the Senate amendment to H.R. 3237.", "type": "Floor"}, {"actionCode": "H40140", "actionDate": "2021-07-29", "actionTime": "15:18:49", "sourceSystem": {"code": 2, "name": "House floor actions"}, "text": "Ms. DeLauro moved that the House suspend the rules and agree to the Senate amendment. (consideration: CR H4265-4270)", "type": "ResolvingDifferences"}, {"actionDate": "2021-07-29", "recordedVotes": [{"chamber": "Senate", "congress": 117, "date": "2021-07-29T18:22:59Z", "rollNumber": 287, "sessionNumber": 1, "url": "https://www.senate.gov/legislative/LIS/roll_call_votes/vote1171/vote_117_1_00287.xml"}], "sourceSystem": {"name": "Senate"}, "text": "Passed Senate, under the order of 7/29/21, having achieved 60 votes in the affirmative, with an amendment by Yea-Nay Vote. 98 - 0. Record Vote Number: 287.", "type": "Floor"}, {"actionCode": "17000", "actionDate": "2021-07-29", "recordedVotes": [{"chamber": "Senate", "congress": 117, "date": "2021-07-29T18:22:59Z", "rollNumber": 287, "sessionNumber": 1, "url": "https://www.senate.gov/legislative/LIS/roll_call_votes/vote1171/vote_117_1_00287.xml"}], "sourceSystem": {"code": 9, "name": "Library of Congress"}, "text": "Passed/agreed to in Senate: Passed Senate, under the order of 7/29/21, having achieved 60 votes in the affirmative, with an amendment by Yea-Nay Vote. 98 - 0. Record Vote Number: 287.", "type": "Floor"}, {"actionDate": "2021-07-29", "sourceSystem": {"name": "Senate"}, "text": "Measure laid before Senate by unanimous consent. (consideration: CR S5154-5156)", "type": "Floor"}, {"actionDate": "2021-05-24", "calendarNumber": {"calendar": "Senate Calendar of Business", "number": "0063"}, "sourceSystem": {"name": "Senate"}, "text": "Read the second time. Placed on Senate Legislative Calendar under General Orders. Calendar No. 63.", "type": "Calendars"}, {"actionDate": "2021-05-20", "calendarNumber": {"calendar": "Senate Calendar of Business"}, "sourceSystem": {"name": "Senate"}, "text": "Received in the Senate. Read the first time. Placed on Senate Legislative Calendar under Read the First Time.", "type": "Calendars"}, {"actionCode": "H38310", "actionDate": "2021-05-20", "actionTime": "12:18:06", "sourceSystem": {"code": 2, "name": "House floor actions"}, "text": "Motion to reconsider laid on the table Agreed to without objection.", "type": "Floor"}, {"actionCode": "H37100", "actionDate": "2021-05-20", "actionTime": "12:18:04", "recordedVotes": [{"chamber": "House", "congress": 117, "date": "2021-05-20T16:18:04Z", "rollNumber": 156, "sessionNumber": 1, "url": "https://clerk.house.gov/evs/2021/roll156.xml"}], "sourceSystem": {"code": 2, "name": "House floor actions"}, "text": "On passage Passed by the Yeas and Nays: 213 - 212, 3 Present (Roll no. 156). (text: CR H2617-2621)", "type": "Floor"}, {"actionCode": "8000", "actionDate": "2021-05-20", "actionTime": "12:18:04", "recordedVotes": [{"chamber": "House", "congress": 117, "date": "2021-05-20T16:18:04Z", "rollNumber": 156, "sessionNumber": 1, "url": "https://clerk.house.gov/evs/2021/roll156.xml"}], "sourceSystem": {"code": 9, "name": "Library of Congress"}, "text": "Passed/agreed to in House: On passage Passed by the Yeas and Nays: 213 - 212, 3 Present (Roll no. 156).(text: CR H2617-2621)", "type": "Floor"}], "pagination": {"count": 33, "next": "https://api.congress.gov/v3/bill/117/hr/3237/actions?offset=20&limit=20&format=json"}, "request": {"billNumber": "3237", "billType": "hr", "billUrl": "https://api.congress.gov/v3/bill/117/hr/3237?format=json", "congress": "117", "contentType": "application/json", "format": "json"}}, 200]