[{"actions": [{"actionCode": "E40000", "actionDate": "2021-08-05", "sourceSystem": {"code": 9, "name": "Library of Congress"}, "text": "Became Public Law No: 117-32.", "type": "President"}, {"actionCode": "36000", "actionDate": "2021-08-05", "sourceSystem": {"code": 9, "name": "Library of Congress"}, "text": "Became Public Law No: 117-32.", "type": "BecameLaw"}, {"actionCode": "E30000", "actionDate": "2021-08-05", "sourceSystem": {"code": 9, "name": "Library of Congress"}, "text": "Signed by President.", "type": "President"}, {"actionCode": "36000", "actionDate": "2021-08-05", "sourceSystem": {"code": 9, "name": "Library of Congress"}, "text": "Signed by President.", "type": "BecameLaw"}, {"actionCode": "E20000", "actionDate": "2021-08-04", "sourceSystem": {"code": 2, "name": "House floor actions"}, "text": "Presented to President.", "type": "Floor"}, {"actionCode": "28000", "actionDate": "2021-08-04", "sourceSystem": {"code": 9, "name": "Library of Congress"}, "text": "Presented to President.", "type": "President"}, {"actionDate": "2021-08-03", "sourceSystem": {"name": "Senate"}, "text": "Message on Senate action sent to the House.", "type": "Floor"}, {"actionDate": "2021-08-03", "sourceSystem": {"name": "Senate"}, "text": "Passed Senate without amendment by Unanimous Consent.", "type": "Floor"}, {"actionCode": "17000", "actionDate": "2021-08-03", "sourceSystem": {"code": 9, "name": "Library of Congress"}, "text": "Passed/agreed to in Senate: Passed Senate without amendment by Unanimous Consent.", "type": "Floor"}, {"actionDate": "2021-08-03", "committees": [{"name": "Banking, Housing, and Urban Affairs Committee", "systemCode": "ssbk00", "url": "https://api.congress.gov/v3/committee/senate/ssbk00?format=json"}], "sourceSystem": {"name": "Senate"}, "text": "Senate Committee on Banking, Housing, and Urban Affairs discharged by Unanimous Consent. (consideration: CR S5685-5687)", "type": "Discharge"}, {"actionCode": "14500", "actionDate": "2021-08-03", "committees": [{"name": "Banking, Housing, and Urban Affairs Committee", "systemCode": "ssbk00", "url": "https://api.congress.gov/v3/committee/senate/ssbk00?format=json"}], "sourceSystem": {"code": 9, "name": "Library of Congress"}, "text": "Senate Committee on Banking, Housing, and Urban Affairs discharged by Unanimous Consent.(consideration: CR S5685-5687)", "type": "Committee"}, {"actionDate": "2021-06-16", "committees": [{"name": "Banking, Housing, and Urban Affairs Committee", "systemCode": "ssbk00", "url": "https://api.congress.gov/v3/committee/senate/ssbk00?format=json"}], "sourceSystem": {"name": "Senate"}, "text": "Received in the Senate and Read twice and referred to the Committee on Banking, Housing, and Urban Affairs.", "type": "IntroReferral"}, {"actionCode": "H38310", "actionDate": "2021-06-15", "actionTime": "17:32:22", "sourceSystem": {"code": 2, "name": "House floor actions"}, "text": "Motion to reconsider laid on the table Agreed to without objection.", "type": "Floor"}, {"actionCode": "H37300", "actionDate": "2021-06-15", "actionTime": "17:32:21", "recordedVotes": [{"chamber": "House", "congress": 117, "date": "2021-06-15T21:32:21Z", "rollNumber": 161, "sessionNumber": 1, "url": "https://clerk.house.gov/evs/2021/roll161.xml"}], "sourceSystem": {"code": 2, "name": "House floor actions"}, "text": "On motion to suspend the rules and pass the bill, as amended Agreed to by the Yeas and Nays: (2/3 required): 406 - 21 (Roll no. 161). (text: CR H2789)", "type": "Floor"}, {"actionCode": "8000", "actionDate": "2021-06-15", "actionTime": "17:32:21", "recordedVotes": [{"chamber": "House", "congress": 117, "date": "2021-06-15T21:32:21Z", "rollNumber": 161, "sessionNumber": 1, "url": "https://clerk.house.gov/evs/2021/roll161.xml"}], "sourceSystem": {"code": 9, "name": "Library of Congress"}, "text": "Passed/agreed to in House: On motion to suspend the rules and pass the bill, as amended Agreed to by the Yeas and Nays: (2/3 required): 406 - 21 (Roll no. 161).(text: CR H2789)", "type": "Floor"}, {"actionCode": "H30000", "actionDate": "2021-06-15", "actionTime": "17:10:40", "sourceSystem": {"code": 2, "name": "House floor actions"}, "text": "Considered as unfinished business. (consideration: CR H2800)", "type": "Floor"}, {"actionCode": "H37220", "actionDate": "2021-06-15", "actionTime": "16:12:21", "sourceSystem": {"code": 2, "name": "House floor actions"}, "text": "At the conclusion of debate, the Yeas and Nays were demanded and ordered. Pursuant to the provisions of clause 8, rule XX, the Chair announced that further proceedings on the motion would be postponed.", "type": "Floor"}, {"actionCode": "H8D000", "actionDate": "2021-06-15", "actionTime": "15:52:49", "sourceSystem": {"code": 2, "name": "House floor actions"}, "text": "DEBATE - The House proceeded with forty minutes of debate on H.R. 3325.", "type": "Floor"}, {"actionCode": "H30000", "actionDate": "2021-06-15", "actionTime": "15:52:47", "sourceSystem": {"code": 2, "name": "House floor actions"}, "text": "Considered under suspension of the rules. (consideration: CR H2789-2792)", "type": "Floor"}, {"actionCode": "H30300", "actionDate": "2021-06-15", "actionTime": "15:51:41", "sourceSystem": {"code": 2, "name": "House floor actions"}, "text": "Ms. Waters moved to suspend the rules and pass the bill, as amended.", "type": "Floor"}], "pagination": {"count": 25, "next": "https://api.congress.gov/v3/bill/117/hr/3325/actions?offset=20&limit=20&format=json"}, "request": {"billNumber": "3325", "billType": "hr", "billUrl": "https://api.congress.gov/v3/bill/117/hr/3325?format=json", "congress": "117", "contentType": "application/json", "format": "json"}}, 200]