[{"actions": [{"actionCode": "E40000", "actionDate": "2022-12-21", "sourceSystem": {"code": 9, "name": "Library of Congress"}, "text": "Became Public Law No: 117-259.", "type": "President"}, {"actionCode": "36000", "actionDate": "2022-12-21", "sourceSystem": {"code": 9, "name": "Library of Congress"}, "text": "Became Public Law No: 117-259.", "type": "BecameLaw"}, {"actionCode": "E30000", "actionDate": "2022-12-21", "sourceSystem": {"code": 9, "name": "Library of Congress"}, "text": "Signed by President.", "type": "President"}, {"actionCode": "36000", "actionDate": "2022-12-21", "sourceSystem": {"code": 9, "name": "Library of Congress"}, "text": "Signed by President.", "type": "BecameLaw"}, {"actionCode": "E20000", "actionDate": "2022-12-16", "sourceSystem": {"code": 2, "name": "House floor actions"}, "text": "Presented to President.", "type": "Floor"}, {"actionCode": "28000", "actionDate": "2022-12-16", "sourceSystem": {"code": 9, "name": "Library of Congress"}, "text": "Presented to President.", "type": "President"}, {"actionCode": "H41931", "actionDate": "2022-12-06", "actionTime": "15:43:37", "sourceSystem": {"code": 2, "name": "House floor actions"}, "text": "Motion to reconsider laid on the table Agreed to without objection.", "type": "ResolvingDifferences"}, {"actionCode": "H41610", "actionDate": "2022-12-06", "actionTime": "15:43:35", "recordedVotes": [{"chamber": "House", "congress": 117, "date": "2022-12-06T20:43:35Z", "rollNumber": 506, "sessionNumber": 2, "url": "https://clerk.house.gov/evs/2022/roll506.xml"}], "sourceSystem": {"code": 2, "name": "House floor actions"}, "text": "On motion that the House suspend the rules and agree to the Senate amendment Agreed to by the Yeas and Nays: (2/3 required): 417 - 0 (Roll no. 506). (text: 12/05/2022 CR H8736-8737)", "type": "ResolvingDifferences"}, {"actionCode": "19500", "actionDate": "2022-12-06", "recordedVotes": [{"chamber": "House", "congress": 117, "date": "2022-12-06T20:43:35Z", "rollNumber": 506, "sessionNumber": 2, "url": "https://clerk.house.gov/evs/2022/roll506.xml"}], "sourceSystem": {"code": 9, "name": "Library of Congress"}, "text": "Resolving differences -- House actions: On motion that the House suspend the rules and agree to the Senate amendment Agreed to by the Yeas and Nays: (2/3 required): 417 - 0 (Roll no. 506).", "type": "NotUsed"}, {"actionCode": "H8D000", "actionDate": "2022-12-06", "actionTime": "15:35:16", "sourceSystem": {"code": 2, "name": "House floor actions"}, "text": "Considered as unfinished business. (consideration: CR H8775-8776; H8782)", "type": "Floor"}, {"actionCode": "H40142", "actionDate": "2022-12-05", "actionTime": "14:43:53", "sourceSystem": {"code": 2, "name": "House floor actions"}, "text": "At the conclusion of debate, the Yeas and Nays were demanded and ordered. Pursuant to the provisions of clause 8, rule XX, the chair announced that further proceedings on the motion would be postponed.", "type": "ResolvingDifferences"}, {"actionCode": "H8D000", "actionDate": "2022-12-05", "actionTime": "14:34:29", "sourceSystem": {"code": 2, "name": "House floor actions"}, "text": "DEBATE - The House proceeded with forty minutes of debate on the Senate amendment to H.R. 3462.", "type": "Floor"}, {"actionCode": "H40140", "actionDate": "2022-12-05", "actionTime": "14:34:10", "sourceSystem": {"code": 2, "name": "House floor actions"}, "text": "Ms. Velazquez moved that the House suspend the rules and agree to the Senate amendment. (consideration: CR H8736-8738)", "type": "ResolvingDifferences"}, {"actionDate": "2022-09-29", "sourceSystem": {"name": "Senate"}, "text": "Message on Senate action sent to the House.", "type": "Floor"}, {"actionDate": "2022-09-28", "sourceSystem": {"name": "Senate"}, "text": "Passed Senate with an amendment by Unanimous Consent. (text of amendment in the nature of a substitute: CR S5168)", "type": "Floor"}, {"actionCode": "17000", "actionDate": "2022-09-28", "sourceSystem": {"code": 9, "name": "Library of Congress"}, "text": "Passed/agreed to in Senate: Passed Senate with an amendment by Unanimous Consent.", "type": "Floor"}, {"actionDate": "2022-09-28", "sourceSystem": {"name": "Senate"}, "text": "Measure laid before Senate by unanimous consent. (consideration: CR S5168)", "type": "Floor"}, {"actionDate": "2022-05-03", "committees": [{"name": "Small Business and Entrepreneurship Committee", "systemCode": "sssb00", "url": "https://api.congress.gov/v3/committee/senate/sssb00?format=json"}], "sourceSystem": {"name": "Senate"}, "text": "By Senator Cardin from Committee on Small Business and Entrepreneurship filed written report. Report No. 117-102.", "type": "Floor"}, {"actionCode": "14900", "actionDate": "2022-05-03", "committees": [{"name": "Small Business and Entrepreneurship Committee", "systemCode": "sssb00", "url": "https://api.congress.gov/v3/committee/senate/sssb00?format=json"}], "sourceSystem": {"code": 9, "name": "Library of Congress"}, "text": "By Senator Cardin from Committee on Small Business and Entrepreneurship filed written report. Report No. 117-102.", "type": "Committee"}, {"actionDate": "2022-02-17", "calendarNumber": {"calendar": "Senate Calendar of Business", "number": "0281"}, "sourceSystem": {"name": "Senate"}, "text": "Placed on Senate Legislative Calendar under General Orders. Calendar No. 281.", "type": "Calendars"}], "pagination": {"count": 40, "next": "https://api.congress.gov/v3/bill/117/hr/3462/actions?offset=20&limit=20&format=json"}, "request": {"billNumber": "3462", "billType": "hr", "billUrl": "https://api.congress.gov/v3/bill/117/hr/3462?format=json", "congress": "117", "contentType": "application/json", "format": "json"}}, 200]