[{"actions": [{"actionDate": "2022-02-09", "committees": [{"name": "Foreign Relations Committee", "systemCode": "ssfr00", "url": "https://api.congress.gov/v3/committee/senate/ssfr00?format=json"}], "sourceSystem": {"name": "Senate"}, "text": "Received in the Senate and Read twice and referred to the Committee on Foreign Relations.", "type": "IntroReferral"}, {"actionCode": "H38310", "actionDate": "2022-02-09", "actionTime": "11:15:35", "sourceSystem": {"code": 2, "name": "House floor actions"}, "text": "Motion to reconsider laid on the table Agreed to without objection.", "type": "Floor"}, {"actionCode": "H37100", "actionDate": "2022-02-09", "actionTime": "11:15:29", "recordedVotes": [{"chamber": "House", "congress": 117, "date": "2022-02-09T16:15:29Z", "rollNumber": 43, "sessionNumber": 2, "url": "https://clerk.house.gov/evs/2022/roll043.xml"}], "sourceSystem": {"code": 2, "name": "House floor actions"}, "text": "On passage Passed by the Yeas and Nays: 227 - 206 (Roll no. 43).", "type": "Floor"}, {"actionCode": "8000", "actionDate": "2022-02-09", "actionTime": "11:15:29", "recordedVotes": [{"chamber": "House", "congress": 117, "date": "2022-02-09T16:15:29Z", "rollNumber": 43, "sessionNumber": 2, "url": "https://clerk.house.gov/evs/2022/roll043.xml"}], "sourceSystem": {"code": 9, "name": "Library of Congress"}, "text": "Passed/agreed to in House: On passage Passed by the Yeas and Nays: 227 - 206 (Roll no. 43).", "type": "Floor"}, {"actionCode": "H35000", "actionDate": "2022-02-09", "actionTime": "10:56:54", "sourceSystem": {"code": 2, "name": "House floor actions"}, "text": "The previous question was ordered pursuant to the rule.", "type": "Floor"}, {"actionCode": "H8D000", "actionDate": "2022-02-09", "actionTime": "09:55:28", "sourceSystem": {"code": 2, "name": "House floor actions"}, "text": "DEBATE - Pursuant to the provisions of H. Res. 900, the House proceeded with 20 minutes of debate on the Cicilline amendment en bloc.", "type": "Floor"}, {"actionCode": "H8D000", "actionDate": "2022-02-09", "actionTime": "09:19:20", "sourceSystem": {"code": 2, "name": "House floor actions"}, "text": "DEBATE - The House proceeded with one hour of debate on H.R. 3485.", "type": "Floor"}, {"actionCode": "H8D000", "actionDate": "2022-02-09", "actionTime": "09:17:21", "sourceSystem": {"code": 2, "name": "House floor actions"}, "text": "Rule provides for consideration of H.R. 3485, H.R. 4445 and H.R. 4521. The rule provides for one hour of general debate on H.R. 3485 and H.R. 4445. The rule provides for two hours of general debate on H.R. 4521. The resolution provides for one motion to recommit for all three bills. The resolution amends H. Res. 188 by striking February 4, 2022 and inserting April 1, 2022. Also, the resolution provides that proceedings may be postponed through March 3, 2022 on measures that were the object of motions to suspend the rules on the legislative day of February 1, 2022, and on which the yeas and nays were ordered.", "type": "Floor"}, {"actionCode": "H30000", "actionDate": "2022-02-09", "actionTime": "09:17:16", "sourceSystem": {"code": 2, "name": "House floor actions"}, "text": "Considered under the provisions of rule H. Res. 900. (consideration: CR H1079-1087; text: CR H1079-1080)", "type": "Floor"}, {"actionCode": "H1L210", "actionDate": "2022-02-02", "actionTime": "11:07:35", "sourceSystem": {"code": 2, "name": "House floor actions"}, "text": "Rules Committee Resolution H. Res. 900 Reported to House. Rule provides for consideration of H.R. 3485, H.R. 4445 and H.R. 4521. The rule provides for one hour of general debate on H.R. 3485 and H.R. 4445. The rule provides for two hours of general debate on H.R. 4521. The resolution provides for one motion to recommit for all three bills. The resolution amends H. Res. 188 by striking February 4, 2022 and inserting April 1, 2022. Also, the resolution provides that proceedings may be postponed through March 3, 2022 on measures that were the object of motions to suspend the rules on the legislative day of February 1, 2022, and on which the yeas and nays were ordered.", "type": "Floor"}, {"actionCode": "H12410", "actionDate": "2022-01-21", "calendarNumber": {"calendar": "U00166"}, "sourceSystem": {"code": 2, "name": "House floor actions"}, "text": "Placed on the Union Calendar, Calendar No. 166.", "type": "Calendars"}, {"actionCode": "H12300", "actionDate": "2022-01-21", "committees": [{"name": "Judiciary Committee", "systemCode": "hsju00", "url": "https://api.congress.gov/v3/committee/house/hsju00?format=json"}], "sourceSystem": {"code": 2, "name": "House floor actions"}, "text": "Committee on the Judiciary discharged.", "type": "Discharge"}, {"actionCode": "5500", "actionDate": "2022-01-21", "committees": [{"name": "Judiciary Committee", "systemCode": "hsju00", "url": "https://api.congress.gov/v3/committee/house/hsju00?format=json"}], "sourceSystem": {"code": 9, "name": "Library of Congress"}, "text": "Committee on the Judiciary discharged.", "type": "Committee"}, {"actionCode": "H11210", "actionDate": "2022-01-10", "committees": [{"name": "Judiciary Committee", "systemCode": "hsju00", "url": "https://api.congress.gov/v3/committee/house/hsju00?format=json"}], "sourceSystem": {"code": 2, "name": "House floor actions"}, "text": "House Committee on the Judiciary Granted an extension for further consideration ending not later than Feb. 4, 2022.", "type": "IntroReferral"}, {"actionCode": "H12200", "actionDate": "2022-01-10", "committees": [{"name": "Foreign Affairs Committee", "systemCode": "hsfa00", "url": "https://api.congress.gov/v3/committee/house/hsfa00?format=json"}], "sourceSystem": {"code": 2, "name": "House floor actions"}, "text": "Reported (Amended) by the Committee on Foreign Affairs. H. Rept. 117-224, Part I.", "type": "Committee"}, {"actionCode": "5000", "actionDate": "2022-01-10", "committees": [{"name": "Foreign Affairs Committee", "systemCode": "hsfa00", "url": "https://api.congress.gov/v3/committee/house/hsfa00?format=json"}], "sourceSystem": {"code": 9, "name": "Library of Congress"}, "text": "Reported (Amended) by the Committee on Foreign Affairs. H. Rept. 117-224, Part I.", "type": "Committee"}, {"actionCode": "H19000", "actionDate": "2021-09-30", "committees": [{"name": "Foreign Affairs Committee", "systemCode": "hsfa00", "url": "https://api.congress.gov/v3/committee/house/hsfa00?format=json"}], "sourceSystem": {"code": 1, "name": "House committee actions"}, "text": "Ordered to be Reported (Amended) by Voice Vote.", "type": "Committee"}, {"actionCode": "H15000-B", "actionDate": "2021-09-30", "committees": [{"name": "Foreign Affairs Committee", "systemCode": "hsfa00", "url": "https://api.congress.gov/v3/committee/house/hsfa00?format=json"}], "sourceSystem": {"code": 1, "name": "House committee actions"}, "text": "Committee Consideration and Mark-up Session Held.", "type": "Committee"}, {"actionCode": "H11100", "actionDate": "2021-05-25", "committees": [{"name": "Judiciary Committee", "systemCode": "hsju00", "url": "https://api.congress.gov/v3/committee/house/hsju00?format=json"}], "sourceSystem": {"code": 2, "name": "House floor actions"}, "text": "Referred to the Committee on Foreign Affairs, and in addition to the Committee on the Judiciary, for a period to be subsequently determined by the Speaker, in each case for consideration of such provisions as fall within the jurisdiction of the committee concerned.", "type": "IntroReferral"}, {"actionCode": "H11100", "actionDate": "2021-05-25", "committees": [{"name": "Foreign Affairs Committee", "systemCode": "hsfa00", "url": "https://api.congress.gov/v3/committee/house/hsfa00?format=json"}], "sourceSystem": {"code": 2, "name": "House floor actions"}, "text": "Referred to the Committee on Foreign Affairs, and in addition to the Committee on the Judiciary, for a period to be subsequently determined by the Speaker, in each case for consideration of such provisions as fall within the jurisdiction of the committee concerned.", "type": "IntroReferral"}], "pagination": {"count": 22, "next": "https://api.congress.gov/v3/bill/117/hr/3485/actions?offset=20&limit=20&format=json"}, "request": {"billNumber": "3485", "billType": "hr", "billUrl": "https://api.congress.gov/v3/bill/117/hr/3485?format=json", "congress": "117", "contentType": "application/json", "format": "json"}}, 200]