[{"actions": [{"actionCode": "E40000", "actionDate": "2022-06-13", "sourceSystem": {"code": 9, "name": "Library of Congress"}, "text": "Became Public Law No: 117-140.", "type": "President"}, {"actionCode": "36000", "actionDate": "2022-06-13", "sourceSystem": {"code": 9, "name": "Library of Congress"}, "text": "Became Public Law No: 117-140.", "type": "BecameLaw"}, {"actionCode": "E30000", "actionDate": "2022-06-13", "sourceSystem": {"code": 9, "name": "Library of Congress"}, "text": "Signed by President.", "type": "President"}, {"actionCode": "36000", "actionDate": "2022-06-13", "sourceSystem": {"code": 9, "name": "Library of Congress"}, "text": "Signed by President.", "type": "BecameLaw"}, {"actionCode": "E20000", "actionDate": "2022-06-09", "sourceSystem": {"code": 2, "name": "House floor actions"}, "text": "Presented to President.", "type": "Floor"}, {"actionCode": "28000", "actionDate": "2022-06-09", "sourceSystem": {"code": 9, "name": "Library of Congress"}, "text": "Presented to President.", "type": "President"}, {"actionDate": "2022-05-19", "sourceSystem": {"name": "Senate"}, "text": "Message on Senate action sent to the House.", "type": "Floor"}, {"actionDate": "2022-05-19", "sourceSystem": {"name": "Senate"}, "text": "Passed Senate without amendment by Unanimous Consent.", "type": "Floor"}, {"actionCode": "17000", "actionDate": "2022-05-19", "sourceSystem": {"code": 9, "name": "Library of Congress"}, "text": "Passed/agreed to in Senate: Passed Senate without amendment by Unanimous Consent.", "type": "Floor"}, {"actionDate": "2022-05-19", "committees": [{"name": "Energy and Natural Resources Committee", "systemCode": "sseg00", "url": "https://api.congress.gov/v3/committee/senate/sseg00?format=json"}], "sourceSystem": {"name": "Senate"}, "text": "Senate Committee on Energy and Natural Resources discharged by Unanimous Consent. (consideration: CR S2605)", "type": "Discharge"}, {"actionCode": "14500", "actionDate": "2022-05-19", "committees": [{"name": "Energy and Natural Resources Committee", "systemCode": "sseg00", "url": "https://api.congress.gov/v3/committee/senate/sseg00?format=json"}], "sourceSystem": {"code": 9, "name": "Library of Congress"}, "text": "Senate Committee on Energy and Natural Resources discharged by Unanimous Consent.(consideration: CR S2605)", "type": "Committee"}, {"actionDate": "2022-05-12", "committees": [{"name": "Energy and Natural Resources Committee", "systemCode": "sseg00", "url": "https://api.congress.gov/v3/committee/senate/sseg00?format=json"}], "sourceSystem": {"name": "Senate"}, "text": "Read twice and referred to the Committee on Energy and Natural Resources.", "type": "IntroReferral"}, {"actionDate": "2022-04-27", "sourceSystem": {"name": "Senate"}, "text": "Received in the Senate.", "type": "IntroReferral"}, {"actionCode": "H38310", "actionDate": "2022-04-26", "actionTime": "15:43:59", "sourceSystem": {"code": 2, "name": "House floor actions"}, "text": "Motion to reconsider laid on the table Agreed to without objection.", "type": "Floor"}, {"actionCode": "H37300", "actionDate": "2022-04-26", "actionTime": "15:43:57", "sourceSystem": {"code": 2, "name": "House floor actions"}, "text": "On motion to suspend the rules and pass the bill, as amended Agreed to by voice vote. (text: CR H4479-4480)", "type": "Floor"}, {"actionCode": "8000", "actionDate": "2022-04-26", "actionTime": "15:43:57", "sourceSystem": {"code": 9, "name": "Library of Congress"}, "text": "Passed/agreed to in House: On motion to suspend the rules and pass the bill, as amended Agreed to by voice vote.(text: CR H4479-4480)", "type": "Floor"}, {"actionCode": "H8D000", "actionDate": "2022-04-26", "actionTime": "15:28:10", "sourceSystem": {"code": 2, "name": "House floor actions"}, "text": "DEBATE - The House proceeded with forty minutes of debate on H.R. 3525.", "type": "Floor"}, {"actionCode": "H30000", "actionDate": "2022-04-26", "actionTime": "15:28:09", "sourceSystem": {"code": 2, "name": "House floor actions"}, "text": "Considered under suspension of the rules. (consideration: CR H4479-4482)", "type": "Floor"}, {"actionCode": "H30300", "actionDate": "2022-04-26", "actionTime": "15:28:07", "sourceSystem": {"code": 2, "name": "House floor actions"}, "text": "Mr. Grijalva moved to suspend the rules and pass the bill, as amended.", "type": "Floor"}, {"actionCode": "H12410", "actionDate": "2022-04-25", "calendarNumber": {"calendar": "U00219"}, "sourceSystem": {"code": 2, "name": "House floor actions"}, "text": "Placed on the Union Calendar, Calendar No. 219.", "type": "Calendars"}], "pagination": {"count": 33, "next": "https://api.congress.gov/v3/bill/117/hr/3525/actions?offset=20&limit=20&format=json"}, "request": {"billNumber": "3525", "billType": "hr", "billUrl": "https://api.congress.gov/v3/bill/117/hr/3525?format=json", "congress": "117", "contentType": "application/json", "format": "json"}}, 200]