[{"actions": [{"actionDate": "2022-10-18", "calendarNumber": {"calendar": "Senate Calendar of Business", "number": "0540"}, "sourceSystem": {"name": "Senate"}, "text": "Placed on Senate Legislative Calendar under General Orders. Calendar No. 540.", "type": "Calendars"}, {"actionDate": "2022-10-18", "committees": [{"name": "Energy and Natural Resources Committee", "systemCode": "sseg00", "url": "https://api.congress.gov/v3/committee/senate/sseg00?format=json"}], "sourceSystem": {"name": "Senate"}, "text": "Committee on Energy and Natural Resources. Reported by Senator Manchin under authority of the order of the Senate of 10/14/2022 without amendment. With written report No. 117-189.", "type": "Committee"}, {"actionCode": "14000", "actionDate": "2022-10-18", "committees": [{"name": "Energy and Natural Resources Committee", "systemCode": "sseg00", "url": "https://api.congress.gov/v3/committee/senate/sseg00?format=json"}], "sourceSystem": {"code": 9, "name": "Library of Congress"}, "text": "Committee on Energy and Natural Resources. Reported by Senator Manchin under authority of the order of the Senate of 10/14/2022 without amendment. With written report No. 117-189.", "type": "Committee"}, {"actionDate": "2022-07-21", "committees": [{"name": "Energy and Natural Resources Committee", "systemCode": "sseg00", "url": "https://api.congress.gov/v3/committee/senate/sseg00?format=json"}], "sourceSystem": {"name": "Senate"}, "text": "Committee on Energy and Natural Resources. Ordered to be reported without amendment favorably.", "type": "Committee"}, {"actionDate": "2022-05-11", "committees": [{"name": "National Parks Subcommittee", "systemCode": "sseg04", "url": "https://api.congress.gov/v3/committee/senate/sseg04?format=json"}], "sourceSystem": {"name": "Senate"}, "text": "Committee on Energy and Natural Resources Subcommittee on National Parks. Hearings held.", "type": "Committee"}, {"actionDate": "2021-12-09", "committees": [{"name": "Energy and Natural Resources Committee", "systemCode": "sseg00", "url": "https://api.congress.gov/v3/committee/senate/sseg00?format=json"}], "sourceSystem": {"name": "Senate"}, "text": "Received in the Senate and Read twice and referred to the Committee on Energy and Natural Resources.", "type": "IntroReferral"}, {"actionCode": "H38310", "actionDate": "2021-12-08", "actionTime": "20:56:10", "sourceSystem": {"code": 2, "name": "House floor actions"}, "text": "Motion to reconsider laid on the table Agreed to without objection.", "type": "Floor"}, {"actionCode": "H37300", "actionDate": "2021-12-08", "actionTime": "20:56:09", "recordedVotes": [{"chamber": "House", "congress": 117, "date": "2021-12-09T01:56:09Z", "rollNumber": 428, "sessionNumber": 1, "url": "https://clerk.house.gov/evs/2021/roll428.xml"}], "sourceSystem": {"code": 2, "name": "House floor actions"}, "text": "On motion to suspend the rules and pass the bill, as amended Agreed to by the Yeas and Nays: (2/3 required): 425 - 1 (Roll no. 428).", "type": "Floor"}, {"actionCode": "8000", "actionDate": "2021-12-08", "actionTime": "20:56:09", "recordedVotes": [{"chamber": "House", "congress": 117, "date": "2021-12-09T01:56:09Z", "rollNumber": 428, "sessionNumber": 1, "url": "https://clerk.house.gov/evs/2021/roll428.xml"}], "sourceSystem": {"code": 9, "name": "Library of Congress"}, "text": "Passed/agreed to in House: On motion to suspend the rules and pass the bill, as amended Agreed to by the Yeas and Nays: (2/3 required): 425 - 1 (Roll no. 428).", "type": "Floor"}, {"actionCode": "H30000", "actionDate": "2021-12-08", "actionTime": "20:49:14", "sourceSystem": {"code": 2, "name": "House floor actions"}, "text": "Considered as unfinished business. (consideration: CR H7545)", "type": "Floor"}, {"actionCode": "H37220", "actionDate": "2021-12-01", "actionTime": "13:41:36", "sourceSystem": {"code": 2, "name": "House floor actions"}, "text": "At the conclusion of debate, the Yeas and Nays were demanded and ordered. Pursuant to the provisions of clause 8, rule XX, the Chair announced that further proceedings on the motion would be postponed.", "type": "Floor"}, {"actionCode": "H8D000", "actionDate": "2021-12-01", "actionTime": "13:29:22", "sourceSystem": {"code": 2, "name": "House floor actions"}, "text": "DEBATE - The House proceeded with forty minutes of debate on H.R. 3531.", "type": "Floor"}, {"actionCode": "H30000", "actionDate": "2021-12-01", "actionTime": "13:29:20", "sourceSystem": {"code": 2, "name": "House floor actions"}, "text": "Considered under suspension of the rules. (consideration: CR H6738-6740; text: CR H6738)", "type": "Floor"}, {"actionCode": "H30300", "actionDate": "2021-12-01", "actionTime": "13:29:05", "sourceSystem": {"code": 2, "name": "House floor actions"}, "text": "Ms. Leger Fernandez moved to suspend the rules and pass the bill, as amended.", "type": "Floor"}, {"actionCode": "H12410", "actionDate": "2021-12-01", "calendarNumber": {"calendar": "U00141"}, "sourceSystem": {"code": 2, "name": "House floor actions"}, "text": "Placed on the Union Calendar, Calendar No. 141.", "type": "Calendars"}, {"actionCode": "H12200", "actionDate": "2021-12-01", "committees": [{"name": "Natural Resources Committee", "systemCode": "hsii00", "url": "https://api.congress.gov/v3/committee/house/hsii00?format=json"}], "sourceSystem": {"code": 2, "name": "House floor actions"}, "text": "Reported by the Committee on Natural Resources. H. Rept. 117-197.", "type": "Committee"}, {"actionCode": "5000", "actionDate": "2021-12-01", "committees": [{"name": "Natural Resources Committee", "systemCode": "hsii00", "url": "https://api.congress.gov/v3/committee/house/hsii00?format=json"}], "sourceSystem": {"code": 9, "name": "Library of Congress"}, "text": "Reported by the Committee on Natural Resources. H. Rept. 117-197.", "type": "Committee"}, {"actionCode": "H19000", "actionDate": "2021-11-17", "committees": [{"name": "Natural Resources Committee", "systemCode": "hsii00", "url": "https://api.congress.gov/v3/committee/house/hsii00?format=json"}], "sourceSystem": {"code": 1, "name": "House committee actions"}, "text": "Ordered to be Reported by Unanimous Consent.", "type": "Committee"}, {"actionCode": "H15000-B", "actionDate": "2021-11-17", "committees": [{"name": "Natural Resources Committee", "systemCode": "hsii00", "url": "https://api.congress.gov/v3/committee/house/hsii00?format=json"}], "sourceSystem": {"code": 1, "name": "House committee actions"}, "text": "Committee Consideration and Mark-up Session Held.", "type": "Committee"}, {"actionCode": "H25000", "actionDate": "2021-11-17", "committees": [{"name": "Natural Resources Committee", "systemCode": "hsii00", "url": "https://api.congress.gov/v3/committee/house/hsii00?format=json"}], "sourceSystem": {"code": 1, "name": "House committee actions"}, "text": "Subcommittee on National Parks, Forests, and Public Lands Discharged.", "type": "Committee"}], "pagination": {"count": 26, "next": "https://api.congress.gov/v3/bill/117/hr/3531/actions?offset=20&limit=20&format=json"}, "request": {"billNumber": "3531", "billType": "hr", "billUrl": "https://api.congress.gov/v3/bill/117/hr/3531?format=json", "congress": "117", "contentType": "application/json", "format": "json"}}, 200]