[{"actions": [{"actionDate": "2022-04-04", "committees": [{"name": "Finance Committee", "systemCode": "ssfi00", "url": "https://api.congress.gov/v3/committee/senate/ssfi00?format=json"}], "sourceSystem": {"name": "Senate"}, "text": "Received in the Senate and Read twice and referred to the Committee on Finance.", "type": "IntroReferral"}, {"actionCode": "H38310", "actionDate": "2022-04-01", "actionTime": "12:34:43", "sourceSystem": {"code": 2, "name": "House floor actions"}, "text": "Motion to reconsider laid on the table Agreed to without objection.", "type": "Floor"}, {"actionCode": "H37100", "actionDate": "2022-04-01", "actionTime": "12:34:42", "recordedVotes": [{"chamber": "House", "congress": 117, "date": "2022-04-01T16:34:42Z", "rollNumber": 107, "sessionNumber": 2, "url": "https://clerk.house.gov/evs/2022/roll107.xml"}], "sourceSystem": {"code": 2, "name": "House floor actions"}, "text": "On passage Passed by the Yeas and Nays: 220 - 204 (Roll no. 107).", "type": "Floor"}, {"actionCode": "8000", "actionDate": "2022-04-01", "actionTime": "12:34:42", "recordedVotes": [{"chamber": "House", "congress": 117, "date": "2022-04-01T16:34:42Z", "rollNumber": 107, "sessionNumber": 2, "url": "https://clerk.house.gov/evs/2022/roll107.xml"}], "sourceSystem": {"code": 9, "name": "Library of Congress"}, "text": "Passed/agreed to in House: On passage Passed by the Yeas and Nays: 220 - 204 (Roll no. 107).", "type": "Floor"}, {"actionCode": "H36210", "actionDate": "2022-04-01", "actionTime": "12:18:53", "committees": [{"name": "Judiciary Committee", "systemCode": "hsju00", "url": "https://api.congress.gov/v3/committee/house/hsju00?format=json"}], "recordedVotes": [{"chamber": "House", "congress": 117, "date": "2022-04-01T16:18:53Z", "rollNumber": 106, "sessionNumber": 2, "url": "https://clerk.house.gov/evs/2022/roll106.xml"}], "sourceSystem": {"code": 2, "name": "House floor actions"}, "text": "On motion to recommit Failed by the Yeas and Nays: 202 - 220 (Roll no. 106).", "type": "Floor"}, {"actionCode": "H8A000", "actionDate": "2022-04-01", "actionTime": "12:05:10", "sourceSystem": {"code": 2, "name": "House floor actions"}, "text": "The previous question on the motion to recommit was ordered pursuant to clause 2(b) of rule XIX.", "type": "Floor"}, {"actionCode": "H36200", "actionDate": "2022-04-01", "actionTime": "12:04:58", "committees": [{"name": "Judiciary Committee", "systemCode": "hsju00", "url": "https://api.congress.gov/v3/committee/house/hsju00?format=json"}], "sourceSystem": {"code": 2, "name": "House floor actions"}, "text": "Mr. Latta moved to recommit to the Committee on the Judiciary. (text: CR H4112-4116)", "type": "Floor"}, {"actionCode": "H35000", "actionDate": "2022-04-01", "actionTime": "12:04:06", "sourceSystem": {"code": 2, "name": "House floor actions"}, "text": "The previous question was ordered pursuant to the rule.", "type": "Floor"}, {"actionCode": "H8D000", "actionDate": "2022-04-01", "actionTime": "11:02:14", "sourceSystem": {"code": 2, "name": "House floor actions"}, "text": "UNFINISHED BUSINESS - The Chair announced that the unfinished business was on agreeing to amendments, which were debated earlier and on which further proceedings had been postponed. (consideration: CR H4111-4112)", "type": "Floor"}, {"actionCode": "H8D000", "actionDate": "2022-04-01", "actionTime": "11:01:30", "sourceSystem": {"code": 2, "name": "House floor actions"}, "text": "POSTPONED PROCEEDINGS - At the conclusion of debate on the Raskin amendment, the Chair put the question on adoption of the amendment and by voice vote, announced that the ayes had prevailed. Mr. Bentz demanded the yeas and nays and the Chair postponed further proceedings until a time to be announced.", "type": "Floor"}, {"actionCode": "H8D000", "actionDate": "2022-04-01", "actionTime": "10:52:32", "sourceSystem": {"code": 2, "name": "House floor actions"}, "text": "DEBATE - Pursuant to the provisions of H. Res. 1017, the House proceeded with 10 minutes of debate on the Raskin amendment No. 3.", "type": "Floor"}, {"actionCode": "H8D000", "actionDate": "2022-04-01", "actionTime": "10:51:28", "sourceSystem": {"code": 2, "name": "House floor actions"}, "text": "POSTPONED PROCEEDINGS - At the conclusion of debate on the Lamb amendment, the Chair put the question on adoption of the amendment and by voice vote, announced that the ayes had prevailed. Mr. Bentz demanded the yeas and nays and the Chair postponed further proceedings until a time to be announced.", "type": "Floor"}, {"actionCode": "H8D000", "actionDate": "2022-04-01", "actionTime": "10:41:13", "sourceSystem": {"code": 2, "name": "House floor actions"}, "text": "DEBATE - Pursuant to the provisions of H. Res. 1017, the House proceeded with 10 minutes of debate on the Lamb amendment No. 2.", "type": "Floor"}, {"actionCode": "H8D000", "actionDate": "2022-04-01", "actionTime": "10:40:31", "sourceSystem": {"code": 2, "name": "House floor actions"}, "text": "POSTPONED PROCEEDINGS - At the conclusion of debate on the Gottheimer amendment, the Chair put the question on adoption of the amendment and by voice vote, announced that the ayes had prevailed. Mr. Bentz demanded the yeas and nays and the Chair postponed further proceedings until a time to be announced.", "type": "Floor"}, {"actionCode": "H8D000", "actionDate": "2022-04-01", "actionTime": "10:35:44", "sourceSystem": {"code": 2, "name": "House floor actions"}, "text": "DEBATE - Pursuant to the provisions of H. Res. 1017, the House proceeded with 10 minutes of debate on the Gottheimer amendment No. 1.", "type": "Floor"}, {"actionCode": "H8D000", "actionDate": "2022-04-01", "actionTime": "09:13:48", "sourceSystem": {"code": 2, "name": "House floor actions"}, "text": "DEBATE - The House proceeded with one hour of debate on H.R. 3617.", "type": "Floor"}, {"actionCode": "H8D000", "actionDate": "2022-04-01", "actionTime": "09:12:42", "sourceSystem": {"code": 2, "name": "House floor actions"}, "text": "Rule provides for consideration of H.R. 3617 and H.R. 6833. The resolutions provides for one hour of general debate on H.R. 3617, under a structured rule. The resolution provides for one hour of general debate on H.R. 6833, under a closed rule. The rule provides that House Resolution 188, agreed to March 8, 2021, is amended by striking April 1, 2022 each place it appears and inserting April 29, 2022.", "type": "Floor"}, {"actionCode": "H30000", "actionDate": "2022-04-01", "actionTime": "09:12:37", "sourceSystem": {"code": 2, "name": "House floor actions"}, "text": "Considered under the provisions of rule H. Res. 1017. (consideration: CR H4078-4110, H4110-4111; text: CR S4078-4087)", "type": "Floor"}, {"actionCode": "H1L210", "actionDate": "2022-03-31", "actionTime": "10:09:18", "sourceSystem": {"code": 2, "name": "House floor actions"}, "text": "Rules Committee Resolution H. Res. 1017 Reported to House. Rule provides for consideration of H.R. 3617 and H.R. 6833. The resolutions provides for one hour of general debate on H.R. 3617, under a structured rule. The resolution provides for one hour of general debate on H.R. 6833, under a closed rule. The rule provides that House Resolution 188, agreed to March 8, 2021, is amended by striking April 1, 2022 each place it appears and inserting April 29, 2022.", "type": "Floor"}, {"actionCode": "H12410", "actionDate": "2022-03-24", "calendarNumber": {"calendar": "U00203"}, "sourceSystem": {"code": 2, "name": "House floor actions"}, "text": "Placed on the Union Calendar, Calendar No. 203.", "type": "Calendars"}], "pagination": {"count": 58, "next": "https://api.congress.gov/v3/bill/117/hr/3617/actions?offset=20&limit=20&format=json"}, "request": {"billNumber": "3617", "billType": "hr", "billUrl": "https://api.congress.gov/v3/bill/117/hr/3617?format=json", "congress": "117", "contentType": "application/json", "format": "json"}}, 200]