[{"actions": [{"actionDate": "2022-11-17", "committees": [{"name": "Finance Committee", "systemCode": "ssfi00", "url": "https://api.congress.gov/v3/committee/senate/ssfi00?format=json"}], "sourceSystem": {"name": "Senate"}, "text": "Received in the Senate and Read twice and referred to the Committee on Finance.", "type": "IntroReferral"}, {"actionCode": "H38310", "actionDate": "2022-11-17", "actionTime": "14:59:25", "sourceSystem": {"code": 2, "name": "House floor actions"}, "text": "Motion to reconsider laid on the table Agreed to without objection.", "type": "Floor"}, {"actionCode": "H37300", "actionDate": "2022-11-17", "actionTime": "14:59:24", "recordedVotes": [{"chamber": "House", "congress": 117, "date": "2022-11-17T19:59:24Z", "rollNumber": 485, "sessionNumber": 2, "url": "https://clerk.house.gov/evs/2022/roll485.xml"}], "sourceSystem": {"code": 2, "name": "House floor actions"}, "text": "On motion to suspend the rules and pass the bill, as amended Agreed to by the Yeas and Nays: (2/3 required): 402 - 13 (Roll no. 485). (text: 11/14/2022 CR H8469)", "type": "Floor"}, {"actionCode": "8000", "actionDate": "2022-11-17", "actionTime": "14:59:24", "recordedVotes": [{"chamber": "House", "congress": 117, "date": "2022-11-17T19:59:24Z", "rollNumber": 485, "sessionNumber": 2, "url": "https://clerk.house.gov/evs/2022/roll485.xml"}], "sourceSystem": {"code": 9, "name": "Library of Congress"}, "text": "Passed/agreed to in House: On motion to suspend the rules and pass the bill, as amended Agreed to by the Yeas and Nays: (2/3 required): 402 - 13 (Roll no. 485).", "type": "Floor"}, {"actionCode": "H30000", "actionDate": "2022-11-17", "actionTime": "14:47:54", "sourceSystem": {"code": 2, "name": "House floor actions"}, "text": "Considered as unfinished business. (consideration: CR H8576-8577)", "type": "Floor"}, {"actionCode": "H37220", "actionDate": "2022-11-14", "actionTime": "16:11:23", "sourceSystem": {"code": 2, "name": "House floor actions"}, "text": "At the conclusion of debate, the Yeas and Nays were demanded and ordered. Pursuant to the provisions of clause 8, rule XX, the Chair announced that further proceedings on the motion would be postponed.", "type": "Floor"}, {"actionCode": "H8D000", "actionDate": "2022-11-14", "actionTime": "15:59:05", "sourceSystem": {"code": 2, "name": "House floor actions"}, "text": "DEBATE - The House proceeded with forty minutes of debate on H.R. 3630.", "type": "Floor"}, {"actionCode": "H30000", "actionDate": "2022-11-14", "actionTime": "15:59:04", "sourceSystem": {"code": 2, "name": "House floor actions"}, "text": "Considered under suspension of the rules. (consideration: CR H8469-8471)", "type": "Floor"}, {"actionCode": "H30300", "actionDate": "2022-11-14", "actionTime": "15:58:51", "sourceSystem": {"code": 2, "name": "House floor actions"}, "text": "Mr. Pallone moved to suspend the rules and pass the bill, as amended.", "type": "Floor"}, {"actionCode": "H12410", "actionDate": "2022-07-22", "calendarNumber": {"calendar": "U00336"}, "sourceSystem": {"code": 2, "name": "House floor actions"}, "text": "Placed on the Union Calendar, Calendar No. 336.", "type": "Calendars"}, {"actionCode": "H12300", "actionDate": "2022-07-22", "committees": [{"name": "Ways and Means Committee", "systemCode": "hswm00", "url": "https://api.congress.gov/v3/committee/house/hswm00?format=json"}], "sourceSystem": {"code": 2, "name": "House floor actions"}, "text": "Committee on Ways and Means discharged.", "type": "Discharge"}, {"actionCode": "5500", "actionDate": "2022-07-22", "committees": [{"name": "Ways and Means Committee", "systemCode": "hswm00", "url": "https://api.congress.gov/v3/committee/house/hswm00?format=json"}], "sourceSystem": {"code": 9, "name": "Library of Congress"}, "text": "Committee on Ways and Means discharged.", "type": "Committee"}, {"actionCode": "H12200", "actionDate": "2022-07-22", "committees": [{"name": "Energy and Commerce Committee", "systemCode": "hsif00", "url": "https://api.congress.gov/v3/committee/house/hsif00?format=json"}], "sourceSystem": {"code": 2, "name": "House floor actions"}, "text": "Reported (Amended) by the Committee on Energy and Commerce. H. Rept. 117-430, Part I.", "type": "Committee"}, {"actionCode": "5000", "actionDate": "2022-07-22", "committees": [{"name": "Energy and Commerce Committee", "systemCode": "hsif00", "url": "https://api.congress.gov/v3/committee/house/hsif00?format=json"}], "sourceSystem": {"code": 9, "name": "Library of Congress"}, "text": "Reported (Amended) by the Committee on Energy and Commerce. H. Rept. 117-430, Part I.", "type": "Committee"}, {"actionCode": "H19000", "actionDate": "2022-07-13", "committees": [{"name": "Energy and Commerce Committee", "systemCode": "hsif00", "url": "https://api.congress.gov/v3/committee/house/hsif00?format=json"}], "sourceSystem": {"code": 1, "name": "House committee actions"}, "text": "Ordered to be Reported (Amended) by Voice Vote.", "type": "Committee"}, {"actionCode": "H15000-B", "actionDate": "2022-07-13", "committees": [{"name": "Energy and Commerce Committee", "systemCode": "hsif00", "url": "https://api.congress.gov/v3/committee/house/hsif00?format=json"}], "sourceSystem": {"code": 1, "name": "House committee actions"}, "text": "Committee Consideration and Mark-up Session Held.", "type": "Committee"}, {"actionCode": "H25000", "actionDate": "2022-07-12", "committees": [{"name": "Energy and Commerce Committee", "systemCode": "hsif00", "url": "https://api.congress.gov/v3/committee/house/hsif00?format=json"}], "sourceSystem": {"code": 1, "name": "House committee actions"}, "text": "Subcommittee on Health Discharged.", "type": "Committee"}, {"actionCode": "H12440", "actionDate": "2022-06-08", "committees": [{"name": "Energy and Commerce Committee", "systemCode": "hsif00", "url": "https://api.congress.gov/v3/committee/house/hsif00?format=json"}], "sourceSystem": {"code": 2, "name": "House floor actions"}, "text": "Motion to place bill on Consensus Calendar filed by Ms. Schakowsky.", "type": "Calendars"}, {"actionCode": "H11000", "actionDate": "2021-05-31", "committees": [{"name": "Health Subcommittee", "systemCode": "hsif14", "url": "https://api.congress.gov/v3/committee/house/hsif14?format=json"}], "sourceSystem": {"code": 1, "name": "House committee actions"}, "text": "Referred to the Subcommittee on Health.", "type": "Committee"}, {"actionCode": "H11100", "actionDate": "2021-05-28", "committees": [{"name": "Ways and Means Committee", "systemCode": "hswm00", "url": "https://api.congress.gov/v3/committee/house/hswm00?format=json"}], "sourceSystem": {"code": 2, "name": "House floor actions"}, "text": "Referred to the Committee on Energy and Commerce, and in addition to the Committee on Ways and Means, for a period to be subsequently determined by the Speaker, in each case for consideration of such provisions as fall within the jurisdiction of the committee concerned.", "type": "IntroReferral"}], "pagination": {"count": 23, "next": "https://api.congress.gov/v3/bill/117/hr/3630/actions?offset=20&limit=20&format=json"}, "request": {"billNumber": "3630", "billType": "hr", "billUrl": "https://api.congress.gov/v3/bill/117/hr/3630?format=json", "congress": "117", "contentType": "application/json", "format": "json"}}, 200]