[{"actions": [{"actionCode": "E40000", "actionDate": "2021-08-25", "sourceSystem": {"code": 9, "name": "Library of Congress"}, "text": "Became Public Law No: 117-38.", "type": "President"}, {"actionCode": "36000", "actionDate": "2021-08-25", "sourceSystem": {"code": 9, "name": "Library of Congress"}, "text": "Became Public Law No: 117-38.", "type": "BecameLaw"}, {"actionCode": "E30000", "actionDate": "2021-08-25", "sourceSystem": {"code": 9, "name": "Library of Congress"}, "text": "Signed by President.", "type": "President"}, {"actionCode": "36000", "actionDate": "2021-08-25", "sourceSystem": {"code": 9, "name": "Library of Congress"}, "text": "Signed by President.", "type": "BecameLaw"}, {"actionCode": "E20000", "actionDate": "2021-08-24", "sourceSystem": {"code": 2, "name": "House floor actions"}, "text": "Presented to President.", "type": "Floor"}, {"actionCode": "28000", "actionDate": "2021-08-24", "sourceSystem": {"code": 9, "name": "Library of Congress"}, "text": "Presented to President.", "type": "President"}, {"actionDate": "2021-08-10", "sourceSystem": {"name": "Senate"}, "text": "Message on Senate action sent to the House.", "type": "Floor"}, {"actionDate": "2021-08-09", "sourceSystem": {"name": "Senate"}, "text": "Passed Senate without amendment by Unanimous Consent.", "type": "Floor"}, {"actionCode": "17000", "actionDate": "2021-08-09", "sourceSystem": {"code": 9, "name": "Library of Congress"}, "text": "Passed/agreed to in Senate: Passed Senate without amendment by Unanimous Consent.", "type": "Floor"}, {"actionDate": "2021-08-09", "committees": [{"name": "Banking, Housing, and Urban Affairs Committee", "systemCode": "ssbk00", "url": "https://api.congress.gov/v3/committee/senate/ssbk00?format=json"}], "sourceSystem": {"name": "Senate"}, "text": "Senate Committee on Banking, Housing, and Urban Affairs discharged by Unanimous Consent. (consideration: CR S6104)", "type": "Discharge"}, {"actionCode": "14500", "actionDate": "2021-08-09", "committees": [{"name": "Banking, Housing, and Urban Affairs Committee", "systemCode": "ssbk00", "url": "https://api.congress.gov/v3/committee/senate/ssbk00?format=json"}], "sourceSystem": {"code": 9, "name": "Library of Congress"}, "text": "Senate Committee on Banking, Housing, and Urban Affairs discharged by Unanimous Consent.(consideration: CR S6104)", "type": "Committee"}, {"actionDate": "2021-06-16", "committees": [{"name": "Banking, Housing, and Urban Affairs Committee", "systemCode": "ssbk00", "url": "https://api.congress.gov/v3/committee/senate/ssbk00?format=json"}], "sourceSystem": {"name": "Senate"}, "text": "Received in the Senate and Read twice and referred to the Committee on Banking, Housing, and Urban Affairs.", "type": "IntroReferral"}, {"actionCode": "H37300", "actionDate": "2021-06-15", "actionTime": "17:25:45", "sourceSystem": {"code": 2, "name": "House floor actions"}, "text": "Pursuant to section 8 of H. Res. 473, and the motion offered by Mr. McGovern, the following bills passed under suspension of the rules: H.R. 293; H.R. 587; H.R. 610, as amended; H.R. 1144, as amended; H.R. 1703, as amended; H.R. 1921; H.R. 2008; H.R. 2332, as amended; H.R. 2545; and H.R. 3642, as amended. (consideration: CR H2792-2799; text: CR H2797-2798)", "type": "Floor"}, {"actionCode": "8000", "actionDate": "2021-06-15", "actionTime": "17:25:45", "sourceSystem": {"code": 9, "name": "Library of Congress"}, "text": "Passed/agreed to in House: Pursuant to section 8 of H. Res. 473, and the motion offered by Mr. McGovern, the following bills passed under suspension of the rules: H.R. 293; H.R. 587; H.R. 610, as amended; H.R. 1144, as amended; H.R. 1703, as amended; H.R. 1921; H.R. 2008; H.R. 2332, as amended; H.R. 2545; and H.R. 3642, as amended.(consideration: CR H2792-2799; text: CR H2797-2798)", "type": "Floor"}, {"actionCode": "H1B000", "actionDate": "2021-06-15", "actionTime": "17:25:44", "sourceSystem": {"code": 2, "name": "House floor actions"}, "text": "Pursuant to the provisions of H. Res. 473, proceedings on H.R. 3642 are considered vacated.", "type": "Floor"}, {"actionCode": "H37220", "actionDate": "2021-06-15", "actionTime": "15:25:53", "sourceSystem": {"code": 2, "name": "House floor actions"}, "text": "At the conclusion of debate, the Yeas and Nays were demanded and ordered. Pursuant to the provisions of clause 8, rule XX, the Chair announced that further proceedings on the motion would be postponed.", "type": "Floor"}, {"actionCode": "H8D000", "actionDate": "2021-06-15", "actionTime": "15:03:21", "sourceSystem": {"code": 2, "name": "House floor actions"}, "text": "DEBATE - The House proceeded with forty minutes of debate on H.R. 3642.", "type": "Floor"}, {"actionCode": "H30000", "actionDate": "2021-06-15", "actionTime": "15:03:18", "sourceSystem": {"code": 2, "name": "House floor actions"}, "text": "Considered under suspension of the rules. (consideration: CR H2782-2785; text: CR H2782)", "type": "Floor"}, {"actionCode": "H30300", "actionDate": "2021-06-15", "actionTime": "15:02:35", "sourceSystem": {"code": 2, "name": "House floor actions"}, "text": "Ms. Waters moved to suspend the rules and pass the bill, as amended.", "type": "Floor"}, {"actionCode": "H11100", "actionDate": "2021-05-28", "committees": [{"name": "Committee on House Administration", "systemCode": "hsha00", "url": "https://api.congress.gov/v3/committee/house/hsha00?format=json"}], "sourceSystem": {"code": 2, "name": "House floor actions"}, "text": "Referred to the Committee on Financial Services, and in addition to the Committee on House Administration, for a period to be subsequently determined by the Speaker, in each case for consideration of such provisions as fall within the jurisdiction of the committee concerned.", "type": "IntroReferral"}], "pagination": {"count": 23, "next": "https://api.congress.gov/v3/bill/117/hr/3642/actions?offset=20&limit=20&format=json"}, "request": {"billNumber": "3642", "billType": "hr", "billUrl": "https://api.congress.gov/v3/bill/117/hr/3642?format=json", "congress": "117", "contentType": "application/json", "format": "json"}}, 200]