[{"actions": [{"actionCode": "E40000", "actionDate": "2022-03-14", "sourceSystem": {"code": 9, "name": "Library of Congress"}, "text": "Became Public Law No: 117-98.", "type": "President"}, {"actionCode": "36000", "actionDate": "2022-03-14", "sourceSystem": {"code": 9, "name": "Library of Congress"}, "text": "Became Public Law No: 117-98.", "type": "BecameLaw"}, {"actionCode": "E30000", "actionDate": "2022-03-14", "sourceSystem": {"code": 9, "name": "Library of Congress"}, "text": "Signed by President.", "type": "President"}, {"actionCode": "36000", "actionDate": "2022-03-14", "sourceSystem": {"code": 9, "name": "Library of Congress"}, "text": "Signed by President.", "type": "BecameLaw"}, {"actionCode": "E20000", "actionDate": "2022-03-11", "sourceSystem": {"code": 2, "name": "House floor actions"}, "text": "Presented to President.", "type": "Floor"}, {"actionCode": "28000", "actionDate": "2022-03-11", "sourceSystem": {"code": 9, "name": "Library of Congress"}, "text": "Presented to President.", "type": "President"}, {"actionDate": "2022-03-03", "sourceSystem": {"name": "Senate"}, "text": "Message on Senate action sent to the House.", "type": "Floor"}, {"actionDate": "2022-03-03", "sourceSystem": {"name": "Senate"}, "text": "Passed Senate without amendment by Unanimous Consent.", "type": "Floor"}, {"actionCode": "17000", "actionDate": "2022-03-03", "sourceSystem": {"code": 9, "name": "Library of Congress"}, "text": "Passed/agreed to in Senate: Passed Senate without amendment by Unanimous Consent.", "type": "Floor"}, {"actionDate": "2022-03-03", "committees": [{"name": "Veterans' Affairs Committee", "systemCode": "ssva00", "url": "https://api.congress.gov/v3/committee/senate/ssva00?format=json"}], "sourceSystem": {"name": "Senate"}, "text": "Senate Committee on Veterans' Affairs discharged by Unanimous Consent. (consideration: CR S998)", "type": "Discharge"}, {"actionCode": "14500", "actionDate": "2022-03-03", "committees": [{"name": "Veterans' Affairs Committee", "systemCode": "ssva00", "url": "https://api.congress.gov/v3/committee/senate/ssva00?format=json"}], "sourceSystem": {"code": 9, "name": "Library of Congress"}, "text": "Senate Committee on Veterans' Affairs discharged by Unanimous Consent.(consideration: CR S998)", "type": "Committee"}, {"actionDate": "2021-11-16", "committees": [{"name": "Veterans' Affairs Committee", "systemCode": "ssva00", "url": "https://api.congress.gov/v3/committee/senate/ssva00?format=json"}], "sourceSystem": {"name": "Senate"}, "text": "Received in the Senate and Read twice and referred to the Committee on Veterans' Affairs.", "type": "IntroReferral"}, {"actionCode": "H38310", "actionDate": "2021-11-15", "actionTime": "17:27:28", "sourceSystem": {"code": 2, "name": "House floor actions"}, "text": "Motion to reconsider laid on the table Agreed to without objection.", "type": "Floor"}, {"actionCode": "H37300", "actionDate": "2021-11-15", "actionTime": "17:27:23", "sourceSystem": {"code": 2, "name": "House floor actions"}, "text": "On motion to suspend the rules and pass the bill Agreed to by voice vote. (text: CR H6253)", "type": "Floor"}, {"actionCode": "8000", "actionDate": "2021-11-15", "actionTime": "17:27:23", "sourceSystem": {"code": 9, "name": "Library of Congress"}, "text": "Passed/agreed to in House: On motion to suspend the rules and pass the bill Agreed to by voice vote.(text: CR H6253)", "type": "Floor"}, {"actionCode": "H8D000", "actionDate": "2021-11-15", "actionTime": "17:11:21", "sourceSystem": {"code": 2, "name": "House floor actions"}, "text": "DEBATE - The House proceeded with forty minutes of debate on H.R. 3665.", "type": "Floor"}, {"actionCode": "H30000", "actionDate": "2021-11-15", "actionTime": "17:11:13", "sourceSystem": {"code": 2, "name": "House floor actions"}, "text": "Considered under suspension of the rules. (consideration: CR H6253-6255)", "type": "Floor"}, {"actionCode": "H30300", "actionDate": "2021-11-15", "actionTime": "17:10:54", "sourceSystem": {"code": 2, "name": "House floor actions"}, "text": "Mr. Takano moved to suspend the rules and pass the bill.", "type": "Floor"}, {"actionCode": "H11000", "actionDate": "2021-09-07", "committees": [{"name": "Health Subcommittee", "systemCode": "hsvr03", "url": "https://api.congress.gov/v3/committee/house/hsvr03?format=json"}], "sourceSystem": {"code": 1, "name": "House committee actions"}, "text": "Referred to the Subcommittee on Health.", "type": "Committee"}, {"actionCode": "H11100", "actionDate": "2021-06-01", "committees": [{"name": "Veterans' Affairs Committee", "systemCode": "hsvr00", "url": "https://api.congress.gov/v3/committee/house/hsvr00?format=json"}], "sourceSystem": {"code": 2, "name": "House floor actions"}, "text": "Referred to the House Committee on Veterans' Affairs.", "type": "IntroReferral"}], "pagination": {"count": 22, "next": "https://api.congress.gov/v3/bill/117/hr/3665/actions?offset=20&limit=20&format=json"}, "request": {"billNumber": "3665", "billType": "hr", "billUrl": "https://api.congress.gov/v3/bill/117/hr/3665?format=json", "congress": "117", "contentType": "application/json", "format": "json"}}, 200]