[{"actions": [{"actionDate": "2022-08-04", "committees": [{"name": "Banking, Housing, and Urban Affairs Committee", "systemCode": "ssbk00", "url": "https://api.congress.gov/v3/committee/senate/ssbk00?format=json"}], "sourceSystem": {"name": "Senate"}, "text": "Committee on Banking, Housing, and Urban Affairs. Hearings held.", "type": "Committee"}, {"actionCode": "E40000", "actionDate": "2021-11-15", "sourceSystem": {"code": 9, "name": "Library of Congress"}, "text": "Became Public Law No: 117-58.", "type": "President"}, {"actionCode": "36000", "actionDate": "2021-11-15", "sourceSystem": {"code": 9, "name": "Library of Congress"}, "text": "Became Public Law No: 117-58.", "type": "BecameLaw"}, {"actionCode": "E30000", "actionDate": "2021-11-15", "sourceSystem": {"code": 9, "name": "Library of Congress"}, "text": "Signed by President.", "type": "President"}, {"actionCode": "36000", "actionDate": "2021-11-15", "sourceSystem": {"code": 9, "name": "Library of Congress"}, "text": "Signed by President.", "type": "BecameLaw"}, {"actionCode": "E20000", "actionDate": "2021-11-08", "sourceSystem": {"code": 2, "name": "House floor actions"}, "text": "Presented to President.", "type": "Floor"}, {"actionCode": "28000", "actionDate": "2021-11-08", "sourceSystem": {"code": 9, "name": "Library of Congress"}, "text": "Presented to President.", "type": "President"}, {"actionCode": "H41931", "actionDate": "2021-11-05", "actionTime": "23:52:55", "sourceSystem": {"code": 2, "name": "House floor actions"}, "text": "Motion to reconsider laid on the table Agreed to without objection.", "type": "ResolvingDifferences"}, {"actionCode": "H41931", "actionDate": "2021-11-05", "actionTime": "23:52:41", "recordedVotes": [{"chamber": "House", "congress": 117, "date": "2021-11-06T03:52:41Z", "rollNumber": 370, "sessionNumber": 1, "url": "https://clerk.house.gov/evs/2021/roll370.xml"}], "sourceSystem": {"code": 2, "name": "House floor actions"}, "text": "On motion to table the motion to reconsider Agreed to by the Yeas and Nays: 228 - 205 (Roll no. 370).", "type": "ResolvingDifferences"}, {"actionCode": "H82000", "actionDate": "2021-11-05", "actionTime": "23:28:17", "sourceSystem": {"code": 2, "name": "House floor actions"}, "text": "Mr. Horsford moved to table the motion to reconsider the vote (CR H6231)", "type": "ResolvingDifferences"}, {"actionCode": "H41930", "actionDate": "2021-11-05", "actionTime": "23:28:16", "sourceSystem": {"code": 2, "name": "House floor actions"}, "text": "Kelly (IL) moved to reconsider the vote. (CR H6231)", "type": "ResolvingDifferences"}, {"actionCode": "H41610", "actionDate": "2021-11-05", "actionTime": "23:27:28", "recordedVotes": [{"chamber": "House", "congress": 117, "date": "2021-11-06T03:27:28Z", "rollNumber": 369, "sessionNumber": 1, "url": "https://clerk.house.gov/evs/2021/roll369.xml"}], "sourceSystem": {"code": 2, "name": "House floor actions"}, "text": "On motion that the House agree to the Senate amendment Agreed to by the Yeas and Nays: 228 - 206 (Roll no. 369). (consideration: CR H6230-6231)", "type": "ResolvingDifferences"}, {"actionCode": "19500", "actionDate": "2021-11-05", "recordedVotes": [{"chamber": "House", "congress": 117, "date": "2021-11-06T03:27:28Z", "rollNumber": 369, "sessionNumber": 1, "url": "https://clerk.house.gov/evs/2021/roll369.xml"}], "sourceSystem": {"code": 9, "name": "Library of Congress"}, "text": "Resolving differences -- House actions: On motion that the House agree to the Senate amendment Agreed to by the Yeas and Nays: 228 - 206 (Roll no. 369).(consideration: CR H6230-6231)", "type": "NotUsed"}, {"actionCode": "H8D000", "actionDate": "2021-10-01", "actionTime": "20:14:01", "sourceSystem": {"code": 2, "name": "House floor actions"}, "text": "POSTPONED PROCEEDINGS - Pursuant to clause 1(c) of rule XIX, further consideration of the motion to concur in the Senate amendment to H.R. 3684 is postponed.", "type": "Floor"}, {"actionCode": "H8D000", "actionDate": "2021-10-01", "actionTime": "20:14:00", "sourceSystem": {"code": 2, "name": "House floor actions"}, "text": "Considered as unfinished business. (consideration: CR H5589)", "type": "Floor"}, {"actionCode": "H8D000", "actionDate": "2021-09-28", "actionTime": "12:48:14", "sourceSystem": {"code": 2, "name": "House floor actions"}, "text": "POSTPONED PROCEEDINGS - At the conclusion of debate on the motion to agree to the Senate amendment to H.R. 3684, the Chair put the question on passage of the motion and by voice vote announced the ayes had prevailed. Mr. Graves (MO) demanded the yeas and nays and further proceedings on the question of adoption of the motion was postponed until a time to be announced.", "type": "Floor"}, {"actionCode": "H41400", "actionDate": "2021-09-28", "actionTime": "12:48:13", "sourceSystem": {"code": 2, "name": "House floor actions"}, "text": "The previous question was ordered pursuant to the rule.", "type": "ResolvingDifferences"}, {"actionCode": "H8D000", "actionDate": "2021-09-28", "actionTime": "12:19:16", "sourceSystem": {"code": 2, "name": "House floor actions"}, "text": "DEBATE - The House resumed with debate on the motion to agree to Senate amendment to H.R. 3684.", "type": "Floor"}, {"actionCode": "H8D000", "actionDate": "2021-09-28", "actionTime": "12:19:15", "sourceSystem": {"code": 2, "name": "House floor actions"}, "text": "Pursuant to clause 1(c) of rule XIX, the House proceeded with further debate on the motion to agree to the Senate amendment to H.R. 3684. (consideration: CR H5473-5477)", "type": "Floor"}, {"actionCode": "H8D000", "actionDate": "2021-09-27", "actionTime": "20:02:30", "sourceSystem": {"code": 2, "name": "House floor actions"}, "text": "The Chair announced that pursuant to clause 1(c) of rule XIX, further proceedings on agreeing to the Senate amendment to H.R. 3684 were postponed.", "type": "Floor"}], "pagination": {"count": 101, "next": "https://api.congress.gov/v3/bill/117/hr/3684/actions?offset=20&limit=20&format=json"}, "request": {"billNumber": "3684", "billType": "hr", "billUrl": "https://api.congress.gov/v3/bill/117/hr/3684?format=json", "congress": "117", "contentType": "application/json", "format": "json"}}, 200]