[{"actions": [{"actionDate": "2022-02-28", "recordedVotes": [{"chamber": "Senate", "congress": 117, "date": "2022-02-28T23:29:08Z", "rollNumber": 65, "sessionNumber": 2, "url": "https://www.senate.gov/legislative/LIS/roll_call_votes/vote1172/vote_117_2_00065.xml"}], "sourceSystem": {"name": "Senate"}, "text": "Cloture on the motion to proceed to the measure not invoked in Senate by Yea-Nay Vote. 46 - 48. Record Vote Number: 65. (CR S826)", "type": "Floor"}, {"actionDate": "2022-02-28", "sourceSystem": {"name": "Senate"}, "text": "Motion to proceed to measure considered in Senate. (CR S819)", "type": "Floor"}, {"actionDate": "2022-02-17", "sourceSystem": {"name": "Senate"}, "text": "Motion to proceed to consideration of measure withdrawn in Senate. (CR S797)", "type": "Floor"}, {"actionDate": "2022-02-17", "sourceSystem": {"name": "Senate"}, "text": "Cloture motion on the motion to proceed to the measure presented in Senate. (CR S797)", "type": "Floor"}, {"actionDate": "2022-02-17", "sourceSystem": {"name": "Senate"}, "text": "Motion to proceed to consideration of measure made in Senate. (CR S797)", "type": "Floor"}, {"actionDate": "2021-09-29", "calendarNumber": {"calendar": "Senate Calendar of Business", "number": "0139"}, "sourceSystem": {"name": "Senate"}, "text": "Read the second time. Placed on Senate Legislative Calendar under General Orders. Calendar No. 139.", "type": "Calendars"}, {"actionDate": "2021-09-28", "calendarNumber": {"calendar": "Senate Calendar of Business"}, "sourceSystem": {"name": "Senate"}, "text": "Read the first time. Placed on Senate Legislative Calendar under Read the First Time.", "type": "Calendars"}, {"actionDate": "2021-09-27", "sourceSystem": {"name": "Senate"}, "text": "Received in the Senate.", "type": "IntroReferral"}, {"actionCode": "H38310", "actionDate": "2021-09-24", "actionTime": "11:56:19", "sourceSystem": {"code": 2, "name": "House floor actions"}, "text": "Motion to reconsider laid on the table Agreed to without objection.", "type": "Floor"}, {"actionCode": "H37100", "actionDate": "2021-09-24", "actionTime": "11:56:17", "recordedVotes": [{"chamber": "House", "congress": 117, "date": "2021-09-24T15:56:17Z", "rollNumber": 295, "sessionNumber": 1, "url": "https://clerk.house.gov/evs/2021/roll295.xml"}], "sourceSystem": {"code": 2, "name": "House floor actions"}, "text": "On passage Passed by the Yeas and Nays: 218 - 211 (Roll no. 295).", "type": "Floor"}, {"actionCode": "8000", "actionDate": "2021-09-24", "actionTime": "11:56:17", "recordedVotes": [{"chamber": "House", "congress": 117, "date": "2021-09-24T15:56:17Z", "rollNumber": 295, "sessionNumber": 1, "url": "https://clerk.house.gov/evs/2021/roll295.xml"}], "sourceSystem": {"code": 9, "name": "Library of Congress"}, "text": "Passed/agreed to in House: On passage Passed by the Yeas and Nays: 218 - 211 (Roll no. 295).", "type": "Floor"}, {"actionCode": "H36210", "actionDate": "2021-09-24", "actionTime": "11:28:42", "committees": [{"name": "Energy and Commerce Committee", "systemCode": "hsif00", "url": "https://api.congress.gov/v3/committee/house/hsif00?format=json"}], "recordedVotes": [{"chamber": "House", "congress": 117, "date": "2021-09-24T15:28:42Z", "rollNumber": 294, "sessionNumber": 1, "url": "https://clerk.house.gov/evs/2021/roll294.xml"}], "sourceSystem": {"code": 2, "name": "House floor actions"}, "text": "On motion to recommit Failed by the Yeas and Nays: 210 - 219 (Roll no. 294).", "type": "Floor"}, {"actionCode": "H8A000", "actionDate": "2021-09-24", "actionTime": "10:54:33", "sourceSystem": {"code": 2, "name": "House floor actions"}, "text": "The previous question on the motion to recommit was ordered pursuant to clause 2(b) of rule XIX.", "type": "Floor"}, {"actionCode": "H36200", "actionDate": "2021-09-24", "actionTime": "10:54:07", "committees": [{"name": "Energy and Commerce Committee", "systemCode": "hsif00", "url": "https://api.congress.gov/v3/committee/house/hsif00?format=json"}], "sourceSystem": {"code": 2, "name": "House floor actions"}, "text": "Ms. Letlow moved to recommit to the Committee on Energy and Commerce. (text: CR H5157)", "type": "Floor"}, {"actionCode": "H35000", "actionDate": "2021-09-24", "actionTime": "10:53:36", "sourceSystem": {"code": 2, "name": "House floor actions"}, "text": "The previous question was ordered pursuant to the rule.", "type": "Floor"}, {"actionCode": "H8D000", "actionDate": "2021-09-24", "actionTime": "09:19:33", "sourceSystem": {"code": 2, "name": "House floor actions"}, "text": "DEBATE - The House proceeded with one hour of debate on H.R. 3755.", "type": "Floor"}, {"actionCode": "H8D000", "actionDate": "2021-09-24", "actionTime": "09:19:17", "sourceSystem": {"code": 2, "name": "House floor actions"}, "text": "Rule provides for consideration of H.R. 3755, H.R. 4350 and H.R. 5305. Rule provides for one hour of debate on H.R. 3755; one hour of debate on H.R. 4350, with consideration under a structured rule; and one hour of debate on H.R. 5305, with consideration under a closed rule. The rule provides that proceedings may be postponed through October 1, 2021, on measures that were the object of motions to suspend the rules on the legislative days of July 26, July 27, or September 21, 2021 and on which the yeas and nays were ordered. The rule provides that House Resolution 188, agreed to March 8, 2021, is further amended by striking \"September 22, 2021\" and inserting \"October 27, 2021\".", "type": "Floor"}, {"actionCode": "H30000", "actionDate": "2021-09-24", "actionTime": "09:19:12", "sourceSystem": {"code": 2, "name": "House floor actions"}, "text": "Considered under the provisions of rule H. Res. 667. (consideration: CR H5139-5159)", "type": "Floor"}, {"actionCode": "H1L210", "actionDate": "2021-09-21", "actionTime": "15:48:27", "sourceSystem": {"code": 2, "name": "House floor actions"}, "text": "Rules Committee Resolution H. Res. 667 Reported to House. Rule provides for consideration of H.R. 3755, H.R. 4350 and H.R. 5305. Rule provides for one hour of debate on H.R. 3755; one hour of debate on H.R. 4350, with consideration under a structured rule; and one hour of debate on H.R. 5305, with consideration under a closed rule. The rule provides that proceedings may be postponed through October 1, 2021, on measures that were the object of motions to suspend the rules on the legislative days of July 26, July 27, or September 21, 2021 and on which the yeas and nays were ordered. The rule provides that House Resolution 188, agreed to March 8, 2021, is further amended by striking \"September 22, 2021\" and inserting \"October 27, 2021\".", "type": "Floor"}, {"actionCode": "H11000", "actionDate": "2021-06-09", "committees": [{"name": "Health Subcommittee", "systemCode": "hsif14", "url": "https://api.congress.gov/v3/committee/house/hsif14?format=json"}], "sourceSystem": {"code": 1, "name": "House committee actions"}, "text": "Referred to the Subcommittee on Health.", "type": "Committee"}], "pagination": {"count": 23, "next": "https://api.congress.gov/v3/bill/117/hr/3755/actions?offset=20&limit=20&format=json"}, "request": {"billNumber": "3755", "billType": "hr", "billUrl": "https://api.congress.gov/v3/bill/117/hr/3755?format=json", "congress": "117", "contentType": "application/json", "format": "json"}}, 200]