[{"actions": [{"actionCode": "H12410", "actionDate": "2022-12-30", "calendarNumber": {"calendar": "U00511"}, "sourceSystem": {"code": 2, "name": "House floor actions"}, "text": "Placed on the Union Calendar, Calendar No. 511.", "type": "Calendars"}, {"actionCode": "H12300", "actionDate": "2022-12-30", "committees": [{"name": "Armed Services Committee", "systemCode": "hsas00", "url": "https://api.congress.gov/v3/committee/house/hsas00?format=json"}], "sourceSystem": {"code": 2, "name": "House floor actions"}, "text": "Committee on Armed Services discharged.", "type": "Discharge"}, {"actionCode": "5500", "actionDate": "2022-12-30", "committees": [{"name": "Armed Services Committee", "systemCode": "hsas00", "url": "https://api.congress.gov/v3/committee/house/hsas00?format=json"}], "sourceSystem": {"code": 9, "name": "Library of Congress"}, "text": "Committee on Armed Services discharged.", "type": "Committee"}, {"actionCode": "H12300", "actionDate": "2022-12-30", "committees": [{"name": "Foreign Affairs Committee", "systemCode": "hsfa00", "url": "https://api.congress.gov/v3/committee/house/hsfa00?format=json"}], "sourceSystem": {"code": 2, "name": "House floor actions"}, "text": "Committee on Foreign Affairs discharged.", "type": "Discharge"}, {"actionCode": "5500", "actionDate": "2022-12-30", "committees": [{"name": "Foreign Affairs Committee", "systemCode": "hsfa00", "url": "https://api.congress.gov/v3/committee/house/hsfa00?format=json"}], "sourceSystem": {"code": 9, "name": "Library of Congress"}, "text": "Committee on Foreign Affairs discharged.", "type": "Committee"}, {"actionCode": "H12300", "actionDate": "2022-12-30", "committees": [{"name": "Transportation and Infrastructure Committee", "systemCode": "hspw00", "url": "https://api.congress.gov/v3/committee/house/hspw00?format=json"}], "sourceSystem": {"code": 2, "name": "House floor actions"}, "text": "Committee on Transportation discharged.", "type": "Discharge"}, {"actionCode": "5500", "actionDate": "2022-12-30", "committees": [{"name": "Transportation and Infrastructure Committee", "systemCode": "hspw00", "url": "https://api.congress.gov/v3/committee/house/hspw00?format=json"}], "sourceSystem": {"code": 9, "name": "Library of Congress"}, "text": "Committee on Transportation discharged.", "type": "Committee"}, {"actionCode": "H12300", "actionDate": "2022-12-30", "committees": [{"name": "Ways and Means Committee", "systemCode": "hswm00", "url": "https://api.congress.gov/v3/committee/house/hswm00?format=json"}], "sourceSystem": {"code": 2, "name": "House floor actions"}, "text": "Committee on Ways and Means discharged.", "type": "Discharge"}, {"actionCode": "5500", "actionDate": "2022-12-30", "committees": [{"name": "Ways and Means Committee", "systemCode": "hswm00", "url": "https://api.congress.gov/v3/committee/house/hswm00?format=json"}], "sourceSystem": {"code": 9, "name": "Library of Congress"}, "text": "Committee on Ways and Means discharged.", "type": "Committee"}, {"actionCode": "H12300", "actionDate": "2022-12-30", "committees": [{"name": "Committee on House Administration", "systemCode": "hsha00", "url": "https://api.congress.gov/v3/committee/house/hsha00?format=json"}], "sourceSystem": {"code": 2, "name": "House floor actions"}, "text": "Committee on House Administration discharged.", "type": "Discharge"}, {"actionCode": "5500", "actionDate": "2022-12-30", "committees": [{"name": "Committee on House Administration", "systemCode": "hsha00", "url": "https://api.congress.gov/v3/committee/house/hsha00?format=json"}], "sourceSystem": {"code": 9, "name": "Library of Congress"}, "text": "Committee on House Administration discharged.", "type": "Committee"}, {"actionCode": "H12300", "actionDate": "2022-12-30", "committees": [{"name": "Science, Space, and Technology Committee", "systemCode": "hssy00", "url": "https://api.congress.gov/v3/committee/house/hssy00?format=json"}], "sourceSystem": {"code": 2, "name": "House floor actions"}, "text": "Committee on Science, Space, and Technology discharged.", "type": "Discharge"}, {"actionCode": "5500", "actionDate": "2022-12-30", "committees": [{"name": "Science, Space, and Technology Committee", "systemCode": "hssy00", "url": "https://api.congress.gov/v3/committee/house/hssy00?format=json"}], "sourceSystem": {"code": 9, "name": "Library of Congress"}, "text": "Committee on Science, Space, and Technology discharged.", "type": "Committee"}, {"actionCode": "H12200", "actionDate": "2022-12-30", "committees": [{"name": "Natural Resources Committee", "systemCode": "hsii00", "url": "https://api.congress.gov/v3/committee/house/hsii00?format=json"}], "sourceSystem": {"code": 2, "name": "House floor actions"}, "text": "Reported (Amended) by the Committee on Natural Resources. H. Rept. 117-695, Part I.", "type": "Committee"}, {"actionCode": "5000", "actionDate": "2022-12-30", "committees": [{"name": "Natural Resources Committee", "systemCode": "hsii00", "url": "https://api.congress.gov/v3/committee/house/hsii00?format=json"}], "sourceSystem": {"code": 9, "name": "Library of Congress"}, "text": "Reported (Amended) by the Committee on Natural Resources. H. Rept. 117-695, Part I.", "type": "Committee"}, {"actionCode": "H19000", "actionDate": "2021-07-14", "committees": [{"name": "Natural Resources Committee", "systemCode": "hsii00", "url": "https://api.congress.gov/v3/committee/house/hsii00?format=json"}], "sourceSystem": {"code": 1, "name": "House committee actions"}, "text": "Ordered to be Reported (Amended) by the Yeas and Nays: 23 - 19.", "type": "Committee"}, {"actionCode": "H15000-B", "actionDate": "2021-07-14", "committees": [{"name": "Natural Resources Committee", "systemCode": "hsii00", "url": "https://api.congress.gov/v3/committee/house/hsii00?format=json"}], "sourceSystem": {"code": 1, "name": "House committee actions"}, "text": "Committee Consideration and Mark-up Session Held.", "type": "Committee"}, {"actionCode": "H14000-B", "actionDate": "2021-06-22", "committees": [{"name": "Natural Resources Committee", "systemCode": "hsii00", "url": "https://api.congress.gov/v3/committee/house/hsii00?format=json"}], "sourceSystem": {"code": 1, "name": "House committee actions"}, "text": "Committee Hearings Held.", "type": "Committee"}, {"actionCode": "H11000", "actionDate": "2021-06-09", "committees": [{"name": "Coast Guard and Maritime Transportation Subcommittee", "systemCode": "hspw07", "url": "https://api.congress.gov/v3/committee/house/hspw07?format=json"}], "sourceSystem": {"code": 1, "name": "House committee actions"}, "text": "Referred to the Subcommittee on Coast Guard and Maritime Transportation.", "type": "Committee"}, {"actionCode": "H11000", "actionDate": "2021-06-09", "committees": [{"name": "Water Resources and Environment Subcommittee", "systemCode": "hspw02", "url": "https://api.congress.gov/v3/committee/house/hspw02?format=json"}], "sourceSystem": {"code": 1, "name": "House committee actions"}, "text": "Referred to the Subcommittee on Water Resources and Environment.", "type": "Committee"}], "pagination": {"count": 30, "next": "https://api.congress.gov/v3/bill/117/hr/3764/actions?offset=20&limit=20&format=json"}, "request": {"billNumber": "3764", "billType": "hr", "billUrl": "https://api.congress.gov/v3/bill/117/hr/3764?format=json", "congress": "117", "contentType": "application/json", "format": "json"}}, 200]