[{"actions": [{"actionDate": "2022-07-28", "committees": [{"name": "Health, Education, Labor, and Pensions Committee", "systemCode": "sshr00", "url": "https://api.congress.gov/v3/committee/senate/sshr00?format=json"}], "sourceSystem": {"name": "Senate"}, "text": "Received in the Senate and Read twice and referred to the Committee on Health, Education, Labor, and Pensions.", "type": "IntroReferral"}, {"actionCode": "H38310", "actionDate": "2022-07-27", "actionTime": "17:52:39", "sourceSystem": {"code": 2, "name": "House floor actions"}, "text": "Motion to reconsider laid on the table Agreed to without objection.", "type": "Floor"}, {"actionCode": "H37100", "actionDate": "2022-07-27", "actionTime": "17:52:37", "recordedVotes": [{"chamber": "House", "congress": 117, "date": "2022-07-27T21:52:37Z", "rollNumber": 398, "sessionNumber": 2, "url": "https://clerk.house.gov/evs/2022/roll398.xml"}], "sourceSystem": {"code": 2, "name": "House floor actions"}, "text": "On passage Passed by recorded vote: 237 - 192 (Roll no. 398).", "type": "Floor"}, {"actionCode": "8000", "actionDate": "2022-07-27", "actionTime": "17:52:37", "recordedVotes": [{"chamber": "House", "congress": 117, "date": "2022-07-27T21:52:37Z", "rollNumber": 398, "sessionNumber": 2, "url": "https://clerk.house.gov/evs/2022/roll398.xml"}], "sourceSystem": {"code": 9, "name": "Library of Congress"}, "text": "Passed/agreed to in House: On passage Passed by recorded vote: 237 - 192 (Roll no. 398).", "type": "Floor"}, {"actionCode": "H36210", "actionDate": "2022-07-27", "actionTime": "17:43:37", "committees": [{"name": "Energy and Commerce Committee", "systemCode": "hsif00", "url": "https://api.congress.gov/v3/committee/house/hsif00?format=json"}], "recordedVotes": [{"chamber": "House", "congress": 117, "date": "2022-07-27T21:43:37Z", "rollNumber": 397, "sessionNumber": 2, "url": "https://clerk.house.gov/evs/2022/roll397.xml"}], "sourceSystem": {"code": 2, "name": "House floor actions"}, "text": "On motion to recommit Failed by the Yeas and Nays: 198 - 225 (Roll no. 397).", "type": "Floor"}, {"actionCode": "H30000", "actionDate": "2022-07-27", "actionTime": "17:34:26", "sourceSystem": {"code": 2, "name": "House floor actions"}, "text": "Considered as unfinished business. (consideration: CR H7220-7221)", "type": "Floor"}, {"actionCode": "H8D000", "actionDate": "2022-07-27", "actionTime": "12:38:55", "sourceSystem": {"code": 2, "name": "House floor actions"}, "text": "POSTPONED PROCEEDINGS - The Chair put the question on the Miller-Meeks motion to recommit and by voice vote, announced that the noes had prevailed. Mrs. Miller-Meeks demanded the yeas and nays and the Chair postponed further proceedings on the motion to recommit until a time to be announced.", "type": "Floor"}, {"actionCode": "H8A000", "actionDate": "2022-07-27", "actionTime": "12:38:45", "sourceSystem": {"code": 2, "name": "House floor actions"}, "text": "The previous question on the motion to recommit was ordered pursuant to clause 2(b) of rule XIX.", "type": "Floor"}, {"actionCode": "H36200", "actionDate": "2022-07-27", "actionTime": "12:38:35", "committees": [{"name": "Energy and Commerce Committee", "systemCode": "hsif00", "url": "https://api.congress.gov/v3/committee/house/hsif00?format=json"}], "sourceSystem": {"code": 2, "name": "House floor actions"}, "text": "Mrs. Miller-Meeks moved to recommit to the Committee on Energy and Commerce.", "type": "Floor"}, {"actionCode": "H8D000", "actionDate": "2022-07-27", "actionTime": "12:32:12", "sourceSystem": {"code": 2, "name": "House floor actions"}, "text": "DEBATE - Pursuant to the provisions of H. Res. 1254, the House proceeded with 10 minutes of debate on the Pallone Part A amendment No. 1.", "type": "Floor"}, {"actionCode": "H8D000", "actionDate": "2022-07-27", "actionTime": "12:15:29", "sourceSystem": {"code": 2, "name": "House floor actions"}, "text": "DEBATE - The House proceeded with one hour of debate on H.R. 3771.", "type": "Floor"}, {"actionCode": "H8D000", "actionDate": "2022-07-27", "actionTime": "12:14:00", "sourceSystem": {"code": 2, "name": "House floor actions"}, "text": "Rule provides for consideration of H.R. 3771, H.R. 5118 and H.R. 6929. Rule provides for consideration under structured rules for H.R. 3771, H.R. 5118 and H.R. 6929, and provides for one hour of general debate on each bill.", "type": "Floor"}, {"actionCode": "H30000", "actionDate": "2022-07-27", "actionTime": "12:13:55", "sourceSystem": {"code": 2, "name": "House floor actions"}, "text": "Considered under the provisions of rule H. Res. 1254. (consideration: CR H7185-7189; text: CR H7185)", "type": "Floor"}, {"actionCode": "H1L210", "actionDate": "2022-07-26", "actionTime": "11:49:50", "sourceSystem": {"code": 2, "name": "House floor actions"}, "text": "Rules Committee Resolution H. Res. 1254 Reported to House. Rule provides for consideration of H.R. 3771, H.R. 5118 and H.R. 6929. Rule provides for consideration under structured rules for H.R. 3771, H.R. 5118 and H.R. 6929, and provides for one hour of general debate on each bill.", "type": "Floor"}, {"actionCode": "H12410", "actionDate": "2022-07-21", "calendarNumber": {"calendar": "U00333"}, "sourceSystem": {"code": 2, "name": "House floor actions"}, "text": "Placed on the Union Calendar, Calendar No. 333.", "type": "Calendars"}, {"actionCode": "H12200", "actionDate": "2022-07-21", "committees": [{"name": "Energy and Commerce Committee", "systemCode": "hsif00", "url": "https://api.congress.gov/v3/committee/house/hsif00?format=json"}], "sourceSystem": {"code": 2, "name": "House floor actions"}, "text": "Reported (Amended) by the Committee on Energy and Commerce. H. Rept. 117-427.", "type": "Committee"}, {"actionCode": "5000", "actionDate": "2022-07-21", "committees": [{"name": "Energy and Commerce Committee", "systemCode": "hsif00", "url": "https://api.congress.gov/v3/committee/house/hsif00?format=json"}], "sourceSystem": {"code": 9, "name": "Library of Congress"}, "text": "Reported (Amended) by the Committee on Energy and Commerce. H. Rept. 117-427.", "type": "Committee"}, {"actionCode": "H19000", "actionDate": "2022-05-18", "committees": [{"name": "Energy and Commerce Committee", "systemCode": "hsif00", "url": "https://api.congress.gov/v3/committee/house/hsif00?format=json"}], "sourceSystem": {"code": 1, "name": "House committee actions"}, "text": "Ordered to be Reported (Amended) by the Yeas and Nays: 31 - 24.", "type": "Committee"}, {"actionCode": "H15000-B", "actionDate": "2022-05-18", "committees": [{"name": "Energy and Commerce Committee", "systemCode": "hsif00", "url": "https://api.congress.gov/v3/committee/house/hsif00?format=json"}], "sourceSystem": {"code": 1, "name": "House committee actions"}, "text": "Committee Consideration and Mark-up Session Held.", "type": "Committee"}, {"actionCode": "H23000", "actionDate": "2022-05-11", "committees": [{"name": "Health Subcommittee", "systemCode": "hsif14", "url": "https://api.congress.gov/v3/committee/house/hsif14?format=json"}], "sourceSystem": {"code": 1, "name": "House committee actions"}, "text": "Forwarded by Subcommittee to Full Committee (Amended) by Voice Vote .", "type": "Committee"}], "pagination": {"count": 25, "next": "https://api.congress.gov/v3/bill/117/hr/3771/actions?offset=20&limit=20&format=json"}, "request": {"billNumber": "3771", "billType": "hr", "billUrl": "https://api.congress.gov/v3/bill/117/hr/3771?format=json", "congress": "117", "contentType": "application/json", "format": "json"}}, 200]