[{"actions": [{"actionDate": "2022-10-11", "sourceSystem": {"name": "Senate"}, "text": "Received in the Senate.", "type": "IntroReferral"}, {"actionCode": "H38310", "actionDate": "2022-09-29", "actionTime": "15:09:39", "sourceSystem": {"code": 2, "name": "House floor actions"}, "text": "Motion to reconsider laid on the table Agreed to without objection.", "type": "Floor"}, {"actionCode": "H37100", "actionDate": "2022-09-29", "actionTime": "15:09:38", "recordedVotes": [{"chamber": "House", "congress": 117, "date": "2022-09-29T19:09:38Z", "rollNumber": 460, "sessionNumber": 2, "url": "https://clerk.house.gov/evs/2022/roll460.xml"}], "sourceSystem": {"code": 2, "name": "House floor actions"}, "text": "On passage Passed by the Yeas and Nays: 242 - 184 (Roll no. 460). (text: CR H8252-8253)", "type": "Floor"}, {"actionCode": "8000", "actionDate": "2022-09-29", "actionTime": "15:09:38", "recordedVotes": [{"chamber": "House", "congress": 117, "date": "2022-09-29T19:09:38Z", "rollNumber": 460, "sessionNumber": 2, "url": "https://clerk.house.gov/evs/2022/roll460.xml"}], "sourceSystem": {"code": 9, "name": "Library of Congress"}, "text": "Passed/agreed to in House: On passage Passed by the Yeas and Nays: 242 - 184 (Roll no. 460).", "type": "Floor"}, {"actionCode": "H30000", "actionDate": "2022-09-29", "actionTime": "14:59:50", "sourceSystem": {"code": 2, "name": "House floor actions"}, "text": "Considered as unfinished business. (consideration: CR H8252-8264)", "type": "Floor"}, {"actionCode": "H8D000", "actionDate": "2022-09-29", "actionTime": "13:32:39", "sourceSystem": {"code": 2, "name": "House floor actions"}, "text": "POSTPONED PROCEEDINGS - At conclusion of debate on H.R. 3843, the Chair put the question on passage of the bill and by voice vote announced the ayes had prevailed. Mr. Jordan demanded the yeas and nays and the Chair postponed further proceedings until a time to be announced.", "type": "Floor"}, {"actionCode": "H35000", "actionDate": "2022-09-29", "actionTime": "13:31:52", "sourceSystem": {"code": 2, "name": "House floor actions"}, "text": "The previous question was ordered pursuant to the rule.", "type": "Floor"}, {"actionCode": "H8D000", "actionDate": "2022-09-29", "actionTime": "12:26:19", "sourceSystem": {"code": 2, "name": "House floor actions"}, "text": "DEBATE - The House proceeded with one hour of debate on H.R. 3843.", "type": "Floor"}, {"actionCode": "H8D000", "actionDate": "2022-09-29", "actionTime": "12:25:35", "sourceSystem": {"code": 2, "name": "House floor actions"}, "text": "Rule provides for consideration of H.R. 3843, H.R. 7780 and S. 3969. Resolution provides for one hour of general debate on each bill and one motion to recommit on H.R. 7780 and H.R. 3843 and a motion to commit S. 3969.", "type": "Floor"}, {"actionCode": "H30000", "actionDate": "2022-09-29", "actionTime": "12:25:30", "sourceSystem": {"code": 2, "name": "House floor actions"}, "text": "Considered under the provisions of rule H. Res. 1396. (consideration: CR H8252-8264, H8268-8269; text: CR H8252-8253)", "type": "Floor"}, {"actionCode": "H1L210", "actionDate": "2022-09-28", "actionTime": "12:02:01", "sourceSystem": {"code": 2, "name": "House floor actions"}, "text": "Rules Committee Resolution H. Res. 1396 Reported to House. Rule provides for consideration of H.R. 3843, H.R. 7780 and S. 3969. Resolution provides for one hour of general debate on each bill and one motion to recommit on H.R. 7780 and H.R. 3843 and a motion to commit S. 3969.", "type": "Floor"}, {"actionCode": "H12410", "actionDate": "2022-09-26", "calendarNumber": {"calendar": "U00375"}, "sourceSystem": {"code": 2, "name": "House floor actions"}, "text": "Placed on the Union Calendar, Calendar No. 375.", "type": "Calendars"}, {"actionCode": "H12300", "actionDate": "2022-09-26", "committees": [{"name": "Energy and Commerce Committee", "systemCode": "hsif00", "url": "https://api.congress.gov/v3/committee/house/hsif00?format=json"}], "sourceSystem": {"code": 2, "name": "House floor actions"}, "text": "Committee on Energy and Commerce discharged.", "type": "Discharge"}, {"actionCode": "5500", "actionDate": "2022-09-26", "committees": [{"name": "Energy and Commerce Committee", "systemCode": "hsif00", "url": "https://api.congress.gov/v3/committee/house/hsif00?format=json"}], "sourceSystem": {"code": 9, "name": "Library of Congress"}, "text": "Committee on Energy and Commerce discharged.", "type": "Committee"}, {"actionCode": "H12200", "actionDate": "2022-09-26", "committees": [{"name": "Judiciary Committee", "systemCode": "hsju00", "url": "https://api.congress.gov/v3/committee/house/hsju00?format=json"}], "sourceSystem": {"code": 2, "name": "House floor actions"}, "text": "Reported (Amended) by the Committee on Judiciary. H. Rept. 117-493, Part I.", "type": "Committee"}, {"actionCode": "5000", "actionDate": "2022-09-26", "committees": [{"name": "Judiciary Committee", "systemCode": "hsju00", "url": "https://api.congress.gov/v3/committee/house/hsju00?format=json"}], "sourceSystem": {"code": 9, "name": "Library of Congress"}, "text": "Reported (Amended) by the Committee on Judiciary. H. Rept. 117-493, Part I.", "type": "Committee"}, {"actionCode": "H19000", "actionDate": "2021-06-24", "committees": [{"name": "Judiciary Committee", "systemCode": "hsju00", "url": "https://api.congress.gov/v3/committee/house/hsju00?format=json"}], "sourceSystem": {"code": 1, "name": "House committee actions"}, "text": "Ordered to be Reported (Amended).", "type": "Committee"}, {"actionCode": "H15000-B", "actionDate": "2021-06-24", "committees": [{"name": "Judiciary Committee", "systemCode": "hsju00", "url": "https://api.congress.gov/v3/committee/house/hsju00?format=json"}], "sourceSystem": {"code": 1, "name": "House committee actions"}, "text": "Committee Consideration and Mark-up Session Held.", "type": "Committee"}, {"actionCode": "H15000-B", "actionDate": "2021-06-23", "committees": [{"name": "Judiciary Committee", "systemCode": "hsju00", "url": "https://api.congress.gov/v3/committee/house/hsju00?format=json"}], "sourceSystem": {"code": 1, "name": "House committee actions"}, "text": "Committee Consideration and Mark-up Session Held.", "type": "Committee"}, {"actionCode": "H11000", "actionDate": "2021-06-14", "committees": [{"name": "Innovation, Data, and Commerce Subcommittee", "systemCode": "hsif17", "url": "https://api.congress.gov/v3/committee/house/hsif17?format=json"}], "sourceSystem": {"code": 1, "name": "House committee actions"}, "text": "Referred to the Subcommittee on Consumer Protection and Commerce.", "type": "Committee"}], "pagination": {"count": 24, "next": "https://api.congress.gov/v3/bill/117/hr/3843/actions?offset=20&limit=20&format=json"}, "request": {"billNumber": "3843", "billType": "hr", "billUrl": "https://api.congress.gov/v3/bill/117/hr/3843?format=json", "congress": "117", "contentType": "application/json", "format": "json"}}, 200]