[{"actions": [{"actionCode": "E40000", "actionDate": "2021-11-11", "sourceSystem": {"code": 9, "name": "Library of Congress"}, "text": "Became Public Law No: 117-55.", "type": "President"}, {"actionCode": "36000", "actionDate": "2021-11-11", "sourceSystem": {"code": 9, "name": "Library of Congress"}, "text": "Became Public Law No: 117-55.", "type": "BecameLaw"}, {"actionCode": "E30000", "actionDate": "2021-11-11", "sourceSystem": {"code": 9, "name": "Library of Congress"}, "text": "Signed by President.", "type": "President"}, {"actionCode": "36000", "actionDate": "2021-11-11", "sourceSystem": {"code": 9, "name": "Library of Congress"}, "text": "Signed by President.", "type": "BecameLaw"}, {"actionCode": "E20000", "actionDate": "2021-11-03", "sourceSystem": {"code": 2, "name": "House floor actions"}, "text": "Presented to President.", "type": "Floor"}, {"actionCode": "28000", "actionDate": "2021-11-03", "sourceSystem": {"code": 9, "name": "Library of Congress"}, "text": "Presented to President.", "type": "President"}, {"actionDate": "2021-10-28", "sourceSystem": {"name": "Senate"}, "text": "Message on Senate action sent to the House.", "type": "Floor"}, {"actionDate": "2021-10-28", "sourceSystem": {"name": "Senate"}, "text": "Passed Senate without amendment by Unanimous Consent. (consideration: CR H7450)", "type": "Floor"}, {"actionCode": "17000", "actionDate": "2021-10-28", "sourceSystem": {"code": 9, "name": "Library of Congress"}, "text": "Passed/agreed to in Senate: Passed Senate without amendment by Unanimous Consent.(consideration: CR H7450)", "type": "Floor"}, {"actionDate": "2021-10-21", "sourceSystem": {"name": "Senate"}, "text": "Received in the Senate, read twice.", "type": "IntroReferral"}, {"actionCode": "H38800", "actionDate": "2021-10-20", "actionTime": "15:13:46", "sourceSystem": {"code": 2, "name": "House floor actions"}, "text": "The title of the measure was amended. Agreed to without objection.", "type": "Floor"}, {"actionCode": "H38310", "actionDate": "2021-10-20", "actionTime": "15:13:42", "sourceSystem": {"code": 2, "name": "House floor actions"}, "text": "Motion to reconsider laid on the table Agreed to without objection.", "type": "Floor"}, {"actionCode": "H37300", "actionDate": "2021-10-20", "actionTime": "15:13:41", "recordedVotes": [{"chamber": "House", "congress": 117, "date": "2021-10-20T19:13:41Z", "rollNumber": 323, "sessionNumber": 1, "url": "https://clerk.house.gov/evs/2021/roll323.xml"}], "sourceSystem": {"code": 2, "name": "House floor actions"}, "text": "On motion to suspend the rules and pass the bill, as amended Agreed to by the Yeas and Nays: (2/3 required): 420 - 4 (Roll no. 323). (text: CR 10/19/2021 H5654-5655)", "type": "Floor"}, {"actionCode": "8000", "actionDate": "2021-10-20", "actionTime": "15:13:41", "recordedVotes": [{"chamber": "House", "congress": 117, "date": "2021-10-20T19:13:41Z", "rollNumber": 323, "sessionNumber": 1, "url": "https://clerk.house.gov/evs/2021/roll323.xml"}], "sourceSystem": {"code": 9, "name": "Library of Congress"}, "text": "Passed/agreed to in House: On motion to suspend the rules and pass the bill, as amended Agreed to by the Yeas and Nays: (2/3 required): 420 - 4 (Roll no. 323).(text: CR 10/19/2021 H5654-5655)", "type": "Floor"}, {"actionCode": "H30000", "actionDate": "2021-10-20", "actionTime": "14:56:58", "sourceSystem": {"code": 2, "name": "House floor actions"}, "text": "Considered as unfinished business. (consideration: CR H5701-5702)", "type": "Floor"}, {"actionCode": "H37220", "actionDate": "2021-10-19", "actionTime": "16:56:22", "sourceSystem": {"code": 2, "name": "House floor actions"}, "text": "At the conclusion of debate, the Yeas and Nays were demanded and ordered. Pursuant to the provisions of clause 8, rule XX, the Chair announced that further proceedings on the motion would be postponed.", "type": "Floor"}, {"actionCode": "H8D000", "actionDate": "2021-10-19", "actionTime": "16:45:05", "sourceSystem": {"code": 2, "name": "House floor actions"}, "text": "DEBATE - The House proceeded with forty minutes of debate on H.R. 3919.", "type": "Floor"}, {"actionCode": "H30000", "actionDate": "2021-10-19", "actionTime": "16:45:04", "sourceSystem": {"code": 2, "name": "House floor actions"}, "text": "Considered under suspension of the rules. (consideration: CR H5654-5656)", "type": "Floor"}, {"actionCode": "H30300", "actionDate": "2021-10-19", "actionTime": "16:45:01", "sourceSystem": {"code": 2, "name": "House floor actions"}, "text": "Mr. Pallone moved to suspend the rules and pass the bill, as amended.", "type": "Floor"}, {"actionCode": "H12410", "actionDate": "2021-10-19", "calendarNumber": {"calendar": "U00108"}, "sourceSystem": {"code": 2, "name": "House floor actions"}, "text": "Placed on the Union Calendar, Calendar No. 108.", "type": "Calendars"}], "pagination": {"count": 30, "next": "https://api.congress.gov/v3/bill/117/hr/3919/actions?offset=20&limit=20&format=json"}, "request": {"billNumber": "3919", "billType": "hr", "billUrl": "https://api.congress.gov/v3/bill/117/hr/3919?format=json", "congress": "117", "contentType": "application/json", "format": "json"}}, 200]