[{"actions": [{"actionDate": "2022-06-16", "sourceSystem": {"name": "Senate"}, "text": "Message on Senate action sent to the House.", "type": "Floor"}, {"actionDate": "2022-06-16", "recordedVotes": [{"chamber": "Senate", "congress": 117, "date": "2022-06-16T16:31:59Z", "rollNumber": 230, "sessionNumber": 2, "url": "https://www.senate.gov/legislative/LIS/roll_call_votes/vote1172/vote_117_2_00230.xml"}], "sourceSystem": {"name": "Senate"}, "text": "Passed Senate with an amendment by Yea-Nay Vote. 84 - 14. Record Vote Number: 230.", "type": "Floor"}, {"actionCode": "17000", "actionDate": "2022-06-16", "recordedVotes": [{"chamber": "Senate", "congress": 117, "date": "2022-06-16T16:31:59Z", "rollNumber": 230, "sessionNumber": 2, "url": "https://www.senate.gov/legislative/LIS/roll_call_votes/vote1172/vote_117_2_00230.xml"}], "sourceSystem": {"code": 9, "name": "Library of Congress"}, "text": "Passed/agreed to in Senate: Passed Senate with an amendment by Yea-Nay Vote. 84 - 14. Record Vote Number: 230.", "type": "Floor"}, {"actionDate": "2022-06-16", "sourceSystem": {"name": "Senate"}, "text": "Considered by Senate. (consideration: CR S2983-2984, S2988-2991, S2999-3001, S3010-3011)", "type": "Floor"}, {"actionDate": "2022-06-15", "recordedVotes": [{"chamber": "Senate", "congress": 117, "date": "2022-06-15T17:28:48Z", "rollNumber": 227, "sessionNumber": 2, "url": "https://www.senate.gov/legislative/LIS/roll_call_votes/vote1172/vote_117_2_00227.xml"}], "sourceSystem": {"name": "Senate"}, "text": "Cloture on the measure invoked in Senate by Yea-Nay Vote. 76 - 23. Record Vote Number: 227. (CR S2951)", "type": "Floor"}, {"actionDate": "2022-06-15", "sourceSystem": {"name": "Senate"}, "text": "Considered by Senate. (consideration: CR S2947-2951, S2954, S2957-2958, S2976-2978)", "type": "Floor"}, {"actionDate": "2022-06-14", "sourceSystem": {"name": "Senate"}, "text": "Considered by Senate. (consideration: CR S2919-2920, S2926-2927, S2932-2933)", "type": "Floor"}, {"actionDate": "2022-06-13", "sourceSystem": {"name": "Senate"}, "text": "Considered by Senate. (consideration: CR S2899-2900, S2901-2908)", "type": "Floor"}, {"actionDate": "2022-06-09", "sourceSystem": {"name": "Senate"}, "text": "Cloture motion on the measure presented in Senate. (CR S2887)", "type": "Floor"}, {"actionDate": "2022-06-09", "sourceSystem": {"name": "Senate"}, "text": "Considered by Senate. (consideration: CR S2875-2883, S2884-2887)", "type": "Floor"}, {"actionDate": "2022-06-08", "sourceSystem": {"name": "Senate"}, "text": "Measure laid before Senate by motion.", "type": "Floor"}, {"actionDate": "2022-06-08", "sourceSystem": {"name": "Senate"}, "text": "Motion to proceed to consideration of measure agreed to in Senate by Voice Vote.", "type": "Floor"}, {"actionDate": "2022-06-08", "sourceSystem": {"name": "Senate"}, "text": "Motion to proceed to measure considered in Senate. (CR S2843)", "type": "Floor"}, {"actionDate": "2022-06-07", "sourceSystem": {"name": "Senate"}, "text": "Motion to proceed to measure considered in Senate. (CR S2801)", "type": "Floor"}, {"actionDate": "2022-06-07", "recordedVotes": [{"chamber": "Senate", "congress": 117, "date": "2022-06-07T17:20:27Z", "rollNumber": 215, "sessionNumber": 2, "url": "https://www.senate.gov/legislative/LIS/roll_call_votes/vote1172/vote_117_2_00215.xml"}], "sourceSystem": {"name": "Senate"}, "text": "Cloture on the motion to proceed to the measure invoked in Senate by Yea-Nay Vote. 86 - 12. Record Vote Number: 215. (CR S2801)", "type": "Floor"}, {"actionDate": "2022-05-26", "sourceSystem": {"name": "Senate"}, "text": "Cloture motion on the motion to proceed to the measure presented in Senate. (CR S2729)", "type": "Floor"}, {"actionDate": "2022-05-26", "sourceSystem": {"name": "Senate"}, "text": "Motion to proceed to consideration of measure made in Senate. (CR S2729)", "type": "Floor"}, {"actionDate": "2022-05-25", "calendarNumber": {"calendar": "Senate Calendar of Business", "number": "0388"}, "sourceSystem": {"name": "Senate"}, "text": "Read the second time. Placed on Senate Legislative Calendar under General Orders. Calendar No. 388.", "type": "Calendars"}, {"actionDate": "2022-05-24", "calendarNumber": {"calendar": "Senate Calendar of Business"}, "sourceSystem": {"name": "Senate"}, "text": "Read the first time. Placed on Senate Legislative Calendar under Read the First Time.", "type": "Calendars"}, {"actionDate": "2022-03-03", "sourceSystem": {"name": "Senate"}, "text": "Received in the Senate.", "type": "IntroReferral"}], "pagination": {"count": 64, "next": "https://api.congress.gov/v3/bill/117/hr/3967/actions?offset=20&limit=20&format=json"}, "request": {"billNumber": "3967", "billType": "hr", "billUrl": "https://api.congress.gov/v3/bill/117/hr/3967?format=json", "congress": "117", "contentType": "application/json", "format": "json"}}, 200]