[{"actions": [{"actionDate": "2021-11-15", "committees": [{"name": "Health, Education, Labor, and Pensions Committee", "systemCode": "sshr00", "url": "https://api.congress.gov/v3/committee/senate/sshr00?format=json"}], "sourceSystem": {"name": "Senate"}, "text": "Received in the Senate and Read twice and referred to the Committee on Health, Education, Labor, and Pensions.", "type": "IntroReferral"}, {"actionCode": "H38310", "actionDate": "2021-11-04", "actionTime": "14:49:09", "sourceSystem": {"code": 2, "name": "House floor actions"}, "text": "Motion to reconsider laid on the table Agreed to without objection.", "type": "Floor"}, {"actionCode": "H37100", "actionDate": "2021-11-04", "actionTime": "14:49:00", "recordedVotes": [{"chamber": "House", "congress": 117, "date": "2021-11-04T18:49:00Z", "rollNumber": 358, "sessionNumber": 1, "url": "https://clerk.house.gov/evs/2021/roll358.xml"}], "sourceSystem": {"code": 2, "name": "House floor actions"}, "text": "On passage Passed by the Yeas and Nays: 224 - 200 (Roll no. 358).", "type": "Floor"}, {"actionCode": "8000", "actionDate": "2021-11-04", "actionTime": "14:49:00", "recordedVotes": [{"chamber": "House", "congress": 117, "date": "2021-11-04T18:49:00Z", "rollNumber": 358, "sessionNumber": 1, "url": "https://clerk.house.gov/evs/2021/roll358.xml"}], "sourceSystem": {"code": 9, "name": "Library of Congress"}, "text": "Passed/agreed to in House: On passage Passed by the Yeas and Nays: 224 - 200 (Roll no. 358).", "type": "Floor"}, {"actionCode": "H35000", "actionDate": "2021-11-04", "actionTime": "14:31:45", "sourceSystem": {"code": 2, "name": "House floor actions"}, "text": "The previous question was ordered pursuant to the rule.", "type": "Floor"}, {"actionCode": "H30000", "actionDate": "2021-11-04", "actionTime": "13:31:38", "sourceSystem": {"code": 2, "name": "House floor actions"}, "text": "Considered as unfinished business. (consideration: CR H6193-6195)", "type": "Floor"}, {"actionCode": "H8D000", "actionDate": "2021-11-03", "actionTime": "17:35:50", "sourceSystem": {"code": 2, "name": "House floor actions"}, "text": "Pursuant to clause 1(c) of Rule XIX, further consideration of H.R. 3992 is postponed.", "type": "Floor"}, {"actionCode": "H8D000", "actionDate": "2021-11-03", "actionTime": "17:35:49", "sourceSystem": {"code": 2, "name": "House floor actions"}, "text": "POSTPONED PROCEEDINGS - At the conclusion of debate on the Keller amendment No. 2, the Chair put the question on adoption of the amendment and by voice vote, announced that the noes had prevailed. Mr. Keller demanded the yeas and nays and the Chair postponed further proceedings until a time to be announced.", "type": "Floor"}, {"actionCode": "H8D000", "actionDate": "2021-11-03", "actionTime": "17:25:40", "sourceSystem": {"code": 2, "name": "House floor actions"}, "text": "DEBATE - Pursuant to the provisions of H.Res. 716, the House proceeded with 10 minutes of debate on the Keller amendment No. 2.", "type": "Floor"}, {"actionCode": "H8D000", "actionDate": "2021-11-03", "actionTime": "17:24:50", "sourceSystem": {"code": 2, "name": "House floor actions"}, "text": "POSTPONED PROCEEDINGS - At the conclusion of debate on the Pappas amendment No. 1, the Chair put the question on adoption of the amendment and by voice vote, announced that the ayes had prevailed. Mr. Good demanded the yeas and nays and the Chair postponed further proceedings until a time to be announced.", "type": "Floor"}, {"actionCode": "H8D000", "actionDate": "2021-11-03", "actionTime": "17:16:29", "sourceSystem": {"code": 2, "name": "House floor actions"}, "text": "DEBATE - Pursuant to the provisions of H.Res. 716, the House proceeded with 10 minutes of debate on the Pappas amendment No. 1.", "type": "Floor"}, {"actionCode": "H8D000", "actionDate": "2021-11-03", "actionTime": "17:15:57", "sourceSystem": {"code": 2, "name": "House floor actions"}, "text": "The previous question was ordered on the amendment (A002) pursuant to the rule.", "type": "Floor"}, {"actionCode": "H8D000", "actionDate": "2021-11-03", "actionTime": "16:40:25", "sourceSystem": {"code": 2, "name": "House floor actions"}, "text": "DEBATE - The House proceeded with one hour of debate on H.R. 3992.", "type": "Floor"}, {"actionCode": "H8D000", "actionDate": "2021-11-03", "actionTime": "16:38:09", "sourceSystem": {"code": 2, "name": "House floor actions"}, "text": "Rule provides for consideration of H.R. 2119, H.R. 3110 and H.R. 3992. The resolution provides that H. Res. 188, agreed to March 8, 2021, is amended by striking \"October 27, 2021\" each place it appears and inserting \"November 18, 2021.", "type": "Floor"}, {"actionCode": "H30000", "actionDate": "2021-11-03", "actionTime": "16:38:04", "sourceSystem": {"code": 2, "name": "House floor actions"}, "text": "Considered under the provisions of rule H. Res. 716. (consideration: CR H6158-6167; text: CR H6158)", "type": "Floor"}, {"actionCode": "H1L220", "actionDate": "2021-10-12", "actionTime": "19:26:33", "sourceSystem": {"code": 2, "name": "House floor actions"}, "text": "Rule H. Res. 716 passed House.", "type": "Floor"}, {"actionCode": "H1L210", "actionDate": "2021-10-12", "actionTime": "16:02:22", "sourceSystem": {"code": 2, "name": "House floor actions"}, "text": "Rules Committee Resolution H. Res. 716 Reported to House. Rule provides for consideration of H.R. 2119, H.R. 3110 and H.R. 3992. The resolution provides that H. Res. 188, agreed to March 8, 2021, is amended by striking \"October 27, 2021\" each place it appears and inserting \"November 18, 2021.", "type": "Floor"}, {"actionCode": "H12410", "actionDate": "2021-09-23", "calendarNumber": {"calendar": "U00091"}, "sourceSystem": {"code": 2, "name": "House floor actions"}, "text": "Placed on the Union Calendar, Calendar No. 91.", "type": "Calendars"}, {"actionCode": "H12200", "actionDate": "2021-09-23", "committees": [{"name": "Education and the Workforce Committee", "systemCode": "hsed00", "url": "https://api.congress.gov/v3/committee/house/hsed00?format=json"}], "sourceSystem": {"code": 2, "name": "House floor actions"}, "text": "Reported (Amended) by the Committee on Education and Labor. H. Rept. 117-127.", "type": "Committee"}, {"actionCode": "5000", "actionDate": "2021-09-23", "committees": [{"name": "Education and the Workforce Committee", "systemCode": "hsed00", "url": "https://api.congress.gov/v3/committee/house/hsed00?format=json"}], "sourceSystem": {"code": 9, "name": "Library of Congress"}, "text": "Reported (Amended) by the Committee on Education and Labor. H. Rept. 117-127.", "type": "Committee"}], "pagination": {"count": 26, "next": "https://api.congress.gov/v3/bill/117/hr/3992/actions?offset=20&limit=20&format=json"}, "request": {"billNumber": "3992", "billType": "hr", "billUrl": "https://api.congress.gov/v3/bill/117/hr/3992?format=json", "congress": "117", "contentType": "application/json", "format": "json"}}, 200]