[{"actions": [{"actionDate": "2022-07-28", "committees": [{"name": "Finance Committee", "systemCode": "ssfi00", "url": "https://api.congress.gov/v3/committee/senate/ssfi00?format=json"}], "sourceSystem": {"name": "Senate"}, "text": "Received in the Senate and Read twice and referred to the Committee on Finance.", "type": "IntroReferral"}, {"actionCode": "H38310", "actionDate": "2022-07-27", "actionTime": "18:09:58", "sourceSystem": {"code": 2, "name": "House floor actions"}, "text": "Motion to reconsider laid on the table Agreed to without objection.", "type": "Floor"}, {"actionCode": "H37100", "actionDate": "2022-07-27", "actionTime": "18:09:56", "recordedVotes": [{"chamber": "House", "congress": 117, "date": "2022-07-27T22:09:56Z", "rollNumber": 400, "sessionNumber": 2, "url": "https://clerk.house.gov/evs/2022/roll400.xml"}], "sourceSystem": {"code": 2, "name": "House floor actions"}, "text": "On passage Passed by recorded vote: 416 - 12 (Roll no. 400). (text: CR H7189-7190)", "type": "Floor"}, {"actionCode": "8000", "actionDate": "2022-07-27", "actionTime": "18:09:56", "recordedVotes": [{"chamber": "House", "congress": 117, "date": "2022-07-27T22:09:56Z", "rollNumber": 400, "sessionNumber": 2, "url": "https://clerk.house.gov/evs/2022/roll400.xml"}], "sourceSystem": {"code": 9, "name": "Library of Congress"}, "text": "Passed/agreed to in House: On passage Passed by recorded vote: 416 - 12 (Roll no. 400).(text: CR H7189-7190)", "type": "Floor"}, {"actionCode": "H36210", "actionDate": "2022-07-27", "actionTime": "17:59:55", "committees": [{"name": "Energy and Commerce Committee", "systemCode": "hsif00", "url": "https://api.congress.gov/v3/committee/house/hsif00?format=json"}], "recordedVotes": [{"chamber": "House", "congress": 117, "date": "2022-07-27T21:59:55Z", "rollNumber": 399, "sessionNumber": 2, "url": "https://clerk.house.gov/evs/2022/roll399.xml"}], "sourceSystem": {"code": 2, "name": "House floor actions"}, "text": "On motion to recommit Failed by the Yeas and Nays: 205 - 221 (Roll no. 399).", "type": "Floor"}, {"actionCode": "H8D000", "actionDate": "2022-07-27", "actionTime": "17:52:46", "sourceSystem": {"code": 2, "name": "House floor actions"}, "text": "Considered as unfinished business. (consideration: CR H7221-7223)", "type": "Floor"}, {"actionCode": "H8D000", "actionDate": "2022-07-27", "actionTime": "13:28:52", "sourceSystem": {"code": 2, "name": "House floor actions"}, "text": "POSTPONED PROCEEDINGS - The Chair put the question on the Schweikert motion to recommit and by voice vote, announced that the noes had prevailed. Mr. Schweikert demanded the yeas and nays and the Chair postponed further proceedings on the motion to recommit until a time to be announced.", "type": "Floor"}, {"actionCode": "H8A000", "actionDate": "2022-07-27", "actionTime": "13:28:43", "sourceSystem": {"code": 2, "name": "House floor actions"}, "text": "The previous question on the motion to recommit was ordered pursuant to clause 2(b) of rule XIX.", "type": "Floor"}, {"actionCode": "H36200", "actionDate": "2022-07-27", "actionTime": "13:28:32", "committees": [{"name": "Energy and Commerce Committee", "systemCode": "hsif00", "url": "https://api.congress.gov/v3/committee/house/hsif00?format=json"}], "sourceSystem": {"code": 2, "name": "House floor actions"}, "text": "Mr. Schweikert moved to recommit to the Committee on Energy and Commerce.", "type": "Floor"}, {"actionCode": "H35000", "actionDate": "2022-07-27", "actionTime": "13:28:11", "sourceSystem": {"code": 2, "name": "House floor actions"}, "text": "The previous question was ordered pursuant to the rule.", "type": "Floor"}, {"actionCode": "H8D000", "actionDate": "2022-07-27", "actionTime": "12:41:22", "sourceSystem": {"code": 2, "name": "House floor actions"}, "text": "DEBATE - The House proceeded with one hour of debate on H.R. 4040.", "type": "Floor"}, {"actionCode": "H8D000", "actionDate": "2022-07-27", "actionTime": "12:40:32", "sourceSystem": {"code": 2, "name": "House floor actions"}, "text": "Rule provides for consideration of H.R. 263 and H.R. 4040. Resolution provides for one hour of general debate and one motion to recommit on each bill. H. Res. 517 is considered adopted.", "type": "Floor"}, {"actionCode": "H30000", "actionDate": "2022-07-27", "actionTime": "12:40:27", "sourceSystem": {"code": 2, "name": "House floor actions"}, "text": "Considered under the provisions of rule H. Res. 1256. (consideration: CR H7189-7197)", "type": "Floor"}, {"actionCode": "H1L220", "actionDate": "2022-07-27", "actionTime": "12:02:55", "sourceSystem": {"code": 2, "name": "House floor actions"}, "text": "Rule H. Res. 1256 passed House.", "type": "Floor"}, {"actionCode": "H1L210", "actionDate": "2022-07-26", "actionTime": "15:43:12", "sourceSystem": {"code": 2, "name": "House floor actions"}, "text": "Rules Committee Resolution H. Res. 1256 Reported to House. Rule provides for consideration of H.R. 263 and H.R. 4040. Resolution provides for one hour of general debate and one motion to recommit on each bill. H. Res. 517 is considered adopted.", "type": "Floor"}, {"actionCode": "H11000", "actionDate": "2021-06-23", "committees": [{"name": "Health Subcommittee", "systemCode": "hsif14", "url": "https://api.congress.gov/v3/committee/house/hsif14?format=json"}], "sourceSystem": {"code": 1, "name": "House committee actions"}, "text": "Referred to the Subcommittee on Health.", "type": "Committee"}, {"actionCode": "H11000", "actionDate": "2021-06-22", "committees": [{"name": "Health Subcommittee", "systemCode": "hswm02", "url": "https://api.congress.gov/v3/committee/house/hswm02?format=json"}], "sourceSystem": {"code": 1, "name": "House committee actions"}, "text": "Referred to the Subcommittee on Health.", "type": "Committee"}, {"actionCode": "H11100", "actionDate": "2021-06-22", "committees": [{"name": "Ways and Means Committee", "systemCode": "hswm00", "url": "https://api.congress.gov/v3/committee/house/hswm00?format=json"}], "sourceSystem": {"code": 2, "name": "House floor actions"}, "text": "Referred to the Committee on Energy and Commerce, and in addition to the Committee on Ways and Means, for a period to be subsequently determined by the Speaker, in each case for consideration of such provisions as fall within the jurisdiction of the committee concerned.", "type": "IntroReferral"}, {"actionCode": "H11100", "actionDate": "2021-06-22", "committees": [{"name": "Energy and Commerce Committee", "systemCode": "hsif00", "url": "https://api.congress.gov/v3/committee/house/hsif00?format=json"}], "sourceSystem": {"code": 2, "name": "House floor actions"}, "text": "Referred to the Committee on Energy and Commerce, and in addition to the Committee on Ways and Means, for a period to be subsequently determined by the Speaker, in each case for consideration of such provisions as fall within the jurisdiction of the committee concerned.", "type": "IntroReferral"}, {"actionCode": "Intro-H", "actionDate": "2021-06-22", "sourceSystem": {"code": 9, "name": "Library of Congress"}, "text": "Introduced in House", "type": "IntroReferral"}], "pagination": {"count": 21, "next": "https://api.congress.gov/v3/bill/117/hr/4040/actions?offset=20&limit=20&format=json"}, "request": {"billNumber": "4040", "billType": "hr", "billUrl": "https://api.congress.gov/v3/bill/117/hr/4040?format=json", "congress": "117", "contentType": "application/json", "format": "json"}}, 200]