[{"actions": [{"actionDate": "2022-07-11", "committees": [{"name": "Homeland Security and Governmental Affairs Committee", "systemCode": "ssga00", "url": "https://api.congress.gov/v3/committee/senate/ssga00?format=json"}], "sourceSystem": {"name": "Senate"}, "text": "Received in the Senate and Read twice and referred to the Committee on Homeland Security and Governmental Affairs.", "type": "IntroReferral"}, {"actionCode": "H38800", "actionDate": "2022-06-23", "actionTime": "21:24:48", "sourceSystem": {"code": 2, "name": "House floor actions"}, "text": "The title of the measure was amended. Agreed to without objection.", "type": "Floor"}, {"actionCode": "H38310", "actionDate": "2022-06-23", "actionTime": "21:24:47", "sourceSystem": {"code": 2, "name": "House floor actions"}, "text": "Motion to reconsider laid on the table Agreed to without objection.", "type": "Floor"}, {"actionCode": "H37100", "actionDate": "2022-06-23", "actionTime": "21:24:45", "recordedVotes": [{"chamber": "House", "congress": 117, "date": "2022-06-24T01:24:45Z", "rollNumber": 296, "sessionNumber": 2, "url": "https://clerk.house.gov/evs/2022/roll296.xml"}], "sourceSystem": {"code": 2, "name": "House floor actions"}, "text": "On passage Passed by the Yeas and Nays: 220 - 201 (Roll no. 296). (text: CR H5856)", "type": "Floor"}, {"actionCode": "8000", "actionDate": "2022-06-23", "actionTime": "21:24:45", "recordedVotes": [{"chamber": "House", "congress": 117, "date": "2022-06-24T01:24:45Z", "rollNumber": 296, "sessionNumber": 2, "url": "https://clerk.house.gov/evs/2022/roll296.xml"}], "sourceSystem": {"code": 9, "name": "Library of Congress"}, "text": "Passed/agreed to in House: On passage Passed by the Yeas and Nays: 220 - 201 (Roll no. 296).", "type": "Floor"}, {"actionCode": "H36210", "actionDate": "2022-06-23", "actionTime": "21:13:01", "committees": [{"name": "Oversight and Accountability Committee", "systemCode": "hsgo00", "url": "https://api.congress.gov/v3/committee/house/hsgo00?format=json"}], "recordedVotes": [{"chamber": "House", "congress": 117, "date": "2022-06-24T01:13:01Z", "rollNumber": 295, "sessionNumber": 2, "url": "https://clerk.house.gov/evs/2022/roll295.xml"}], "sourceSystem": {"code": 2, "name": "House floor actions"}, "text": "On motion to recommit Failed by the Yeas and Nays: 202 - 218 (Roll no. 295).", "type": "Floor"}, {"actionCode": "H8A000", "actionDate": "2022-06-23", "actionTime": "21:02:24", "sourceSystem": {"code": 2, "name": "House floor actions"}, "text": "The previous question on the motion to recommit was ordered pursuant to clause 2(b) of rule XIX.", "type": "Floor"}, {"actionCode": "H36200", "actionDate": "2022-06-23", "actionTime": "21:02:05", "committees": [{"name": "Oversight and Accountability Committee", "systemCode": "hsgo00", "url": "https://api.congress.gov/v3/committee/house/hsgo00?format=json"}], "sourceSystem": {"code": 2, "name": "House floor actions"}, "text": "Mr. Biggs moved to recommit to the Committee on Oversight and Reform. (text: CR H5869)", "type": "Floor"}, {"actionCode": "H35000", "actionDate": "2022-06-23", "actionTime": "21:01:03", "sourceSystem": {"code": 2, "name": "House floor actions"}, "text": "The previous question was ordered pursuant to the rule.", "type": "Floor"}, {"actionCode": "H30000", "actionDate": "2022-06-23", "actionTime": "20:01:31", "sourceSystem": {"code": 2, "name": "House floor actions"}, "text": "Considered as unfinished business. (consideration: CR H5867-5871)", "type": "Floor"}, {"actionCode": "H8D000", "actionDate": "2022-06-23", "actionTime": "15:53:50", "sourceSystem": {"code": 2, "name": "House floor actions"}, "text": "Pursuant to clause 1(c) of rule 19, further proceedings on H.R. 4176 are postponed.", "type": "Floor"}, {"actionCode": "H8D000", "actionDate": "2022-06-23", "actionTime": "15:52:55", "sourceSystem": {"code": 2, "name": "House floor actions"}, "text": "DEBATE - Pursuant to the provisions of H.Res. 1191, the House proceeded with 10 minutes of debate on the Carolyn B. Maloney amendment No. 3.", "type": "Floor"}, {"actionCode": "H8D000", "actionDate": "2022-06-23", "actionTime": "15:51:09", "sourceSystem": {"code": 2, "name": "House floor actions"}, "text": "POSTPONED PROCEEDINGS - At the conclusion of debate on the Carolyn B. Maloney amendment No. 2, the Chair put the question on adoption of the amendment and by voice vote, announced that the ayes had prevailed. Mr. Comer demanded the yeas and nays and the Chair postponed further proceedings until a time to be announced.", "type": "Floor"}, {"actionCode": "H8D000", "actionDate": "2022-06-23", "actionTime": "15:47:37", "sourceSystem": {"code": 2, "name": "House floor actions"}, "text": "DEBATE - Pursuant to the provisions of H.Res. 1191, the House proceeded with 10 minutes of debate on the Carolyn B. Maloney amendment No. 2.", "type": "Floor"}, {"actionCode": "H8D000", "actionDate": "2022-06-23", "actionTime": "15:45:51", "sourceSystem": {"code": 2, "name": "House floor actions"}, "text": "POSTPONED PROCEEDINGS - At the conclusion of debate on the Jackson Lee amendment No. 1, the Chair put the question on adoption of the amendment and by voice vote, announced that the ayes had prevailed. Mr. Comer demanded the yeas and nays and the Chair postponed further proceedings until a time to be announced.", "type": "Floor"}, {"actionCode": "H8D000", "actionDate": "2022-06-23", "actionTime": "15:38:03", "sourceSystem": {"code": 2, "name": "House floor actions"}, "text": "DEBATE - Pursuant to the provisions of H.Res. 1191, the House proceeded with 10 minutes of debate on the Jackson Lee amendment No. 1.", "type": "Floor"}, {"actionCode": "H8D000", "actionDate": "2022-06-23", "actionTime": "14:46:19", "sourceSystem": {"code": 2, "name": "House floor actions"}, "text": "DEBATE - The House proceeded with one hour of debate on H.R. 4176.", "type": "Floor"}, {"actionCode": "H8D000", "actionDate": "2022-06-23", "actionTime": "14:44:48", "sourceSystem": {"code": 2, "name": "House floor actions"}, "text": "Rule provides for consideration of H.R. 4176, H.R. 5585 and H.R. 7666. Rule provides for one hour of general debate on H.R. 4176, H.R. 5585 and H.R. 7666. Rule provides for one motion to recommit each for H.R. 4176, H.R. 5585 and H.R. 7666. Rule provides that proceedings may be postponed through July 15, 2022, on measures that were the object of motions to suspend the rules on the legislative days of June 21, 2022, June 22, 2022, June 23, 2022, or June 24, 2022, and on which the yeas and nays were ordered.", "type": "Floor"}, {"actionCode": "H30000", "actionDate": "2022-06-23", "actionTime": "14:44:43", "sourceSystem": {"code": 2, "name": "House floor actions"}, "text": "Considered under the provisions of rule H. Res. 1191. (consideration: CR H5856-5867)", "type": "Floor"}, {"actionCode": "H1L210", "actionDate": "2022-06-21", "actionTime": "17:28:41", "sourceSystem": {"code": 2, "name": "House floor actions"}, "text": "Rules Committee Resolution H. Res. 1191 Reported to House. Rule provides for consideration of H.R. 4176, H.R. 5585 and H.R. 7666. Rule provides for one hour of general debate on H.R. 4176, H.R. 5585 and H.R. 7666. Rule provides for one motion to recommit each for H.R. 4176, H.R. 5585 and H.R. 7666. Rule provides that proceedings may be postponed through July 15, 2022, on measures that were the object of motions to suspend the rules on the legislative days of June 21, 2022, June 22, 2022, June 23, 2022, or June 24, 2022, and on which the yeas and nays were ordered.", "type": "Floor"}], "pagination": {"count": 28, "next": "https://api.congress.gov/v3/bill/117/hr/4176/actions?offset=20&limit=20&format=json"}, "request": {"billNumber": "4176", "billType": "hr", "billUrl": "https://api.congress.gov/v3/bill/117/hr/4176?format=json", "congress": "117", "contentType": "application/json", "format": "json"}}, 200]