[{"actions": [{"actionDate": "2021-07-30", "committees": [{"name": "Energy and Natural Resources Committee", "systemCode": "sseg00", "url": "https://api.congress.gov/v3/committee/senate/sseg00?format=json"}], "sourceSystem": {"name": "Senate"}, "text": "Received in the Senate and Read twice and referred to the Committee on Energy and Natural Resources.", "type": "IntroReferral"}, {"actionCode": "H38800", "actionDate": "2021-07-29", "actionTime": "18:08:01", "sourceSystem": {"code": 2, "name": "House floor actions"}, "text": "The title of the measure was amended. Agreed to without objection.", "type": "Floor"}, {"actionCode": "H38310", "actionDate": "2021-07-29", "actionTime": "18:08:00", "sourceSystem": {"code": 2, "name": "House floor actions"}, "text": "Motion to reconsider laid on the table Agreed to without objection.", "type": "Floor"}, {"actionCode": "H37300", "actionDate": "2021-07-29", "actionTime": "18:06:57", "recordedVotes": [{"chamber": "House", "congress": 117, "date": "2021-07-29T22:06:57Z", "rollNumber": 254, "sessionNumber": 1, "url": "https://clerk.house.gov/evs/2021/roll254.xml"}], "sourceSystem": {"code": 2, "name": "House floor actions"}, "text": "On motion to suspend the rules and pass the bill, as amended Agreed to by the Yeas and Nays: (2/3 required): 420 - 0 (Roll no. 254). (text: 07/26/2021 CR H3864)", "type": "Floor"}, {"actionCode": "8000", "actionDate": "2021-07-29", "actionTime": "18:06:57", "recordedVotes": [{"chamber": "House", "congress": 117, "date": "2021-07-29T22:06:57Z", "rollNumber": 254, "sessionNumber": 1, "url": "https://clerk.house.gov/evs/2021/roll254.xml"}], "sourceSystem": {"code": 9, "name": "Library of Congress"}, "text": "Passed/agreed to in House: On motion to suspend the rules and pass the bill, as amended Agreed to by the Yeas and Nays: (2/3 required): 420 - 0 (Roll no. 254).(text: 07/26/2021 CR H3864)", "type": "Floor"}, {"actionCode": "H30000", "actionDate": "2021-07-29", "actionTime": "17:24:03", "sourceSystem": {"code": 2, "name": "House floor actions"}, "text": "Considered as unfinished business. (consideration: CR H4272-4273)", "type": "Floor"}, {"actionCode": "H37220", "actionDate": "2021-07-26", "actionTime": "15:41:49", "sourceSystem": {"code": 2, "name": "House floor actions"}, "text": "At the conclusion of debate, the Yeas and Nays were demanded and ordered. Pursuant to the provisions of clause 8, rule XX, the Chair announced that further proceedings on the motion would be postponed.", "type": "Floor"}, {"actionCode": "H8D000", "actionDate": "2021-07-26", "actionTime": "15:24:59", "sourceSystem": {"code": 2, "name": "House floor actions"}, "text": "DEBATE - The House proceeded with forty minutes of debate on H.R. 4300.", "type": "Floor"}, {"actionCode": "H30000", "actionDate": "2021-07-26", "actionTime": "15:24:57", "sourceSystem": {"code": 2, "name": "House floor actions"}, "text": "Considered under suspension of the rules. (consideration: CR H3864-3868)", "type": "Floor"}, {"actionCode": "H30300", "actionDate": "2021-07-26", "actionTime": "15:24:45", "sourceSystem": {"code": 2, "name": "House floor actions"}, "text": "Mrs. Dingell moved to suspend the rules and pass the bill, as amended.", "type": "Floor"}, {"actionCode": "H12410", "actionDate": "2021-07-26", "calendarNumber": {"calendar": "U00078"}, "sourceSystem": {"code": 2, "name": "House floor actions"}, "text": "Placed on the Union Calendar, Calendar No. 78.", "type": "Calendars"}, {"actionCode": "H12300", "actionDate": "2021-07-26", "committees": [{"name": "Agriculture Committee", "systemCode": "hsag00", "url": "https://api.congress.gov/v3/committee/house/hsag00?format=json"}], "sourceSystem": {"code": 2, "name": "House floor actions"}, "text": "Committee on Agriculture discharged.", "type": "Discharge"}, {"actionCode": "5500", "actionDate": "2021-07-26", "committees": [{"name": "Agriculture Committee", "systemCode": "hsag00", "url": "https://api.congress.gov/v3/committee/house/hsag00?format=json"}], "sourceSystem": {"code": 9, "name": "Library of Congress"}, "text": "Committee on Agriculture discharged.", "type": "Committee"}, {"actionCode": "H12200", "actionDate": "2021-07-26", "committees": [{"name": "Natural Resources Committee", "systemCode": "hsii00", "url": "https://api.congress.gov/v3/committee/house/hsii00?format=json"}], "sourceSystem": {"code": 2, "name": "House floor actions"}, "text": "Reported (Amended) by the Committee on Natural Resources. H. Rept. 117-105, Part I.", "type": "Committee"}, {"actionCode": "5000", "actionDate": "2021-07-26", "committees": [{"name": "Natural Resources Committee", "systemCode": "hsii00", "url": "https://api.congress.gov/v3/committee/house/hsii00?format=json"}], "sourceSystem": {"code": 9, "name": "Library of Congress"}, "text": "Reported (Amended) by the Committee on Natural Resources. H. Rept. 117-105, Part I.", "type": "Committee"}, {"actionCode": "H19000", "actionDate": "2021-07-14", "committees": [{"name": "Natural Resources Committee", "systemCode": "hsii00", "url": "https://api.congress.gov/v3/committee/house/hsii00?format=json"}], "sourceSystem": {"code": 1, "name": "House committee actions"}, "text": "Ordered to be Reported (Amended) by Unanimous Consent.", "type": "Committee"}, {"actionCode": "H15000-B", "actionDate": "2021-07-14", "committees": [{"name": "Natural Resources Committee", "systemCode": "hsii00", "url": "https://api.congress.gov/v3/committee/house/hsii00?format=json"}], "sourceSystem": {"code": 1, "name": "House committee actions"}, "text": "Committee Consideration and Mark-up Session Held.", "type": "Committee"}, {"actionCode": "H25000", "actionDate": "2021-07-14", "committees": [{"name": "Natural Resources Committee", "systemCode": "hsii00", "url": "https://api.congress.gov/v3/committee/house/hsii00?format=json"}], "sourceSystem": {"code": 1, "name": "House committee actions"}, "text": "Subcommittee on National Parks, Forests, and Public Lands Discharged.", "type": "Committee"}, {"actionCode": "H21000", "actionDate": "2021-07-13", "committees": [{"name": "Federal Lands Subcommittee", "systemCode": "hsii10", "url": "https://api.congress.gov/v3/committee/house/hsii10?format=json"}], "sourceSystem": {"code": 1, "name": "House committee actions"}, "text": "Subcommittee Hearings Held.", "type": "Committee"}, {"actionCode": "H11000", "actionDate": "2021-07-08", "committees": [{"name": "Federal Lands Subcommittee", "systemCode": "hsii10", "url": "https://api.congress.gov/v3/committee/house/hsii10?format=json"}], "sourceSystem": {"code": 1, "name": "House committee actions"}, "text": "Referred to the Subcommittee on National Parks, Forests, and Public Lands.", "type": "Committee"}], "pagination": {"count": 24, "next": "https://api.congress.gov/v3/bill/117/hr/4300/actions?offset=20&limit=20&format=json"}, "request": {"billNumber": "4300", "billType": "hr", "billUrl": "https://api.congress.gov/v3/bill/117/hr/4300?format=json", "congress": "117", "contentType": "application/json", "format": "json"}}, 200]