[{"actions": [{"actionCode": "E40000", "actionDate": "2022-08-09", "sourceSystem": {"code": 9, "name": "Library of Congress"}, "text": "Became Public Law No: 117-167.", "type": "President"}, {"actionCode": "36000", "actionDate": "2022-08-09", "sourceSystem": {"code": 9, "name": "Library of Congress"}, "text": "Became Public Law No: 117-167.", "type": "BecameLaw"}, {"actionCode": "E30000", "actionDate": "2022-08-09", "sourceSystem": {"code": 9, "name": "Library of Congress"}, "text": "Signed by President.", "type": "President"}, {"actionCode": "36000", "actionDate": "2022-08-09", "sourceSystem": {"code": 9, "name": "Library of Congress"}, "text": "Signed by President.", "type": "BecameLaw"}, {"actionCode": "E20000", "actionDate": "2022-08-02", "sourceSystem": {"code": 2, "name": "House floor actions"}, "text": "Presented to President.", "type": "Floor"}, {"actionCode": "28000", "actionDate": "2022-08-02", "sourceSystem": {"code": 9, "name": "Library of Congress"}, "text": "Presented to President.", "type": "President"}, {"actionCode": "H41931", "actionDate": "2022-07-28", "actionTime": "15:10:26", "sourceSystem": {"code": 2, "name": "House floor actions"}, "text": "Motion to reconsider laid on the table Agreed to without objection.", "type": "ResolvingDifferences"}, {"actionCode": "H41610", "actionDate": "2022-07-28", "actionTime": "15:10:24", "recordedVotes": [{"chamber": "House", "congress": 117, "date": "2022-07-28T19:10:24Z", "rollNumber": 404, "sessionNumber": 2, "url": "https://clerk.house.gov/evs/2022/roll404.xml"}], "sourceSystem": {"code": 2, "name": "House floor actions"}, "text": "On motion that the House agree to the Senate amendment to the House amendment to the Senate amendment Agreed to by the Yeas and Nays: 243 - 187, 1 Present (Roll no. 404). (text: CR H7273-7374)", "type": "ResolvingDifferences"}, {"actionCode": "19500", "actionDate": "2022-07-28", "recordedVotes": [{"chamber": "House", "congress": 117, "date": "2022-07-28T19:10:24Z", "rollNumber": 404, "sessionNumber": 2, "url": "https://clerk.house.gov/evs/2022/roll404.xml"}], "sourceSystem": {"code": 9, "name": "Library of Congress"}, "text": "Resolving differences -- House actions: On motion that the House agree to the Senate amendment to the House amendment to the Senate amendment Agreed to by the Yeas and Nays: 243 - 187, 1 Present (Roll no. 404).", "type": "NotUsed"}, {"actionCode": "H41400", "actionDate": "2022-07-28", "actionTime": "14:21:38", "sourceSystem": {"code": 2, "name": "House floor actions"}, "text": "The previous question was ordered pursuant to the rule.", "type": "ResolvingDifferences"}, {"actionCode": "H8D000", "actionDate": "2022-07-28", "actionTime": "12:59:14", "sourceSystem": {"code": 2, "name": "House floor actions"}, "text": "DEBATE - The House proceeded with one hour of debate on the Johnson (TX) motion to concur in the Senate amendment to the House amendment to the Senate amendment to H.R. 4346.", "type": "Floor"}, {"actionCode": "H8D000", "actionDate": "2022-07-28", "actionTime": "12:58:33", "sourceSystem": {"code": 2, "name": "House floor actions"}, "text": "Pursuant to the provisions of H.Res. 1289, Ms. Johnson (TX) moved that the House concur in the Senate amendment to the House amendment to the Senate amendment to H.R. 4346. (consideration: CR H7273-7387)", "type": "Floor"}, {"actionCode": "H40150", "actionDate": "2022-07-28", "actionTime": "12:58:32", "sourceSystem": {"code": 2, "name": "House floor actions"}, "text": "Ms. Johnson (TX) moved that the House agree to the Senate amendment to the House amendment to the Senate amendment.", "type": "ResolvingDifferences"}, {"actionDate": "2022-07-27", "sourceSystem": {"name": "Senate"}, "text": "Message on Senate action sent to the House.", "type": "Floor"}, {"actionDate": "2022-07-27", "recordedVotes": [{"chamber": "Senate", "congress": 117, "date": "2022-07-27T17:12:39Z", "rollNumber": 271, "sessionNumber": 2, "url": "https://www.senate.gov/legislative/LIS/roll_call_votes/vote1172/vote_117_2_00271.xml"}], "sourceSystem": {"name": "Senate"}, "text": "Senate concurred in the House amendment to the Senate amendment to H.R. 4346 with an amendment (SA 5135) by Yea-Nay Vote. 64 - 33. Record Vote Number: 271.", "type": "ResolvingDifferences"}, {"actionCode": "20500", "actionDate": "2022-07-27", "recordedVotes": [{"chamber": "Senate", "congress": 117, "date": "2022-07-27T17:12:39Z", "rollNumber": 271, "sessionNumber": 2, "url": "https://www.senate.gov/legislative/LIS/roll_call_votes/vote1172/vote_117_2_00271.xml"}], "sourceSystem": {"code": 9, "name": "Library of Congress"}, "text": "Resolving differences -- Senate actions: Senate concurred in the House amendment to the Senate amendment to H.R. 4346 with an amendment (SA 5135) by Yea-Nay Vote. 64 - 33. Record Vote Number: 271.", "type": "NotUsed"}, {"actionDate": "2022-07-27", "sourceSystem": {"name": "Senate"}, "text": "Considered by Senate (Message from the House considered). (consideration: S3707\u00bf3715)", "type": "Floor"}, {"actionDate": "2022-07-26", "committees": [{"name": "Commerce, Science, and Transportation Committee", "systemCode": "sscm00", "url": "https://api.congress.gov/v3/committee/senate/sscm00?format=json"}], "sourceSystem": {"name": "Senate"}, "text": "Motion by Senator Schumer to refer to Senate Committee on Commerce, Science, and Transportation with instructions to report back forthwith with the following amendment (SA 5137) fell when cloture was invoked on the motion to concur in the House amendment to the Senate amendment to H.R. 4346 with an amendment (SA 5135) in Senate.", "type": "Floor"}, {"actionDate": "2022-07-26", "sourceSystem": {"name": "Senate"}, "text": "Considered by Senate (Message from the House considered).", "type": "Floor"}, {"actionDate": "2022-07-26", "recordedVotes": [{"chamber": "Senate", "congress": 117, "date": "2022-07-26T16:09:27Z", "rollNumber": 268, "sessionNumber": 2, "url": "https://www.senate.gov/legislative/LIS/roll_call_votes/vote1172/vote_117_2_00268.xml"}], "sourceSystem": {"name": "Senate"}, "text": "Cloture on the motion to concur in the House amendment to the Senate amendment to H.R. 4346 with an amendment (SA 5135) invoked in Senate by Yea-Nay Vote. 64 - 32. Record Vote Number: 268. (CR S3665)", "type": "Floor"}], "pagination": {"count": 62, "next": "https://api.congress.gov/v3/bill/117/hr/4346/actions?offset=20&limit=20&format=json"}, "request": {"billNumber": "4346", "billType": "hr", "billUrl": "https://api.congress.gov/v3/bill/117/hr/4346?format=json", "congress": "117", "contentType": "application/json", "format": "json"}}, 200]