[{"actions": [{"actionDate": "2022-03-01", "sourceSystem": {"name": "Senate"}, "text": "Returned to the Calendar. Calendar No. 144.", "type": "Floor"}, {"actionDate": "2021-12-02", "sourceSystem": {"name": "Senate"}, "text": "Considered by Senate. (consideration: CR S8875-8876, S8876-8881)", "type": "Floor"}, {"actionDate": "2021-12-01", "sourceSystem": {"name": "Senate"}, "text": "Considered by Senate. (consideration: CR S8837-8859)", "type": "Floor"}, {"actionDate": "2021-11-30", "sourceSystem": {"name": "Senate"}, "text": "Considered by Senate. (consideration: CR  S8805-8811, S8811-8812, S8812-8826)", "type": "Floor"}, {"actionDate": "2021-11-29", "sourceSystem": {"name": "Senate"}, "text": "Considered by Senate. (consideration: CR S8769-8777)", "type": "Floor"}, {"actionDate": "2021-11-19", "sourceSystem": {"name": "Senate"}, "text": "Cloture motion on the measure presented in Senate. (CR S8757)", "type": "Floor"}, {"actionDate": "2021-11-19", "sourceSystem": {"name": "Senate"}, "text": "Measure laid before Senate by motion. (consideration: CR S8757)", "type": "Floor"}, {"actionDate": "2021-11-19", "sourceSystem": {"name": "Senate"}, "text": "Motion to proceed to consideration of measure agreed to in Senate by Voice Vote.", "type": "Floor"}, {"actionDate": "2021-11-19", "sourceSystem": {"name": "Senate"}, "text": "Motion to proceed to measure considered in Senate. (CR S8543)", "type": "Floor"}, {"actionDate": "2021-11-18", "sourceSystem": {"name": "Senate"}, "text": "Motion to proceed to measure considered in Senate. (CR S8407)", "type": "Floor"}, {"actionDate": "2021-11-17", "recordedVotes": [{"chamber": "Senate", "congress": 117, "date": "2021-11-18T02:24:56Z", "rollNumber": 472, "sessionNumber": 1, "url": "https://www.senate.gov/legislative/LIS/roll_call_votes/vote1171/vote_117_1_00472.xml"}], "sourceSystem": {"name": "Senate"}, "text": "Cloture on the motion to proceed to the measure invoked in Senate by Yea-Nay Vote. 84 - 15. Record Vote Number: 472. (CR S8340)", "type": "Floor"}, {"actionDate": "2021-11-17", "sourceSystem": {"name": "Senate"}, "text": "Motion to proceed to consideration of measure made in Senate. (CR S8321)", "type": "Floor"}, {"actionDate": "2021-11-15", "sourceSystem": {"name": "Senate"}, "text": "Cloture motion on the motion to proceed to the measure presented in Senate. (CR S8071)", "type": "Floor"}, {"actionDate": "2021-11-15", "sourceSystem": {"name": "Senate"}, "text": "Motion to proceed to consideration of measure made in Senate. (CR S8071)", "type": "Floor"}, {"actionDate": "2021-10-18", "calendarNumber": {"calendar": "Senate Calendar of Business", "number": "0144"}, "sourceSystem": {"name": "Senate"}, "text": "Received in the Senate. Read twice. Placed on Senate Legislative Calendar under General Orders. Calendar No. 144.", "type": "Calendars"}, {"actionCode": "H38900", "actionDate": "2021-09-23", "actionTime": "21:06:16", "sourceSystem": {"code": 2, "name": "House floor actions"}, "text": "The Clerk was authorized to correct section numbers, punctuation, and cross references, and to make other necessary technical and conforming corrections in the engrossment of H.R. 4350.", "type": "Floor"}, {"actionCode": "H38800", "actionDate": "2021-09-23", "actionTime": "21:06:13", "sourceSystem": {"code": 2, "name": "House floor actions"}, "text": "The title of the measure was amended. Agreed to without objection.", "type": "Floor"}, {"actionCode": "H38310", "actionDate": "2021-09-23", "actionTime": "21:05:59", "sourceSystem": {"code": 2, "name": "House floor actions"}, "text": "Motion to reconsider laid on the table Agreed to without objection.", "type": "Floor"}, {"actionCode": "H37100", "actionDate": "2021-09-23", "actionTime": "21:05:57", "recordedVotes": [{"chamber": "House", "congress": 117, "date": "2021-09-24T01:05:57Z", "rollNumber": 293, "sessionNumber": 1, "url": "https://clerk.house.gov/evs/2021/roll293.xml"}], "sourceSystem": {"code": 2, "name": "House floor actions"}, "text": "On passage Passed by the Yeas and Nays: 316 - 113 (Roll no. 293).", "type": "Floor"}, {"actionCode": "8000", "actionDate": "2021-09-23", "actionTime": "21:05:57", "recordedVotes": [{"chamber": "House", "congress": 117, "date": "2021-09-24T01:05:57Z", "rollNumber": 293, "sessionNumber": 1, "url": "https://clerk.house.gov/evs/2021/roll293.xml"}], "sourceSystem": {"code": 9, "name": "Library of Congress"}, "text": "Passed/agreed to in House: On passage Passed by the Yeas and Nays: 316 - 113 (Roll no. 293).", "type": "Floor"}], "pagination": {"count": 123, "next": "https://api.congress.gov/v3/bill/117/hr/4350/actions?offset=20&limit=20&format=json"}, "request": {"billNumber": "4350", "billType": "hr", "billUrl": "https://api.congress.gov/v3/bill/117/hr/4350?format=json", "congress": "117", "contentType": "application/json", "format": "json"}}, 200]