[{"actions": [{"actionDate": "2022-06-09", "calendarNumber": {"calendar": "Senate Calendar of Business", "number": "0402"}, "sourceSystem": {"name": "Senate"}, "text": "Placed on Senate Legislative Calendar under General Orders. Calendar No. 402.", "type": "Calendars"}, {"actionDate": "2022-06-09", "committees": [{"name": "Homeland Security and Governmental Affairs Committee", "systemCode": "ssga00", "url": "https://api.congress.gov/v3/committee/senate/ssga00?format=json"}], "sourceSystem": {"name": "Senate"}, "text": "Committee on Homeland Security and Governmental Affairs. Reported by Senator Peters with an amendment in the nature of a substitute. With written report No. 117-120.", "type": "Committee"}, {"actionCode": "14000", "actionDate": "2022-06-09", "committees": [{"name": "Homeland Security and Governmental Affairs Committee", "systemCode": "ssga00", "url": "https://api.congress.gov/v3/committee/senate/ssga00?format=json"}], "sourceSystem": {"code": 9, "name": "Library of Congress"}, "text": "Committee on Homeland Security and Governmental Affairs. Reported by Senator Peters with an amendment in the nature of a substitute. With written report No. 117-120.", "type": "Committee"}, {"actionDate": "2021-11-03", "committees": [{"name": "Homeland Security and Governmental Affairs Committee", "systemCode": "ssga00", "url": "https://api.congress.gov/v3/committee/senate/ssga00?format=json"}], "sourceSystem": {"name": "Senate"}, "text": "Committee on Homeland Security and Governmental Affairs. Ordered to be reported with an amendment in the nature of a substitute favorably.", "type": "Committee"}, {"actionDate": "2021-09-30", "committees": [{"name": "Homeland Security and Governmental Affairs Committee", "systemCode": "ssga00", "url": "https://api.congress.gov/v3/committee/senate/ssga00?format=json"}], "sourceSystem": {"name": "Senate"}, "text": "Received in the Senate and Read twice and referred to the Committee on Homeland Security and Governmental Affairs.", "type": "IntroReferral"}, {"actionCode": "H38310", "actionDate": "2021-09-29", "actionTime": "16:46:49", "sourceSystem": {"code": 2, "name": "House floor actions"}, "text": "Motion to reconsider laid on the table Agreed to without objection.", "type": "Floor"}, {"actionCode": "H37300", "actionDate": "2021-09-29", "actionTime": "16:46:47", "sourceSystem": {"code": 2, "name": "House floor actions"}, "text": "On motion to suspend the rules and pass the bill, as amended Agreed to by voice vote. (text: CR H5545-5546)", "type": "Floor"}, {"actionCode": "8000", "actionDate": "2021-09-29", "actionTime": "16:46:47", "sourceSystem": {"code": 9, "name": "Library of Congress"}, "text": "Passed/agreed to in House: On motion to suspend the rules and pass the bill, as amended Agreed to by voice vote.(text: CR H5545-5546)", "type": "Floor"}, {"actionCode": "H8D000", "actionDate": "2021-09-29", "actionTime": "16:37:58", "sourceSystem": {"code": 2, "name": "House floor actions"}, "text": "DEBATE - The House proceeded with forty minutes of debate on H.R. 4363.", "type": "Floor"}, {"actionCode": "H30000", "actionDate": "2021-09-29", "actionTime": "16:37:57", "sourceSystem": {"code": 2, "name": "House floor actions"}, "text": "Considered under suspension of the rules. (consideration: CR H5545-5547)", "type": "Floor"}, {"actionCode": "H30300", "actionDate": "2021-09-29", "actionTime": "16:37:37", "sourceSystem": {"code": 2, "name": "House floor actions"}, "text": "Mr. Thompson (MS) moved to suspend the rules and pass the bill, as amended.", "type": "Floor"}, {"actionCode": "H12410", "actionDate": "2021-09-14", "calendarNumber": {"calendar": "U00086"}, "sourceSystem": {"code": 2, "name": "House floor actions"}, "text": "Placed on the Union Calendar, Calendar No. 86.", "type": "Calendars"}, {"actionCode": "H12200", "actionDate": "2021-09-14", "committees": [{"name": "Homeland Security Committee", "systemCode": "hshm00", "url": "https://api.congress.gov/v3/committee/house/hshm00?format=json"}], "sourceSystem": {"code": 2, "name": "House floor actions"}, "text": "Reported (Amended) by the Committee on Homeland Security. H. Rept. 117-121.", "type": "Committee"}, {"actionCode": "5000", "actionDate": "2021-09-14", "committees": [{"name": "Homeland Security Committee", "systemCode": "hshm00", "url": "https://api.congress.gov/v3/committee/house/hshm00?format=json"}], "sourceSystem": {"code": 9, "name": "Library of Congress"}, "text": "Reported (Amended) by the Committee on Homeland Security. H. Rept. 117-121.", "type": "Committee"}, {"actionCode": "H19000", "actionDate": "2021-07-28", "committees": [{"name": "Homeland Security Committee", "systemCode": "hshm00", "url": "https://api.congress.gov/v3/committee/house/hshm00?format=json"}], "sourceSystem": {"code": 1, "name": "House committee actions"}, "text": "Ordered to be Reported (Amended) by Voice Vote.", "type": "Committee"}, {"actionCode": "H15000-B", "actionDate": "2021-07-28", "committees": [{"name": "Homeland Security Committee", "systemCode": "hshm00", "url": "https://api.congress.gov/v3/committee/house/hshm00?format=json"}], "sourceSystem": {"code": 1, "name": "House committee actions"}, "text": "Committee Consideration and Mark-up Session Held.", "type": "Committee"}, {"actionCode": "H25000", "actionDate": "2021-07-28", "committees": [{"name": "Homeland Security Committee", "systemCode": "hshm00", "url": "https://api.congress.gov/v3/committee/house/hshm00?format=json"}], "sourceSystem": {"code": 1, "name": "House committee actions"}, "text": "Subcommittee on Oversight, Management, and Accountability Discharged.", "type": "Committee"}, {"actionCode": "H11000", "actionDate": "2021-07-07", "committees": [{"name": "Oversight, Investigations, and Accountability Subcommittee", "systemCode": "hshm09", "url": "https://api.congress.gov/v3/committee/house/hshm09?format=json"}], "sourceSystem": {"code": 1, "name": "House committee actions"}, "text": "Referred to the Subcommittee on Oversight, Management, and Accountability.", "type": "Committee"}, {"actionCode": "H11100", "actionDate": "2021-07-06", "committees": [{"name": "Homeland Security Committee", "systemCode": "hshm00", "url": "https://api.congress.gov/v3/committee/house/hshm00?format=json"}], "sourceSystem": {"code": 2, "name": "House floor actions"}, "text": "Referred to the House Committee on Homeland Security.", "type": "IntroReferral"}, {"actionCode": "Intro-H", "actionDate": "2021-07-06", "sourceSystem": {"code": 9, "name": "Library of Congress"}, "text": "Introduced in House", "type": "IntroReferral"}], "pagination": {"count": 21, "next": "https://api.congress.gov/v3/bill/117/hr/4363/actions?offset=20&limit=20&format=json"}, "request": {"billNumber": "4363", "billType": "hr", "billUrl": "https://api.congress.gov/v3/bill/117/hr/4363?format=json", "congress": "117", "contentType": "application/json", "format": "json"}}, 200]