[{"actions": [{"actionCode": "E40000", "actionDate": "2022-12-23", "sourceSystem": {"code": 9, "name": "Library of Congress"}, "text": "Became Public Law No: 117-264.", "type": "President"}, {"actionCode": "36000", "actionDate": "2022-12-23", "sourceSystem": {"code": 9, "name": "Library of Congress"}, "text": "Became Public Law No: 117-264.", "type": "BecameLaw"}, {"actionCode": "E30000", "actionDate": "2022-12-23", "sourceSystem": {"code": 9, "name": "Library of Congress"}, "text": "Signed by President.", "type": "President"}, {"actionCode": "36000", "actionDate": "2022-12-23", "sourceSystem": {"code": 9, "name": "Library of Congress"}, "text": "Signed by President.", "type": "BecameLaw"}, {"actionCode": "E20000", "actionDate": "2022-12-23", "sourceSystem": {"code": 2, "name": "House floor actions"}, "text": "Presented to President.", "type": "Floor"}, {"actionCode": "28000", "actionDate": "2022-12-23", "sourceSystem": {"code": 9, "name": "Library of Congress"}, "text": "Presented to President.", "type": "President"}, {"actionCode": "H1B000", "actionDate": "2022-12-23", "actionTime": "12:38:28", "sourceSystem": {"code": 2, "name": "House floor actions"}, "text": "Pursuant to the provisions of H. Res. 1531 the House agreed to the Senate amendment.", "type": "Floor"}, {"actionCode": "19500", "actionDate": "2022-12-23", "sourceSystem": {"code": 9, "name": "Library of Congress"}, "text": "Resolving differences -- House actions: Pursuant to the provisions of H. Res. 1531 the House agreed to the Senate amendment.", "type": "NotUsed"}, {"actionDate": "2022-12-23", "sourceSystem": {"name": "Senate"}, "text": "Message on Senate action sent to the House.", "type": "Floor"}, {"actionDate": "2022-12-22", "sourceSystem": {"name": "Senate"}, "text": "Motion by Senator Schumer to reconsider the vote by which cloture was not invoked on the motion to proceed (Record Vote No. 129) rendered moot in Senate.", "type": "Floor"}, {"actionDate": "2022-12-22", "sourceSystem": {"name": "Senate"}, "text": "Cloture motion on the motion to proceed to the measure rendered moot in Senate.", "type": "Floor"}, {"actionDate": "2022-12-22", "sourceSystem": {"name": "Senate"}, "text": "Passed Senate with an amendment by Voice Vote. (text of amendment in the nature of a substitute: CR S10098)", "type": "Floor"}, {"actionCode": "17000", "actionDate": "2022-12-22", "sourceSystem": {"code": 9, "name": "Library of Congress"}, "text": "Passed/agreed to in Senate: Passed Senate with an amendment by Voice Vote.", "type": "Floor"}, {"actionDate": "2022-12-22", "sourceSystem": {"name": "Senate"}, "text": "Measure laid before Senate by unanimous consent. (consideration: CR S10098)", "type": "Floor"}, {"actionDate": "2022-04-05", "sourceSystem": {"name": "Senate"}, "text": "Motion by Senator Schumer to reconsider the vote by which cloture was not invoked on the motion to proceed (Record Vote No. 129) entered in Senate.", "type": "Floor"}, {"actionDate": "2022-04-05", "recordedVotes": [{"chamber": "Senate", "congress": 117, "date": "2022-04-05T20:43:09Z", "rollNumber": 129, "sessionNumber": 2, "url": "https://www.senate.gov/legislative/LIS/roll_call_votes/vote1172/vote_117_2_00129.xml"}], "sourceSystem": {"name": "Senate"}, "text": "Cloture on the motion to proceed to the measure not invoked in Senate by Yea-Nay Vote. 47 - 52. Record Vote Number: 129. (CR S1964)", "type": "Floor"}, {"actionDate": "2022-03-31", "sourceSystem": {"name": "Senate"}, "text": "Motion to proceed to measure considered in Senate. (CR S1875-1886)", "type": "Floor"}, {"actionDate": "2022-03-29", "sourceSystem": {"name": "Senate"}, "text": "Cloture motion on the motion to proceed to the measure presented in Senate. (CR S1829)", "type": "Floor"}, {"actionDate": "2022-03-29", "sourceSystem": {"name": "Senate"}, "text": "Motion to proceed to consideration of measure made in Senate.", "type": "Floor"}, {"actionDate": "2022-03-24", "calendarNumber": {"calendar": "Senate Calendar of Business", "number": "0310"}, "sourceSystem": {"name": "Senate"}, "text": "Read the second time. Placed on Senate Legislative Calendar under General Orders. Calendar No. 310.", "type": "Calendars"}], "pagination": {"count": 48, "next": "https://api.congress.gov/v3/bill/117/hr/4373/actions?offset=20&limit=20&format=json"}, "request": {"billNumber": "4373", "billType": "hr", "billUrl": "https://api.congress.gov/v3/bill/117/hr/4373?format=json", "congress": "117", "contentType": "application/json", "format": "json"}}, 200]