[{"actions": [{"actionCode": "H12410", "actionDate": "2022-12-16", "calendarNumber": {"calendar": "U00466"}, "sourceSystem": {"code": 2, "name": "House floor actions"}, "text": "Placed on the Union Calendar, Calendar No. 466.", "type": "Calendars"}, {"actionCode": "H12300", "actionDate": "2022-12-16", "committees": [{"name": "Energy and Commerce Committee", "systemCode": "hsif00", "url": "https://api.congress.gov/v3/committee/house/hsif00?format=json"}], "sourceSystem": {"code": 2, "name": "House floor actions"}, "text": "Committee on Energy and Commerce discharged.", "type": "Discharge"}, {"actionCode": "5500", "actionDate": "2022-12-16", "committees": [{"name": "Energy and Commerce Committee", "systemCode": "hsif00", "url": "https://api.congress.gov/v3/committee/house/hsif00?format=json"}], "sourceSystem": {"code": 9, "name": "Library of Congress"}, "text": "Committee on Energy and Commerce discharged.", "type": "Committee"}, {"actionCode": "H11210", "actionDate": "2022-12-08", "committees": [{"name": "Energy and Commerce Committee", "systemCode": "hsif00", "url": "https://api.congress.gov/v3/committee/house/hsif00?format=json"}], "sourceSystem": {"code": 2, "name": "House floor actions"}, "text": "House Committee on Energy and Commerce Granted an extension for further consideration ending not later than Dec. 15, 2022.", "type": "IntroReferral"}, {"actionCode": "H11210", "actionDate": "2022-11-14", "committees": [{"name": "Energy and Commerce Committee", "systemCode": "hsif00", "url": "https://api.congress.gov/v3/committee/house/hsif00?format=json"}], "sourceSystem": {"code": 2, "name": "House floor actions"}, "text": "House Committee on Energy and Commerce Granted an extension for further consideration ending not later than Dec. 8, 2022.", "type": "IntroReferral"}, {"actionCode": "H11210", "actionDate": "2022-09-22", "committees": [{"name": "Energy and Commerce Committee", "systemCode": "hsif00", "url": "https://api.congress.gov/v3/committee/house/hsif00?format=json"}], "sourceSystem": {"code": 2, "name": "House floor actions"}, "text": "House Committee on Energy and Commerce Granted an extension for further consideration ending not later than Nov. 14, 2022.", "type": "IntroReferral"}, {"actionCode": "H11210", "actionDate": "2022-09-09", "committees": [{"name": "Energy and Commerce Committee", "systemCode": "hsif00", "url": "https://api.congress.gov/v3/committee/house/hsif00?format=json"}], "sourceSystem": {"code": 2, "name": "House floor actions"}, "text": "House Committee on Energy and Commerce Granted an extension for further consideration ending not later than Sept. 22, 2022.", "type": "IntroReferral"}, {"actionCode": "H11210", "actionDate": "2022-07-29", "committees": [{"name": "Energy and Commerce Committee", "systemCode": "hsif00", "url": "https://api.congress.gov/v3/committee/house/hsif00?format=json"}], "sourceSystem": {"code": 2, "name": "House floor actions"}, "text": "House Committee on Energy and Commerce Granted an extension for further consideration ending not later than Sept. 12, 2022.", "type": "IntroReferral"}, {"actionCode": "H11210", "actionDate": "2022-07-15", "committees": [{"name": "Energy and Commerce Committee", "systemCode": "hsif00", "url": "https://api.congress.gov/v3/committee/house/hsif00?format=json"}], "sourceSystem": {"code": 2, "name": "House floor actions"}, "text": "House Committee on Energy and Commerce Granted an extension for further consideration ending not later than July 29, 2022.", "type": "IntroReferral"}, {"actionCode": "H11210", "actionDate": "2022-06-28", "committees": [{"name": "Energy and Commerce Committee", "systemCode": "hsif00", "url": "https://api.congress.gov/v3/committee/house/hsif00?format=json"}], "sourceSystem": {"code": 2, "name": "House floor actions"}, "text": "House Committee on Energy and Commerce Granted an extension for further consideration ending not later than July 15, 2022.", "type": "IntroReferral"}, {"actionCode": "H11210", "actionDate": "2022-05-24", "committees": [{"name": "Energy and Commerce Committee", "systemCode": "hsif00", "url": "https://api.congress.gov/v3/committee/house/hsif00?format=json"}], "sourceSystem": {"code": 2, "name": "House floor actions"}, "text": "House Committee on Energy and Commerce Granted an extension for further consideration ending not later than June 28, 2022.", "type": "IntroReferral"}, {"actionCode": "H11210", "actionDate": "2022-05-06", "committees": [{"name": "Energy and Commerce Committee", "systemCode": "hsif00", "url": "https://api.congress.gov/v3/committee/house/hsif00?format=json"}], "sourceSystem": {"code": 2, "name": "House floor actions"}, "text": "House Committee on Energy and Commerce Granted an extension for further consideration ending not later than May 26, 2022.", "type": "IntroReferral"}, {"actionCode": "H11210", "actionDate": "2022-04-29", "committees": [{"name": "Energy and Commerce Committee", "systemCode": "hsif00", "url": "https://api.congress.gov/v3/committee/house/hsif00?format=json"}], "sourceSystem": {"code": 2, "name": "House floor actions"}, "text": "House Committee on Energy and Commerce Granted an extension for further consideration ending not later than May 6, 2022.", "type": "IntroReferral"}, {"actionCode": "H11210", "actionDate": "2022-03-18", "committees": [{"name": "Energy and Commerce Committee", "systemCode": "hsif00", "url": "https://api.congress.gov/v3/committee/house/hsif00?format=json"}], "sourceSystem": {"code": 2, "name": "House floor actions"}, "text": "House Committee on Energy and Commerce Granted an extension for further consideration ending not later than April 29, 2022.", "type": "IntroReferral"}, {"actionCode": "H11210", "actionDate": "2022-01-21", "committees": [{"name": "Energy and Commerce Committee", "systemCode": "hsif00", "url": "https://api.congress.gov/v3/committee/house/hsif00?format=json"}], "sourceSystem": {"code": 2, "name": "House floor actions"}, "text": "House Committee on Energy and Commerce Granted an extension for further consideration ending not later than March 18, 2022.", "type": "IntroReferral"}, {"actionCode": "H11210", "actionDate": "2021-12-03", "committees": [{"name": "Energy and Commerce Committee", "systemCode": "hsif00", "url": "https://api.congress.gov/v3/committee/house/hsif00?format=json"}], "sourceSystem": {"code": 2, "name": "House floor actions"}, "text": "House Committee on Energy and Commerce Granted an extension for further consideration ending not later than Jan. 21, 2022.", "type": "IntroReferral"}, {"actionCode": "H11210", "actionDate": "2021-11-18", "committees": [{"name": "Energy and Commerce Committee", "systemCode": "hsif00", "url": "https://api.congress.gov/v3/committee/house/hsif00?format=json"}], "sourceSystem": {"code": 2, "name": "House floor actions"}, "text": "House Committee on Energy and Commerce Granted an extension for further consideration ending not later than Dec. 3, 2021.", "type": "IntroReferral"}, {"actionCode": "H11210", "actionDate": "2021-11-05", "committees": [{"name": "Energy and Commerce Committee", "systemCode": "hsif00", "url": "https://api.congress.gov/v3/committee/house/hsif00?format=json"}], "sourceSystem": {"code": 2, "name": "House floor actions"}, "text": "House Committee on Energy and Commerce Granted an extension for further consideration ending not later than Nov. 18, 2021.", "type": "IntroReferral"}, {"actionCode": "H11210", "actionDate": "2021-10-28", "committees": [{"name": "Energy and Commerce Committee", "systemCode": "hsif00", "url": "https://api.congress.gov/v3/committee/house/hsif00?format=json"}], "sourceSystem": {"code": 2, "name": "House floor actions"}, "text": "House Committee on Energy and Commerce Granted an extension for further consideration ending not later than Nov. 5, 2021.", "type": "IntroReferral"}, {"actionCode": "H11210", "actionDate": "2021-09-24", "committees": [{"name": "Energy and Commerce Committee", "systemCode": "hsif00", "url": "https://api.congress.gov/v3/committee/house/hsif00?format=json"}], "sourceSystem": {"code": 2, "name": "House floor actions"}, "text": "House Committee on Energy and Commerce Granted an extension for further consideration ending not later than Oct. 28, 2021.", "type": "IntroReferral"}], "pagination": {"count": 30, "next": "https://api.congress.gov/v3/bill/117/hr/4374/actions?offset=20&limit=20&format=json"}, "request": {"billNumber": "4374", "billType": "hr", "billUrl": "https://api.congress.gov/v3/bill/117/hr/4374?format=json", "congress": "117", "contentType": "application/json", "format": "json"}}, 200]