[{"actions": [{"actionDate": "2022-09-21", "committees": [{"name": "National Parks Subcommittee", "systemCode": "sseg04", "url": "https://api.congress.gov/v3/committee/senate/sseg04?format=json"}], "sourceSystem": {"name": "Senate"}, "text": "Committee on Energy and Natural Resources Subcommittee on National Parks. Hearings held.", "type": "Committee"}, {"actionDate": "2022-03-17", "committees": [{"name": "Energy and Natural Resources Committee", "systemCode": "sseg00", "url": "https://api.congress.gov/v3/committee/senate/sseg00?format=json"}], "sourceSystem": {"name": "Senate"}, "text": "Received in the Senate and Read twice and referred to the Committee on Energy and Natural Resources.", "type": "IntroReferral"}, {"actionCode": "H38310", "actionDate": "2022-03-16", "actionTime": "16:59:44", "sourceSystem": {"code": 2, "name": "House floor actions"}, "text": "Motion to reconsider laid on the table Agreed to without objection.", "type": "Floor"}, {"actionCode": "H37300", "actionDate": "2022-03-16", "actionTime": "16:59:43", "recordedVotes": [{"chamber": "House", "congress": 117, "date": "2022-03-16T20:59:43Z", "rollNumber": 76, "sessionNumber": 2, "url": "https://clerk.house.gov/evs/2022/roll076.xml"}], "sourceSystem": {"code": 2, "name": "House floor actions"}, "text": "On motion to suspend the rules and pass the bill Agreed to by the Yeas and Nays: (2/3 required): 403 - 25 (Roll no. 76). (text: 3/15/2022 CR H3728)", "type": "Floor"}, {"actionCode": "8000", "actionDate": "2022-03-16", "actionTime": "16:59:43", "recordedVotes": [{"chamber": "House", "congress": 117, "date": "2022-03-16T20:59:43Z", "rollNumber": 76, "sessionNumber": 2, "url": "https://clerk.house.gov/evs/2022/roll076.xml"}], "sourceSystem": {"code": 9, "name": "Library of Congress"}, "text": "Passed/agreed to in House: On motion to suspend the rules and pass the bill Agreed to by the Yeas and Nays: (2/3 required): 403 - 25 (Roll no. 76).(text: 3/15/2022 CR H3728)", "type": "Floor"}, {"actionCode": "H30000", "actionDate": "2022-03-16", "actionTime": "16:40:45", "sourceSystem": {"code": 2, "name": "House floor actions"}, "text": "Considered as unfinished business. (consideration: CR H3761-3762)", "type": "Floor"}, {"actionCode": "H37220", "actionDate": "2022-03-15", "actionTime": "15:39:44", "sourceSystem": {"code": 2, "name": "House floor actions"}, "text": "At the conclusion of debate, the Yeas and Nays were demanded and ordered. Pursuant to the provisions of clause 8, rule XX, the Chair announced that further proceedings on the motion would be postponed.", "type": "Floor"}, {"actionCode": "H8D000", "actionDate": "2022-03-15", "actionTime": "15:22:18", "sourceSystem": {"code": 2, "name": "House floor actions"}, "text": "DEBATE - The House proceeded with forty minutes of debate on H.R. 4380.", "type": "Floor"}, {"actionCode": "H30000", "actionDate": "2022-03-15", "actionTime": "15:22:14", "sourceSystem": {"code": 2, "name": "House floor actions"}, "text": "Considered under suspension of the rules. (consideration: CR H3729-3731)", "type": "Floor"}, {"actionCode": "H30300", "actionDate": "2022-03-15", "actionTime": "15:21:43", "sourceSystem": {"code": 2, "name": "House floor actions"}, "text": "Mr. Grijalva moved to suspend the rules and pass the bill.", "type": "Floor"}, {"actionCode": "H12410", "actionDate": "2022-03-09", "calendarNumber": {"calendar": "U00193"}, "sourceSystem": {"code": 2, "name": "House floor actions"}, "text": "Placed on the Union Calendar, Calendar No. 193.", "type": "Calendars"}, {"actionCode": "H12200", "actionDate": "2022-03-09", "committees": [{"name": "Natural Resources Committee", "systemCode": "hsii00", "url": "https://api.congress.gov/v3/committee/house/hsii00?format=json"}], "sourceSystem": {"code": 2, "name": "House floor actions"}, "text": "Reported by the Committee on Natural Resources. H. Rept. 117-264.", "type": "Committee"}, {"actionCode": "5000", "actionDate": "2022-03-09", "committees": [{"name": "Natural Resources Committee", "systemCode": "hsii00", "url": "https://api.congress.gov/v3/committee/house/hsii00?format=json"}], "sourceSystem": {"code": 9, "name": "Library of Congress"}, "text": "Reported by the Committee on Natural Resources. H. Rept. 117-264.", "type": "Committee"}, {"actionCode": "H19000", "actionDate": "2022-01-19", "committees": [{"name": "Natural Resources Committee", "systemCode": "hsii00", "url": "https://api.congress.gov/v3/committee/house/hsii00?format=json"}], "sourceSystem": {"code": 1, "name": "House committee actions"}, "text": "Ordered to be Reported by Unanimous Consent.", "type": "Committee"}, {"actionCode": "H15000-B", "actionDate": "2022-01-19", "committees": [{"name": "Natural Resources Committee", "systemCode": "hsii00", "url": "https://api.congress.gov/v3/committee/house/hsii00?format=json"}], "sourceSystem": {"code": 1, "name": "House committee actions"}, "text": "Committee Consideration and Mark-up Session Held.", "type": "Committee"}, {"actionCode": "H25000", "actionDate": "2022-01-19", "committees": [{"name": "Natural Resources Committee", "systemCode": "hsii00", "url": "https://api.congress.gov/v3/committee/house/hsii00?format=json"}], "sourceSystem": {"code": 1, "name": "House committee actions"}, "text": "Subcommittee on National Parks, Forests, and Public Lands Discharged.", "type": "Committee"}, {"actionCode": "H21000", "actionDate": "2021-10-14", "committees": [{"name": "Federal Lands Subcommittee", "systemCode": "hsii10", "url": "https://api.congress.gov/v3/committee/house/hsii10?format=json"}], "sourceSystem": {"code": 1, "name": "House committee actions"}, "text": "Subcommittee Hearings Held.", "type": "Committee"}, {"actionCode": "H11000", "actionDate": "2021-07-24", "committees": [{"name": "Federal Lands Subcommittee", "systemCode": "hsii10", "url": "https://api.congress.gov/v3/committee/house/hsii10?format=json"}], "sourceSystem": {"code": 1, "name": "House committee actions"}, "text": "Referred to the Subcommittee on National Parks, Forests, and Public Lands.", "type": "Committee"}, {"actionCode": "H11100", "actionDate": "2021-07-09", "committees": [{"name": "Natural Resources Committee", "systemCode": "hsii00", "url": "https://api.congress.gov/v3/committee/house/hsii00?format=json"}], "sourceSystem": {"code": 2, "name": "House floor actions"}, "text": "Referred to the House Committee on Natural Resources.", "type": "IntroReferral"}, {"actionCode": "Intro-H", "actionDate": "2021-07-09", "sourceSystem": {"code": 9, "name": "Library of Congress"}, "text": "Introduced in House", "type": "IntroReferral"}], "pagination": {"count": 21, "next": "https://api.congress.gov/v3/bill/117/hr/4380/actions?offset=20&limit=20&format=json"}, "request": {"billNumber": "4380", "billType": "hr", "billUrl": "https://api.congress.gov/v3/bill/117/hr/4380?format=json", "congress": "117", "contentType": "application/json", "format": "json"}}, 200]