[{"actions": [{"actionCode": "E40000", "actionDate": "2022-03-03", "sourceSystem": {"code": 9, "name": "Library of Congress"}, "text": "Became Public Law No: 117-90.", "type": "President"}, {"actionCode": "36000", "actionDate": "2022-03-03", "sourceSystem": {"code": 9, "name": "Library of Congress"}, "text": "Became Public Law No: 117-90.", "type": "BecameLaw"}, {"actionCode": "E30000", "actionDate": "2022-03-03", "sourceSystem": {"code": 9, "name": "Library of Congress"}, "text": "Signed by President.", "type": "President"}, {"actionCode": "36000", "actionDate": "2022-03-03", "sourceSystem": {"code": 9, "name": "Library of Congress"}, "text": "Signed by President.", "type": "BecameLaw"}, {"actionCode": "E20000", "actionDate": "2022-03-02", "sourceSystem": {"code": 2, "name": "House floor actions"}, "text": "Presented to President.", "type": "Floor"}, {"actionCode": "28000", "actionDate": "2022-03-02", "sourceSystem": {"code": 9, "name": "Library of Congress"}, "text": "Presented to President.", "type": "President"}, {"actionDate": "2022-02-10", "sourceSystem": {"name": "Senate"}, "text": "Message on Senate action sent to the House.", "type": "Floor"}, {"actionDate": "2022-02-10", "sourceSystem": {"name": "Senate"}, "text": "Passed Senate without amendment by Voice Vote. (consideration: CR S621-628)", "type": "Floor"}, {"actionCode": "17000", "actionDate": "2022-02-10", "sourceSystem": {"code": 9, "name": "Library of Congress"}, "text": "Passed/agreed to in Senate: Passed Senate without amendment by Voice Vote.", "type": "Floor"}, {"actionDate": "2022-02-08", "calendarNumber": {"calendar": "Senate Calendar of Business", "number": "0264"}, "sourceSystem": {"name": "Senate"}, "text": "Received in the Senate. Read twice. Placed on Senate Legislative Calendar under General Orders. Calendar No. 264.", "type": "Calendars"}, {"actionCode": "H38310", "actionDate": "2022-02-07", "actionTime": "19:28:22", "sourceSystem": {"code": 2, "name": "House floor actions"}, "text": "Motion to reconsider laid on the table Agreed to without objection.", "type": "Floor"}, {"actionCode": "H37100", "actionDate": "2022-02-07", "actionTime": "19:28:19", "recordedVotes": [{"chamber": "House", "congress": 117, "date": "2022-02-08T00:28:19Z", "rollNumber": 33, "sessionNumber": 2, "url": "https://clerk.house.gov/evs/2022/roll033.xml"}], "sourceSystem": {"code": 2, "name": "House floor actions"}, "text": "On passage Passed by the Yeas and Nays: 335 - 97 (Roll no. 33). (text: CR: H984)", "type": "Floor"}, {"actionCode": "8000", "actionDate": "2022-02-07", "actionTime": "19:28:19", "recordedVotes": [{"chamber": "House", "congress": 117, "date": "2022-02-08T00:28:19Z", "rollNumber": 33, "sessionNumber": 2, "url": "https://clerk.house.gov/evs/2022/roll033.xml"}], "sourceSystem": {"code": 9, "name": "Library of Congress"}, "text": "Passed/agreed to in House: On passage Passed by the Yeas and Nays: 335 - 97 (Roll no. 33).(text: CR: H984)", "type": "Floor"}, {"actionCode": "H8D000", "actionDate": "2022-02-07", "actionTime": "18:32:16", "sourceSystem": {"code": 2, "name": "House floor actions"}, "text": "UNFINISHED BUSINESS - The Chair announced that the unfinished business was the question of agreeing to the Buck amendment, which was debated earlier an on which further proceedings had been postponed.", "type": "Floor"}, {"actionCode": "H30000", "actionDate": "2022-02-07", "actionTime": "18:32:15", "sourceSystem": {"code": 2, "name": "House floor actions"}, "text": "Considered as unfinished business. (consideration: CR H994-995)", "type": "Floor"}, {"actionCode": "H8D000", "actionDate": "2022-02-07", "actionTime": "18:04:06", "sourceSystem": {"code": 2, "name": "House floor actions"}, "text": "Pursuant to clause 1(c) of rule XIX, further proceedings on H.R. 4445 were postponed.", "type": "Floor"}, {"actionCode": "H8D000", "actionDate": "2022-02-07", "actionTime": "18:03:44", "sourceSystem": {"code": 2, "name": "House floor actions"}, "text": "POSTPONED PROCEEDINGS - At the conclusion of debate on the Buck amendment, the Chair put the question on agreeing to the amendment and by voice vote, announced that the ayes had prevailed. Mr. Jordan demanded the yeas and nays and the Chair postponed further proceedings until a time to be announced.", "type": "Floor"}, {"actionCode": "H8D000", "actionDate": "2022-02-07", "actionTime": "17:54:33", "sourceSystem": {"code": 2, "name": "House floor actions"}, "text": "DEBATE - Pursuant to the provisions of H. Res. 900, the House proceeded with 10 minutes of debate on the Buck amendment.", "type": "Floor"}, {"actionCode": "H8D000", "actionDate": "2022-02-07", "actionTime": "17:27:34", "sourceSystem": {"code": 2, "name": "House floor actions"}, "text": "DEBATE - The House continued with debate on H.R. 4445.", "type": "Floor"}, {"actionCode": "H8D000", "actionDate": "2022-02-07", "actionTime": "17:03:03", "sourceSystem": {"code": 2, "name": "House floor actions"}, "text": "DEBATE - The House proceeded with one hour of debate on H.R. 4445.", "type": "Floor"}], "pagination": {"count": 31, "next": "https://api.congress.gov/v3/bill/117/hr/4445/actions?offset=20&limit=20&format=json"}, "request": {"billNumber": "4445", "billType": "hr", "billUrl": "https://api.congress.gov/v3/bill/117/hr/4445?format=json", "congress": "117", "contentType": "application/json", "format": "json"}}, 200]