[{"actions": [{"actionDate": "2022-04-06", "committees": [{"name": "Homeland Security and Governmental Affairs Committee", "systemCode": "ssga00", "url": "https://api.congress.gov/v3/committee/senate/ssga00?format=json"}], "sourceSystem": {"name": "Senate"}, "text": "Received in the Senate and Read twice and referred to the Committee on Homeland Security and Governmental Affairs.", "type": "IntroReferral"}, {"actionCode": "H38310", "actionDate": "2022-04-05", "actionTime": "15:45:42", "sourceSystem": {"code": 2, "name": "House floor actions"}, "text": "Motion to reconsider laid on the table Agreed to without objection.", "type": "Floor"}, {"actionCode": "H37300", "actionDate": "2022-04-05", "actionTime": "15:45:41", "recordedVotes": [{"chamber": "House", "congress": 117, "date": "2022-04-05T19:45:41Z", "rollNumber": 112, "sessionNumber": 2, "url": "https://clerk.house.gov/evs/2022/roll112.xml"}], "sourceSystem": {"code": 2, "name": "House floor actions"}, "text": "On motion to suspend the rules and pass the bill, as amended Agreed to by the Yeas and Nays: (2/3 required): 348 - 75 (Roll no. 112). (text: CR H4168-4169)", "type": "Floor"}, {"actionCode": "8000", "actionDate": "2022-04-05", "actionTime": "15:45:41", "recordedVotes": [{"chamber": "House", "congress": 117, "date": "2022-04-05T19:45:41Z", "rollNumber": 112, "sessionNumber": 2, "url": "https://clerk.house.gov/evs/2022/roll112.xml"}], "sourceSystem": {"code": 9, "name": "Library of Congress"}, "text": "Passed/agreed to in House: On motion to suspend the rules and pass the bill, as amended Agreed to by the Yeas and Nays: (2/3 required): 348 - 75 (Roll no. 112).(text: CR H4168-4169)", "type": "Floor"}, {"actionCode": "H30000", "actionDate": "2022-04-05", "actionTime": "15:36:02", "sourceSystem": {"code": 2, "name": "House floor actions"}, "text": "Considered as unfinished business. (consideration: CR H4181-4182)", "type": "Floor"}, {"actionCode": "H37220", "actionDate": "2022-04-05", "actionTime": "13:21:41", "sourceSystem": {"code": 2, "name": "House floor actions"}, "text": "At the conclusion of debate, the Yeas and Nays were demanded and ordered. Pursuant to the provisions of clause 8, rule XX, the Chair announced that further proceedings on the motion would be postponed.", "type": "Floor"}, {"actionCode": "H8D000", "actionDate": "2022-04-05", "actionTime": "13:10:06", "sourceSystem": {"code": 2, "name": "House floor actions"}, "text": "DEBATE - The House proceeded with forty minutes of debate on H.R. 4476.", "type": "Floor"}, {"actionCode": "H30000", "actionDate": "2022-04-05", "actionTime": "13:10:04", "sourceSystem": {"code": 2, "name": "House floor actions"}, "text": "Considered under suspension of the rules. (consideration: CR H4168-4170)", "type": "Floor"}, {"actionCode": "H30300", "actionDate": "2022-04-05", "actionTime": "13:10:03", "sourceSystem": {"code": 2, "name": "House floor actions"}, "text": "Mr. Payne moved to suspend the rules and pass the bill, as amended.", "type": "Floor"}, {"actionCode": "H12410", "actionDate": "2022-02-01", "calendarNumber": {"calendar": "U00172"}, "sourceSystem": {"code": 2, "name": "House floor actions"}, "text": "Placed on the Union Calendar, Calendar No. 172.", "type": "Calendars"}, {"actionCode": "H12300", "actionDate": "2022-02-01", "committees": [{"name": "Energy and Commerce Committee", "systemCode": "hsif00", "url": "https://api.congress.gov/v3/committee/house/hsif00?format=json"}], "sourceSystem": {"code": 2, "name": "House floor actions"}, "text": "Committee on Energy and Commerce discharged.", "type": "Discharge"}, {"actionCode": "5500", "actionDate": "2022-02-01", "committees": [{"name": "Energy and Commerce Committee", "systemCode": "hsif00", "url": "https://api.congress.gov/v3/committee/house/hsif00?format=json"}], "sourceSystem": {"code": 9, "name": "Library of Congress"}, "text": "Committee on Energy and Commerce discharged.", "type": "Committee"}, {"actionCode": "H12200", "actionDate": "2022-02-01", "committees": [{"name": "Homeland Security Committee", "systemCode": "hshm00", "url": "https://api.congress.gov/v3/committee/house/hshm00?format=json"}], "sourceSystem": {"code": 2, "name": "House floor actions"}, "text": "Reported (Amended) by the Committee on Homeland Security. H. Rept. 117-239, Part I.", "type": "Committee"}, {"actionCode": "5000", "actionDate": "2022-02-01", "committees": [{"name": "Homeland Security Committee", "systemCode": "hshm00", "url": "https://api.congress.gov/v3/committee/house/hshm00?format=json"}], "sourceSystem": {"code": 9, "name": "Library of Congress"}, "text": "Reported (Amended) by the Committee on Homeland Security. H. Rept. 117-239, Part I.", "type": "Committee"}, {"actionCode": "H19000", "actionDate": "2021-10-26", "committees": [{"name": "Homeland Security Committee", "systemCode": "hshm00", "url": "https://api.congress.gov/v3/committee/house/hshm00?format=json"}], "sourceSystem": {"code": 1, "name": "House committee actions"}, "text": "Ordered to be Reported (Amended) by Voice Vote.", "type": "Committee"}, {"actionCode": "H15000-B", "actionDate": "2021-10-26", "committees": [{"name": "Homeland Security Committee", "systemCode": "hshm00", "url": "https://api.congress.gov/v3/committee/house/hshm00?format=json"}], "sourceSystem": {"code": 1, "name": "House committee actions"}, "text": "Committee Consideration and Mark-up Session Held.", "type": "Committee"}, {"actionCode": "H25000", "actionDate": "2021-10-26", "committees": [{"name": "Homeland Security Committee", "systemCode": "hshm00", "url": "https://api.congress.gov/v3/committee/house/hshm00?format=json"}], "sourceSystem": {"code": 1, "name": "House committee actions"}, "text": "Subcommittee on Oversight, Management, and Accountability Discharged.", "type": "Committee"}, {"actionCode": "H11000", "actionDate": "2021-07-19", "committees": [{"name": "Innovation, Data, and Commerce Subcommittee", "systemCode": "hsif17", "url": "https://api.congress.gov/v3/committee/house/hsif17?format=json"}], "sourceSystem": {"code": 1, "name": "House committee actions"}, "text": "Referred to the Subcommittee on Consumer Protection and Commerce.", "type": "Committee"}, {"actionCode": "H11000", "actionDate": "2021-07-17", "committees": [{"name": "Oversight, Investigations, and Accountability Subcommittee", "systemCode": "hshm09", "url": "https://api.congress.gov/v3/committee/house/hshm09?format=json"}], "sourceSystem": {"code": 1, "name": "House committee actions"}, "text": "Referred to the Subcommittee on Oversight, Management, and Accountability.", "type": "Committee"}, {"actionCode": "H11100", "actionDate": "2021-07-16", "committees": [{"name": "Energy and Commerce Committee", "systemCode": "hsif00", "url": "https://api.congress.gov/v3/committee/house/hsif00?format=json"}], "sourceSystem": {"code": 2, "name": "House floor actions"}, "text": "Referred to the Committee on Homeland Security, and in addition to the Committee on Energy and Commerce, for a period to be subsequently determined by the Speaker, in each case for consideration of such provisions as fall within the jurisdiction of the committee concerned.", "type": "IntroReferral"}], "pagination": {"count": 23, "next": "https://api.congress.gov/v3/bill/117/hr/4476/actions?offset=20&limit=20&format=json"}, "request": {"billNumber": "4476", "billType": "hr", "billUrl": "https://api.congress.gov/v3/bill/117/hr/4476?format=json", "congress": "117", "contentType": "application/json", "format": "json"}}, 200]