[{"actions": [{"actionDate": "2021-08-03", "sourceSystem": {"name": "Senate"}, "text": "Received in the Senate.", "type": "IntroReferral"}, {"actionCode": "H38900", "actionDate": "2021-07-29", "actionTime": "18:08:02", "sourceSystem": {"code": 2, "name": "House floor actions"}, "text": "The Clerk was authorized to correct section numbers, punctuation, and cross references, and to make other necessary technical and conforming corrections in the engrossment of H.R. 4502.", "type": "Floor"}, {"actionCode": "H38410", "actionDate": "2021-07-29", "actionTime": "15:15:23", "recordedVotes": [{"chamber": "House", "congress": 117, "date": "2021-07-29T19:15:23Z", "rollNumber": 248, "sessionNumber": 1, "url": "https://clerk.house.gov/evs/2021/roll248.xml"}], "sourceSystem": {"code": 2, "name": "House floor actions"}, "text": "On motion to table the motion to reconsider Agreed to by the Yeas and Nays: 219 - 209 (Roll no. 248).", "type": "Floor"}, {"actionCode": "H82000", "actionDate": "2021-07-29", "actionTime": "14:52:49", "sourceSystem": {"code": 2, "name": "House floor actions"}, "text": "Ms. DeLauro moved to table the motion to reconsider", "type": "ResolvingDifferences"}, {"actionCode": "H38400", "actionDate": "2021-07-29", "actionTime": "14:52:22", "sourceSystem": {"code": 2, "name": "House floor actions"}, "text": "Mr. Pallone moved to reconsider the vote.", "type": "Floor"}, {"actionCode": "H38310", "actionDate": "2021-07-29", "actionTime": "14:52:08", "sourceSystem": {"code": 2, "name": "House floor actions"}, "text": "Motion to reconsider laid on the table Objection heard.", "type": "Floor"}, {"actionCode": "H37100", "actionDate": "2021-07-29", "actionTime": "14:52:05", "recordedVotes": [{"chamber": "House", "congress": 117, "date": "2021-07-29T18:52:05Z", "rollNumber": 247, "sessionNumber": 1, "url": "https://clerk.house.gov/evs/2021/roll247.xml"}], "sourceSystem": {"code": 2, "name": "House floor actions"}, "text": "On passage Passed by the Yeas and Nays: 219 - 208 (Roll no. 247).", "type": "Floor"}, {"actionCode": "8000", "actionDate": "2021-07-29", "actionTime": "14:52:05", "recordedVotes": [{"chamber": "House", "congress": 117, "date": "2021-07-29T18:52:05Z", "rollNumber": 247, "sessionNumber": 1, "url": "https://clerk.house.gov/evs/2021/roll247.xml"}], "sourceSystem": {"code": 9, "name": "Library of Congress"}, "text": "Passed/agreed to in House: On passage Passed by the Yeas and Nays: 219 - 208 (Roll no. 247).", "type": "Floor"}, {"actionCode": "H36210", "actionDate": "2021-07-29", "actionTime": "14:30:42", "committees": [{"name": "Appropriations Committee", "systemCode": "hsap00", "url": "https://api.congress.gov/v3/committee/house/hsap00?format=json"}], "recordedVotes": [{"chamber": "House", "congress": 117, "date": "2021-07-29T18:30:42Z", "rollNumber": 246, "sessionNumber": 1, "url": "https://clerk.house.gov/evs/2021/roll246.xml"}], "sourceSystem": {"code": 2, "name": "House floor actions"}, "text": "On motion to recommit Failed by the Yeas and Nays: 208 - 217 (Roll no. 246).", "type": "Floor"}, {"actionCode": "H8A000", "actionDate": "2021-07-29", "actionTime": "14:05:53", "sourceSystem": {"code": 2, "name": "House floor actions"}, "text": "The previous question on the motion to recommit was ordered pursuant to clause 2(b) of rule XIX.", "type": "Floor"}, {"actionCode": "H36200", "actionDate": "2021-07-29", "actionTime": "14:05:44", "committees": [{"name": "Appropriations Committee", "systemCode": "hsap00", "url": "https://api.congress.gov/v3/committee/house/hsap00?format=json"}], "sourceSystem": {"code": 2, "name": "House floor actions"}, "text": "Mr. Cole moved to recommit to the Committee on Appropriations. (text: CR H4262)", "type": "Floor"}, {"actionCode": "H35000", "actionDate": "2021-07-29", "actionTime": "14:04:30", "sourceSystem": {"code": 2, "name": "House floor actions"}, "text": "The previous question was ordered pursuant to the rule.", "type": "Floor"}, {"actionCode": "H30000", "actionDate": "2021-07-29", "actionTime": "13:01:01", "sourceSystem": {"code": 2, "name": "House floor actions"}, "text": "Considered as unfinished business. (consideration: CR H4260-4264)", "type": "Floor"}, {"actionCode": "H8D000", "actionDate": "2021-07-27", "actionTime": "22:14:00", "sourceSystem": {"code": 2, "name": "House floor actions"}, "text": "Pursuant to clause 1(c) of rule XIX, the Chair announced that further proceedings on H.R. 4502 would be postponed.", "type": "Floor"}, {"actionCode": "H8D000", "actionDate": "2021-07-27", "actionTime": "21:42:49", "sourceSystem": {"code": 2, "name": "House floor actions"}, "text": "Motion to reconsider laid on the table. Agreed to without objection.", "type": "Floor"}, {"actionCode": "H8D000", "actionDate": "2021-07-27", "actionTime": "21:22:07", "sourceSystem": {"code": 2, "name": "House floor actions"}, "text": "Motion to reconsider laid on the table. Agreed to without objection.", "type": "Floor"}, {"actionCode": "H8D000", "actionDate": "2021-07-27", "actionTime": "21:00:30", "sourceSystem": {"code": 2, "name": "House floor actions"}, "text": "Motion to reconsider laid on the table. Agreed to without objection.", "type": "Floor"}, {"actionCode": "H8D000", "actionDate": "2021-07-27", "actionTime": "20:39:00", "sourceSystem": {"code": 2, "name": "House floor actions"}, "text": "Motion to reconsider laid on the table. Agreed to without objection.", "type": "Floor"}, {"actionCode": "H30000", "actionDate": "2021-07-27", "actionTime": "20:01:34", "sourceSystem": {"code": 2, "name": "House floor actions"}, "text": "Considered as unfinished business. (consideration: CR H4083-4087)", "type": "Floor"}, {"actionCode": "H8D000", "actionDate": "2021-07-27", "actionTime": "19:42:27", "sourceSystem": {"code": 2, "name": "House floor actions"}, "text": "Pursuant to clause 1(c) of rule XIX, the Chair announced that further proceedings on H.R. 4502 would be postponed.", "type": "Floor"}], "pagination": {"count": 45, "next": "https://api.congress.gov/v3/bill/117/hr/4502/actions?offset=20&limit=20&format=json"}, "request": {"billNumber": "4502", "billType": "hr", "billUrl": "https://api.congress.gov/v3/bill/117/hr/4502?format=json", "congress": "117", "contentType": "application/json", "format": "json"}}, 200]