[{"actions": [{"actionDate": "2022-05-05", "sourceSystem": {"name": "Senate"}, "text": "Message on Senate action sent to the House.", "type": "Floor"}, {"actionDate": "2022-05-04", "sourceSystem": {"name": "Senate"}, "text": "Senate appointed conferees. Cantwell; Menendez; Wyden; Peters; Murray; Brown; Warner; Kelly; Warnock; Hickenlooper; Tester; Heinrich; Baldwin; Wicker; Crapo; Risch; Burr; Portman; Grassley; Shelby; Toomey; Barrasso; Capito; Cornyn; Young; Moran, with instructions.", "type": "ResolvingDifferences"}, {"actionDate": "2022-05-04", "recordedVotes": [{"chamber": "Senate", "congress": 117, "date": "2022-05-05T02:11:00Z", "rollNumber": 159, "sessionNumber": 2, "url": "https://www.senate.gov/legislative/LIS/roll_call_votes/vote1172/vote_117_2_00159.xml"}], "sourceSystem": {"name": "Senate"}, "text": "Motion by Senator Scott SC, to instruct Senate conferees (Prohibits Co2 Mandate without China) rejected in Senate by Yea-Nay Vote. 47 - 49. Record Vote Number: 159.", "type": "ResolvingDifferences"}, {"actionDate": "2022-05-04", "sourceSystem": {"name": "Senate"}, "text": "Motion by Senator Scott SC, to instruct Senate conferees made in Senate. (consideration: CR S2325-2326; text: CR S2325)", "type": "ResolvingDifferences"}, {"actionDate": "2022-05-04", "sourceSystem": {"name": "Senate"}, "text": "Motion by Senator Lujan to instruct Senate conferees (National Labs) agreed to in Senate by Voice Vote. (text: CR S2325)", "type": "ResolvingDifferences"}, {"actionDate": "2022-05-04", "sourceSystem": {"name": "Senate"}, "text": "Motion by Senator Lujan to instruct Senate conferees made in Senate. (consideration: CR S2325)", "type": "ResolvingDifferences"}, {"actionDate": "2022-05-04", "recordedVotes": [{"chamber": "Senate", "congress": 117, "date": "2022-05-05T01:38:16Z", "rollNumber": 158, "sessionNumber": 2, "url": "https://www.senate.gov/legislative/LIS/roll_call_votes/vote1172/vote_117_2_00158.xml"}], "sourceSystem": {"name": "Senate"}, "text": "Motion by Senator Toomey to instruct Senate conferees (Trade, Section 301) agreed to in Senate by Yea-Nay Vote. 53 - 43. Record Vote Number: 158. (text: CR S2324)", "type": "ResolvingDifferences"}, {"actionDate": "2022-05-04", "sourceSystem": {"name": "Senate"}, "text": "Motion by Senator Toomey to instruct Senate conferees made in Senate. (consideration: CR S2324-2325)", "type": "ResolvingDifferences"}, {"actionDate": "2022-05-04", "recordedVotes": [{"chamber": "Senate", "congress": 117, "date": "2022-05-05T01:17:55Z", "rollNumber": 157, "sessionNumber": 2, "url": "https://www.senate.gov/legislative/LIS/roll_call_votes/vote1172/vote_117_2_00157.xml"}], "sourceSystem": {"name": "Senate"}, "text": "Motion by Senator Capito to instruct Senate conferees (Climate Emergency Declaration) agreed to in Senate by Yea-Nay Vote. 49 - 47. Record Vote Number: 157. (text: CR S2323)", "type": "ResolvingDifferences"}, {"actionDate": "2022-05-04", "sourceSystem": {"name": "Senate"}, "text": "Motion by Senator Capito to instruct Senate conferees made in Senate. (consideration: CR S2323-2324)", "type": "ResolvingDifferences"}, {"actionDate": "2022-05-04", "sourceSystem": {"name": "Senate"}, "text": "Motion by Senator Warnock to instruct Senate conferees (HBCUs) agreed to in Senate by Voice Vote. (text: CR S2323)", "type": "ResolvingDifferences"}, {"actionDate": "2022-05-04", "sourceSystem": {"name": "Senate"}, "text": "Motion by Senator Warnock to instruct Senate conferees made in Senate. (consideration: CR S2323)", "type": "ResolvingDifferences"}, {"actionDate": "2022-05-04", "sourceSystem": {"name": "Senate"}, "text": "Motion by Senator Cassidy to instruct Senate conferees (Mexico) agreed to in Senate by Voice Vote. (text: CR S2323)", "type": "ResolvingDifferences"}, {"actionDate": "2022-05-04", "sourceSystem": {"name": "Senate"}, "text": "Motion by Senator Cassidy to instruct Senate conferees made in Senate. (consideration: CR S2323)", "type": "ResolvingDifferences"}, {"actionDate": "2022-05-04", "recordedVotes": [{"chamber": "Senate", "congress": 117, "date": "2022-05-05T00:49:53Z", "rollNumber": 156, "sessionNumber": 2, "url": "https://www.senate.gov/legislative/LIS/roll_call_votes/vote1172/vote_117_2_00156.xml"}], "sourceSystem": {"name": "Senate"}, "text": "Motion by Senator Sanders to instruct Senate conferees (NASA) rejected in Senate by Yea-Nay Vote. 17 - 78. Record Vote Number: 156.", "type": "ResolvingDifferences"}, {"actionDate": "2022-05-04", "sourceSystem": {"name": "Senate"}, "text": "Motion by Senator Sanders to instruct Senate conferees made in Senate. (consideration: CR S2321-2323; text: CR S2321)", "type": "ResolvingDifferences"}, {"actionDate": "2022-05-04", "recordedVotes": [{"chamber": "Senate", "congress": 117, "date": "2022-05-05T00:22:34Z", "rollNumber": 155, "sessionNumber": 2, "url": "https://www.senate.gov/legislative/LIS/roll_call_votes/vote1172/vote_117_2_00155.xml"}], "sourceSystem": {"name": "Senate"}, "text": "Motion by Senator Lankford to instruct Senate conferees (Iran), under the order of 4/27/22, having achieved 60 votes in the affirmative, was agreed to in Senate by Yea-Nay Vote. 62 - 33. Record Vote Number: 155. (text: CR S2321)", "type": "ResolvingDifferences"}, {"actionDate": "2022-05-04", "sourceSystem": {"name": "Senate"}, "text": "Motion by Senator Lankford to instruct Senate conferees made in Senate. (consideration: CR S2321)", "type": "ResolvingDifferences"}, {"actionDate": "2022-05-04", "sourceSystem": {"name": "Senate"}, "text": "Motion by Senator Ernst to instruct Senate conferees (SBA) agreed to in Senate by Voice Vote. (text: CR S2320)", "type": "ResolvingDifferences"}, {"actionDate": "2022-05-04", "sourceSystem": {"name": "Senate"}, "text": "Motion by Senator Ernst to instruct Senate conferees made in Senate. (consideration: CR S2320-2321)", "type": "ResolvingDifferences"}], "pagination": {"count": 171, "next": "https://api.congress.gov/v3/bill/117/hr/4521/actions?offset=20&limit=20&format=json"}, "request": {"billNumber": "4521", "billType": "hr", "billUrl": "https://api.congress.gov/v3/bill/117/hr/4521?format=json", "congress": "117", "contentType": "application/json", "format": "json"}}, 200]