[{"actions": [{"actionCode": "E40000", "actionDate": "2022-06-23", "sourceSystem": {"code": 9, "name": "Library of Congress"}, "text": "Became Public Law No: 117-154.", "type": "President"}, {"actionCode": "36000", "actionDate": "2022-06-23", "sourceSystem": {"code": 9, "name": "Library of Congress"}, "text": "Became Public Law No: 117-154.", "type": "BecameLaw"}, {"actionCode": "E30000", "actionDate": "2022-06-23", "sourceSystem": {"code": 9, "name": "Library of Congress"}, "text": "Signed by President.", "type": "President"}, {"actionCode": "36000", "actionDate": "2022-06-23", "sourceSystem": {"code": 9, "name": "Library of Congress"}, "text": "Signed by President.", "type": "BecameLaw"}, {"actionCode": "E20000", "actionDate": "2022-06-22", "sourceSystem": {"code": 2, "name": "House floor actions"}, "text": "Presented to President.", "type": "Floor"}, {"actionCode": "28000", "actionDate": "2022-06-22", "sourceSystem": {"code": 9, "name": "Library of Congress"}, "text": "Presented to President.", "type": "President"}, {"actionDate": "2022-05-31", "sourceSystem": {"name": "Senate"}, "text": "Message on Senate action sent to the House.", "type": "Floor"}, {"actionDate": "2022-05-26", "sourceSystem": {"name": "Senate"}, "text": "Passed Senate without amendment by Voice Vote. (consideration: CR S2737)", "type": "Floor"}, {"actionCode": "17000", "actionDate": "2022-05-26", "sourceSystem": {"code": 9, "name": "Library of Congress"}, "text": "Passed/agreed to in Senate: Passed Senate without amendment by Voice Vote.", "type": "Floor"}, {"actionDate": "2022-05-26", "committees": [{"name": "Veterans' Affairs Committee", "systemCode": "ssva00", "url": "https://api.congress.gov/v3/committee/senate/ssva00?format=json"}], "sourceSystem": {"name": "Senate"}, "text": "Senate Committee on Veterans' Affairs discharged by Unanimous Consent.", "type": "Discharge"}, {"actionCode": "14500", "actionDate": "2022-05-26", "committees": [{"name": "Veterans' Affairs Committee", "systemCode": "ssva00", "url": "https://api.congress.gov/v3/committee/senate/ssva00?format=json"}], "sourceSystem": {"code": 9, "name": "Library of Congress"}, "text": "Senate Committee on Veterans' Affairs discharged by Unanimous Consent.", "type": "Committee"}, {"actionDate": "2021-11-17", "committees": [{"name": "Veterans' Affairs Committee", "systemCode": "ssva00", "url": "https://api.congress.gov/v3/committee/senate/ssva00?format=json"}], "sourceSystem": {"name": "Senate"}, "text": "Received in the Senate and Read twice and referred to the Committee on Veterans' Affairs.", "type": "IntroReferral"}, {"actionCode": "H38800", "actionDate": "2021-11-16", "actionTime": "12:30:54", "sourceSystem": {"code": 2, "name": "House floor actions"}, "text": "The title of the measure was amended. Agreed to without objection.", "type": "Floor"}, {"actionCode": "H38310", "actionDate": "2021-11-16", "actionTime": "12:30:50", "sourceSystem": {"code": 2, "name": "House floor actions"}, "text": "Motion to reconsider laid on the table Agreed to without objection.", "type": "Floor"}, {"actionCode": "H37300", "actionDate": "2021-11-16", "actionTime": "12:30:45", "sourceSystem": {"code": 2, "name": "House floor actions"}, "text": "On motion to suspend the rules and pass the bill, as amended Agreed to by voice vote. (text: CR H6278)", "type": "Floor"}, {"actionCode": "8000", "actionDate": "2021-11-16", "actionTime": "12:30:45", "sourceSystem": {"code": 9, "name": "Library of Congress"}, "text": "Passed/agreed to in House: On motion to suspend the rules and pass the bill, as amended Agreed to by voice vote.(text: CR H6278)", "type": "Floor"}, {"actionCode": "H8D000", "actionDate": "2021-11-16", "actionTime": "12:24:36", "sourceSystem": {"code": 2, "name": "House floor actions"}, "text": "DEBATE - The House proceeded with forty minutes of debate on H.R. 4591.", "type": "Floor"}, {"actionCode": "H30000", "actionDate": "2021-11-16", "actionTime": "12:24:33", "sourceSystem": {"code": 2, "name": "House floor actions"}, "text": "Considered under suspension of the rules. (consideration: CR H6278-6279)", "type": "Floor"}, {"actionCode": "H30300", "actionDate": "2021-11-16", "actionTime": "12:24:22", "sourceSystem": {"code": 2, "name": "House floor actions"}, "text": "Mr. Takano moved to suspend the rules and pass the bill, as amended.", "type": "Floor"}, {"actionCode": "H19000", "actionDate": "2021-11-04", "committees": [{"name": "Veterans' Affairs Committee", "systemCode": "hsvr00", "url": "https://api.congress.gov/v3/committee/house/hsvr00?format=json"}], "sourceSystem": {"code": 1, "name": "House committee actions"}, "text": "Ordered to be Reported (Amended) by Voice Vote.", "type": "Committee"}], "pagination": {"count": 26, "next": "https://api.congress.gov/v3/bill/117/hr/4591/actions?offset=20&limit=20&format=json"}, "request": {"billNumber": "4591", "billType": "hr", "billUrl": "https://api.congress.gov/v3/bill/117/hr/4591?format=json", "congress": "117", "contentType": "application/json", "format": "json"}}, 200]