[{"actions": [{"actionDate": "2022-03-03", "committees": [{"name": "Banking, Housing, and Urban Affairs Committee", "systemCode": "ssbk00", "url": "https://api.congress.gov/v3/committee/senate/ssbk00?format=json"}], "sourceSystem": {"name": "Senate"}, "text": "Committee on Banking, Housing, and Urban Affairs. Hearings held.", "type": "Committee"}, {"actionDate": "2021-12-09", "committees": [{"name": "Banking, Housing, and Urban Affairs Committee", "systemCode": "ssbk00", "url": "https://api.congress.gov/v3/committee/senate/ssbk00?format=json"}], "sourceSystem": {"name": "Senate"}, "text": "Received in the Senate and Read twice and referred to the Committee on Banking, Housing, and Urban Affairs.", "type": "IntroReferral"}, {"actionCode": "H38310", "actionDate": "2021-12-08", "actionTime": "18:08:04", "sourceSystem": {"code": 2, "name": "House floor actions"}, "text": "Motion to reconsider laid on the table Agreed to without objection.", "type": "Floor"}, {"actionCode": "H37300", "actionDate": "2021-12-08", "actionTime": "18:08:03", "recordedVotes": [{"chamber": "House", "congress": 117, "date": "2021-12-08T23:08:03Z", "rollNumber": 407, "sessionNumber": 1, "url": "https://clerk.house.gov/evs/2021/roll407.xml"}], "sourceSystem": {"code": 2, "name": "House floor actions"}, "text": "On motion to suspend the rules and pass the bill, as amended Agreed to by the Yeas and Nays: (2/3 required): 415 - 9 (Roll no. 407). (text: CR H7479-7481)", "type": "Floor"}, {"actionCode": "8000", "actionDate": "2021-12-08", "actionTime": "18:08:03", "recordedVotes": [{"chamber": "House", "congress": 117, "date": "2021-12-08T23:08:03Z", "rollNumber": 407, "sessionNumber": 1, "url": "https://clerk.house.gov/evs/2021/roll407.xml"}], "sourceSystem": {"code": 9, "name": "Library of Congress"}, "text": "Passed/agreed to in House: On motion to suspend the rules and pass the bill, as amended Agreed to by the Yeas and Nays: (2/3 required): 415 - 9 (Roll no. 407).(text: CR H7479-7481)", "type": "Floor"}, {"actionCode": "H30000", "actionDate": "2021-12-08", "actionTime": "17:57:43", "sourceSystem": {"code": 2, "name": "House floor actions"}, "text": "Considered as unfinished business. (consideration: CR H7529-7530)", "type": "Floor"}, {"actionCode": "H37220", "actionDate": "2021-12-08", "actionTime": "12:06:50", "sourceSystem": {"code": 2, "name": "House floor actions"}, "text": "At the conclusion of debate, the Yeas and Nays were demanded and ordered. Pursuant to the provisions of clause 8, rule XX, the Chair announced that further proceedings on the motion would be postponed.", "type": "Floor"}, {"actionCode": "H8D000", "actionDate": "2021-12-08", "actionTime": "11:30:26", "sourceSystem": {"code": 2, "name": "House floor actions"}, "text": "DEBATE - The House proceeded with forty minutes of debate on H.R. 4616.", "type": "Floor"}, {"actionCode": "H30000", "actionDate": "2021-12-08", "actionTime": "11:30:25", "sourceSystem": {"code": 2, "name": "House floor actions"}, "text": "Considered under suspension of the rules. (consideration: CR H7479-7486)", "type": "Floor"}, {"actionCode": "H30300", "actionDate": "2021-12-08", "actionTime": "11:30:11", "sourceSystem": {"code": 2, "name": "House floor actions"}, "text": "Mr. Sherman moved to suspend the rules and pass the bill, as amended.", "type": "Floor"}, {"actionCode": "H12410", "actionDate": "2021-12-07", "calendarNumber": {"calendar": "U00147"}, "sourceSystem": {"code": 2, "name": "House floor actions"}, "text": "Placed on the Union Calendar, Calendar No. 147.", "type": "Calendars"}, {"actionCode": "H12300", "actionDate": "2021-12-07", "committees": [{"name": "Education and the Workforce Committee", "systemCode": "hsed00", "url": "https://api.congress.gov/v3/committee/house/hsed00?format=json"}], "sourceSystem": {"code": 2, "name": "House floor actions"}, "text": "Committee on Education and Labor discharged.", "type": "Discharge"}, {"actionCode": "5500", "actionDate": "2021-12-07", "committees": [{"name": "Education and the Workforce Committee", "systemCode": "hsed00", "url": "https://api.congress.gov/v3/committee/house/hsed00?format=json"}], "sourceSystem": {"code": 9, "name": "Library of Congress"}, "text": "Committee on Education and Labor discharged.", "type": "Committee"}, {"actionCode": "H12300", "actionDate": "2021-12-07", "committees": [{"name": "Ways and Means Committee", "systemCode": "hswm00", "url": "https://api.congress.gov/v3/committee/house/hswm00?format=json"}], "sourceSystem": {"code": 2, "name": "House floor actions"}, "text": "Committee on Ways and Means discharged.", "type": "Discharge"}, {"actionCode": "5500", "actionDate": "2021-12-07", "committees": [{"name": "Ways and Means Committee", "systemCode": "hswm00", "url": "https://api.congress.gov/v3/committee/house/hswm00?format=json"}], "sourceSystem": {"code": 9, "name": "Library of Congress"}, "text": "Committee on Ways and Means discharged.", "type": "Committee"}, {"actionCode": "H12200", "actionDate": "2021-12-07", "committees": [{"name": "Financial Services Committee", "systemCode": "hsba00", "url": "https://api.congress.gov/v3/committee/house/hsba00?format=json"}], "sourceSystem": {"code": 2, "name": "House floor actions"}, "text": "Reported (Amended) by the Committee on Financial Services. H. Rept. 117-206, Part I.", "type": "Committee"}, {"actionCode": "5000", "actionDate": "2021-12-07", "committees": [{"name": "Financial Services Committee", "systemCode": "hsba00", "url": "https://api.congress.gov/v3/committee/house/hsba00?format=json"}], "sourceSystem": {"code": 9, "name": "Library of Congress"}, "text": "Reported (Amended) by the Committee on Financial Services. H. Rept. 117-206, Part I.", "type": "Committee"}, {"actionCode": "H19000", "actionDate": "2021-07-29", "committees": [{"name": "Financial Services Committee", "systemCode": "hsba00", "url": "https://api.congress.gov/v3/committee/house/hsba00?format=json"}], "sourceSystem": {"code": 1, "name": "House committee actions"}, "text": "Ordered to be Reported in the Nature of a Substitute (Amended) by Voice Vote.", "type": "Committee"}, {"actionCode": "H15000-B", "actionDate": "2021-07-29", "committees": [{"name": "Financial Services Committee", "systemCode": "hsba00", "url": "https://api.congress.gov/v3/committee/house/hsba00?format=json"}], "sourceSystem": {"code": 1, "name": "House committee actions"}, "text": "Committee Consideration and Mark-up Session Held.", "type": "Committee"}, {"actionCode": "H15000-B", "actionDate": "2021-07-28", "committees": [{"name": "Financial Services Committee", "systemCode": "hsba00", "url": "https://api.congress.gov/v3/committee/house/hsba00?format=json"}], "sourceSystem": {"code": 1, "name": "House committee actions"}, "text": "Committee Consideration and Mark-up Session Held.", "type": "Committee"}], "pagination": {"count": 25, "next": "https://api.congress.gov/v3/bill/117/hr/4616/actions?offset=20&limit=20&format=json"}, "request": {"billNumber": "4616", "billType": "hr", "billUrl": "https://api.congress.gov/v3/bill/117/hr/4616?format=json", "congress": "117", "contentType": "application/json", "format": "json"}}, 200]