[{"actions": [{"actionDate": "2022-01-20", "committees": [{"name": "Veterans' Affairs Committee", "systemCode": "ssva00", "url": "https://api.congress.gov/v3/committee/senate/ssva00?format=json"}], "sourceSystem": {"name": "Senate"}, "text": "Received in the Senate and Read twice and referred to the Committee on Veterans' Affairs.", "type": "IntroReferral"}, {"actionCode": "H38310", "actionDate": "2022-01-20", "actionTime": "11:38:40", "sourceSystem": {"code": 2, "name": "House floor actions"}, "text": "Motion to reconsider laid on the table Agreed to without objection.", "type": "Floor"}, {"actionCode": "H37100", "actionDate": "2022-01-20", "actionTime": "11:38:37", "recordedVotes": [{"chamber": "House", "congress": 117, "date": "2022-01-20T16:38:37Z", "rollNumber": 14, "sessionNumber": 2, "url": "https://clerk.house.gov/evs/2022/roll014.xml"}], "sourceSystem": {"code": 2, "name": "House floor actions"}, "text": "On passage Passed by the Yeas and Nays: 265 - 163 (Roll no. 14).", "type": "Floor"}, {"actionCode": "8000", "actionDate": "2022-01-20", "actionTime": "11:38:37", "recordedVotes": [{"chamber": "House", "congress": 117, "date": "2022-01-20T16:38:37Z", "rollNumber": 14, "sessionNumber": 2, "url": "https://clerk.house.gov/evs/2022/roll014.xml"}], "sourceSystem": {"code": 9, "name": "Library of Congress"}, "text": "Passed/agreed to in House: On passage Passed by the Yeas and Nays: 265 - 163 (Roll no. 14).", "type": "Floor"}, {"actionCode": "H36210", "actionDate": "2022-01-20", "actionTime": "11:18:34", "committees": [{"name": "Veterans' Affairs Committee", "systemCode": "hsvr00", "url": "https://api.congress.gov/v3/committee/house/hsvr00?format=json"}], "recordedVotes": [{"chamber": "House", "congress": 117, "date": "2022-01-20T16:18:34Z", "rollNumber": 13, "sessionNumber": 2, "url": "https://clerk.house.gov/evs/2022/roll013.xml"}], "sourceSystem": {"code": 2, "name": "House floor actions"}, "text": "On motion to recommit Failed by the Yeas and Nays: 206 - 221 (Roll no. 13).", "type": "Floor"}, {"actionCode": "H8A000", "actionDate": "2022-01-20", "actionTime": "10:55:28", "sourceSystem": {"code": 2, "name": "House floor actions"}, "text": "The previous question on the motion was ordered pursuant to clause 2(b) of rule XIX.", "type": "Floor"}, {"actionCode": "H36200", "actionDate": "2022-01-20", "actionTime": "10:55:22", "committees": [{"name": "Veterans' Affairs Committee", "systemCode": "hsvr00", "url": "https://api.congress.gov/v3/committee/house/hsvr00?format=json"}], "sourceSystem": {"code": 2, "name": "House floor actions"}, "text": "Mr. Bost moved to recommit to the Committee on Veterans' Affairs. (text: CR H268)", "type": "Floor"}, {"actionCode": "H35000", "actionDate": "2022-01-20", "actionTime": "10:54:22", "sourceSystem": {"code": 2, "name": "House floor actions"}, "text": "The previous question was ordered pursuant to the rule.", "type": "Floor"}, {"actionCode": "H8D000", "actionDate": "2022-01-20", "actionTime": "10:08:28", "sourceSystem": {"code": 2, "name": "House floor actions"}, "text": "DEBATE - Pursuant to the provisions of H. Res. 860, the House proceeded with 10 minutes of debate on the Escobar amendment No. 3.", "type": "Floor"}, {"actionCode": "H8D000", "actionDate": "2022-01-20", "actionTime": "09:54:08", "sourceSystem": {"code": 2, "name": "House floor actions"}, "text": "DEBATE - Pursuant to the provisions of H. Res. 860, the House proceeded with 20 minutes of debate on the Mr. Takano amendment en bloc No. 1.", "type": "Floor"}, {"actionCode": "H8D000", "actionDate": "2022-01-20", "actionTime": "09:18:58", "sourceSystem": {"code": 2, "name": "House floor actions"}, "text": "DEBATE - The House proceeded with one hour of debate on H.R. 4673.", "type": "Floor"}, {"actionCode": "H8D000", "actionDate": "2022-01-20", "actionTime": "09:17:24", "sourceSystem": {"code": 2, "name": "House floor actions"}, "text": "Rule provides for consideration of H.R. 1836 and H.R. 4673. Previous question shall be considered as ordered without intervening motions except motion to recommit. Measure will be considered read. Specified amendments are in order.", "type": "Floor"}, {"actionCode": "H30000", "actionDate": "2022-01-20", "actionTime": "09:17:19", "sourceSystem": {"code": 2, "name": "House floor actions"}, "text": "Considered under the provisions of rule H. Res. 860. (consideration: CR H257-270)", "type": "Floor"}, {"actionCode": "H1L220", "actionDate": "2022-01-11", "actionTime": "14:34:56", "sourceSystem": {"code": 2, "name": "House floor actions"}, "text": "Rule H. Res. 860 passed House.", "type": "Floor"}, {"actionCode": "H1L210", "actionDate": "2022-01-10", "actionTime": "17:45:09", "sourceSystem": {"code": 2, "name": "House floor actions"}, "text": "Rules Committee Resolution H. Res. 860 Reported to House. Rule provides for consideration of H.R. 1836 and H.R. 4673. Previous question shall be considered as ordered without intervening motions except motion to recommit. Measure will be considered read. Specified amendments are in order.", "type": "Floor"}, {"actionCode": "H12410", "actionDate": "2022-01-06", "calendarNumber": {"calendar": "U00160"}, "sourceSystem": {"code": 2, "name": "House floor actions"}, "text": "Placed on the Union Calendar, Calendar No. 160.", "type": "Calendars"}, {"actionCode": "H12200", "actionDate": "2022-01-06", "committees": [{"name": "Veterans' Affairs Committee", "systemCode": "hsvr00", "url": "https://api.congress.gov/v3/committee/house/hsvr00?format=json"}], "sourceSystem": {"code": 2, "name": "House floor actions"}, "text": "Reported by the Committee on Veterans' Affairs. H. Rept. 117-223.", "type": "Committee"}, {"actionCode": "5000", "actionDate": "2022-01-06", "committees": [{"name": "Veterans' Affairs Committee", "systemCode": "hsvr00", "url": "https://api.congress.gov/v3/committee/house/hsvr00?format=json"}], "sourceSystem": {"code": 9, "name": "Library of Congress"}, "text": "Reported by the Committee on Veterans' Affairs. H. Rept. 117-223.", "type": "Committee"}, {"actionCode": "H19000", "actionDate": "2021-07-28", "committees": [{"name": "Veterans' Affairs Committee", "systemCode": "hsvr00", "url": "https://api.congress.gov/v3/committee/house/hsvr00?format=json"}], "sourceSystem": {"code": 1, "name": "House committee actions"}, "text": "Ordered to be Reported by the Yeas and Nays: 16 - 10.", "type": "Committee"}, {"actionCode": "H15000-B", "actionDate": "2021-07-28", "committees": [{"name": "Veterans' Affairs Committee", "systemCode": "hsvr00", "url": "https://api.congress.gov/v3/committee/house/hsvr00?format=json"}], "sourceSystem": {"code": 1, "name": "House committee actions"}, "text": "Committee Consideration and Mark-up Session Held.", "type": "Committee"}], "pagination": {"count": 27, "next": "https://api.congress.gov/v3/bill/117/hr/4673/actions?offset=20&limit=20&format=json"}, "request": {"billNumber": "4673", "billType": "hr", "billUrl": "https://api.congress.gov/v3/bill/117/hr/4673?format=json", "congress": "117", "contentType": "application/json", "format": "json"}}, 200]