[{"actions": [{"actionCode": "H11000", "actionDate": "2021-09-03", "committees": [{"name": "Energy and Mineral Resources Subcommittee", "systemCode": "hsii06", "url": "https://api.congress.gov/v3/committee/house/hsii06?format=json"}], "sourceSystem": {"code": 1, "name": "House committee actions"}, "text": "Referred to the Subcommittee on Energy and Mineral Resources.", "type": "Committee"}, {"actionCode": "H11000", "actionDate": "2021-08-04", "committees": [{"name": "Indo-Pacific Subcommittee", "systemCode": "hsfa05", "url": "https://api.congress.gov/v3/committee/house/hsfa05?format=json"}], "sourceSystem": {"code": 1, "name": "House committee actions"}, "text": "Referred to the Subcommittee on Asia, the Pacific, Central Asia and Nonproliferation.", "type": "Committee"}, {"actionCode": "H11000", "actionDate": "2021-07-30", "committees": [{"name": "Economic Development, Public Buildings, and Emergency Management Subcommittee", "systemCode": "hspw13", "url": "https://api.congress.gov/v3/committee/house/hspw13?format=json"}], "sourceSystem": {"code": 1, "name": "House committee actions"}, "text": "Referred to the Subcommittee on Economic Development, Public Buildings, and Emergency Management.", "type": "Committee"}, {"actionCode": "H11000", "actionDate": "2021-07-30", "committees": [{"name": "Health Subcommittee", "systemCode": "hsif14", "url": "https://api.congress.gov/v3/committee/house/hsif14?format=json"}], "sourceSystem": {"code": 1, "name": "House committee actions"}, "text": "Referred to the Subcommittee on Health.", "type": "Committee"}, {"actionCode": "H11000", "actionDate": "2021-07-29", "committees": [{"name": "Trade Subcommittee", "systemCode": "hswm04", "url": "https://api.congress.gov/v3/committee/house/hswm04?format=json"}], "sourceSystem": {"code": 1, "name": "House committee actions"}, "text": "Referred to the Subcommittee on Trade.", "type": "Committee"}, {"actionCode": "H11100", "actionDate": "2021-07-29", "committees": [{"name": "Armed Services Committee", "systemCode": "hsas00", "url": "https://api.congress.gov/v3/committee/house/hsas00?format=json"}], "sourceSystem": {"code": 2, "name": "House floor actions"}, "text": "Referred to the Committee on Foreign Affairs, and in addition to the Committees on the Judiciary, Ways and Means, Oversight and Reform, Financial Services, Energy and Commerce, Intelligence (Permanent Select), Agriculture, Rules, Transportation and Infrastructure, Science, Space, and Technology, Natural Resources, Education and Labor, and Armed Services, for a period to be subsequently determined by the Speaker, in each case for consideration of such provisions as fall within the jurisdiction of the committee concerned.", "type": "IntroReferral"}, {"actionCode": "H11100", "actionDate": "2021-07-29", "committees": [{"name": "Education and the Workforce Committee", "systemCode": "hsed00", "url": "https://api.congress.gov/v3/committee/house/hsed00?format=json"}], "sourceSystem": {"code": 2, "name": "House floor actions"}, "text": "Referred to the Committee on Foreign Affairs, and in addition to the Committees on the Judiciary, Ways and Means, Oversight and Reform, Financial Services, Energy and Commerce, Intelligence (Permanent Select), Agriculture, Rules, Transportation and Infrastructure, Science, Space, and Technology, Natural Resources, Education and Labor, and Armed Services, for a period to be subsequently determined by the Speaker, in each case for consideration of such provisions as fall within the jurisdiction of the committee concerned.", "type": "IntroReferral"}, {"actionCode": "H11100", "actionDate": "2021-07-29", "committees": [{"name": "Natural Resources Committee", "systemCode": "hsii00", "url": "https://api.congress.gov/v3/committee/house/hsii00?format=json"}], "sourceSystem": {"code": 2, "name": "House floor actions"}, "text": "Referred to the Committee on Foreign Affairs, and in addition to the Committees on the Judiciary, Ways and Means, Oversight and Reform, Financial Services, Energy and Commerce, Intelligence (Permanent Select), Agriculture, Rules, Transportation and Infrastructure, Science, Space, and Technology, Natural Resources, Education and Labor, and Armed Services, for a period to be subsequently determined by the Speaker, in each case for consideration of such provisions as fall within the jurisdiction of the committee concerned.", "type": "IntroReferral"}, {"actionCode": "H11100", "actionDate": "2021-07-29", "committees": [{"name": "Science, Space, and Technology Committee", "systemCode": "hssy00", "url": "https://api.congress.gov/v3/committee/house/hssy00?format=json"}], "sourceSystem": {"code": 2, "name": "House floor actions"}, "text": "Referred to the Committee on Foreign Affairs, and in addition to the Committees on the Judiciary, Ways and Means, Oversight and Reform, Financial Services, Energy and Commerce, Intelligence (Permanent Select), Agriculture, Rules, Transportation and Infrastructure, Science, Space, and Technology, Natural Resources, Education and Labor, and Armed Services, for a period to be subsequently determined by the Speaker, in each case for consideration of such provisions as fall within the jurisdiction of the committee concerned.", "type": "IntroReferral"}, {"actionCode": "H11100", "actionDate": "2021-07-29", "committees": [{"name": "Transportation and Infrastructure Committee", "systemCode": "hspw00", "url": "https://api.congress.gov/v3/committee/house/hspw00?format=json"}], "sourceSystem": {"code": 2, "name": "House floor actions"}, "text": "Referred to the Committee on Foreign Affairs, and in addition to the Committees on the Judiciary, Ways and Means, Oversight and Reform, Financial Services, Energy and Commerce, Intelligence (Permanent Select), Agriculture, Rules, Transportation and Infrastructure, Science, Space, and Technology, Natural Resources, Education and Labor, and Armed Services, for a period to be subsequently determined by the Speaker, in each case for consideration of such provisions as fall within the jurisdiction of the committee concerned.", "type": "IntroReferral"}, {"actionCode": "H11100", "actionDate": "2021-07-29", "committees": [{"name": "Rules Committee", "systemCode": "hsru00", "url": "https://api.congress.gov/v3/committee/house/hsru00?format=json"}], "sourceSystem": {"code": 2, "name": "House floor actions"}, "text": "Referred to the Committee on Foreign Affairs, and in addition to the Committees on the Judiciary, Ways and Means, Oversight and Reform, Financial Services, Energy and Commerce, Intelligence (Permanent Select), Agriculture, Rules, Transportation and Infrastructure, Science, Space, and Technology, Natural Resources, Education and Labor, and Armed Services, for a period to be subsequently determined by the Speaker, in each case for consideration of such provisions as fall within the jurisdiction of the committee concerned.", "type": "IntroReferral"}, {"actionCode": "H11100", "actionDate": "2021-07-29", "committees": [{"name": "Agriculture Committee", "systemCode": "hsag00", "url": "https://api.congress.gov/v3/committee/house/hsag00?format=json"}], "sourceSystem": {"code": 2, "name": "House floor actions"}, "text": "Referred to the Committee on Foreign Affairs, and in addition to the Committees on the Judiciary, Ways and Means, Oversight and Reform, Financial Services, Energy and Commerce, Intelligence (Permanent Select), Agriculture, Rules, Transportation and Infrastructure, Science, Space, and Technology, Natural Resources, Education and Labor, and Armed Services, for a period to be subsequently determined by the Speaker, in each case for consideration of such provisions as fall within the jurisdiction of the committee concerned.", "type": "IntroReferral"}, {"actionCode": "H11100", "actionDate": "2021-07-29", "committees": [{"name": "Intelligence (Permanent Select) Committee", "systemCode": "hlig00", "url": "https://api.congress.gov/v3/committee/house/hlig00?format=json"}], "sourceSystem": {"code": 2, "name": "House floor actions"}, "text": "Referred to the Committee on Foreign Affairs, and in addition to the Committees on the Judiciary, Ways and Means, Oversight and Reform, Financial Services, Energy and Commerce, Intelligence (Permanent Select), Agriculture, Rules, Transportation and Infrastructure, Science, Space, and Technology, Natural Resources, Education and Labor, and Armed Services, for a period to be subsequently determined by the Speaker, in each case for consideration of such provisions as fall within the jurisdiction of the committee concerned.", "type": "IntroReferral"}, {"actionCode": "H11100", "actionDate": "2021-07-29", "committees": [{"name": "Energy and Commerce Committee", "systemCode": "hsif00", "url": "https://api.congress.gov/v3/committee/house/hsif00?format=json"}], "sourceSystem": {"code": 2, "name": "House floor actions"}, "text": "Referred to the Committee on Foreign Affairs, and in addition to the Committees on the Judiciary, Ways and Means, Oversight and Reform, Financial Services, Energy and Commerce, Intelligence (Permanent Select), Agriculture, Rules, Transportation and Infrastructure, Science, Space, and Technology, Natural Resources, Education and Labor, and Armed Services, for a period to be subsequently determined by the Speaker, in each case for consideration of such provisions as fall within the jurisdiction of the committee concerned.", "type": "IntroReferral"}, {"actionCode": "H11100", "actionDate": "2021-07-29", "committees": [{"name": "Financial Services Committee", "systemCode": "hsba00", "url": "https://api.congress.gov/v3/committee/house/hsba00?format=json"}], "sourceSystem": {"code": 2, "name": "House floor actions"}, "text": "Referred to the Committee on Foreign Affairs, and in addition to the Committees on the Judiciary, Ways and Means, Oversight and Reform, Financial Services, Energy and Commerce, Intelligence (Permanent Select), Agriculture, Rules, Transportation and Infrastructure, Science, Space, and Technology, Natural Resources, Education and Labor, and Armed Services, for a period to be subsequently determined by the Speaker, in each case for consideration of such provisions as fall within the jurisdiction of the committee concerned.", "type": "IntroReferral"}, {"actionCode": "H11100", "actionDate": "2021-07-29", "committees": [{"name": "Oversight and Accountability Committee", "systemCode": "hsgo00", "url": "https://api.congress.gov/v3/committee/house/hsgo00?format=json"}], "sourceSystem": {"code": 2, "name": "House floor actions"}, "text": "Referred to the Committee on Foreign Affairs, and in addition to the Committees on the Judiciary, Ways and Means, Oversight and Reform, Financial Services, Energy and Commerce, Intelligence (Permanent Select), Agriculture, Rules, Transportation and Infrastructure, Science, Space, and Technology, Natural Resources, Education and Labor, and Armed Services, for a period to be subsequently determined by the Speaker, in each case for consideration of such provisions as fall within the jurisdiction of the committee concerned.", "type": "IntroReferral"}, {"actionCode": "H11100", "actionDate": "2021-07-29", "committees": [{"name": "Ways and Means Committee", "systemCode": "hswm00", "url": "https://api.congress.gov/v3/committee/house/hswm00?format=json"}], "sourceSystem": {"code": 2, "name": "House floor actions"}, "text": "Referred to the Committee on Foreign Affairs, and in addition to the Committees on the Judiciary, Ways and Means, Oversight and Reform, Financial Services, Energy and Commerce, Intelligence (Permanent Select), Agriculture, Rules, Transportation and Infrastructure, Science, Space, and Technology, Natural Resources, Education and Labor, and Armed Services, for a period to be subsequently determined by the Speaker, in each case for consideration of such provisions as fall within the jurisdiction of the committee concerned.", "type": "IntroReferral"}, {"actionCode": "H11100", "actionDate": "2021-07-29", "committees": [{"name": "Judiciary Committee", "systemCode": "hsju00", "url": "https://api.congress.gov/v3/committee/house/hsju00?format=json"}], "sourceSystem": {"code": 2, "name": "House floor actions"}, "text": "Referred to the Committee on Foreign Affairs, and in addition to the Committees on the Judiciary, Ways and Means, Oversight and Reform, Financial Services, Energy and Commerce, Intelligence (Permanent Select), Agriculture, Rules, Transportation and Infrastructure, Science, Space, and Technology, Natural Resources, Education and Labor, and Armed Services, for a period to be subsequently determined by the Speaker, in each case for consideration of such provisions as fall within the jurisdiction of the committee concerned.", "type": "IntroReferral"}, {"actionCode": "H11100", "actionDate": "2021-07-29", "committees": [{"name": "Foreign Affairs Committee", "systemCode": "hsfa00", "url": "https://api.congress.gov/v3/committee/house/hsfa00?format=json"}], "sourceSystem": {"code": 2, "name": "House floor actions"}, "text": "Referred to the Committee on Foreign Affairs, and in addition to the Committees on the Judiciary, Ways and Means, Oversight and Reform, Financial Services, Energy and Commerce, Intelligence (Permanent Select), Agriculture, Rules, Transportation and Infrastructure, Science, Space, and Technology, Natural Resources, Education and Labor, and Armed Services, for a period to be subsequently determined by the Speaker, in each case for consideration of such provisions as fall within the jurisdiction of the committee concerned.", "type": "IntroReferral"}, {"actionCode": "Intro-H", "actionDate": "2021-07-29", "sourceSystem": {"code": 9, "name": "Library of Congress"}, "text": "Introduced in House", "type": "IntroReferral"}], "pagination": {"count": 21, "next": "https://api.congress.gov/v3/bill/117/hr/4792/actions?offset=20&limit=20&format=json"}, "request": {"billNumber": "4792", "billType": "hr", "billUrl": "https://api.congress.gov/v3/bill/117/hr/4792?format=json", "congress": "117", "contentType": "application/json", "format": "json"}}, 200]