[{"actions": [{"actionCode": "E40000", "actionDate": "2022-10-10", "sourceSystem": {"code": 9, "name": "Library of Congress"}, "text": "Became Public Law No: 117-188.", "type": "President"}, {"actionCode": "36000", "actionDate": "2022-10-10", "sourceSystem": {"code": 9, "name": "Library of Congress"}, "text": "Became Public Law No: 117-188.", "type": "BecameLaw"}, {"actionCode": "E30000", "actionDate": "2022-10-10", "sourceSystem": {"code": 9, "name": "Library of Congress"}, "text": "Signed by President.", "type": "President"}, {"actionCode": "36000", "actionDate": "2022-10-10", "sourceSystem": {"code": 9, "name": "Library of Congress"}, "text": "Signed by President.", "type": "BecameLaw"}, {"actionCode": "E20000", "actionDate": "2022-10-04", "sourceSystem": {"code": 2, "name": "House floor actions"}, "text": "Presented to President.", "type": "Floor"}, {"actionCode": "28000", "actionDate": "2022-10-04", "sourceSystem": {"code": 9, "name": "Library of Congress"}, "text": "Presented to President.", "type": "President"}, {"actionDate": "2022-09-29", "sourceSystem": {"name": "Senate"}, "text": "Message on Senate action sent to the House.", "type": "Floor"}, {"actionDate": "2022-09-28", "sourceSystem": {"name": "Senate"}, "text": "Passed Senate without amendment by Voice Vote.", "type": "Floor"}, {"actionCode": "17000", "actionDate": "2022-09-28", "sourceSystem": {"code": 9, "name": "Library of Congress"}, "text": "Passed/agreed to in Senate: Passed Senate without amendment by Voice Vote.", "type": "Floor"}, {"actionDate": "2022-09-28", "committees": [{"name": "Small Business and Entrepreneurship Committee", "systemCode": "sssb00", "url": "https://api.congress.gov/v3/committee/senate/sssb00?format=json"}], "sourceSystem": {"name": "Senate"}, "text": "Senate Committee on Small Business and Entrepreneurship discharged by Unanimous Consent. (consideration: CR S5168)", "type": "Discharge"}, {"actionCode": "14500", "actionDate": "2022-09-28", "committees": [{"name": "Small Business and Entrepreneurship Committee", "systemCode": "sssb00", "url": "https://api.congress.gov/v3/committee/senate/sssb00?format=json"}], "sourceSystem": {"code": 9, "name": "Library of Congress"}, "text": "Senate Committee on Small Business and Entrepreneurship discharged by Unanimous Consent.", "type": "Committee"}, {"actionDate": "2022-04-27", "committees": [{"name": "Small Business and Entrepreneurship Committee", "systemCode": "sssb00", "url": "https://api.congress.gov/v3/committee/senate/sssb00?format=json"}], "sourceSystem": {"name": "Senate"}, "text": "Received in the Senate and Read twice and referred to the Committee on Small Business and Entrepreneurship.", "type": "IntroReferral"}, {"actionCode": "H38310", "actionDate": "2022-04-26", "actionTime": "14:59:14", "sourceSystem": {"code": 2, "name": "House floor actions"}, "text": "Motion to reconsider laid on the table Agreed to without objection.", "type": "Floor"}, {"actionCode": "H37300", "actionDate": "2022-04-26", "actionTime": "14:59:12", "sourceSystem": {"code": 2, "name": "House floor actions"}, "text": "On motion to suspend the rules and pass the bill Agreed to by voice vote. (text: CR H4473)", "type": "Floor"}, {"actionCode": "8000", "actionDate": "2022-04-26", "actionTime": "14:59:12", "sourceSystem": {"code": 9, "name": "Library of Congress"}, "text": "Passed/agreed to in House: On motion to suspend the rules and pass the bill Agreed to by voice vote.", "type": "Floor"}, {"actionCode": "H8D000", "actionDate": "2022-04-26", "actionTime": "14:50:50", "sourceSystem": {"code": 2, "name": "House floor actions"}, "text": "DEBATE - The House proceeded with forty minutes of debate on H.R. 4877.", "type": "Floor"}, {"actionCode": "H30000", "actionDate": "2022-04-26", "actionTime": "14:50:47", "sourceSystem": {"code": 2, "name": "House floor actions"}, "text": "Considered under suspension of the rules. (consideration: CR H4473-4474)", "type": "Floor"}, {"actionCode": "H30300", "actionDate": "2022-04-26", "actionTime": "14:50:35", "sourceSystem": {"code": 2, "name": "House floor actions"}, "text": "Ms. Velazquez moved to suspend the rules and pass the bill.", "type": "Floor"}, {"actionCode": "H12410", "actionDate": "2022-03-07", "calendarNumber": {"calendar": "U00185"}, "sourceSystem": {"code": 2, "name": "House floor actions"}, "text": "Placed on the Union Calendar, Calendar No. 185.", "type": "Calendars"}, {"actionCode": "H12200", "actionDate": "2022-03-07", "committees": [{"name": "Small Business Committee", "systemCode": "hssm00", "url": "https://api.congress.gov/v3/committee/house/hssm00?format=json"}], "sourceSystem": {"code": 2, "name": "House floor actions"}, "text": "Reported by the Committee on Small Business. H. Rept. 117-255.", "type": "Committee"}], "pagination": {"count": 26, "next": "https://api.congress.gov/v3/bill/117/hr/4877/actions?offset=20&limit=20&format=json"}, "request": {"billNumber": "4877", "billType": "hr", "billUrl": "https://api.congress.gov/v3/bill/117/hr/4877?format=json", "congress": "117", "contentType": "application/json", "format": "json"}}, 200]