[{"actions": [{"actionCode": "E40000", "actionDate": "2022-12-27", "sourceSystem": {"code": 9, "name": "Library of Congress"}, "text": "Became Public Law No: 117-275.", "type": "President"}, {"actionCode": "36000", "actionDate": "2022-12-27", "sourceSystem": {"code": 9, "name": "Library of Congress"}, "text": "Became Public Law No: 117-275.", "type": "BecameLaw"}, {"actionCode": "E30000", "actionDate": "2022-12-27", "sourceSystem": {"code": 9, "name": "Library of Congress"}, "text": "Signed by President.", "type": "President"}, {"actionCode": "36000", "actionDate": "2022-12-27", "sourceSystem": {"code": 9, "name": "Library of Congress"}, "text": "Signed by President.", "type": "BecameLaw"}, {"actionCode": "E20000", "actionDate": "2022-12-23", "sourceSystem": {"code": 2, "name": "House floor actions"}, "text": "Presented to President.", "type": "Floor"}, {"actionCode": "28000", "actionDate": "2022-12-23", "sourceSystem": {"code": 9, "name": "Library of Congress"}, "text": "Presented to President.", "type": "President"}, {"actionDate": "2022-12-20", "sourceSystem": {"name": "Senate"}, "text": "Message on Senate action sent to the House.", "type": "Floor"}, {"actionDate": "2022-12-19", "sourceSystem": {"name": "Senate"}, "text": "Passed Senate without amendment by Unanimous Consent. (consideration: CR S7291)", "type": "Floor"}, {"actionCode": "17000", "actionDate": "2022-12-19", "sourceSystem": {"code": 9, "name": "Library of Congress"}, "text": "Passed/agreed to in Senate: Passed Senate without amendment by Unanimous Consent.", "type": "Floor"}, {"actionDate": "2022-06-23", "calendarNumber": {"calendar": "Senate Calendar of Business", "number": "0432"}, "sourceSystem": {"name": "Senate"}, "text": "Placed on Senate Legislative Calendar under General Orders. Calendar No. 432.", "type": "Calendars"}, {"actionDate": "2022-06-23", "committees": [{"name": "Indian Affairs Committee", "systemCode": "slia00", "url": "https://api.congress.gov/v3/committee/senate/slia00?format=json"}], "sourceSystem": {"name": "Senate"}, "text": "Committee on Indian Affairs. Reported by Senator Schatz without amendment. With written report No. 117-127.", "type": "Committee"}, {"actionCode": "14000", "actionDate": "2022-06-23", "committees": [{"name": "Indian Affairs Committee", "systemCode": "slia00", "url": "https://api.congress.gov/v3/committee/senate/slia00?format=json"}], "sourceSystem": {"code": 9, "name": "Library of Congress"}, "text": "Committee on Indian Affairs. Reported by Senator Schatz without amendment. With written report No. 117-127.", "type": "Committee"}, {"actionDate": "2022-04-06", "committees": [{"name": "Indian Affairs Committee", "systemCode": "slia00", "url": "https://api.congress.gov/v3/committee/senate/slia00?format=json"}], "sourceSystem": {"name": "Senate"}, "text": "Committee on Indian Affairs. Ordered to be reported without amendment favorably.", "type": "Committee"}, {"actionDate": "2021-11-17", "committees": [{"name": "Indian Affairs Committee", "systemCode": "slia00", "url": "https://api.congress.gov/v3/committee/senate/slia00?format=json"}], "sourceSystem": {"name": "Senate"}, "text": "Committee on Indian Affairs. Hearings held. Hearings printed: S.Hrg. 117-115.", "type": "Committee"}, {"actionDate": "2021-11-03", "committees": [{"name": "Indian Affairs Committee", "systemCode": "slia00", "url": "https://api.congress.gov/v3/committee/senate/slia00?format=json"}], "sourceSystem": {"name": "Senate"}, "text": "Received in the Senate and Read twice and referred to the Committee on Indian Affairs.", "type": "IntroReferral"}, {"actionCode": "H38310", "actionDate": "2021-11-02", "actionTime": "15:36:27", "sourceSystem": {"code": 2, "name": "House floor actions"}, "text": "Motion to reconsider laid on the table Agreed to without objection.", "type": "Floor"}, {"actionCode": "H37300", "actionDate": "2021-11-02", "actionTime": "15:36:26", "recordedVotes": [{"chamber": "House", "congress": 117, "date": "2021-11-02T19:36:26Z", "rollNumber": 346, "sessionNumber": 1, "url": "https://clerk.house.gov/evs/2021/roll346.xml"}], "sourceSystem": {"code": 2, "name": "House floor actions"}, "text": "On motion to suspend the rules and pass the bill Agreed to by the Yeas and Nays: (2/3 required): 375 - 45, 1 Present (Roll no. 346). (text: 11/1/2021 CR H6048-6049)", "type": "Floor"}, {"actionCode": "8000", "actionDate": "2021-11-02", "actionTime": "15:36:26", "recordedVotes": [{"chamber": "House", "congress": 117, "date": "2021-11-02T19:36:26Z", "rollNumber": 346, "sessionNumber": 1, "url": "https://clerk.house.gov/evs/2021/roll346.xml"}], "sourceSystem": {"code": 9, "name": "Library of Congress"}, "text": "Passed/agreed to in House: On motion to suspend the rules and pass the bill Agreed to by the Yeas and Nays: (2/3 required): 375 - 45, 1 Present (Roll no. 346).(text: 11/1/2021 CR H6048-6049)", "type": "Floor"}, {"actionCode": "H30000", "actionDate": "2021-11-02", "actionTime": "15:17:45", "sourceSystem": {"code": 2, "name": "House floor actions"}, "text": "Considered as unfinished business. (consideration: CR H6097-6098)", "type": "Floor"}, {"actionCode": "H37220", "actionDate": "2021-11-01", "actionTime": "17:16:12", "sourceSystem": {"code": 2, "name": "House floor actions"}, "text": "At the conclusion of debate, the Yeas and Nays were demanded and ordered. Pursuant to the provisions of clause 8, rule XX, the Chair announced that further proceedings on the motion would be postponed.", "type": "Floor"}], "pagination": {"count": 34, "next": "https://api.congress.gov/v3/bill/117/hr/4881/actions?offset=20&limit=20&format=json"}, "request": {"billNumber": "4881", "billType": "hr", "billUrl": "https://api.congress.gov/v3/bill/117/hr/4881?format=json", "congress": "117", "contentType": "application/json", "format": "json"}}, 200]