[{"actions": [{"actionDate": "2022-09-28", "calendarNumber": {"calendar": "Senate Calendar of Business", "number": "0520"}, "sourceSystem": {"name": "Senate"}, "text": "Placed on Senate Legislative Calendar under General Orders. Calendar No. 520.", "type": "Calendars"}, {"actionDate": "2022-09-28", "committees": [{"name": "Energy and Natural Resources Committee", "systemCode": "sseg00", "url": "https://api.congress.gov/v3/committee/senate/sseg00?format=json"}], "sourceSystem": {"name": "Senate"}, "text": "Committee on Energy and Natural Resources. Reported by Senator Manchin without amendment. With written report No. 117-174.", "type": "Committee"}, {"actionCode": "14000", "actionDate": "2022-09-28", "committees": [{"name": "Energy and Natural Resources Committee", "systemCode": "sseg00", "url": "https://api.congress.gov/v3/committee/senate/sseg00?format=json"}], "sourceSystem": {"code": 9, "name": "Library of Congress"}, "text": "Committee on Energy and Natural Resources. Reported by Senator Manchin without amendment. With written report No. 117-174.", "type": "Committee"}, {"actionDate": "2022-07-21", "committees": [{"name": "Energy and Natural Resources Committee", "systemCode": "sseg00", "url": "https://api.congress.gov/v3/committee/senate/sseg00?format=json"}], "sourceSystem": {"name": "Senate"}, "text": "Committee on Energy and Natural Resources. Ordered to be reported without amendment favorably.", "type": "Committee"}, {"actionDate": "2022-05-25", "committees": [{"name": "Water and Power Subcommittee", "systemCode": "sseg07", "url": "https://api.congress.gov/v3/committee/senate/sseg07?format=json"}], "sourceSystem": {"name": "Senate"}, "text": "Committee on Energy and Natural Resources Subcommittee on Water and Power. Hearings held.", "type": "Committee"}, {"actionDate": "2022-03-16", "committees": [{"name": "Energy and Natural Resources Committee", "systemCode": "sseg00", "url": "https://api.congress.gov/v3/committee/senate/sseg00?format=json"}], "sourceSystem": {"name": "Senate"}, "text": "Received in the Senate and Read twice and referred to the Committee on Energy and Natural Resources.", "type": "IntroReferral"}, {"actionCode": "H38310", "actionDate": "2022-03-15", "actionTime": "19:27:47", "sourceSystem": {"code": 2, "name": "House floor actions"}, "text": "Motion to reconsider laid on the table Agreed to without objection.", "type": "Floor"}, {"actionCode": "H37300", "actionDate": "2022-03-15", "actionTime": "19:27:46", "recordedVotes": [{"chamber": "House", "congress": 117, "date": "2022-03-15T23:27:46Z", "rollNumber": 72, "sessionNumber": 2, "url": "https://clerk.house.gov/evs/2022/roll072.xml"}], "sourceSystem": {"code": 2, "name": "House floor actions"}, "text": "On motion to suspend the rules and pass the bill, as amended Agreed to by the Yeas and Nays: (2/3 required): 397 - 27 (Roll no. 72). (text: CR H3731)", "type": "Floor"}, {"actionCode": "8000", "actionDate": "2022-03-15", "actionTime": "19:27:46", "recordedVotes": [{"chamber": "House", "congress": 117, "date": "2022-03-15T23:27:46Z", "rollNumber": 72, "sessionNumber": 2, "url": "https://clerk.house.gov/evs/2022/roll072.xml"}], "sourceSystem": {"code": 9, "name": "Library of Congress"}, "text": "Passed/agreed to in House: On motion to suspend the rules and pass the bill, as amended Agreed to by the Yeas and Nays: (2/3 required): 397 - 27 (Roll no. 72).", "type": "Floor"}, {"actionCode": "H30000", "actionDate": "2022-03-15", "actionTime": "19:11:13", "sourceSystem": {"code": 2, "name": "House floor actions"}, "text": "Considered as unfinished business. (consideration: CR H3734-3735)", "type": "Floor"}, {"actionCode": "H37220", "actionDate": "2022-03-15", "actionTime": "15:45:20", "sourceSystem": {"code": 2, "name": "House floor actions"}, "text": "At the conclusion of debate, the Yeas and Nays were demanded and ordered. Pursuant to the provisions of clause 8, rule XX, the Chair announced that further proceedings on the motion would be postponed.", "type": "Floor"}, {"actionCode": "H8D000", "actionDate": "2022-03-15", "actionTime": "15:40:25", "sourceSystem": {"code": 2, "name": "House floor actions"}, "text": "DEBATE - The House proceeded with forty minutes of debate on H.R. 5001.", "type": "Floor"}, {"actionCode": "H30000", "actionDate": "2022-03-15", "actionTime": "15:40:14", "sourceSystem": {"code": 2, "name": "House floor actions"}, "text": "Considered under suspension of the rules. (consideration: CR H3731-3732)", "type": "Floor"}, {"actionCode": "H30300", "actionDate": "2022-03-15", "actionTime": "15:39:48", "sourceSystem": {"code": 2, "name": "House floor actions"}, "text": "Mr. Grijalva moved to suspend the rules and pass the bill, as amended.", "type": "Floor"}, {"actionCode": "H12410", "actionDate": "2022-03-09", "calendarNumber": {"calendar": "U00192"}, "sourceSystem": {"code": 2, "name": "House floor actions"}, "text": "Placed on the Union Calendar, Calendar No. 192.", "type": "Calendars"}, {"actionCode": "H12200", "actionDate": "2022-03-09", "committees": [{"name": "Natural Resources Committee", "systemCode": "hsii00", "url": "https://api.congress.gov/v3/committee/house/hsii00?format=json"}], "sourceSystem": {"code": 2, "name": "House floor actions"}, "text": "Reported (Amended) by the Committee on Natural Resources. H. Rept. 117-263.", "type": "Committee"}, {"actionCode": "5000", "actionDate": "2022-03-09", "committees": [{"name": "Natural Resources Committee", "systemCode": "hsii00", "url": "https://api.congress.gov/v3/committee/house/hsii00?format=json"}], "sourceSystem": {"code": 9, "name": "Library of Congress"}, "text": "Reported (Amended) by the Committee on Natural Resources. H. Rept. 117-263.", "type": "Committee"}, {"actionCode": "H19000", "actionDate": "2021-11-17", "committees": [{"name": "Natural Resources Committee", "systemCode": "hsii00", "url": "https://api.congress.gov/v3/committee/house/hsii00?format=json"}], "sourceSystem": {"code": 1, "name": "House committee actions"}, "text": "Ordered to be Reported (Amended) by Unanimous Consent.", "type": "Committee"}, {"actionCode": "H15000-B", "actionDate": "2021-11-17", "committees": [{"name": "Natural Resources Committee", "systemCode": "hsii00", "url": "https://api.congress.gov/v3/committee/house/hsii00?format=json"}], "sourceSystem": {"code": 1, "name": "House committee actions"}, "text": "Committee Consideration and Mark-up Session Held.", "type": "Committee"}, {"actionCode": "H25000", "actionDate": "2021-11-17", "committees": [{"name": "Natural Resources Committee", "systemCode": "hsii00", "url": "https://api.congress.gov/v3/committee/house/hsii00?format=json"}], "sourceSystem": {"code": 1, "name": "House committee actions"}, "text": "Subcommittee on Water, Oceans, and Wildlife Discharged.", "type": "Committee"}], "pagination": {"count": 25, "next": "https://api.congress.gov/v3/bill/117/hr/5001/actions?offset=20&limit=20&format=json"}, "request": {"billNumber": "5001", "billType": "hr", "billUrl": "https://api.congress.gov/v3/bill/117/hr/5001?format=json", "congress": "117", "contentType": "application/json", "format": "json"}}, 200]