[{"actions": [{"actionCode": "E40000", "actionDate": "2021-08-31", "sourceSystem": {"code": 9, "name": "Library of Congress"}, "text": "Became Public Law No: 117-39.", "type": "President"}, {"actionCode": "36000", "actionDate": "2021-08-31", "sourceSystem": {"code": 9, "name": "Library of Congress"}, "text": "Became Public Law No: 117-39.", "type": "BecameLaw"}, {"actionCode": "E30000", "actionDate": "2021-08-31", "sourceSystem": {"code": 9, "name": "Library of Congress"}, "text": "Signed by President.", "type": "President"}, {"actionCode": "36000", "actionDate": "2021-08-31", "sourceSystem": {"code": 9, "name": "Library of Congress"}, "text": "Signed by President.", "type": "BecameLaw"}, {"actionCode": "E20000", "actionDate": "2021-08-31", "sourceSystem": {"code": 2, "name": "House floor actions"}, "text": "Presented to President.", "type": "Floor"}, {"actionCode": "28000", "actionDate": "2021-08-31", "sourceSystem": {"code": 9, "name": "Library of Congress"}, "text": "Presented to President.", "type": "President"}, {"actionDate": "2021-08-31", "sourceSystem": {"name": "Senate"}, "text": "Message on Senate action sent to the House.", "type": "Floor"}, {"actionDate": "2021-08-31", "sourceSystem": {"name": "Senate"}, "text": "Received in the Senate, read twice, considered, read the third time, and passed without amendment by Unanimous Consent. (consideration: CR S6431)", "type": "Floor"}, {"actionCode": "17000", "actionDate": "2021-08-31", "sourceSystem": {"code": 9, "name": "Library of Congress"}, "text": "Passed/agreed to in Senate: Received in the Senate, read twice, considered, read the third time, and passed without amendment by Unanimous Consent.(consideration: CR S6431)", "type": "Floor"}, {"actionCode": "H38310", "actionDate": "2021-08-24", "actionTime": "19:17:42", "sourceSystem": {"code": 2, "name": "House floor actions"}, "text": "Motion to reconsider laid on the table Agreed to without objection.", "type": "Floor"}, {"actionCode": "H37100", "actionDate": "2021-08-24", "actionTime": "19:17:41", "sourceSystem": {"code": 2, "name": "House floor actions"}, "text": "On passage Passed without objection. (text: CR H4415)", "type": "Floor"}, {"actionCode": "8000", "actionDate": "2021-08-24", "actionTime": "19:17:41", "sourceSystem": {"code": 9, "name": "Library of Congress"}, "text": "Passed/agreed to in House: On passage Passed without objection.(text: CR H4415)", "type": "Floor"}, {"actionCode": "H30000", "actionDate": "2021-08-24", "actionTime": "19:17:30", "sourceSystem": {"code": 2, "name": "House floor actions"}, "text": "Considered by unanimous consent. (consideration: CR H4415)", "type": "Floor"}, {"actionCode": "H12300", "actionDate": "2021-08-24", "committees": [{"name": "Budget Committee", "systemCode": "hsbu00", "url": "https://api.congress.gov/v3/committee/house/hsbu00?format=json"}], "sourceSystem": {"code": 2, "name": "House floor actions"}, "text": "Committee on the Budget discharged.", "type": "Discharge"}, {"actionCode": "5500", "actionDate": "2021-08-24", "committees": [{"name": "Budget Committee", "systemCode": "hsbu00", "url": "https://api.congress.gov/v3/committee/house/hsbu00?format=json"}], "sourceSystem": {"code": 9, "name": "Library of Congress"}, "text": "Committee on the Budget discharged.", "type": "Committee"}, {"actionCode": "H12300", "actionDate": "2021-08-24", "committees": [{"name": "Ways and Means Committee", "systemCode": "hswm00", "url": "https://api.congress.gov/v3/committee/house/hswm00?format=json"}], "sourceSystem": {"code": 2, "name": "House floor actions"}, "text": "Committee on Ways and Means discharged.", "type": "Discharge"}, {"actionCode": "5500", "actionDate": "2021-08-24", "committees": [{"name": "Ways and Means Committee", "systemCode": "hswm00", "url": "https://api.congress.gov/v3/committee/house/hswm00?format=json"}], "sourceSystem": {"code": 9, "name": "Library of Congress"}, "text": "Committee on Ways and Means discharged.", "type": "Committee"}, {"actionCode": "H30200", "actionDate": "2021-08-24", "actionTime": "19:17:19", "sourceSystem": {"code": 2, "name": "House floor actions"}, "text": "Mr. Davis, Danny K. asked unanimous consent to discharge from committee and consider.", "type": "Floor"}, {"actionCode": "H11100", "actionDate": "2021-08-24", "committees": [{"name": "Budget Committee", "systemCode": "hsbu00", "url": "https://api.congress.gov/v3/committee/house/hsbu00?format=json"}], "sourceSystem": {"code": 2, "name": "House floor actions"}, "text": "Referred to the Committee on Ways and Means, and in addition to the Committee on the Budget, for a period to be subsequently determined by the Speaker, in each case for consideration of such provisions as fall within the jurisdiction of the committee concerned.", "type": "IntroReferral"}, {"actionCode": "H11100", "actionDate": "2021-08-24", "committees": [{"name": "Ways and Means Committee", "systemCode": "hswm00", "url": "https://api.congress.gov/v3/committee/house/hswm00?format=json"}], "sourceSystem": {"code": 2, "name": "House floor actions"}, "text": "Referred to the Committee on Ways and Means, and in addition to the Committee on the Budget, for a period to be subsequently determined by the Speaker, in each case for consideration of such provisions as fall within the jurisdiction of the committee concerned.", "type": "IntroReferral"}], "pagination": {"count": 23, "next": "https://api.congress.gov/v3/bill/117/hr/5085/actions?offset=20&limit=20&format=json"}, "request": {"billNumber": "5085", "billType": "hr", "billUrl": "https://api.congress.gov/v3/bill/117/hr/5085?format=json", "congress": "117", "contentType": "application/json", "format": "json"}}, 200]