[{"actions": [{"actionDate": "2022-08-02", "sourceSystem": {"name": "Senate"}, "text": "Received in the Senate.", "type": "IntroReferral"}, {"actionCode": "H38800", "actionDate": "2022-07-29", "actionTime": "20:27:25", "sourceSystem": {"code": 2, "name": "House floor actions"}, "text": "The title of the measure was amended. Agreed to without objection.", "type": "Floor"}, {"actionCode": "H38310", "actionDate": "2022-07-29", "actionTime": "19:36:55", "sourceSystem": {"code": 2, "name": "House floor actions"}, "text": "Motion to reconsider laid on the table Agreed to without objection.", "type": "Floor"}, {"actionCode": "H37100", "actionDate": "2022-07-29", "actionTime": "19:36:53", "recordedVotes": [{"chamber": "House", "congress": 117, "date": "2022-07-29T23:36:53Z", "rollNumber": 414, "sessionNumber": 2, "url": "https://clerk.house.gov/evs/2022/roll414.xml"}], "sourceSystem": {"code": 2, "name": "House floor actions"}, "text": "On passage Passed by the Yeas and Nays: 218 - 199 (Roll no. 414).", "type": "Floor"}, {"actionCode": "8000", "actionDate": "2022-07-29", "actionTime": "19:36:53", "recordedVotes": [{"chamber": "House", "congress": 117, "date": "2022-07-29T23:36:53Z", "rollNumber": 414, "sessionNumber": 2, "url": "https://clerk.house.gov/evs/2022/roll414.xml"}], "sourceSystem": {"code": 9, "name": "Library of Congress"}, "text": "Passed/agreed to in House: On passage Passed by the Yeas and Nays: 218 - 199 (Roll no. 414).", "type": "Floor"}, {"actionCode": "H36210", "actionDate": "2022-07-29", "actionTime": "19:19:42", "committees": [{"name": "Natural Resources Committee", "systemCode": "hsii00", "url": "https://api.congress.gov/v3/committee/house/hsii00?format=json"}], "recordedVotes": [{"chamber": "House", "congress": 117, "date": "2022-07-29T23:19:42Z", "rollNumber": 413, "sessionNumber": 2, "url": "https://clerk.house.gov/evs/2022/roll413.xml"}], "sourceSystem": {"code": 2, "name": "House floor actions"}, "text": "On motion to recommit Failed by the Yeas and Nays: 200 - 218 (Roll no. 413).", "type": "Floor"}, {"actionCode": "H8A000", "actionDate": "2022-07-29", "actionTime": "19:05:20", "sourceSystem": {"code": 2, "name": "House floor actions"}, "text": "The previous question on the motion to recommit was ordered pursuant to clause 2(b) of rule XIX.", "type": "Floor"}, {"actionCode": "H36200", "actionDate": "2022-07-29", "actionTime": "19:05:09", "committees": [{"name": "Natural Resources Committee", "systemCode": "hsii00", "url": "https://api.congress.gov/v3/committee/house/hsii00?format=json"}], "sourceSystem": {"code": 2, "name": "House floor actions"}, "text": "Mr. Valadao moved to recommit to the Committee on Natural Resources.", "type": "Floor"}, {"actionCode": "H34400", "actionDate": "2022-07-29", "actionTime": "19:03:55", "sourceSystem": {"code": 2, "name": "House floor actions"}, "text": "The House adopted the amendment as agreed to by the Committee of the Whole House on the state of the Union.", "type": "Floor"}, {"actionCode": "H35000", "actionDate": "2022-07-29", "actionTime": "19:03:40", "sourceSystem": {"code": 2, "name": "House floor actions"}, "text": "The previous question was ordered pursuant to the rule.", "type": "Floor"}, {"actionCode": "H32600", "actionDate": "2022-07-29", "actionTime": "19:03:33", "sourceSystem": {"code": 2, "name": "House floor actions"}, "text": "The House rose from the Committee of the Whole House on the state of the Union to report H.R. 5118.", "type": "Floor"}, {"actionCode": "H32050", "actionDate": "2022-07-29", "actionTime": "18:30:37", "sourceSystem": {"code": 2, "name": "House floor actions"}, "text": "The House resolved into Committee of the Whole House on the state of the Union for further consideration.", "type": "Floor"}, {"actionCode": "H30000", "actionDate": "2022-07-29", "actionTime": "18:30:25", "sourceSystem": {"code": 2, "name": "House floor actions"}, "text": "Considered as unfinished business. (consideration: CR H7527-7531)", "type": "Floor"}, {"actionCode": "H32700", "actionDate": "2022-07-29", "actionTime": "13:27:31", "sourceSystem": {"code": 2, "name": "House floor actions"}, "text": "Committee of the Whole House on the state of the Union rises leaving H.R. 5118 as unfinished business.", "type": "Floor"}, {"actionCode": "H32340", "actionDate": "2022-07-29", "actionTime": "13:26:52", "sourceSystem": {"code": 2, "name": "House floor actions"}, "text": "Ms. Velazquez moved that the committee rise.", "type": "Floor"}, {"actionCode": "H32341", "actionDate": "2022-07-29", "actionTime": "13:26:52", "sourceSystem": {"code": 2, "name": "House floor actions"}, "text": "On motion that the committee rise Agreed to by voice vote.", "type": "Floor"}, {"actionCode": "H8D000", "actionDate": "2022-07-29", "actionTime": "13:26:51", "sourceSystem": {"code": 2, "name": "House floor actions"}, "text": "POSTPONED PROCEEDINGS - At the conclusion of debate on the Velazquez amendment No. 3, the Chair put the question on agreeing to the amendment and by voice vote, announced that the ayes had prevailed. Mr. Clyde demanded a recorded vote and the Chair postponed further proceedings until a time to be announced.", "type": "Floor"}, {"actionCode": "H8D000", "actionDate": "2022-07-29", "actionTime": "13:19:26", "sourceSystem": {"code": 2, "name": "House floor actions"}, "text": "DEBATE - Pursuant to the provisions of H. Res. 1254, the Committee of the Whole proceeded with 10 minutes of debate on the Velazquez amendment No. 3.", "type": "Floor"}, {"actionCode": "H8D000", "actionDate": "2022-07-29", "actionTime": "13:18:27", "sourceSystem": {"code": 2, "name": "House floor actions"}, "text": "POSTPONED PROCEEDINGS - At the conclusion of debate on the Schrier amendment No. 2, the Chair put the question on agreeing to the amendment and by voice vote, announced that the ayes had prevailed. Mr. Clyde demanded a recorded vote and the Chair postponed further proceedings until a time to be announced.", "type": "Floor"}, {"actionCode": "H8D000", "actionDate": "2022-07-29", "actionTime": "13:09:28", "sourceSystem": {"code": 2, "name": "House floor actions"}, "text": "DEBATE - Pursuant to the provisions of H. Res. 1254, the Committee of the Whole proceeded with 10 minutes of debate on the Schrier amendment No. 2.", "type": "Floor"}], "pagination": {"count": 38, "next": "https://api.congress.gov/v3/bill/117/hr/5118/actions?offset=20&limit=20&format=json"}, "request": {"billNumber": "5118", "billType": "hr", "billUrl": "https://api.congress.gov/v3/bill/117/hr/5118?format=json", "congress": "117", "contentType": "application/json", "format": "json"}}, 200]