[{"actions": [{"actionDate": "2022-05-16", "committees": [{"name": "Health, Education, Labor, and Pensions Committee", "systemCode": "sshr00", "url": "https://api.congress.gov/v3/committee/senate/sshr00?format=json"}], "sourceSystem": {"name": "Senate"}, "text": "Received in the Senate and Read twice and referred to the Committee on Health, Education, Labor, and Pensions.", "type": "IntroReferral"}, {"actionCode": "H38310", "actionDate": "2022-05-13", "actionTime": "12:29:20", "sourceSystem": {"code": 2, "name": "House floor actions"}, "text": "Motion to reconsider laid on the table Agreed to without objection.", "type": "Floor"}, {"actionCode": "H37100", "actionDate": "2022-05-13", "actionTime": "12:29:18", "recordedVotes": [{"chamber": "House", "congress": 117, "date": "2022-05-13T16:29:18Z", "rollNumber": 182, "sessionNumber": 2, "url": "https://clerk.house.gov/evs/2022/roll182.xml"}], "sourceSystem": {"code": 2, "name": "House floor actions"}, "text": "On passage Passed by the Yeas and Nays: 246 - 169 (Roll no. 182).", "type": "Floor"}, {"actionCode": "8000", "actionDate": "2022-05-13", "actionTime": "12:29:18", "recordedVotes": [{"chamber": "House", "congress": 117, "date": "2022-05-13T16:29:18Z", "rollNumber": 182, "sessionNumber": 2, "url": "https://clerk.house.gov/evs/2022/roll182.xml"}], "sourceSystem": {"code": 9, "name": "Library of Congress"}, "text": "Passed/agreed to in House: On passage Passed by the Yeas and Nays: 246 - 169 (Roll no. 182).", "type": "Floor"}, {"actionCode": "H36210", "actionDate": "2022-05-13", "actionTime": "12:14:37", "committees": [{"name": "Education and the Workforce Committee", "systemCode": "hsed00", "url": "https://api.congress.gov/v3/committee/house/hsed00?format=json"}], "recordedVotes": [{"chamber": "House", "congress": 117, "date": "2022-05-13T16:14:37Z", "rollNumber": 181, "sessionNumber": 2, "url": "https://clerk.house.gov/evs/2022/roll181.xml"}], "sourceSystem": {"code": 2, "name": "House floor actions"}, "text": "On motion to recommit Failed by the Yeas and Nays: 201 - 216 (Roll no. 181).", "type": "Floor"}, {"actionCode": "H8A000", "actionDate": "2022-05-13", "actionTime": "12:00:26", "sourceSystem": {"code": 2, "name": "House floor actions"}, "text": "The previous question on the motion to recommit was ordered pursuant to clause 2(b) of rule XIX.", "type": "Floor"}, {"actionCode": "H36200", "actionDate": "2022-05-13", "actionTime": "12:00:12", "committees": [{"name": "Education and the Workforce Committee", "systemCode": "hsed00", "url": "https://api.congress.gov/v3/committee/house/hsed00?format=json"}], "sourceSystem": {"code": 2, "name": "House floor actions"}, "text": "Mr. Walberg moved to recommit to the Committee on Education and Labor. (text: CR H4954)", "type": "Floor"}, {"actionCode": "H35000", "actionDate": "2022-05-13", "actionTime": "11:59:46", "sourceSystem": {"code": 2, "name": "House floor actions"}, "text": "The previous question was ordered pursuant to the rule.", "type": "Floor"}, {"actionCode": "H8D000", "actionDate": "2022-05-13", "actionTime": "10:44:10", "sourceSystem": {"code": 2, "name": "House floor actions"}, "text": "POSTPONED PROCEEDINGS - At the conclusion of debate on the Gottheimer amendment No. 4, the Chair put the question on adoption of the amendment and by voice vote, announced the ayes had prevailed. Mr. Clyde demanded the yeas and nays and the Chair postponed further proceedings until a time to be announced.", "type": "Floor"}, {"actionCode": "H8D000", "actionDate": "2022-05-13", "actionTime": "10:36:26", "sourceSystem": {"code": 2, "name": "House floor actions"}, "text": "DEBATE - Pursuant to the provisions of H. Res. 1097, the House proceeded with 10 minutes of debate on the Gottheimer amendment No. 4", "type": "Floor"}, {"actionCode": "H8D000", "actionDate": "2022-05-13", "actionTime": "10:35:54", "sourceSystem": {"code": 2, "name": "House floor actions"}, "text": "POSTPONED PROCEEDINGS - At the conclusion of debate on the Bonamici amendment en bloc No. 2, the Chair put the question on adoption of the amendment and by voice vote, announced that the noes had prevailed. Ms. Foxx demanded the yeas and nays and the Chair postponed further proceedings until a time to be announced.", "type": "Floor"}, {"actionCode": "H8D000", "actionDate": "2022-05-13", "actionTime": "10:17:57", "sourceSystem": {"code": 2, "name": "House floor actions"}, "text": "DEBATE - Pursuant to the provisions of H. Res. 1097, the House proceeded with 20 minutes of debate on the Bonamici amendment en bloc No. 2.", "type": "Floor"}, {"actionCode": "H8D000", "actionDate": "2022-05-13", "actionTime": "10:16:40", "sourceSystem": {"code": 2, "name": "House floor actions"}, "text": "POSTPONED PROCEEDINGS - At the conclusion of debate on the Bonamici amendment en bloc No. 1, the Chair put the question on adoption of the amendment and by voice vote, announced that the ayes had prevailed. Ms. Foxx demanded the yeas and nays and the Chair postponed further proceedings until a time to be announced.", "type": "Floor"}, {"actionCode": "H8D000", "actionDate": "2022-05-13", "actionTime": "10:01:53", "sourceSystem": {"code": 2, "name": "House floor actions"}, "text": "DEBATE - Pursuant to the provisions of H. Res. 1097, the House proceeded with 20 minutes of debate on the Bonamici amendment en bloc No. 1.", "type": "Floor"}, {"actionCode": "H8D000", "actionDate": "2022-05-13", "actionTime": "09:18:03", "sourceSystem": {"code": 2, "name": "House floor actions"}, "text": "DEBATE - The House proceeded with one hour of debate on H.R. 5129.", "type": "Floor"}, {"actionCode": "H8D000", "actionDate": "2022-05-13", "actionTime": "09:16:58", "sourceSystem": {"code": 2, "name": "House floor actions"}, "text": "Rule provides for consideration of H.R. 903, H.R. 2499, H.R. 5129 and H.R. 7691. The resolution provides for consideration of H.R. 903, H.R. 2499, and H.R. 5129 under a structured rule. H.R. 7691 is considered under a closed rule. Bills considered under the rule are debatable for one hour. The rule provides that H. Res. 1096 is adopted and amends H. Res. 188 by striking May 13, 2022 and inserting June 10, 2022.", "type": "Floor"}, {"actionCode": "H30000", "actionDate": "2022-05-13", "actionTime": "09:16:53", "sourceSystem": {"code": 2, "name": "House floor actions"}, "text": "Considered under the provisions of rule H. Res. 1097. (consideration: CR H4925-4956; text: CR H4925-4932)", "type": "Floor"}, {"actionCode": "H1L210", "actionDate": "2022-05-10", "actionTime": "18:01:27", "sourceSystem": {"code": 2, "name": "House floor actions"}, "text": "Rules Committee Resolution H. Res. 1097 Reported to House. Rule provides for consideration of H.R. 903, H.R. 2499, H.R. 5129 and H.R. 7691. The resolution provides for consideration of H.R. 903, H.R. 2499, and H.R. 5129 under a structured rule. H.R. 7691 is considered under a closed rule. Bills considered under the rule are debatable for one hour. The rule provides that H. Res. 1096 is adopted and amends H. Res. 188 by striking May 13, 2022 and inserting June 10, 2022.", "type": "Floor"}, {"actionCode": "H12410", "actionDate": "2022-05-06", "calendarNumber": {"calendar": "U00231"}, "sourceSystem": {"code": 2, "name": "House floor actions"}, "text": "Placed on the Union Calendar, Calendar No. 231.", "type": "Calendars"}, {"actionCode": "H12200", "actionDate": "2022-05-06", "committees": [{"name": "Education and the Workforce Committee", "systemCode": "hsed00", "url": "https://api.congress.gov/v3/committee/house/hsed00?format=json"}], "sourceSystem": {"code": 2, "name": "House floor actions"}, "text": "Reported (Amended) by the Committee on Education and Labor. H. Rept. 117-311.", "type": "Committee"}], "pagination": {"count": 26, "next": "https://api.congress.gov/v3/bill/117/hr/5129/actions?offset=20&limit=20&format=json"}, "request": {"billNumber": "5129", "billType": "hr", "billUrl": "https://api.congress.gov/v3/bill/117/hr/5129?format=json", "congress": "117", "contentType": "application/json", "format": "json"}}, 200]