[{"actions": [{"actionDate": "2022-07-20", "committees": [{"name": "Indian Affairs Committee", "systemCode": "slia00", "url": "https://api.congress.gov/v3/committee/senate/slia00?format=json"}], "sourceSystem": {"name": "Senate"}, "text": "Committee on Indian Affairs. Hearings held. Hearings printed: S.Hrg. 117-530.", "type": "Committee"}, {"actionDate": "2021-11-03", "committees": [{"name": "Indian Affairs Committee", "systemCode": "slia00", "url": "https://api.congress.gov/v3/committee/senate/slia00?format=json"}], "sourceSystem": {"name": "Senate"}, "text": "Received in the Senate and Read twice and referred to the Committee on Indian Affairs.", "type": "IntroReferral"}, {"actionCode": "H38310", "actionDate": "2021-11-02", "actionTime": "14:38:43", "sourceSystem": {"code": 2, "name": "House floor actions"}, "text": "Motion to reconsider laid on the table Agreed to without objection.", "type": "Floor"}, {"actionCode": "H37300", "actionDate": "2021-11-02", "actionTime": "14:38:42", "recordedVotes": [{"chamber": "House", "congress": 117, "date": "2021-11-02T18:38:42Z", "rollNumber": 343, "sessionNumber": 1, "url": "https://clerk.house.gov/evs/2021/roll343.xml"}], "sourceSystem": {"code": 2, "name": "House floor actions"}, "text": "On motion to suspend the rules and pass the bill Agreed to by the Yeas and Nays: (2/3 required): 406 - 17 (Roll no. 343). (text: 11/1/2021 CR H6044)", "type": "Floor"}, {"actionCode": "8000", "actionDate": "2021-11-02", "actionTime": "14:38:42", "recordedVotes": [{"chamber": "House", "congress": 117, "date": "2021-11-02T18:38:42Z", "rollNumber": 343, "sessionNumber": 1, "url": "https://clerk.house.gov/evs/2021/roll343.xml"}], "sourceSystem": {"code": 9, "name": "Library of Congress"}, "text": "Passed/agreed to in House: On motion to suspend the rules and pass the bill Agreed to by the Yeas and Nays: (2/3 required): 406 - 17 (Roll no. 343).(text: 11/1/2021 CR H6044)", "type": "Floor"}, {"actionCode": "H30000", "actionDate": "2021-11-02", "actionTime": "14:20:10", "sourceSystem": {"code": 2, "name": "House floor actions"}, "text": "Considered as unfinished business. (consideration: CR H6095-6096)", "type": "Floor"}, {"actionCode": "H37220", "actionDate": "2021-11-01", "actionTime": "16:52:23", "sourceSystem": {"code": 2, "name": "House floor actions"}, "text": "At the conclusion of debate, the Yeas and Nays were demanded and ordered. Pursuant to the provisions of clause 8, rule XX, the Chair announced that further proceedings on the motion would be postponed.", "type": "Floor"}, {"actionCode": "H8D000", "actionDate": "2021-11-01", "actionTime": "16:41:16", "sourceSystem": {"code": 2, "name": "House floor actions"}, "text": "DEBATE - The House proceeded with forty minutes of debate on H.R. 5221.", "type": "Floor"}, {"actionCode": "H30000", "actionDate": "2021-11-01", "actionTime": "16:41:08", "sourceSystem": {"code": 2, "name": "House floor actions"}, "text": "Considered under suspension of the rules. (consideration: CR H6044-6046)", "type": "Floor"}, {"actionCode": "H30300", "actionDate": "2021-11-01", "actionTime": "16:40:40", "sourceSystem": {"code": 2, "name": "House floor actions"}, "text": "Ms. Leger Fernandez moved to suspend the rules and pass the bill.", "type": "Floor"}, {"actionCode": "H12410", "actionDate": "2021-11-01", "calendarNumber": {"calendar": "U00123"}, "sourceSystem": {"code": 2, "name": "House floor actions"}, "text": "Placed on the Union Calendar, Calendar No. 123.", "type": "Calendars"}, {"actionCode": "H12300", "actionDate": "2021-11-01", "committees": [{"name": "Energy and Commerce Committee", "systemCode": "hsif00", "url": "https://api.congress.gov/v3/committee/house/hsif00?format=json"}], "sourceSystem": {"code": 2, "name": "House floor actions"}, "text": "Committee on Energy and Commerce discharged.", "type": "Discharge"}, {"actionCode": "5500", "actionDate": "2021-11-01", "committees": [{"name": "Energy and Commerce Committee", "systemCode": "hsif00", "url": "https://api.congress.gov/v3/committee/house/hsif00?format=json"}], "sourceSystem": {"code": 9, "name": "Library of Congress"}, "text": "Committee on Energy and Commerce discharged.", "type": "Committee"}, {"actionCode": "H12200", "actionDate": "2021-11-01", "committees": [{"name": "Natural Resources Committee", "systemCode": "hsii00", "url": "https://api.congress.gov/v3/committee/house/hsii00?format=json"}], "sourceSystem": {"code": 2, "name": "House floor actions"}, "text": "Reported by the Committee on Natural Resources. H. Rept. 117-168, Part I.", "type": "Committee"}, {"actionCode": "5000", "actionDate": "2021-11-01", "committees": [{"name": "Natural Resources Committee", "systemCode": "hsii00", "url": "https://api.congress.gov/v3/committee/house/hsii00?format=json"}], "sourceSystem": {"code": 9, "name": "Library of Congress"}, "text": "Reported by the Committee on Natural Resources. H. Rept. 117-168, Part I.", "type": "Committee"}, {"actionCode": "H19000", "actionDate": "2021-10-13", "committees": [{"name": "Natural Resources Committee", "systemCode": "hsii00", "url": "https://api.congress.gov/v3/committee/house/hsii00?format=json"}], "sourceSystem": {"code": 1, "name": "House committee actions"}, "text": "Ordered to be Reported by Unanimous Consent.", "type": "Committee"}, {"actionCode": "H15000-B", "actionDate": "2021-10-13", "committees": [{"name": "Natural Resources Committee", "systemCode": "hsii00", "url": "https://api.congress.gov/v3/committee/house/hsii00?format=json"}], "sourceSystem": {"code": 1, "name": "House committee actions"}, "text": "Committee Consideration and Mark-up Session Held.", "type": "Committee"}, {"actionCode": "H25000", "actionDate": "2021-10-13", "committees": [{"name": "Natural Resources Committee", "systemCode": "hsii00", "url": "https://api.congress.gov/v3/committee/house/hsii00?format=json"}], "sourceSystem": {"code": 1, "name": "House committee actions"}, "text": "Subcommittee for Indigenous Peoples of the United States Discharged.", "type": "Committee"}, {"actionCode": "H21000", "actionDate": "2021-10-05", "committees": [{"name": "Indian and Insular Affairs Subcommittee", "systemCode": "hsii24", "url": "https://api.congress.gov/v3/committee/house/hsii24?format=json"}], "sourceSystem": {"code": 1, "name": "House committee actions"}, "text": "Subcommittee Hearings Held.", "type": "Committee"}, {"actionCode": "H11000", "actionDate": "2021-09-13", "committees": [{"name": "Health Subcommittee", "systemCode": "hsif14", "url": "https://api.congress.gov/v3/committee/house/hsif14?format=json"}], "sourceSystem": {"code": 1, "name": "House committee actions"}, "text": "Referred to the Subcommittee on Health.", "type": "Committee"}], "pagination": {"count": 25, "next": "https://api.congress.gov/v3/bill/117/hr/5221/actions?offset=20&limit=20&format=json"}, "request": {"billNumber": "5221", "billType": "hr", "billUrl": "https://api.congress.gov/v3/bill/117/hr/5221?format=json", "congress": "117", "contentType": "application/json", "format": "json"}}, 200]