[{"actions": [{"actionDate": "2022-07-14", "committees": [{"name": "Homeland Security and Governmental Affairs Committee", "systemCode": "ssga00", "url": "https://api.congress.gov/v3/committee/senate/ssga00?format=json"}], "sourceSystem": {"name": "Senate"}, "text": "Received in the Senate and Read twice and referred to the Committee on Homeland Security and Governmental Affairs.", "type": "IntroReferral"}, {"actionCode": "H38310", "actionDate": "2022-07-13", "actionTime": "20:13:38", "sourceSystem": {"code": 2, "name": "House floor actions"}, "text": "Motion to reconsider laid on the table Agreed to without objection.", "type": "Floor"}, {"actionCode": "H37300", "actionDate": "2022-07-13", "actionTime": "20:13:37", "recordedVotes": [{"chamber": "House", "congress": 117, "date": "2022-07-14T00:13:37Z", "rollNumber": 306, "sessionNumber": 2, "url": "https://clerk.house.gov/evs/2022/roll306.xml"}], "sourceSystem": {"code": 2, "name": "House floor actions"}, "text": "On motion to suspend the rules and pass the bill Agreed to by the Yeas and Nays: (2/3 required): 429 - 0 (Roll no. 306). (text: 06/21/2022 CR H5693)", "type": "Floor"}, {"actionCode": "8000", "actionDate": "2022-07-13", "actionTime": "20:13:37", "recordedVotes": [{"chamber": "House", "congress": 117, "date": "2022-07-14T00:13:37Z", "rollNumber": 306, "sessionNumber": 2, "url": "https://clerk.house.gov/evs/2022/roll306.xml"}], "sourceSystem": {"code": 9, "name": "Library of Congress"}, "text": "Passed/agreed to in House: On motion to suspend the rules and pass the bill Agreed to by the Yeas and Nays: (2/3 required): 429 - 0 (Roll no. 306).", "type": "Floor"}, {"actionCode": "H30000", "actionDate": "2022-07-13", "actionTime": "20:04:59", "sourceSystem": {"code": 2, "name": "House floor actions"}, "text": "Considered as unfinished business. (consideration: CR H6287)", "type": "Floor"}, {"actionCode": "H37220", "actionDate": "2022-06-21", "actionTime": "14:37:50", "sourceSystem": {"code": 2, "name": "House floor actions"}, "text": "At the conclusion of debate, the Yeas and Nays were demanded and ordered. Pursuant to the provisions of clause 8, rule XX, the Chair announced that further proceedings on the motion would be postponed.", "type": "Floor"}, {"actionCode": "H8D000", "actionDate": "2022-06-21", "actionTime": "14:27:42", "sourceSystem": {"code": 2, "name": "House floor actions"}, "text": "DEBATE - The House proceeded with forty minutes of debate on H.R. 5274.", "type": "Floor"}, {"actionCode": "H30000", "actionDate": "2022-06-21", "actionTime": "14:27:41", "sourceSystem": {"code": 2, "name": "House floor actions"}, "text": "Considered under suspension of the rules. (consideration: CR H5693-5695)", "type": "Floor"}, {"actionCode": "H30300", "actionDate": "2022-06-21", "actionTime": "14:27:16", "sourceSystem": {"code": 2, "name": "House floor actions"}, "text": "Mr. Swalwell moved to suspend the rules and pass the bill.", "type": "Floor"}, {"actionCode": "H12410", "actionDate": "2022-06-17", "calendarNumber": {"calendar": "U00286"}, "sourceSystem": {"code": 2, "name": "House floor actions"}, "text": "Placed on the Union Calendar, Calendar No. 286.", "type": "Calendars"}, {"actionCode": "H12300", "actionDate": "2022-06-17", "committees": [{"name": "Ways and Means Committee", "systemCode": "hswm00", "url": "https://api.congress.gov/v3/committee/house/hswm00?format=json"}], "sourceSystem": {"code": 2, "name": "House floor actions"}, "text": "Committee on Ways and Means discharged.", "type": "Discharge"}, {"actionCode": "5500", "actionDate": "2022-06-17", "committees": [{"name": "Ways and Means Committee", "systemCode": "hswm00", "url": "https://api.congress.gov/v3/committee/house/hswm00?format=json"}], "sourceSystem": {"code": 9, "name": "Library of Congress"}, "text": "Committee on Ways and Means discharged.", "type": "Committee"}, {"actionCode": "H12200", "actionDate": "2022-06-17", "committees": [{"name": "Homeland Security Committee", "systemCode": "hshm00", "url": "https://api.congress.gov/v3/committee/house/hshm00?format=json"}], "sourceSystem": {"code": 2, "name": "House floor actions"}, "text": "Reported by the Committee on Homeland Security. H. Rept. 117-375, Part I.", "type": "Committee"}, {"actionCode": "5000", "actionDate": "2022-06-17", "committees": [{"name": "Homeland Security Committee", "systemCode": "hshm00", "url": "https://api.congress.gov/v3/committee/house/hshm00?format=json"}], "sourceSystem": {"code": 9, "name": "Library of Congress"}, "text": "Reported by the Committee on Homeland Security. H. Rept. 117-375, Part I.", "type": "Committee"}, {"actionCode": "H19000", "actionDate": "2022-05-19", "committees": [{"name": "Homeland Security Committee", "systemCode": "hshm00", "url": "https://api.congress.gov/v3/committee/house/hshm00?format=json"}], "sourceSystem": {"code": 1, "name": "House committee actions"}, "text": "Ordered to be Reported by Voice Vote.", "type": "Committee"}, {"actionCode": "H15000-B", "actionDate": "2022-05-19", "committees": [{"name": "Homeland Security Committee", "systemCode": "hshm00", "url": "https://api.congress.gov/v3/committee/house/hshm00?format=json"}], "sourceSystem": {"code": 1, "name": "House committee actions"}, "text": "Committee Consideration and Mark-up Session Held.", "type": "Committee"}, {"actionCode": "H25000", "actionDate": "2022-05-19", "committees": [{"name": "Homeland Security Committee", "systemCode": "hshm00", "url": "https://api.congress.gov/v3/committee/house/hshm00?format=json"}], "sourceSystem": {"code": 1, "name": "House committee actions"}, "text": "Subcommittee on Border Security, Facilitation, and Operations Discharged.", "type": "Committee"}, {"actionCode": "H11000", "actionDate": "2021-09-18", "committees": [{"name": "Border Security and Enforcement Subcommittee", "systemCode": "hshm11", "url": "https://api.congress.gov/v3/committee/house/hshm11?format=json"}], "sourceSystem": {"code": 1, "name": "House committee actions"}, "text": "Referred to the Subcommittee on Border Security, Facilitation, and Operations.", "type": "Committee"}, {"actionCode": "H11000", "actionDate": "2021-09-17", "committees": [{"name": "Trade Subcommittee", "systemCode": "hswm04", "url": "https://api.congress.gov/v3/committee/house/hswm04?format=json"}], "sourceSystem": {"code": 1, "name": "House committee actions"}, "text": "Referred to the Subcommittee on Trade.", "type": "Committee"}, {"actionCode": "H11100", "actionDate": "2021-09-17", "committees": [{"name": "Ways and Means Committee", "systemCode": "hswm00", "url": "https://api.congress.gov/v3/committee/house/hswm00?format=json"}], "sourceSystem": {"code": 2, "name": "House floor actions"}, "text": "Referred to the Committee on Homeland Security, and in addition to the Committee on Ways and Means, for a period to be subsequently determined by the Speaker, in each case for consideration of such provisions as fall within the jurisdiction of the committee concerned.", "type": "IntroReferral"}], "pagination": {"count": 23, "next": "https://api.congress.gov/v3/bill/117/hr/5274/actions?offset=20&limit=20&format=json"}, "request": {"billNumber": "5274", "billType": "hr", "billUrl": "https://api.congress.gov/v3/bill/117/hr/5274?format=json", "congress": "117", "contentType": "application/json", "format": "json"}}, 200]