[{"actions": [{"actionCode": "E40000", "actionDate": "2021-09-30", "sourceSystem": {"code": 9, "name": "Library of Congress"}, "text": "Became Public Law No: 117-43.", "type": "President"}, {"actionCode": "36000", "actionDate": "2021-09-30", "sourceSystem": {"code": 9, "name": "Library of Congress"}, "text": "Became Public Law No: 117-43.", "type": "BecameLaw"}, {"actionCode": "E30000", "actionDate": "2021-09-30", "sourceSystem": {"code": 9, "name": "Library of Congress"}, "text": "Signed by President.", "type": "President"}, {"actionCode": "36000", "actionDate": "2021-09-30", "sourceSystem": {"code": 9, "name": "Library of Congress"}, "text": "Signed by President.", "type": "BecameLaw"}, {"actionCode": "E20000", "actionDate": "2021-09-30", "sourceSystem": {"code": 2, "name": "House floor actions"}, "text": "Presented to President.", "type": "Floor"}, {"actionCode": "28000", "actionDate": "2021-09-30", "sourceSystem": {"code": 9, "name": "Library of Congress"}, "text": "Presented to President.", "type": "President"}, {"actionCode": "H41931", "actionDate": "2021-09-30", "actionTime": "15:45:13", "sourceSystem": {"code": 2, "name": "House floor actions"}, "text": "Motion to reconsider laid on the table Agreed to without objection.", "type": "ResolvingDifferences"}, {"actionCode": "H41610", "actionDate": "2021-09-30", "actionTime": "15:45:11", "recordedVotes": [{"chamber": "House", "congress": 117, "date": "2021-09-30T19:45:11Z", "rollNumber": 311, "sessionNumber": 1, "url": "https://clerk.house.gov/evs/2021/roll311.xml"}], "sourceSystem": {"code": 2, "name": "House floor actions"}, "text": "On motion that the House agree to the Senate amendment Agreed to by the Yeas and Nays: 254 - 175 (Roll no. 311).", "type": "ResolvingDifferences"}, {"actionCode": "19500", "actionDate": "2021-09-30", "recordedVotes": [{"chamber": "House", "congress": 117, "date": "2021-09-30T19:45:11Z", "rollNumber": 311, "sessionNumber": 1, "url": "https://clerk.house.gov/evs/2021/roll311.xml"}], "sourceSystem": {"code": 9, "name": "Library of Congress"}, "text": "Resolving differences -- House actions: On motion that the House agree to the Senate amendment Agreed to by the Yeas and Nays: 254 - 175 (Roll no. 311).", "type": "NotUsed"}, {"actionCode": "H41400", "actionDate": "2021-09-30", "actionTime": "15:08:57", "sourceSystem": {"code": 2, "name": "House floor actions"}, "text": "The previous question was ordered pursuant to a previous order of the House.", "type": "ResolvingDifferences"}, {"actionCode": "H8D000", "actionDate": "2021-09-30", "actionTime": "14:33:13", "sourceSystem": {"code": 2, "name": "House floor actions"}, "text": "DEBATE - Pursuant to a previous order of the House, the House proceeded with one hour of debate on the motion to agree to the Senate amendment to H.R. 5305.", "type": "Floor"}, {"actionCode": "H40130", "actionDate": "2021-09-30", "actionTime": "14:32:41", "sourceSystem": {"code": 2, "name": "House floor actions"}, "text": "Pursuant to a previous special order the House moved to agree to the Senate amendment.", "type": "ResolvingDifferences"}, {"actionDate": "2021-09-30", "sourceSystem": {"name": "Senate"}, "text": "Message on Senate action sent to the House.", "type": "Floor"}, {"actionDate": "2021-09-30", "recordedVotes": [{"chamber": "Senate", "congress": 117, "date": "2021-09-30T17:55:04Z", "rollNumber": 397, "sessionNumber": 1, "url": "https://www.senate.gov/legislative/LIS/roll_call_votes/vote1171/vote_117_1_00397.xml"}], "sourceSystem": {"name": "Senate"}, "text": "Passed Senate, under the order of 9/29/21, having achieved 60 votes in the affirmative, with an amendment by Yea-Nay Vote. 65 - 35. Record Vote Number: 397.", "type": "Floor"}, {"actionCode": "17000", "actionDate": "2021-09-30", "recordedVotes": [{"chamber": "Senate", "congress": 117, "date": "2021-09-30T17:55:04Z", "rollNumber": 397, "sessionNumber": 1, "url": "https://www.senate.gov/legislative/LIS/roll_call_votes/vote1171/vote_117_1_00397.xml"}], "sourceSystem": {"code": 9, "name": "Library of Congress"}, "text": "Passed/agreed to in Senate: Passed Senate, under the order of 9/29/21, having achieved 60 votes in the affirmative, with an amendment by Yea-Nay Vote. 65 - 35. Record Vote Number: 397.", "type": "Floor"}, {"actionDate": "2021-09-30", "sourceSystem": {"name": "Senate"}, "text": "Cloture motion on the motion to proceed to the measure rendered moot in Senate.", "type": "Floor"}, {"actionDate": "2021-09-30", "sourceSystem": {"name": "Senate"}, "text": "Motion by Senator Schumer to reconsider the vote by which cloture on the motion to proceed to H.R. 5305 was not invoked (Record Vote No. 385) rendered moot in Senate.", "type": "Floor"}, {"actionDate": "2021-09-30", "sourceSystem": {"name": "Senate"}, "text": "Measure laid before Senate by unanimous consent. (consideration: CR S6801-6810)", "type": "Floor"}, {"actionCode": "H8D000", "actionDate": "2021-09-29", "actionTime": "17:55:13", "sourceSystem": {"code": 2, "name": "House floor actions"}, "text": "ORDER OF PROCEDURE - Mr. McGovern asked unanimous consent that it be in order at any time to take from the Speaker's table the bill H.R. 5305, with the Senate amendment thereto, and to consider in the House, without intervention of any point of order, a motion offered by the Chair of the Committee on Appropriations or her designee that the House concur in the Senate amendment; that the Senate amendment and the motion be considered as read; that the motion be debatable for one hour equally divided and controlled by the chair and the ranking minority member of the Committee on Appropriations or their respective designees; and that the previous question be considered as ordered on the motion to adoption without intervening motion. Agreed to without objection.", "type": "Floor"}, {"actionDate": "2021-09-27", "sourceSystem": {"name": "Senate"}, "text": "Motion by Senator Schumer to reconsider the vote by which cloture on the motion to proceed to H.R. 5305 was not invoked (Record Vote No. 385) entered in Senate.", "type": "Floor"}], "pagination": {"count": 43, "next": "https://api.congress.gov/v3/bill/117/hr/5305/actions?offset=20&limit=20&format=json"}, "request": {"billNumber": "5305", "billType": "hr", "billUrl": "https://api.congress.gov/v3/bill/117/hr/5305?format=json", "congress": "117", "contentType": "application/json", "format": "json"}}, 200]