[{"actions": [{"actionCode": "E40000", "actionDate": "2022-08-16", "sourceSystem": {"code": 9, "name": "Library of Congress"}, "text": "Became Public Law No: 117-171.", "type": "President"}, {"actionCode": "36000", "actionDate": "2022-08-16", "sourceSystem": {"code": 9, "name": "Library of Congress"}, "text": "Became Public Law No: 117-171.", "type": "BecameLaw"}, {"actionCode": "E30000", "actionDate": "2022-08-16", "sourceSystem": {"code": 9, "name": "Library of Congress"}, "text": "Signed by President.", "type": "President"}, {"actionCode": "36000", "actionDate": "2022-08-16", "sourceSystem": {"code": 9, "name": "Library of Congress"}, "text": "Signed by President.", "type": "BecameLaw"}, {"actionCode": "E20000", "actionDate": "2022-08-15", "sourceSystem": {"code": 2, "name": "House floor actions"}, "text": "Presented to President.", "type": "Floor"}, {"actionCode": "28000", "actionDate": "2022-08-15", "sourceSystem": {"code": 9, "name": "Library of Congress"}, "text": "Presented to President.", "type": "President"}, {"actionDate": "2022-08-03", "sourceSystem": {"name": "Senate"}, "text": "Message on Senate action sent to the House.", "type": "Floor"}, {"actionDate": "2022-08-02", "sourceSystem": {"name": "Senate"}, "text": "Passed Senate without amendment by Unanimous Consent. (consideration: CR S3857)", "type": "Floor"}, {"actionCode": "17000", "actionDate": "2022-08-02", "sourceSystem": {"code": 9, "name": "Library of Congress"}, "text": "Passed/agreed to in Senate: Passed Senate without amendment by Unanimous Consent.(consideration: CR S3857)", "type": "Floor"}, {"actionDate": "2022-07-28", "sourceSystem": {"name": "Senate"}, "text": "Received in the Senate, read twice.", "type": "IntroReferral"}, {"actionCode": "H37300", "actionDate": "2022-07-27", "actionTime": "18:19:14", "sourceSystem": {"code": 2, "name": "House floor actions"}, "text": "Pursuant to section 5 of H. Res. 1254, and the motion offered by Mr. Kildee, the following bills passed under suspension of the rules: H.R. 623, as amended; H.R. 3952, as amended; H.R. 3962, as amended; H.R. 4551; H.R. 5313, as amended; H.R. 6933; H.R. 7132, as amended; H.R. 7361; H.R. 7569; H.R. 7624, as amended; H.R. 7733, as amended; and H.R. 7981, as amended. (consideration: CR H7197-7211, H7219-7220, H7223-7237; text: 07/26/2022 CR H7112-7113)", "type": "Floor"}, {"actionCode": "8000", "actionDate": "2022-07-27", "actionTime": "18:19:14", "sourceSystem": {"code": 9, "name": "Library of Congress"}, "text": "Passed/agreed to in House: Pursuant to section 5 of H. Res. 1254, and the motion offered by Mr. Kildee, the following bills passed under suspension of the rules: H.R. 623, as amended; H.R. 3952, as amended; H.R. 3962, as amended; H.R. 4551; H.R. 5313, as amended; H.R. 6933; H.R. 7132, as amended; H.R. 7361; H.R. 7569; H.R. 7624, as amended; H.R. 7733, as amended; and H.R. 7981, as amended.(consideration: CR H7197-7211, H7219-7220, H7223-7237; text: 07/26/2022 CR H7112-7113)", "type": "Floor"}, {"actionCode": "H1B000", "actionDate": "2022-07-27", "actionTime": "18:19:13", "sourceSystem": {"code": 2, "name": "House floor actions"}, "text": "Pursuant to the provisions of H. Res. 1254, proceedings on H.R. 5313 are considered vacated.", "type": "Floor"}, {"actionCode": "H37220", "actionDate": "2022-07-26", "actionTime": "16:25:02", "sourceSystem": {"code": 2, "name": "House floor actions"}, "text": "At the conclusion of debate, the Yeas and Nays were demanded and ordered. Pursuant to the provisions of clause 8, rule XX, the Chair announced that further proceedings on the motion would be postponed.", "type": "Floor"}, {"actionCode": "H8D000", "actionDate": "2022-07-26", "actionTime": "16:12:13", "sourceSystem": {"code": 2, "name": "House floor actions"}, "text": "DEBATE - The House proceeded with forty minutes of debate on H.R. 5313.", "type": "Floor"}, {"actionCode": "H30000", "actionDate": "2022-07-26", "actionTime": "16:12:11", "sourceSystem": {"code": 2, "name": "House floor actions"}, "text": "Considered under suspension of the rules. (consideration: CR H7112-7115)", "type": "Floor"}, {"actionCode": "H30300", "actionDate": "2022-07-26", "actionTime": "16:12:09", "sourceSystem": {"code": 2, "name": "House floor actions"}, "text": "Mr. Pallone moved to suspend the rules and pass the bill, as amended.", "type": "Floor"}, {"actionCode": "H12410", "actionDate": "2022-07-26", "calendarNumber": {"calendar": "U00344"}, "sourceSystem": {"code": 2, "name": "House floor actions"}, "text": "Placed on the Union Calendar, Calendar No. 344.", "type": "Calendars"}, {"actionCode": "H12200", "actionDate": "2022-07-26", "committees": [{"name": "Energy and Commerce Committee", "systemCode": "hsif00", "url": "https://api.congress.gov/v3/committee/house/hsif00?format=json"}], "sourceSystem": {"code": 2, "name": "House floor actions"}, "text": "Reported (Amended) by the Committee on Energy and Commerce. H. Rept. 117-440.", "type": "Committee"}, {"actionCode": "5000", "actionDate": "2022-07-26", "committees": [{"name": "Energy and Commerce Committee", "systemCode": "hsif00", "url": "https://api.congress.gov/v3/committee/house/hsif00?format=json"}], "sourceSystem": {"code": 9, "name": "Library of Congress"}, "text": "Reported (Amended) by the Committee on Energy and Commerce. H. Rept. 117-440.", "type": "Committee"}], "pagination": {"count": 28, "next": "https://api.congress.gov/v3/bill/117/hr/5313/actions?offset=20&limit=20&format=json"}, "request": {"billNumber": "5313", "billType": "hr", "billUrl": "https://api.congress.gov/v3/bill/117/hr/5313?format=json", "congress": "117", "contentType": "application/json", "format": "json"}}, 200]