[{"actions": [{"actionDate": "2021-12-13", "sourceSystem": {"name": "Senate"}, "text": "Received in the Senate.", "type": "IntroReferral"}, {"actionCode": "H38900", "actionDate": "2021-12-09", "actionTime": "16:12:24", "sourceSystem": {"code": 2, "name": "House floor actions"}, "text": "The Clerk was authorized to correct section numbers, punctuation, and cross references, and to make other necessary technical and conforming corrections in the engrossment of H.R. 5314.", "type": "Floor"}, {"actionCode": "H38310", "actionDate": "2021-12-09", "actionTime": "16:11:10", "sourceSystem": {"code": 2, "name": "House floor actions"}, "text": "Motion to reconsider laid on the table Agreed to without objection.", "type": "Floor"}, {"actionCode": "H37100", "actionDate": "2021-12-09", "actionTime": "16:11:08", "recordedVotes": [{"chamber": "House", "congress": 117, "date": "2021-12-09T21:11:08Z", "rollNumber": 440, "sessionNumber": 1, "url": "https://clerk.house.gov/evs/2021/roll440.xml"}], "sourceSystem": {"code": 2, "name": "House floor actions"}, "text": "On passage Passed by the Yeas and Nays: 220 - 208 (Roll no. 440).", "type": "Floor"}, {"actionCode": "8000", "actionDate": "2021-12-09", "actionTime": "16:11:08", "recordedVotes": [{"chamber": "House", "congress": 117, "date": "2021-12-09T21:11:08Z", "rollNumber": 440, "sessionNumber": 1, "url": "https://clerk.house.gov/evs/2021/roll440.xml"}], "sourceSystem": {"code": 9, "name": "Library of Congress"}, "text": "Passed/agreed to in House: On passage Passed by the Yeas and Nays: 220 - 208 (Roll no. 440).", "type": "Floor"}, {"actionCode": "H36210", "actionDate": "2021-12-09", "actionTime": "15:59:45", "committees": [{"name": "Oversight and Accountability Committee", "systemCode": "hsgo00", "url": "https://api.congress.gov/v3/committee/house/hsgo00?format=json"}], "recordedVotes": [{"chamber": "House", "congress": 117, "date": "2021-12-09T20:59:45Z", "rollNumber": 439, "sessionNumber": 1, "url": "https://clerk.house.gov/evs/2021/roll439.xml"}], "sourceSystem": {"code": 2, "name": "House floor actions"}, "text": "On motion to recommit Failed by the Yeas and Nays: 212 - 217 (Roll no. 439).", "type": "Floor"}, {"actionCode": "H8A000", "actionDate": "2021-12-09", "actionTime": "15:48:40", "sourceSystem": {"code": 2, "name": "House floor actions"}, "text": "The previous question on the motion to recommit was ordered pursuant to clause 2(b) of rule XIX.", "type": "Floor"}, {"actionCode": "H36200", "actionDate": "2021-12-09", "actionTime": "15:48:20", "committees": [{"name": "Oversight and Accountability Committee", "systemCode": "hsgo00", "url": "https://api.congress.gov/v3/committee/house/hsgo00?format=json"}], "sourceSystem": {"code": 2, "name": "House floor actions"}, "text": "Mr. Davis, Rodney moved to recommit to the Committee on Oversight and Government Reform. (text: CR H7616)", "type": "Floor"}, {"actionCode": "H35000", "actionDate": "2021-12-09", "actionTime": "15:47:11", "sourceSystem": {"code": 2, "name": "House floor actions"}, "text": "The previous question was ordered pursuant to the rule.", "type": "Floor"}, {"actionCode": "H8D000", "actionDate": "2021-12-09", "actionTime": "14:41:56", "sourceSystem": {"code": 2, "name": "House floor actions"}, "text": "UNFINISHED BUSINESS - The Chair announced that the unfinished business was the question on agreeing to amendments which had been debated earlier and on which further proceedings had been postponed. (consideration: CR H7613)", "type": "Floor"}, {"actionCode": "H8D000", "actionDate": "2021-12-09", "actionTime": "14:41:38", "sourceSystem": {"code": 2, "name": "House floor actions"}, "text": "POSTPONED PROCEEDINGS - At the conclusion of debate on the Ocasio-Cortez amendment No. 25, the Chair put the question on adoption of the amendment and by voice vote, announced that the ayes had prevailed. Mr. Comer demanded the yeas and nays and the Chair postponed further proceedings until a time to be announced.", "type": "Floor"}, {"actionCode": "H8D000", "actionDate": "2021-12-09", "actionTime": "14:30:28", "sourceSystem": {"code": 2, "name": "House floor actions"}, "text": "DEBATE - Pursuant to the provisions of H. Res. 838, the House proceeded with 10 minutes of debate on the Ocasio-Cortez amendment No. 25.", "type": "Floor"}, {"actionCode": "H8D000", "actionDate": "2021-12-09", "actionTime": "14:29:33", "sourceSystem": {"code": 2, "name": "House floor actions"}, "text": "POSTPONED PROCEEDINGS - At the conclusion of debate on the Carolyn B. Maloney en bloc No. 2, the Chair put the question on adoption of the amendments and by voice vote, announced that the noes had prevailed. Mr. Comer demanded the yeas and nays and the Chair postponed further proceedings until a time to be announced.", "type": "Floor"}, {"actionCode": "H8D000", "actionDate": "2021-12-09", "actionTime": "14:14:11", "sourceSystem": {"code": 2, "name": "House floor actions"}, "text": "DEBATE - Pursuant to the provisions of H. Res. 838, the House proceeded with 20 minutes of debate on the Carolyn B. Maloney amendment en bloc No. 2.", "type": "Floor"}, {"actionCode": "H8D000", "actionDate": "2021-12-09", "actionTime": "14:13:12", "sourceSystem": {"code": 2, "name": "House floor actions"}, "text": "POSTPONED PROCEEDINGS - At the conclusion of debate on the Carolyn B. Maloney en bloc No. 1, the Chair put the question on adoption of the amendments and by voice vote, announced that the ayes had prevailed. Mr. Comer demanded the yeas and nays and the Chair postponed further proceedings until a time to be announced.", "type": "Floor"}, {"actionCode": "H8D000", "actionDate": "2021-12-09", "actionTime": "13:44:34", "sourceSystem": {"code": 2, "name": "House floor actions"}, "text": "DEBATE - Pursuant to the provisions of H. Res. 838, the House proceeded with 20 minutes of debate on the Carolyn B. Maloney amendment en bloc No. 1.", "type": "Floor"}, {"actionCode": "H8D000", "actionDate": "2021-12-09", "actionTime": "12:41:15", "sourceSystem": {"code": 2, "name": "House floor actions"}, "text": "DEBATE - The House continued with debate on H.R. 5314.", "type": "Floor"}, {"actionCode": "H8D000", "actionDate": "2021-12-09", "actionTime": "12:32:08", "sourceSystem": {"code": 2, "name": "House floor actions"}, "text": "DEBATE - The House proceeded with one hour of debate on H.R. 5314.", "type": "Floor"}, {"actionCode": "H8D000", "actionDate": "2021-12-09", "actionTime": "12:31:17", "sourceSystem": {"code": 2, "name": "House floor actions"}, "text": "Rule provides for consideration of H.R. 5314, S. 1605 and S. 610 with 1 hour of general debate. Previous question shall be considered as ordered without intervening motions except motion to recommit. Measure will be considered read. Specified amendments are in order. Rule makes in order for the Speaker may entertain motions offered by the Majority Leader or a designee that the House suspend the rules as though under clause 1 of rule XV with respect to multiple measures that were the object of motions to suspend the rules on certain legislative days.", "type": "Floor"}, {"actionCode": "H30000", "actionDate": "2021-12-09", "actionTime": "12:31:12", "sourceSystem": {"code": 2, "name": "House floor actions"}, "text": "Considered under the provisions of rule H. Res. 838. (consideration: CR H7562-7617)", "type": "Floor"}], "pagination": {"count": 33, "next": "https://api.congress.gov/v3/bill/117/hr/5314/actions?offset=20&limit=20&format=json"}, "request": {"billNumber": "5314", "billType": "hr", "billUrl": "https://api.congress.gov/v3/bill/117/hr/5314?format=json", "congress": "117", "contentType": "application/json", "format": "json"}}, 200]