[{"actions": [{"actionDate": "2022-12-15", "sourceSystem": {"name": "Senate"}, "text": "Message on Senate action sent to the House.", "type": "Floor"}, {"actionDate": "2022-12-14", "sourceSystem": {"name": "Senate"}, "text": "Passed Senate with an amendment by Unanimous Consent. (consideration: CR S7188; text: CR S7188)", "type": "Floor"}, {"actionCode": "17000", "actionDate": "2022-12-14", "sourceSystem": {"code": 9, "name": "Library of Congress"}, "text": "Passed/agreed to in Senate: Passed Senate with an amendment by Unanimous Consent.", "type": "Floor"}, {"actionDate": "2022-11-16", "calendarNumber": {"calendar": "Senate Calendar of Business", "number": "0550"}, "sourceSystem": {"name": "Senate"}, "text": "Placed on Senate Legislative Calendar under General Orders. Calendar No. 550.", "type": "Calendars"}, {"actionDate": "2022-11-16", "committees": [{"name": "Homeland Security and Governmental Affairs Committee", "systemCode": "ssga00", "url": "https://api.congress.gov/v3/committee/senate/ssga00?format=json"}], "sourceSystem": {"name": "Senate"}, "text": "Committee on Homeland Security and Governmental Affairs. Reported by Senator Peters with an amendment in the nature of a substitute. With written report No. 117-199.", "type": "Committee"}, {"actionCode": "14000", "actionDate": "2022-11-16", "committees": [{"name": "Homeland Security and Governmental Affairs Committee", "systemCode": "ssga00", "url": "https://api.congress.gov/v3/committee/senate/ssga00?format=json"}], "sourceSystem": {"code": 9, "name": "Library of Congress"}, "text": "Committee on Homeland Security and Governmental Affairs. Reported by Senator Peters with an amendment in the nature of a substitute. With written report No. 117-199.", "type": "Committee"}, {"actionDate": "2022-05-25", "committees": [{"name": "Homeland Security and Governmental Affairs Committee", "systemCode": "ssga00", "url": "https://api.congress.gov/v3/committee/senate/ssga00?format=json"}], "sourceSystem": {"name": "Senate"}, "text": "Committee on Homeland Security and Governmental Affairs. Ordered to be reported with an amendment in the nature of a substitute favorably.", "type": "Committee"}, {"actionDate": "2022-05-16", "sourceSystem": {"name": "Senate"}, "text": "Star Print ordered on the bill.", "type": "Floor"}, {"actionDate": "2022-03-31", "committees": [{"name": "Homeland Security and Governmental Affairs Committee", "systemCode": "ssga00", "url": "https://api.congress.gov/v3/committee/senate/ssga00?format=json"}], "sourceSystem": {"name": "Senate"}, "text": "Received in the Senate and Read twice and referred to the Committee on Homeland Security and Governmental Affairs.", "type": "IntroReferral"}, {"actionCode": "H38800", "actionDate": "2022-03-30", "actionTime": "15:26:36", "sourceSystem": {"code": 2, "name": "House floor actions"}, "text": "The title of the measure was amended. Agreed to without objection.", "type": "Floor"}, {"actionCode": "H38310", "actionDate": "2022-03-30", "actionTime": "15:26:33", "sourceSystem": {"code": 2, "name": "House floor actions"}, "text": "Motion to reconsider laid on the table Agreed to without objection.", "type": "Floor"}, {"actionCode": "H37300", "actionDate": "2022-03-30", "actionTime": "15:26:32", "recordedVotes": [{"chamber": "House", "congress": 117, "date": "2022-03-30T19:26:32Z", "rollNumber": 93, "sessionNumber": 2, "url": "https://clerk.house.gov/evs/2022/roll093.xml"}], "sourceSystem": {"code": 2, "name": "House floor actions"}, "text": "On motion to suspend the rules and pass the bill, as amended Agreed to by the Yeas and Nays: (2/3 required): 409 - 17 (Roll no. 93). (text: CR H3990)", "type": "Floor"}, {"actionCode": "8000", "actionDate": "2022-03-30", "actionTime": "15:26:32", "recordedVotes": [{"chamber": "House", "congress": 117, "date": "2022-03-30T19:26:32Z", "rollNumber": 93, "sessionNumber": 2, "url": "https://clerk.house.gov/evs/2022/roll093.xml"}], "sourceSystem": {"code": 9, "name": "Library of Congress"}, "text": "Passed/agreed to in House: On motion to suspend the rules and pass the bill, as amended Agreed to by the Yeas and Nays: (2/3 required): 409 - 17 (Roll no. 93).(text: CR H3990)", "type": "Floor"}, {"actionCode": "H30000", "actionDate": "2022-03-30", "actionTime": "15:17:44", "sourceSystem": {"code": 2, "name": "House floor actions"}, "text": "Considered as unfinished business. (consideration: CR H3998)", "type": "Floor"}, {"actionCode": "H37220", "actionDate": "2022-03-30", "actionTime": "12:42:32", "sourceSystem": {"code": 2, "name": "House floor actions"}, "text": "At the conclusion of debate, the Yeas and Nays were demanded and ordered. Pursuant to the provisions of clause 8, rule XX, the Chair announced that further proceedings on the motion would be postponed.", "type": "Floor"}, {"actionCode": "H8D000", "actionDate": "2022-03-30", "actionTime": "12:36:11", "sourceSystem": {"code": 2, "name": "House floor actions"}, "text": "DEBATE - The House proceeded with forty minutes of debate on H.R. 5343.", "type": "Floor"}, {"actionCode": "H30000", "actionDate": "2022-03-30", "actionTime": "12:36:08", "sourceSystem": {"code": 2, "name": "House floor actions"}, "text": "Considered under suspension of the rules. (consideration: CR H3990)", "type": "Floor"}, {"actionCode": "H30300", "actionDate": "2022-03-30", "actionTime": "12:35:56", "sourceSystem": {"code": 2, "name": "House floor actions"}, "text": "Ms. Williams (GA) moved to suspend the rules and pass the bill, as amended.", "type": "Floor"}, {"actionCode": "H12410", "actionDate": "2022-03-29", "calendarNumber": {"calendar": "U00208"}, "sourceSystem": {"code": 2, "name": "House floor actions"}, "text": "Placed on the Union Calendar, Calendar No. 208.", "type": "Calendars"}, {"actionCode": "H12200", "actionDate": "2022-03-29", "committees": [{"name": "Transportation and Infrastructure Committee", "systemCode": "hspw00", "url": "https://api.congress.gov/v3/committee/house/hspw00?format=json"}], "sourceSystem": {"code": 2, "name": "House floor actions"}, "text": "Reported (Amended) by the Committee on Transportation and Infrastructure. H. Rept. 117-281.", "type": "Committee"}], "pagination": {"count": 28, "next": "https://api.congress.gov/v3/bill/117/hr/5343/actions?offset=20&limit=20&format=json"}, "request": {"billNumber": "5343", "billType": "hr", "billUrl": "https://api.congress.gov/v3/bill/117/hr/5343?format=json", "congress": "117", "contentType": "application/json", "format": "json"}}, 200]