[{"actions": [{"actionCode": "E40000", "actionDate": "2022-08-16", "sourceSystem": {"code": 9, "name": "Library of Congress"}, "text": "Became Public Law No: 117-169.", "type": "President"}, {"actionCode": "36000", "actionDate": "2022-08-16", "sourceSystem": {"code": 9, "name": "Library of Congress"}, "text": "Became Public Law No: 117-169.", "type": "BecameLaw"}, {"actionCode": "E30000", "actionDate": "2022-08-16", "sourceSystem": {"code": 9, "name": "Library of Congress"}, "text": "Signed by President.", "type": "President"}, {"actionCode": "36000", "actionDate": "2022-08-16", "sourceSystem": {"code": 9, "name": "Library of Congress"}, "text": "Signed by President.", "type": "BecameLaw"}, {"actionCode": "E20000", "actionDate": "2022-08-15", "sourceSystem": {"code": 2, "name": "House floor actions"}, "text": "Presented to President.", "type": "Floor"}, {"actionCode": "28000", "actionDate": "2022-08-15", "sourceSystem": {"code": 9, "name": "Library of Congress"}, "text": "Presented to President.", "type": "President"}, {"actionCode": "H41931", "actionDate": "2022-08-12", "actionTime": "17:42:17", "sourceSystem": {"code": 2, "name": "House floor actions"}, "text": "Motion to reconsider laid on the table Agreed to without objection.", "type": "ResolvingDifferences"}, {"actionCode": "H41610", "actionDate": "2022-08-12", "actionTime": "17:42:15", "recordedVotes": [{"chamber": "House", "congress": 117, "date": "2022-08-12T21:42:15Z", "rollNumber": 420, "sessionNumber": 2, "url": "https://clerk.house.gov/evs/2022/roll420.xml"}], "sourceSystem": {"code": 2, "name": "House floor actions"}, "text": "On motion that the House agree to the Senate amendment Agreed to by the Yeas and Nays: 220 - 207 (Roll no. 420). (text: CR H7577-7646)", "type": "ResolvingDifferences"}, {"actionCode": "19500", "actionDate": "2022-08-12", "recordedVotes": [{"chamber": "House", "congress": 117, "date": "2022-08-12T21:42:15Z", "rollNumber": 420, "sessionNumber": 2, "url": "https://clerk.house.gov/evs/2022/roll420.xml"}], "sourceSystem": {"code": 9, "name": "Library of Congress"}, "text": "Resolving differences -- House actions: On motion that the House agree to the Senate amendment Agreed to by the Yeas and Nays: 220 - 207 (Roll no. 420).", "type": "NotUsed"}, {"actionCode": "H41400", "actionDate": "2022-08-12", "actionTime": "17:04:04", "sourceSystem": {"code": 2, "name": "House floor actions"}, "text": "The previous question was ordered pursuant to the rule.", "type": "ResolvingDifferences"}, {"actionCode": "H8D000", "actionDate": "2022-08-12", "actionTime": "11:53:47", "sourceSystem": {"code": 2, "name": "House floor actions"}, "text": "Pursuant to the provisions of H.Res.1316, House proceeded with 3 hours of debate on the Yarmuth motion to agree to the Senate amendment to H.R. 5376.", "type": "Floor"}, {"actionCode": "H40150", "actionDate": "2022-08-12", "actionTime": "11:53:29", "sourceSystem": {"code": 2, "name": "House floor actions"}, "text": "Mr. Yarmuth moved that the House agree to the Senate amendment. (consideration: CR H7577-7704)", "type": "ResolvingDifferences"}, {"actionDate": "2022-08-08", "sourceSystem": {"name": "Senate"}, "text": "Message on Senate action sent to the House.", "type": "Floor"}, {"actionDate": "2022-08-07", "recordedVotes": [{"chamber": "Senate", "congress": 117, "date": "2022-08-07T19:18:25Z", "rollNumber": 325, "sessionNumber": 2, "url": "https://www.senate.gov/legislative/LIS/roll_call_votes/vote1172/vote_117_2_00325.xml"}], "sourceSystem": {"name": "Senate"}, "text": "Passed Senate with an amendment by Yea-Nay Vote. 51 - 50. Record Vote Number: 325.", "type": "Floor"}, {"actionCode": "17000", "actionDate": "2022-08-07", "recordedVotes": [{"chamber": "Senate", "congress": 117, "date": "2022-08-07T19:18:25Z", "rollNumber": 325, "sessionNumber": 2, "url": "https://www.senate.gov/legislative/LIS/roll_call_votes/vote1172/vote_117_2_00325.xml"}], "sourceSystem": {"code": 9, "name": "Library of Congress"}, "text": "Passed/agreed to in Senate: Passed Senate with an amendment by Yea-Nay Vote. 51 - 50. Record Vote Number: 325.", "type": "Floor"}, {"actionDate": "2022-08-07", "committees": [{"name": "Judiciary Committee", "systemCode": "ssju00", "url": "https://api.congress.gov/v3/committee/senate/ssju00?format=json"}], "recordedVotes": [{"chamber": "Senate", "congress": 117, "date": "2022-08-07T18:31:20Z", "rollNumber": 322, "sessionNumber": 2, "url": "https://www.senate.gov/legislative/LIS/roll_call_votes/vote1172/vote_117_2_00322.xml"}], "sourceSystem": {"name": "Senate"}, "text": "Motion by Senator Hagerty to commit to Senate Committee on the Judiciary with instructions rejected in Senate by Yea-Nay Vote. 50 - 50. Record Vote Number: 322. (CR S4199)", "type": "Floor"}, {"actionDate": "2022-08-07", "committees": [{"name": "Health, Education, Labor, and Pensions Committee", "systemCode": "sshr00", "url": "https://api.congress.gov/v3/committee/senate/sshr00?format=json"}], "recordedVotes": [{"chamber": "Senate", "congress": 117, "date": "2022-08-07T17:02:39Z", "rollNumber": 319, "sessionNumber": 2, "url": "https://www.senate.gov/legislative/LIS/roll_call_votes/vote1172/vote_117_2_00319.xml"}], "sourceSystem": {"name": "Senate"}, "text": "Motion by Senator Rubio to commit to Senate Committee on Health, Education, Labor, and Pensions with instructions rejected in Senate by Yea-Nay Vote. 50 - 50. Record Vote Number: 319. (CR S4196-4197)", "type": "Floor"}, {"actionDate": "2022-08-07", "committees": [{"name": "Agriculture, Nutrition, and Forestry Committee", "systemCode": "ssaf00", "url": "https://api.congress.gov/v3/committee/senate/ssaf00?format=json"}], "recordedVotes": [{"chamber": "Senate", "congress": 117, "date": "2022-08-07T16:43:45Z", "rollNumber": 318, "sessionNumber": 2, "url": "https://www.senate.gov/legislative/LIS/roll_call_votes/vote1172/vote_117_2_00318.xml"}], "sourceSystem": {"name": "Senate"}, "text": "Motion by Senator Blackburn to commit to Senate Committee on Agriculture, Nutrition, and Forestry with instructions rejected in Senate by Yea-Nay Vote. 50 - 50. Record Vote Number: 318. (CR S4196)", "type": "Floor"}, {"actionDate": "2022-08-07", "committees": [{"name": "Finance Committee", "systemCode": "ssfi00", "url": "https://api.congress.gov/v3/committee/senate/ssfi00?format=json"}], "recordedVotes": [{"chamber": "Senate", "congress": 117, "date": "2022-08-07T16:01:58Z", "rollNumber": 317, "sessionNumber": 2, "url": "https://www.senate.gov/legislative/LIS/roll_call_votes/vote1172/vote_117_2_00317.xml"}], "sourceSystem": {"name": "Senate"}, "text": "Motion by Senator Hoeven to commit to Senate Committee on Finance with instructions rejected in Senate by Yea-Nay Vote. 50 - 50. Record Vote Number: 317. (CR S4195)", "type": "Floor"}, {"actionDate": "2022-08-07", "committees": [{"name": "Judiciary Committee", "systemCode": "ssju00", "url": "https://api.congress.gov/v3/committee/senate/ssju00?format=json"}], "recordedVotes": [{"chamber": "Senate", "congress": 117, "date": "2022-08-07T15:38:02Z", "rollNumber": 316, "sessionNumber": 2, "url": "https://www.senate.gov/legislative/LIS/roll_call_votes/vote1172/vote_117_2_00316.xml"}], "sourceSystem": {"name": "Senate"}, "text": "Motion by Senator Cruz to commit to Senate Committee on the Judiciary with instructions rejected in Senate by Yea-Nay Vote. 50 - 50. Record Vote Number: 316. (CR S4194-4195)", "type": "Floor"}], "pagination": {"count": 57, "next": "https://api.congress.gov/v3/bill/117/hr/5376/actions?offset=20&limit=20&format=json"}, "request": {"billNumber": "5376", "billType": "hr", "billUrl": "https://api.congress.gov/v3/bill/117/hr/5376?format=json", "congress": "117", "contentType": "application/json", "format": "json"}}, 200]