[{"actions": [{"actionCode": "E40000", "actionDate": "2021-10-02", "sourceSystem": {"code": 9, "name": "Library of Congress"}, "text": "Became Public Law No: 117-44.", "type": "President"}, {"actionCode": "36000", "actionDate": "2021-10-02", "sourceSystem": {"code": 9, "name": "Library of Congress"}, "text": "Became Public Law No: 117-44.", "type": "BecameLaw"}, {"actionCode": "E30000", "actionDate": "2021-10-02", "sourceSystem": {"code": 9, "name": "Library of Congress"}, "text": "Signed by President.", "type": "President"}, {"actionCode": "36000", "actionDate": "2021-10-02", "sourceSystem": {"code": 9, "name": "Library of Congress"}, "text": "Signed by President.", "type": "BecameLaw"}, {"actionCode": "E20000", "actionDate": "2021-10-02", "sourceSystem": {"code": 2, "name": "House floor actions"}, "text": "Presented to President.", "type": "Floor"}, {"actionCode": "28000", "actionDate": "2021-10-02", "sourceSystem": {"code": 9, "name": "Library of Congress"}, "text": "Presented to President.", "type": "President"}, {"actionDate": "2021-10-02", "sourceSystem": {"name": "Senate"}, "text": "Message on Senate action sent to the House.", "type": "Floor"}, {"actionDate": "2021-10-02", "sourceSystem": {"name": "Senate"}, "text": "Received in the Senate, read twice, considered, read the third time, and passed without amendment by Unanimous Consent. (consideration: CR S6878)", "type": "Floor"}, {"actionCode": "17000", "actionDate": "2021-10-02", "sourceSystem": {"code": 9, "name": "Library of Congress"}, "text": "Passed/agreed to in Senate: Received in the Senate, read twice, considered, read the third time, and passed without amendment by Unanimous Consent.(consideration: CR S6878)", "type": "Floor"}, {"actionCode": "H38310", "actionDate": "2021-10-01", "actionTime": "20:13:18", "sourceSystem": {"code": 2, "name": "House floor actions"}, "text": "Motion to reconsider laid on the table Agreed to without objection.", "type": "Floor"}, {"actionCode": "H37300", "actionDate": "2021-10-01", "actionTime": "20:13:17", "recordedVotes": [{"chamber": "House", "congress": 117, "date": "2021-10-02T00:13:17Z", "rollNumber": 313, "sessionNumber": 1, "url": "https://clerk.house.gov/evs/2021/roll313.xml"}], "sourceSystem": {"code": 2, "name": "House floor actions"}, "text": "On motion to suspend the rules and pass the bill Agreed to by the Yeas and Nays: (2/3 required): 365 - 51 (Roll no. 313). (text: CR H5586-5587)", "type": "Floor"}, {"actionCode": "8000", "actionDate": "2021-10-01", "actionTime": "20:13:17", "recordedVotes": [{"chamber": "House", "congress": 117, "date": "2021-10-02T00:13:17Z", "rollNumber": 313, "sessionNumber": 1, "url": "https://clerk.house.gov/evs/2021/roll313.xml"}], "sourceSystem": {"code": 9, "name": "Library of Congress"}, "text": "Passed/agreed to in House: On motion to suspend the rules and pass the bill Agreed to by the Yeas and Nays: (2/3 required): 365 - 51 (Roll no. 313).(text: CR H5586-5587)", "type": "Floor"}, {"actionCode": "H8D000", "actionDate": "2021-10-01", "actionTime": "19:21:08", "sourceSystem": {"code": 2, "name": "House floor actions"}, "text": "DEBATE - The House proceeded with forty minutes of debate on H.R. 5434.", "type": "Floor"}, {"actionCode": "H30000", "actionDate": "2021-10-01", "actionTime": "19:21:06", "sourceSystem": {"code": 2, "name": "House floor actions"}, "text": "Considered under suspension of the rules. (consideration: CR H5585-5589)", "type": "Floor"}, {"actionCode": "H30300", "actionDate": "2021-10-01", "actionTime": "19:20:38", "sourceSystem": {"code": 2, "name": "House floor actions"}, "text": "Mr. DeFazio moved to suspend the rules and pass the bill.", "type": "Floor"}, {"actionCode": "H11000", "actionDate": "2021-10-01", "committees": [{"name": "Energy, Climate and Grid Security Subcommittee", "systemCode": "hsif03", "url": "https://api.congress.gov/v3/committee/house/hsif03?format=json"}], "sourceSystem": {"code": 1, "name": "House committee actions"}, "text": "Referred to the Subcommittee on Energy.", "type": "Committee"}, {"actionCode": "H11100", "actionDate": "2021-09-30", "committees": [{"name": "Oversight and Accountability Committee", "systemCode": "hsgo00", "url": "https://api.congress.gov/v3/committee/house/hsgo00?format=json"}], "sourceSystem": {"code": 2, "name": "House floor actions"}, "text": "Referred to the Committee on Transportation and Infrastructure, and in addition to the Committees on Ways and Means, Natural Resources, Science, Space, and Technology, Energy and Commerce, and Oversight and Reform, for a period to be subsequently determined by the Speaker, in each case for consideration of such provisions as fall within the jurisdiction of the committee concerned.", "type": "IntroReferral"}, {"actionCode": "H11100", "actionDate": "2021-09-30", "committees": [{"name": "Energy and Commerce Committee", "systemCode": "hsif00", "url": "https://api.congress.gov/v3/committee/house/hsif00?format=json"}], "sourceSystem": {"code": 2, "name": "House floor actions"}, "text": "Referred to the Committee on Transportation and Infrastructure, and in addition to the Committees on Ways and Means, Natural Resources, Science, Space, and Technology, Energy and Commerce, and Oversight and Reform, for a period to be subsequently determined by the Speaker, in each case for consideration of such provisions as fall within the jurisdiction of the committee concerned.", "type": "IntroReferral"}, {"actionCode": "H11100", "actionDate": "2021-09-30", "committees": [{"name": "Science, Space, and Technology Committee", "systemCode": "hssy00", "url": "https://api.congress.gov/v3/committee/house/hssy00?format=json"}], "sourceSystem": {"code": 2, "name": "House floor actions"}, "text": "Referred to the Committee on Transportation and Infrastructure, and in addition to the Committees on Ways and Means, Natural Resources, Science, Space, and Technology, Energy and Commerce, and Oversight and Reform, for a period to be subsequently determined by the Speaker, in each case for consideration of such provisions as fall within the jurisdiction of the committee concerned.", "type": "IntroReferral"}, {"actionCode": "H11100", "actionDate": "2021-09-30", "committees": [{"name": "Natural Resources Committee", "systemCode": "hsii00", "url": "https://api.congress.gov/v3/committee/house/hsii00?format=json"}], "sourceSystem": {"code": 2, "name": "House floor actions"}, "text": "Referred to the Committee on Transportation and Infrastructure, and in addition to the Committees on Ways and Means, Natural Resources, Science, Space, and Technology, Energy and Commerce, and Oversight and Reform, for a period to be subsequently determined by the Speaker, in each case for consideration of such provisions as fall within the jurisdiction of the committee concerned.", "type": "IntroReferral"}], "pagination": {"count": 24, "next": "https://api.congress.gov/v3/bill/117/hr/5434/actions?offset=20&limit=20&format=json"}, "request": {"billNumber": "5434", "billType": "hr", "billUrl": "https://api.congress.gov/v3/bill/117/hr/5434?format=json", "congress": "117", "contentType": "application/json", "format": "json"}}, 200]