[{"actions": [{"actionCode": "E40000", "actionDate": "2021-12-21", "sourceSystem": {"code": 9, "name": "Library of Congress"}, "text": "Became Public Law No: 117-76.", "type": "President"}, {"actionCode": "36000", "actionDate": "2021-12-21", "sourceSystem": {"code": 9, "name": "Library of Congress"}, "text": "Became Public Law No: 117-76.", "type": "BecameLaw"}, {"actionCode": "E30000", "actionDate": "2021-12-21", "sourceSystem": {"code": 9, "name": "Library of Congress"}, "text": "Signed by President.", "type": "President"}, {"actionCode": "36000", "actionDate": "2021-12-21", "sourceSystem": {"code": 9, "name": "Library of Congress"}, "text": "Signed by President.", "type": "BecameLaw"}, {"actionCode": "E20000", "actionDate": "2021-12-20", "sourceSystem": {"code": 2, "name": "House floor actions"}, "text": "Presented to President.", "type": "Floor"}, {"actionCode": "28000", "actionDate": "2021-12-20", "sourceSystem": {"code": 9, "name": "Library of Congress"}, "text": "Presented to President.", "type": "President"}, {"actionDate": "2021-12-16", "sourceSystem": {"name": "Senate"}, "text": "Message on Senate action sent to the House.", "type": "Floor"}, {"actionDate": "2021-12-15", "sourceSystem": {"name": "Senate"}, "text": "Passed Senate without amendment by Voice Vote. (consideration: CR S9216-9217)", "type": "Floor"}, {"actionCode": "17000", "actionDate": "2021-12-15", "sourceSystem": {"code": 9, "name": "Library of Congress"}, "text": "Passed/agreed to in Senate: Passed Senate without amendment by Voice Vote.(consideration: CR S9216-9217)", "type": "Floor"}, {"actionDate": "2021-12-09", "sourceSystem": {"name": "Senate"}, "text": "Received in the Senate, read twice.", "type": "IntroReferral"}, {"actionCode": "H38800", "actionDate": "2021-12-08", "actionTime": "10:35:53", "sourceSystem": {"code": 2, "name": "House floor actions"}, "text": "The title of the measure was amended. Agreed to without objection.", "type": "Floor"}, {"actionCode": "H38310", "actionDate": "2021-12-08", "actionTime": "10:35:49", "sourceSystem": {"code": 2, "name": "House floor actions"}, "text": "Motion to reconsider laid on the table Agreed to without objection.", "type": "Floor"}, {"actionCode": "H37300", "actionDate": "2021-12-08", "actionTime": "10:35:40", "sourceSystem": {"code": 2, "name": "House floor actions"}, "text": "On motion to suspend the rules and pass the bill, as amended Agreed to by voice vote. (text: CR H7468-7469)", "type": "Floor"}, {"actionCode": "8000", "actionDate": "2021-12-08", "actionTime": "10:35:40", "sourceSystem": {"code": 9, "name": "Library of Congress"}, "text": "Passed/agreed to in House: On motion to suspend the rules and pass the bill, as amended Agreed to by voice vote.(text: CR H7468-7469)", "type": "Floor"}, {"actionCode": "H8D000", "actionDate": "2021-12-08", "actionTime": "10:21:17", "sourceSystem": {"code": 2, "name": "House floor actions"}, "text": "DEBATE - The House proceeded with forty minutes of debate on H.R. 5545.", "type": "Floor"}, {"actionCode": "H30000", "actionDate": "2021-12-08", "actionTime": "10:21:04", "sourceSystem": {"code": 2, "name": "House floor actions"}, "text": "Considered under suspension of the rules. (consideration: CR H7468-7470)", "type": "Floor"}, {"actionCode": "H30300", "actionDate": "2021-12-08", "actionTime": "10:20:46", "sourceSystem": {"code": 2, "name": "House floor actions"}, "text": "Mr. Takano moved to suspend the rules and pass the bill, as amended.", "type": "Floor"}, {"actionCode": "H11000", "actionDate": "2021-10-25", "committees": [{"name": "Economic Opportunity Subcommittee", "systemCode": "hsvr10", "url": "https://api.congress.gov/v3/committee/house/hsvr10?format=json"}], "sourceSystem": {"code": 1, "name": "House committee actions"}, "text": "Referred to the Subcommittee on Economic Opportunity.", "type": "Committee"}, {"actionCode": "H11100", "actionDate": "2021-10-08", "committees": [{"name": "Budget Committee", "systemCode": "hsbu00", "url": "https://api.congress.gov/v3/committee/house/hsbu00?format=json"}], "sourceSystem": {"code": 2, "name": "House floor actions"}, "text": "Referred to the Committee on Veterans' Affairs, and in addition to the Committee on the Budget, for a period to be subsequently determined by the Speaker, in each case for consideration of such provisions as fall within the jurisdiction of the committee concerned.", "type": "IntroReferral"}, {"actionCode": "H11100", "actionDate": "2021-10-08", "committees": [{"name": "Veterans' Affairs Committee", "systemCode": "hsvr00", "url": "https://api.congress.gov/v3/committee/house/hsvr00?format=json"}], "sourceSystem": {"code": 2, "name": "House floor actions"}, "text": "Referred to the Committee on Veterans' Affairs, and in addition to the Committee on the Budget, for a period to be subsequently determined by the Speaker, in each case for consideration of such provisions as fall within the jurisdiction of the committee concerned.", "type": "IntroReferral"}], "pagination": {"count": 22, "next": "https://api.congress.gov/v3/bill/117/hr/5545/actions?offset=20&limit=20&format=json"}, "request": {"billNumber": "5545", "billType": "hr", "billUrl": "https://api.congress.gov/v3/bill/117/hr/5545?format=json", "congress": "117", "contentType": "application/json", "format": "json"}}, 200]