[{"actions": [{"actionDate": "2022-06-23", "committees": [{"name": "Health, Education, Labor, and Pensions Committee", "systemCode": "sshr00", "url": "https://api.congress.gov/v3/committee/senate/sshr00?format=json"}], "sourceSystem": {"name": "Senate"}, "text": "Received in the Senate and Read twice and referred to the Committee on Health, Education, Labor, and Pensions.", "type": "IntroReferral"}, {"actionCode": "H38310", "actionDate": "2022-06-22", "actionTime": "18:44:54", "sourceSystem": {"code": 2, "name": "House floor actions"}, "text": "Motion to reconsider laid on the table Agreed to without objection.", "type": "Floor"}, {"actionCode": "H37100", "actionDate": "2022-06-22", "actionTime": "18:44:52", "recordedVotes": [{"chamber": "House", "congress": 117, "date": "2022-06-22T22:44:52Z", "rollNumber": 288, "sessionNumber": 2, "url": "https://clerk.house.gov/evs/2022/roll288.xml"}], "sourceSystem": {"code": 2, "name": "House floor actions"}, "text": "On passage Passed by the Yeas and Nays: 336 - 85 (Roll no. 288).", "type": "Floor"}, {"actionCode": "8000", "actionDate": "2022-06-22", "actionTime": "18:44:52", "recordedVotes": [{"chamber": "House", "congress": 117, "date": "2022-06-22T22:44:52Z", "rollNumber": 288, "sessionNumber": 2, "url": "https://clerk.house.gov/evs/2022/roll288.xml"}], "sourceSystem": {"code": 9, "name": "Library of Congress"}, "text": "Passed/agreed to in House: On passage Passed by the Yeas and Nays: 336 - 85 (Roll no. 288).", "type": "Floor"}, {"actionCode": "H30000", "actionDate": "2022-06-22", "actionTime": "18:28:40", "sourceSystem": {"code": 2, "name": "House floor actions"}, "text": "Considered as unfinished business. (consideration: CR H5808-5809)", "type": "Floor"}, {"actionCode": "H8D000", "actionDate": "2022-06-22", "actionTime": "18:28:39", "sourceSystem": {"code": 2, "name": "House floor actions"}, "text": "Pursuant to clause 1(c) of rule XIX, the Chair announced that further proceedings on H.R. 5585 would resume.", "type": "Floor"}, {"actionCode": "H8D000", "actionDate": "2022-06-22", "actionTime": "16:48:19", "sourceSystem": {"code": 2, "name": "House floor actions"}, "text": "Pursuant to clause 1(c) of rule XIX, the Chair announced that further proceedings on H.R. 5585 would be postponed.", "type": "Floor"}, {"actionCode": "H8D000", "actionDate": "2022-06-22", "actionTime": "16:47:44", "sourceSystem": {"code": 2, "name": "House floor actions"}, "text": "POSTPONED PROCEEDINGS - At the conclusion of debate on the Eshoo amendment, the Chair put the question on adoption of the amendment and by voice vote, announced that the ayes had prevailed. Mrs. Boebert demanded the yeas and nays and the Chair postponed further proceedings until a time to be announced.", "type": "Floor"}, {"actionCode": "H8D000", "actionDate": "2022-06-22", "actionTime": "16:44:31", "sourceSystem": {"code": 2, "name": "House floor actions"}, "text": "DEBATE - Pursuant to the provisions of H. Res. 1170, the House proceeded with 10 minutes of debate on the Eshoo amendment No. 1.", "type": "Floor"}, {"actionCode": "H8D000", "actionDate": "2022-06-22", "actionTime": "16:10:06", "sourceSystem": {"code": 2, "name": "House floor actions"}, "text": "DEBATE - The House proceeded with one hour of debate on H.R. 5585.", "type": "Floor"}, {"actionCode": "H8D000", "actionDate": "2022-06-22", "actionTime": "16:08:48", "sourceSystem": {"code": 2, "name": "House floor actions"}, "text": "Rule provides for consideration of H.R. 4176, H.R. 5585 and H.R. 7666. Rule provides for one hour of general debate on H.R. 4176, H.R. 5585 and H.R. 7666. Rule provides for one motion to recommit each for H.R. 4176, H.R. 5585 and H.R. 7666. Rule provides that proceedings may be postponed through July 15, 2022, on measures that were the object of motions to suspend the rules on the legislative days of June 21, 2022, June 22, 2022, June 23, 2022, or June 24, 2022, and on which the yeas and nays were ordered.", "type": "Floor"}, {"actionCode": "H30000", "actionDate": "2022-06-22", "actionTime": "16:08:43", "sourceSystem": {"code": 2, "name": "House floor actions"}, "text": "Considered under the provisions of rule H. Res. 1191. (consideration: CR H5795-5803; text: CR H5795-5798)", "type": "Floor"}, {"actionCode": "H1L210", "actionDate": "2022-06-21", "actionTime": "17:28:41", "sourceSystem": {"code": 2, "name": "House floor actions"}, "text": "Rules Committee Resolution H. Res. 1191 Reported to House. Rule provides for consideration of H.R. 4176, H.R. 5585 and H.R. 7666. Rule provides for one hour of general debate on H.R. 4176, H.R. 5585 and H.R. 7666. Rule provides for one motion to recommit each for H.R. 4176, H.R. 5585 and H.R. 7666. Rule provides that proceedings may be postponed through July 15, 2022, on measures that were the object of motions to suspend the rules on the legislative days of June 21, 2022, June 22, 2022, June 23, 2022, or June 24, 2022, and on which the yeas and nays were ordered.", "type": "Floor"}, {"actionCode": "H12410", "actionDate": "2022-06-13", "calendarNumber": {"calendar": "U00277"}, "sourceSystem": {"code": 2, "name": "House floor actions"}, "text": "Placed on the Union Calendar, Calendar No. 277.", "type": "Calendars"}, {"actionCode": "H12200", "actionDate": "2022-06-13", "committees": [{"name": "Energy and Commerce Committee", "systemCode": "hsif00", "url": "https://api.congress.gov/v3/committee/house/hsif00?format=json"}], "sourceSystem": {"code": 2, "name": "House floor actions"}, "text": "Reported (Amended) by the Committee on Energy and Commerce. H. Rept. 117-365.", "type": "Committee"}, {"actionCode": "5000", "actionDate": "2022-06-13", "committees": [{"name": "Energy and Commerce Committee", "systemCode": "hsif00", "url": "https://api.congress.gov/v3/committee/house/hsif00?format=json"}], "sourceSystem": {"code": 9, "name": "Library of Congress"}, "text": "Reported (Amended) by the Committee on Energy and Commerce. H. Rept. 117-365.", "type": "Committee"}, {"actionCode": "H19000", "actionDate": "2022-05-18", "committees": [{"name": "Energy and Commerce Committee", "systemCode": "hsif00", "url": "https://api.congress.gov/v3/committee/house/hsif00?format=json"}], "sourceSystem": {"code": 1, "name": "House committee actions"}, "text": "Ordered to be Reported (Amended) by the Yeas and Nays: 53 - 3.", "type": "Committee"}, {"actionCode": "H15000-B", "actionDate": "2022-05-18", "committees": [{"name": "Energy and Commerce Committee", "systemCode": "hsif00", "url": "https://api.congress.gov/v3/committee/house/hsif00?format=json"}], "sourceSystem": {"code": 1, "name": "House committee actions"}, "text": "Committee Consideration and Mark-up Session Held.", "type": "Committee"}, {"actionCode": "H23000", "actionDate": "2022-05-11", "committees": [{"name": "Health Subcommittee", "systemCode": "hsif14", "url": "https://api.congress.gov/v3/committee/house/hsif14?format=json"}], "sourceSystem": {"code": 1, "name": "House committee actions"}, "text": "Forwarded by Subcommittee to Full Committee by Voice Vote .", "type": "Committee"}, {"actionCode": "H22000", "actionDate": "2022-05-11", "committees": [{"name": "Health Subcommittee", "systemCode": "hsif14", "url": "https://api.congress.gov/v3/committee/house/hsif14?format=json"}], "sourceSystem": {"code": 1, "name": "House committee actions"}, "text": "Subcommittee Consideration and Mark-up Session Held.", "type": "Committee"}], "pagination": {"count": 24, "next": "https://api.congress.gov/v3/bill/117/hr/5585/actions?offset=20&limit=20&format=json"}, "request": {"billNumber": "5585", "billType": "hr", "billUrl": "https://api.congress.gov/v3/bill/117/hr/5585?format=json", "congress": "117", "contentType": "application/json", "format": "json"}}, 200]