[{"actions": [{"actionDate": "2022-03-08", "committees": [{"name": "Judiciary Committee", "systemCode": "ssju00", "url": "https://api.congress.gov/v3/committee/senate/ssju00?format=json"}], "sourceSystem": {"name": "Senate"}, "text": "Received in the Senate and Read twice and referred to the Committee on the Judiciary.", "type": "IntroReferral"}, {"actionCode": "H38310", "actionDate": "2022-03-07", "actionTime": "19:05:19", "sourceSystem": {"code": 2, "name": "House floor actions"}, "text": "Motion to reconsider laid on the table Agreed to without objection.", "type": "Floor"}, {"actionCode": "H37300", "actionDate": "2022-03-07", "actionTime": "19:05:18", "recordedVotes": [{"chamber": "House", "congress": 117, "date": "2022-03-08T00:05:18Z", "rollNumber": 58, "sessionNumber": 2, "url": "https://clerk.house.gov/evs/2022/roll058.xml"}], "sourceSystem": {"code": 2, "name": "House floor actions"}, "text": "On motion to suspend the rules and pass the bill, as amended Agreed to by the Yeas and Nays: (2/3 required): 390 - 33 (Roll no. 58). (text: CR H1308-1309)", "type": "Floor"}, {"actionCode": "8000", "actionDate": "2022-03-07", "actionTime": "19:05:18", "recordedVotes": [{"chamber": "House", "congress": 117, "date": "2022-03-08T00:05:18Z", "rollNumber": 58, "sessionNumber": 2, "url": "https://clerk.house.gov/evs/2022/roll058.xml"}], "sourceSystem": {"code": 9, "name": "Library of Congress"}, "text": "Passed/agreed to in House: On motion to suspend the rules and pass the bill, as amended Agreed to by the Yeas and Nays: (2/3 required): 390 - 33 (Roll no. 58).(text: CR H1308-1309)", "type": "Floor"}, {"actionCode": "H30000", "actionDate": "2022-03-07", "actionTime": "18:30:39", "sourceSystem": {"code": 2, "name": "House floor actions"}, "text": "Considered as unfinished business. (consideration: CR H1313-1314)", "type": "Floor"}, {"actionCode": "H37220", "actionDate": "2022-03-07", "actionTime": "16:14:29", "sourceSystem": {"code": 2, "name": "House floor actions"}, "text": "At the conclusion of debate, the Yeas and Nays were demanded and ordered. Pursuant to the provisions of clause 8, rule XX, the Chair announced that further proceedings on the motion would be postponed.", "type": "Floor"}, {"actionCode": "H8D000", "actionDate": "2022-03-07", "actionTime": "16:08:14", "sourceSystem": {"code": 2, "name": "House floor actions"}, "text": "DEBATE - The House proceeded with forty minutes of debate on H.R. 5616.", "type": "Floor"}, {"actionCode": "H30000", "actionDate": "2022-03-07", "actionTime": "16:08:09", "sourceSystem": {"code": 2, "name": "House floor actions"}, "text": "Considered under suspension of the rules. (consideration: CR H1308-1310)", "type": "Floor"}, {"actionCode": "H30300", "actionDate": "2022-03-07", "actionTime": "16:07:53", "sourceSystem": {"code": 2, "name": "House floor actions"}, "text": "Mrs. Demings moved to suspend the rules and pass the bill, as amended.", "type": "Floor"}, {"actionCode": "H12410", "actionDate": "2022-02-08", "calendarNumber": {"calendar": "U00174"}, "sourceSystem": {"code": 2, "name": "House floor actions"}, "text": "Placed on the Union Calendar, Calendar No. 174.", "type": "Calendars"}, {"actionCode": "H12300", "actionDate": "2022-02-08", "committees": [{"name": "Judiciary Committee", "systemCode": "hsju00", "url": "https://api.congress.gov/v3/committee/house/hsju00?format=json"}], "sourceSystem": {"code": 2, "name": "House floor actions"}, "text": "Committee on the Judiciary discharged.", "type": "Discharge"}, {"actionCode": "5500", "actionDate": "2022-02-08", "committees": [{"name": "Judiciary Committee", "systemCode": "hsju00", "url": "https://api.congress.gov/v3/committee/house/hsju00?format=json"}], "sourceSystem": {"code": 9, "name": "Library of Congress"}, "text": "Committee on the Judiciary discharged.", "type": "Committee"}, {"actionCode": "H12200", "actionDate": "2022-02-08", "committees": [{"name": "Homeland Security Committee", "systemCode": "hshm00", "url": "https://api.congress.gov/v3/committee/house/hshm00?format=json"}], "sourceSystem": {"code": 2, "name": "House floor actions"}, "text": "Reported by the Committee on Homeland Security. H. Rept. 117-244, Part I.", "type": "Committee"}, {"actionCode": "5000", "actionDate": "2022-02-08", "committees": [{"name": "Homeland Security Committee", "systemCode": "hshm00", "url": "https://api.congress.gov/v3/committee/house/hshm00?format=json"}], "sourceSystem": {"code": 9, "name": "Library of Congress"}, "text": "Reported by the Committee on Homeland Security. H. Rept. 117-244, Part I.", "type": "Committee"}, {"actionCode": "H19000", "actionDate": "2021-10-26", "committees": [{"name": "Homeland Security Committee", "systemCode": "hshm00", "url": "https://api.congress.gov/v3/committee/house/hshm00?format=json"}], "sourceSystem": {"code": 1, "name": "House committee actions"}, "text": "Ordered to be Reported by Voice Vote.", "type": "Committee"}, {"actionCode": "H15000-B", "actionDate": "2021-10-26", "committees": [{"name": "Homeland Security Committee", "systemCode": "hshm00", "url": "https://api.congress.gov/v3/committee/house/hshm00?format=json"}], "sourceSystem": {"code": 1, "name": "House committee actions"}, "text": "Committee Consideration and Mark-up Session Held.", "type": "Committee"}, {"actionCode": "H25000", "actionDate": "2021-10-26", "committees": [{"name": "Homeland Security Committee", "systemCode": "hshm00", "url": "https://api.congress.gov/v3/committee/house/hshm00?format=json"}], "sourceSystem": {"code": 1, "name": "House committee actions"}, "text": "Subcommittee on Oversight, Management, and Accountability Discharged.", "type": "Committee"}, {"actionCode": "H11000", "actionDate": "2021-10-20", "committees": [{"name": "Oversight, Investigations, and Accountability Subcommittee", "systemCode": "hshm09", "url": "https://api.congress.gov/v3/committee/house/hshm09?format=json"}], "sourceSystem": {"code": 1, "name": "House committee actions"}, "text": "Referred to the Subcommittee on Oversight, Management, and Accountability.", "type": "Committee"}, {"actionCode": "H11100", "actionDate": "2021-10-19", "committees": [{"name": "Judiciary Committee", "systemCode": "hsju00", "url": "https://api.congress.gov/v3/committee/house/hsju00?format=json"}], "sourceSystem": {"code": 2, "name": "House floor actions"}, "text": "Referred to the Committee on Homeland Security, and in addition to the Committee on the Judiciary, for a period to be subsequently determined by the Speaker, in each case for consideration of such provisions as fall within the jurisdiction of the committee concerned.", "type": "IntroReferral"}, {"actionCode": "H11100", "actionDate": "2021-10-19", "committees": [{"name": "Homeland Security Committee", "systemCode": "hshm00", "url": "https://api.congress.gov/v3/committee/house/hshm00?format=json"}], "sourceSystem": {"code": 2, "name": "House floor actions"}, "text": "Referred to the Committee on Homeland Security, and in addition to the Committee on the Judiciary, for a period to be subsequently determined by the Speaker, in each case for consideration of such provisions as fall within the jurisdiction of the committee concerned.", "type": "IntroReferral"}], "pagination": {"count": 22, "next": "https://api.congress.gov/v3/bill/117/hr/5616/actions?offset=20&limit=20&format=json"}, "request": {"billNumber": "5616", "billType": "hr", "billUrl": "https://api.congress.gov/v3/bill/117/hr/5616?format=json", "congress": "117", "contentType": "application/json", "format": "json"}}, 200]