[{"actions": [{"actionDate": "2022-12-05", "committees": [{"name": "Homeland Security and Governmental Affairs Committee", "systemCode": "ssga00", "url": "https://api.congress.gov/v3/committee/senate/ssga00?format=json"}], "sourceSystem": {"name": "Senate"}, "text": "By Senator Peters from Committee on Homeland Security and Governmental Affairs filed written report. Report No. 117-230.", "type": "Floor"}, {"actionCode": "14900", "actionDate": "2022-12-05", "committees": [{"name": "Homeland Security and Governmental Affairs Committee", "systemCode": "ssga00", "url": "https://api.congress.gov/v3/committee/senate/ssga00?format=json"}], "sourceSystem": {"code": 9, "name": "Library of Congress"}, "text": "By Senator Peters from Committee on Homeland Security and Governmental Affairs filed written report. Report No. 117-230.", "type": "Committee"}, {"actionDate": "2022-09-28", "calendarNumber": {"calendar": "Senate Calendar of Business", "number": "0521"}, "sourceSystem": {"name": "Senate"}, "text": "Placed on Senate Legislative Calendar under General Orders. Calendar No. 521.", "type": "Calendars"}, {"actionDate": "2022-09-28", "committees": [{"name": "Homeland Security and Governmental Affairs Committee", "systemCode": "ssga00", "url": "https://api.congress.gov/v3/committee/senate/ssga00?format=json"}], "sourceSystem": {"name": "Senate"}, "text": "Committee on Homeland Security and Governmental Affairs. Reported by Senator Peters with an amendment in the nature of a substitute. Without written report.", "type": "Committee"}, {"actionCode": "14000", "actionDate": "2022-09-28", "committees": [{"name": "Homeland Security and Governmental Affairs Committee", "systemCode": "ssga00", "url": "https://api.congress.gov/v3/committee/senate/ssga00?format=json"}], "sourceSystem": {"code": 9, "name": "Library of Congress"}, "text": "Committee on Homeland Security and Governmental Affairs. Reported by Senator Peters with an amendment in the nature of a substitute. Without written report.", "type": "Committee"}, {"actionDate": "2022-08-03", "committees": [{"name": "Homeland Security and Governmental Affairs Committee", "systemCode": "ssga00", "url": "https://api.congress.gov/v3/committee/senate/ssga00?format=json"}], "sourceSystem": {"name": "Senate"}, "text": "Committee on Homeland Security and Governmental Affairs. Ordered to be reported with an amendment in the nature of a substitute favorably.", "type": "Committee"}, {"actionDate": "2022-03-08", "committees": [{"name": "Homeland Security and Governmental Affairs Committee", "systemCode": "ssga00", "url": "https://api.congress.gov/v3/committee/senate/ssga00?format=json"}], "sourceSystem": {"name": "Senate"}, "text": "Received in the Senate and Read twice and referred to the Committee on Homeland Security and Governmental Affairs.", "type": "IntroReferral"}, {"actionCode": "H38310", "actionDate": "2022-03-07", "actionTime": "16:07:52", "sourceSystem": {"code": 2, "name": "House floor actions"}, "text": "Motion to reconsider laid on the table Agreed to without objection.", "type": "Floor"}, {"actionCode": "H37300", "actionDate": "2022-03-07", "actionTime": "16:07:49", "sourceSystem": {"code": 2, "name": "House floor actions"}, "text": "On motion to suspend the rules and pass the bill Agreed to by voice vote. (text: CR H1307-1308)", "type": "Floor"}, {"actionCode": "8000", "actionDate": "2022-03-07", "actionTime": "16:07:49", "sourceSystem": {"code": 9, "name": "Library of Congress"}, "text": "Passed/agreed to in House: On motion to suspend the rules and pass the bill Agreed to by voice vote.(text: CR H1307-1308)", "type": "Floor"}, {"actionCode": "H8D000", "actionDate": "2022-03-07", "actionTime": "16:01:38", "sourceSystem": {"code": 2, "name": "House floor actions"}, "text": "DEBATE - The House proceeded with forty minutes of debate on H.R. 5615.", "type": "Floor"}, {"actionCode": "H30000", "actionDate": "2022-03-07", "actionTime": "16:01:35", "sourceSystem": {"code": 2, "name": "House floor actions"}, "text": "Considered under suspension of the rules. (consideration: CR H1307-1308)", "type": "Floor"}, {"actionCode": "H30300", "actionDate": "2022-03-07", "actionTime": "16:01:26", "sourceSystem": {"code": 2, "name": "House floor actions"}, "text": "Mrs. Demings moved to suspend the rules and pass the bill.", "type": "Floor"}, {"actionCode": "H12410", "actionDate": "2022-02-01", "calendarNumber": {"calendar": "U00173"}, "sourceSystem": {"code": 2, "name": "House floor actions"}, "text": "Placed on the Union Calendar, Calendar No. 173.", "type": "Calendars"}, {"actionCode": "H12200", "actionDate": "2022-02-01", "committees": [{"name": "Homeland Security Committee", "systemCode": "hshm00", "url": "https://api.congress.gov/v3/committee/house/hshm00?format=json"}], "sourceSystem": {"code": 2, "name": "House floor actions"}, "text": "Reported by the Committee on Homeland Security. H. Rept. 117-240.", "type": "Committee"}, {"actionCode": "5000", "actionDate": "2022-02-01", "committees": [{"name": "Homeland Security Committee", "systemCode": "hshm00", "url": "https://api.congress.gov/v3/committee/house/hshm00?format=json"}], "sourceSystem": {"code": 9, "name": "Library of Congress"}, "text": "Reported by the Committee on Homeland Security. H. Rept. 117-240.", "type": "Committee"}, {"actionCode": "H19000", "actionDate": "2021-10-26", "committees": [{"name": "Homeland Security Committee", "systemCode": "hshm00", "url": "https://api.congress.gov/v3/committee/house/hshm00?format=json"}], "sourceSystem": {"code": 1, "name": "House committee actions"}, "text": "Ordered to be Reported by Voice Vote.", "type": "Committee"}, {"actionCode": "H15000-B", "actionDate": "2021-10-26", "committees": [{"name": "Homeland Security Committee", "systemCode": "hshm00", "url": "https://api.congress.gov/v3/committee/house/hshm00?format=json"}], "sourceSystem": {"code": 1, "name": "House committee actions"}, "text": "Committee Consideration and Mark-up Session Held.", "type": "Committee"}, {"actionCode": "H25000", "actionDate": "2021-10-26", "committees": [{"name": "Homeland Security Committee", "systemCode": "hshm00", "url": "https://api.congress.gov/v3/committee/house/hshm00?format=json"}], "sourceSystem": {"code": 1, "name": "House committee actions"}, "text": "Subcommittee on Emergency Preparedness, Response, and Recovery Discharged.", "type": "Committee"}, {"actionCode": "H11000", "actionDate": "2021-10-20", "committees": [{"name": "Emergency Management and Technology Subcommittee", "systemCode": "hshm12", "url": "https://api.congress.gov/v3/committee/house/hshm12?format=json"}], "sourceSystem": {"code": 1, "name": "House committee actions"}, "text": "Referred to the Subcommittee on Emergency Preparedness, Response, and Recovery.", "type": "Committee"}], "pagination": {"count": 23, "next": "https://api.congress.gov/v3/bill/117/hr/5615/actions?offset=20&limit=20&format=json"}, "request": {"billNumber": "5615", "billType": "hr", "billUrl": "https://api.congress.gov/v3/bill/117/hr/5615?format=json", "congress": "117", "contentType": "application/json", "format": "json"}}, 200]