[{"actions": [{"actionDate": "2022-11-17", "sourceSystem": {"name": "Senate"}, "text": "Star Print ordered on the reported bill.", "type": "Floor"}, {"actionCode": "E40000", "actionDate": "2022-10-10", "sourceSystem": {"code": 9, "name": "Library of Congress"}, "text": "Became Public Law No: 117-189.", "type": "President"}, {"actionCode": "36000", "actionDate": "2022-10-10", "sourceSystem": {"code": 9, "name": "Library of Congress"}, "text": "Became Public Law No: 117-189.", "type": "BecameLaw"}, {"actionCode": "E30000", "actionDate": "2022-10-10", "sourceSystem": {"code": 9, "name": "Library of Congress"}, "text": "Signed by President.", "type": "President"}, {"actionCode": "36000", "actionDate": "2022-10-10", "sourceSystem": {"code": 9, "name": "Library of Congress"}, "text": "Signed by President.", "type": "BecameLaw"}, {"actionCode": "E20000", "actionDate": "2022-10-04", "sourceSystem": {"code": 2, "name": "House floor actions"}, "text": "Presented to President.", "type": "Floor"}, {"actionCode": "28000", "actionDate": "2022-10-04", "sourceSystem": {"code": 9, "name": "Library of Congress"}, "text": "Presented to President.", "type": "President"}, {"actionCode": "H37300", "actionDate": "2022-09-29", "actionTime": "17:40:19", "sourceSystem": {"code": 2, "name": "House floor actions"}, "text": "Pursuant to section 10 of H. Res. 1396, and the motion offered by Mr. Hoyer, the following bills passed under suspension of the rules: H.R. 1638, as amended; H.R. 3304, as amended; H.R. 4081, as amended; H.R. 4821, as amended; H.R. 6889, as amended; H.R. 6967, as amended; H.R. 8163, as amended; H.R. 8510, as amended; H.R. 8681, as amended; H.R. 8875, as amended; H.R. 8956; S. 1198; and agree to the Senate amendments to H.R. 5641.", "type": "Floor"}, {"actionCode": "8000", "actionDate": "2022-09-29", "actionTime": "17:40:19", "sourceSystem": {"code": 9, "name": "Library of Congress"}, "text": "Passed/agreed to in House: Pursuant to section 10 of H. Res. 1396, and the motion offered by Mr. Hoyer, the following bills passed under suspension of the rules: H.R. 1638, as amended; H.R. 3304, as amended; H.R. 4081, as amended; H.R. 4821, as amended; H.R. 6889, as amended; H.R. 6967, as amended; H.R. 8163, as amended; H.R. 8510, as amended; H.R. 8681, as amended; H.R. 8875, as amended; H.R. 8956; S. 1198; and agree to the Senate amendments to H.R. 5641.", "type": "Floor"}, {"actionCode": "H1B000", "actionDate": "2022-09-29", "actionTime": "17:40:18", "sourceSystem": {"code": 2, "name": "House floor actions"}, "text": "Pursuant to the provisions of H. Res. 1396, proceedings on H.R. 5641 are considered vacated.", "type": "Floor"}, {"actionCode": "H40142", "actionDate": "2022-09-28", "actionTime": "17:33:22", "sourceSystem": {"code": 2, "name": "House floor actions"}, "text": "At the conclusion of debate, the Yeas and Nays were demanded and ordered. Pursuant to the provisions of clause 8, rule XX, the chair announced that further proceedings on the motion would be postponed. (text: CR H8168)", "type": "ResolvingDifferences"}, {"actionCode": "H8D000", "actionDate": "2022-09-28", "actionTime": "17:25:54", "sourceSystem": {"code": 2, "name": "House floor actions"}, "text": "DEBATE - The House proceeded with forty minutes of debate on the Senate amendments to H.R. 5641.", "type": "Floor"}, {"actionCode": "H40140", "actionDate": "2022-09-28", "actionTime": "17:25:17", "sourceSystem": {"code": 2, "name": "House floor actions"}, "text": "Mr. Carson moved that the House suspend the rules and agree to the Senate amendments. (consideration: CR H8167-8168)", "type": "ResolvingDifferences"}, {"actionDate": "2022-09-21", "sourceSystem": {"name": "Senate"}, "text": "Message on Senate action sent to the House.", "type": "Floor"}, {"actionDate": "2022-09-20", "sourceSystem": {"name": "Senate"}, "text": "Passed Senate with amendments by Unanimous Consent. (consideration: CR S4876-4877; text: CR S4877)", "type": "Floor"}, {"actionCode": "17000", "actionDate": "2022-09-20", "sourceSystem": {"code": 9, "name": "Library of Congress"}, "text": "Passed/agreed to in Senate: Passed Senate with amendments by Unanimous Consent.", "type": "Floor"}, {"actionDate": "2022-09-12", "calendarNumber": {"calendar": "Senate Calendar of Business", "number": "0483"}, "sourceSystem": {"name": "Senate"}, "text": "Placed on Senate Legislative Calendar under General Orders. Calendar No. 483.", "type": "Calendars"}, {"actionDate": "2022-09-12", "committees": [{"name": "Homeland Security and Governmental Affairs Committee", "systemCode": "ssga00", "url": "https://api.congress.gov/v3/committee/senate/ssga00?format=json"}], "sourceSystem": {"name": "Senate"}, "text": "Committee on Homeland Security and Governmental Affairs. Reported by Senator Carper for Senator Peters with amendments. With written report No. 117-145.", "type": "Committee"}, {"actionCode": "14000", "actionDate": "2022-09-12", "committees": [{"name": "Homeland Security and Governmental Affairs Committee", "systemCode": "ssga00", "url": "https://api.congress.gov/v3/committee/senate/ssga00?format=json"}], "sourceSystem": {"code": 9, "name": "Library of Congress"}, "text": "Committee on Homeland Security and Governmental Affairs. Reported by Senator Carper for Senator Peters with amendments. With written report No. 117-145.", "type": "Committee"}, {"actionDate": "2022-08-03", "committees": [{"name": "Homeland Security and Governmental Affairs Committee", "systemCode": "ssga00", "url": "https://api.congress.gov/v3/committee/senate/ssga00?format=json"}], "sourceSystem": {"name": "Senate"}, "text": "Committee on Homeland Security and Governmental Affairs. Ordered to be reported with an amendment favorably.", "type": "Committee"}], "pagination": {"count": 39, "next": "https://api.congress.gov/v3/bill/117/hr/5641/actions?offset=20&limit=20&format=json"}, "request": {"billNumber": "5641", "billType": "hr", "billUrl": "https://api.congress.gov/v3/bill/117/hr/5641?format=json", "congress": "117", "contentType": "application/json", "format": "json"}}, 200]