[{"actions": [{"actionDate": "2021-12-15", "committees": [{"name": "Foreign Relations Committee", "systemCode": "ssfr00", "url": "https://api.congress.gov/v3/committee/senate/ssfr00?format=json"}], "sourceSystem": {"name": "Senate"}, "text": "Received in the Senate and Read twice and referred to the Committee on Foreign Relations.", "type": "IntroReferral"}, {"actionCode": "H38310", "actionDate": "2021-12-14", "actionTime": "23:32:00", "sourceSystem": {"code": 2, "name": "House floor actions"}, "text": "Motion to reconsider laid on the table Agreed to without objection.", "type": "Floor"}, {"actionCode": "H37100", "actionDate": "2021-12-14", "actionTime": "23:31:58", "recordedVotes": [{"chamber": "House", "congress": 117, "date": "2021-12-15T04:31:58Z", "rollNumber": 448, "sessionNumber": 1, "url": "https://clerk.house.gov/evs/2021/roll448.xml"}], "sourceSystem": {"code": 2, "name": "House floor actions"}, "text": "On passage Passed by the Yeas and Nays: 219 - 212 (Roll no. 448). (text: CR H7815-7816)", "type": "Floor"}, {"actionCode": "8000", "actionDate": "2021-12-14", "actionTime": "23:31:58", "recordedVotes": [{"chamber": "House", "congress": 117, "date": "2021-12-15T04:31:58Z", "rollNumber": 448, "sessionNumber": 1, "url": "https://clerk.house.gov/evs/2021/roll448.xml"}], "sourceSystem": {"code": 9, "name": "Library of Congress"}, "text": "Passed/agreed to in House: On passage Passed by the Yeas and Nays: 219 - 212 (Roll no. 448).(text: CR H7815-7816)", "type": "Floor"}, {"actionCode": "H30000", "actionDate": "2021-12-14", "actionTime": "23:07:19", "sourceSystem": {"code": 2, "name": "House floor actions"}, "text": "Considered as unfinished business. (consideration: CR H7815-7816)", "type": "Floor"}, {"actionCode": "H8D000", "actionDate": "2021-12-14", "actionTime": "20:36:22", "sourceSystem": {"code": 2, "name": "House floor actions"}, "text": "POSTPONED PROCEEDINGS - At the conclusion of debate on H.R. 5665, the Chair put the question on passage and by voice vote, announced that the ayes had prevailed. Mr. McCaul demaneded the yeas and nays and the Chair postponed further proceedings on passage until a time to be announced.", "type": "Floor"}, {"actionCode": "H35000", "actionDate": "2021-12-14", "actionTime": "20:36:09", "sourceSystem": {"code": 2, "name": "House floor actions"}, "text": "The previous question was ordered pursuant to the rule.", "type": "Floor"}, {"actionCode": "H8D000", "actionDate": "2021-12-14", "actionTime": "19:57:02", "sourceSystem": {"code": 2, "name": "House floor actions"}, "text": "DEBATE - The House continued with further debate on H.R. 5665.", "type": "Floor"}, {"actionCode": "H8D000", "actionDate": "2021-12-14", "actionTime": "19:53:30", "sourceSystem": {"code": 2, "name": "House floor actions"}, "text": "DEBATE - The House continued with further debate on H.R. 5665.", "type": "Floor"}, {"actionCode": "H8D000", "actionDate": "2021-12-14", "actionTime": "18:43:00", "sourceSystem": {"code": 2, "name": "House floor actions"}, "text": "WORDS TAKEN DOWN - During the course of debate, exception was taken to certain words used and a demand was made to have the words taken down. After review, the Chair ruled that the words were in violation of the spirit of debate.", "type": "Floor"}, {"actionCode": "H8D000", "actionDate": "2021-12-14", "actionTime": "18:13:50", "sourceSystem": {"code": 2, "name": "House floor actions"}, "text": "DEBATE - The House proceeded with one hour of debate on H.R. 5665.", "type": "Floor"}, {"actionCode": "H8D000", "actionDate": "2021-12-14", "actionTime": "18:12:55", "sourceSystem": {"code": 2, "name": "House floor actions"}, "text": "Rule provides for consideration of H.R. 5665 with 1 hour of general debate. Previous question shall be considered as ordered without intervening motions except motion to recommit. Measure will be considered read. Bill is closed to amendments.", "type": "Floor"}, {"actionCode": "H30000", "actionDate": "2021-12-14", "actionTime": "18:12:50", "sourceSystem": {"code": 2, "name": "House floor actions"}, "text": "Considered under the provisions of rule H. Res. 849. (consideration: CR H7794-7803)", "type": "Floor"}, {"actionCode": "H1L220", "actionDate": "2021-12-14", "actionTime": "16:12:10", "sourceSystem": {"code": 2, "name": "House floor actions"}, "text": "Rule H. Res. 849 passed House. (CR H7665-7666)", "type": "Floor"}, {"actionCode": "H1L210", "actionDate": "2021-12-14", "actionTime": "12:16:48", "sourceSystem": {"code": 2, "name": "House floor actions"}, "text": "Rules Committee Resolution H. Res. 849 Reported to House. Rule provides for consideration of H.R. 5665 with 1 hour of general debate. Previous question shall be considered as ordered without intervening motions except motion to recommit. Measure will be considered read. Bill is closed to amendments.", "type": "Floor"}, {"actionCode": "H12410", "actionDate": "2021-12-13", "calendarNumber": {"calendar": "U00156"}, "sourceSystem": {"code": 2, "name": "House floor actions"}, "text": "Placed on the Union Calendar, Calendar No. 156.", "type": "Calendars"}, {"actionCode": "H12200", "actionDate": "2021-12-13", "committees": [{"name": "Foreign Affairs Committee", "systemCode": "hsfa00", "url": "https://api.congress.gov/v3/committee/house/hsfa00?format=json"}], "sourceSystem": {"code": 2, "name": "House floor actions"}, "text": "Reported (Amended) by the Committee on Foreign Affairs. H. Rept. 117-215.", "type": "Committee"}, {"actionCode": "5000", "actionDate": "2021-12-13", "committees": [{"name": "Foreign Affairs Committee", "systemCode": "hsfa00", "url": "https://api.congress.gov/v3/committee/house/hsfa00?format=json"}], "sourceSystem": {"code": 9, "name": "Library of Congress"}, "text": "Reported (Amended) by the Committee on Foreign Affairs. H. Rept. 117-215.", "type": "Committee"}, {"actionCode": "H19000", "actionDate": "2021-12-10", "committees": [{"name": "Foreign Affairs Committee", "systemCode": "hsfa00", "url": "https://api.congress.gov/v3/committee/house/hsfa00?format=json"}], "sourceSystem": {"code": 1, "name": "House committee actions"}, "text": "Ordered to be Reported (Amended) by the Yeas and Nays: 27 - 16.", "type": "Committee"}, {"actionCode": "H15000-B", "actionDate": "2021-12-10", "committees": [{"name": "Foreign Affairs Committee", "systemCode": "hsfa00", "url": "https://api.congress.gov/v3/committee/house/hsfa00?format=json"}], "sourceSystem": {"code": 1, "name": "House committee actions"}, "text": "Committee Consideration and Mark-up Session Held.", "type": "Committee"}], "pagination": {"count": 24, "next": "https://api.congress.gov/v3/bill/117/hr/5665/actions?offset=20&limit=20&format=json"}, "request": {"billNumber": "5665", "billType": "hr", "billUrl": "https://api.congress.gov/v3/bill/117/hr/5665?format=json", "congress": "117", "contentType": "application/json", "format": "json"}}, 200]