[{"actions": [{"actionCode": "E40000", "actionDate": "2022-04-19", "sourceSystem": {"code": 9, "name": "Library of Congress"}, "text": "Became Public Law No: 117-113.", "type": "President"}, {"actionCode": "36000", "actionDate": "2022-04-19", "sourceSystem": {"code": 9, "name": "Library of Congress"}, "text": "Became Public Law No: 117-113.", "type": "BecameLaw"}, {"actionCode": "E30000", "actionDate": "2022-04-19", "sourceSystem": {"code": 9, "name": "Library of Congress"}, "text": "Signed by President.", "type": "President"}, {"actionCode": "36000", "actionDate": "2022-04-19", "sourceSystem": {"code": 9, "name": "Library of Congress"}, "text": "Signed by President.", "type": "BecameLaw"}, {"actionCode": "E20000", "actionDate": "2022-04-07", "sourceSystem": {"code": 2, "name": "House floor actions"}, "text": "Presented to President.", "type": "Floor"}, {"actionCode": "28000", "actionDate": "2022-04-07", "sourceSystem": {"code": 9, "name": "Library of Congress"}, "text": "Presented to President.", "type": "President"}, {"actionDate": "2022-04-06", "sourceSystem": {"name": "Senate"}, "text": "Message on Senate action sent to the House.", "type": "Floor"}, {"actionDate": "2022-04-05", "sourceSystem": {"name": "Senate"}, "text": "Passed Senate without amendment by Unanimous Consent. (consideration: CR S1987)", "type": "Floor"}, {"actionCode": "17000", "actionDate": "2022-04-05", "sourceSystem": {"code": 9, "name": "Library of Congress"}, "text": "Passed/agreed to in Senate: Passed Senate without amendment by Unanimous Consent.(consideration: CR S1987)", "type": "Floor"}, {"actionDate": "2022-03-10", "sourceSystem": {"name": "Senate"}, "text": "Received in the Senate, read twice.", "type": "IntroReferral"}, {"actionCode": "H38310", "actionDate": "2022-03-08", "actionTime": "19:19:52", "sourceSystem": {"code": 2, "name": "House floor actions"}, "text": "Motion to reconsider laid on the table Agreed to without objection.", "type": "Floor"}, {"actionCode": "H37300", "actionDate": "2022-03-08", "actionTime": "19:19:51", "recordedVotes": [{"chamber": "House", "congress": 117, "date": "2022-03-09T00:19:51Z", "rollNumber": 60, "sessionNumber": 2, "url": "https://clerk.house.gov/evs/2022/roll060.xml"}], "sourceSystem": {"code": 2, "name": "House floor actions"}, "text": "On motion to suspend the rules and pass the bill Agreed to by the Yeas and Nays: (2/3 required): 387 - 33 (Roll no. 60). (text: 3/7/2022 CR H1310)", "type": "Floor"}, {"actionCode": "8000", "actionDate": "2022-03-08", "actionTime": "19:19:51", "recordedVotes": [{"chamber": "House", "congress": 117, "date": "2022-03-09T00:19:51Z", "rollNumber": 60, "sessionNumber": 2, "url": "https://clerk.house.gov/evs/2022/roll060.xml"}], "sourceSystem": {"code": 9, "name": "Library of Congress"}, "text": "Passed/agreed to in House: On motion to suspend the rules and pass the bill Agreed to by the Yeas and Nays: (2/3 required): 387 - 33 (Roll no. 60).(text: 3/7/2022 CR H1310)", "type": "Floor"}, {"actionCode": "H30000", "actionDate": "2022-03-08", "actionTime": "18:31:45", "sourceSystem": {"code": 2, "name": "House floor actions"}, "text": "Considered as unfinished business. (consideration: CR H1355-1356)", "type": "Floor"}, {"actionCode": "H37220", "actionDate": "2022-03-07", "actionTime": "16:23:26", "sourceSystem": {"code": 2, "name": "House floor actions"}, "text": "At the conclusion of debate, the Yeas and Nays were demanded and ordered. Pursuant to the provisions of clause 8, rule XX, the Chair announced that further proceedings on the motion would be postponed.", "type": "Floor"}, {"actionCode": "H8D000", "actionDate": "2022-03-07", "actionTime": "16:15:32", "sourceSystem": {"code": 2, "name": "House floor actions"}, "text": "DEBATE - The House proceeded with forty minutes of debate on H.R. 5681.", "type": "Floor"}, {"actionCode": "H30000", "actionDate": "2022-03-07", "actionTime": "16:14:58", "sourceSystem": {"code": 2, "name": "House floor actions"}, "text": "Considered under suspension of the rules. (consideration: CR H1310-1312)", "type": "Floor"}, {"actionCode": "H30300", "actionDate": "2022-03-07", "actionTime": "16:14:44", "sourceSystem": {"code": 2, "name": "House floor actions"}, "text": "Mrs. Demings moved to suspend the rules and pass the bill.", "type": "Floor"}, {"actionCode": "H12410", "actionDate": "2022-02-11", "calendarNumber": {"calendar": "U00176"}, "sourceSystem": {"code": 2, "name": "House floor actions"}, "text": "Placed on the Union Calendar, Calendar No. 176.", "type": "Calendars"}, {"actionCode": "H12200", "actionDate": "2022-02-11", "committees": [{"name": "Homeland Security Committee", "systemCode": "hshm00", "url": "https://api.congress.gov/v3/committee/house/hshm00?format=json"}], "sourceSystem": {"code": 2, "name": "House floor actions"}, "text": "Reported by the Committee on Homeland Security. H. Rept. 117-246.", "type": "Committee"}], "pagination": {"count": 28, "next": "https://api.congress.gov/v3/bill/117/hr/5681/actions?offset=20&limit=20&format=json"}, "request": {"billNumber": "5681", "billType": "hr", "billUrl": "https://api.congress.gov/v3/bill/117/hr/5681?format=json", "congress": "117", "contentType": "application/json", "format": "json"}}, 200]