[{"actions": [{"actionDate": "2022-05-16", "sourceSystem": {"name": "Senate"}, "text": "Star Print ordered on the bill.", "type": "Floor"}, {"actionDate": "2022-03-31", "committees": [{"name": "Commerce, Science, and Transportation Committee", "systemCode": "sscm00", "url": "https://api.congress.gov/v3/committee/senate/sscm00?format=json"}], "sourceSystem": {"name": "Senate"}, "text": "Received in the Senate and Read twice and referred to the Committee on Commerce, Science, and Transportation.", "type": "IntroReferral"}, {"actionCode": "H38310", "actionDate": "2022-03-30", "actionTime": "14:58:56", "sourceSystem": {"code": 2, "name": "House floor actions"}, "text": "Motion to reconsider laid on the table Agreed to without objection.", "type": "Floor"}, {"actionCode": "H37300", "actionDate": "2022-03-30", "actionTime": "14:58:55", "recordedVotes": [{"chamber": "House", "congress": 117, "date": "2022-03-30T18:58:55Z", "rollNumber": 90, "sessionNumber": 2, "url": "https://clerk.house.gov/evs/2022/roll090.xml"}], "sourceSystem": {"code": 2, "name": "House floor actions"}, "text": "On motion to suspend the rules and pass the bill Agreed to by the Yeas and Nays: (2/3 required): 339 - 85 (Roll no. 90). (text: CR H3983-3987)", "type": "Floor"}, {"actionCode": "8000", "actionDate": "2022-03-30", "actionTime": "14:58:55", "recordedVotes": [{"chamber": "House", "congress": 117, "date": "2022-03-30T18:58:55Z", "rollNumber": 90, "sessionNumber": 2, "url": "https://clerk.house.gov/evs/2022/roll090.xml"}], "sourceSystem": {"code": 9, "name": "Library of Congress"}, "text": "Passed/agreed to in House: On motion to suspend the rules and pass the bill Agreed to by the Yeas and Nays: (2/3 required): 339 - 85 (Roll no. 90).(text: CR H3983-3987)", "type": "Floor"}, {"actionCode": "H30000", "actionDate": "2022-03-30", "actionTime": "14:16:45", "sourceSystem": {"code": 2, "name": "House floor actions"}, "text": "Considered as unfinished business. (consideration: CR H3995-3996)", "type": "Floor"}, {"actionCode": "H37220", "actionDate": "2022-03-30", "actionTime": "12:23:37", "sourceSystem": {"code": 2, "name": "House floor actions"}, "text": "At the conclusion of debate, the Yeas and Nays were demanded and ordered. Pursuant to the provisions of clause 8, rule XX, the Chair announced that further proceedings on the motion would be postponed.", "type": "Floor"}, {"actionCode": "H8D000", "actionDate": "2022-03-30", "actionTime": "12:14:24", "sourceSystem": {"code": 2, "name": "House floor actions"}, "text": "DEBATE - The House proceeded with forty minutes of debate on H.R. 5706.", "type": "Floor"}, {"actionCode": "H30000", "actionDate": "2022-03-30", "actionTime": "12:14:22", "sourceSystem": {"code": 2, "name": "House floor actions"}, "text": "Considered under suspension of the rules. (consideration: CR H3983-3988)", "type": "Floor"}, {"actionCode": "H30300", "actionDate": "2022-03-30", "actionTime": "12:14:15", "sourceSystem": {"code": 2, "name": "House floor actions"}, "text": "Mr. DeFazio moved to suspend the rules and pass the bill.", "type": "Floor"}, {"actionCode": "H12410", "actionDate": "2022-03-24", "calendarNumber": {"calendar": "U00205"}, "sourceSystem": {"code": 2, "name": "House floor actions"}, "text": "Placed on the Union Calendar, Calendar No. 205.", "type": "Calendars"}, {"actionCode": "H12300", "actionDate": "2022-03-24", "committees": [{"name": "Budget Committee", "systemCode": "hsbu00", "url": "https://api.congress.gov/v3/committee/house/hsbu00?format=json"}], "sourceSystem": {"code": 2, "name": "House floor actions"}, "text": "Committee on the Budget discharged.", "type": "Discharge"}, {"actionCode": "5500", "actionDate": "2022-03-24", "committees": [{"name": "Budget Committee", "systemCode": "hsbu00", "url": "https://api.congress.gov/v3/committee/house/hsbu00?format=json"}], "sourceSystem": {"code": 9, "name": "Library of Congress"}, "text": "Committee on the Budget discharged.", "type": "Committee"}, {"actionCode": "H12300", "actionDate": "2022-03-24", "committees": [{"name": "Judiciary Committee", "systemCode": "hsju00", "url": "https://api.congress.gov/v3/committee/house/hsju00?format=json"}], "sourceSystem": {"code": 2, "name": "House floor actions"}, "text": "Committee on the Judiciary discharged.", "type": "Discharge"}, {"actionCode": "5500", "actionDate": "2022-03-24", "committees": [{"name": "Judiciary Committee", "systemCode": "hsju00", "url": "https://api.congress.gov/v3/committee/house/hsju00?format=json"}], "sourceSystem": {"code": 9, "name": "Library of Congress"}, "text": "Committee on the Judiciary discharged.", "type": "Committee"}, {"actionCode": "H12200", "actionDate": "2022-03-24", "committees": [{"name": "Transportation and Infrastructure Committee", "systemCode": "hspw00", "url": "https://api.congress.gov/v3/committee/house/hspw00?format=json"}], "sourceSystem": {"code": 2, "name": "House floor actions"}, "text": "Reported by the Committee on Transportation and Infrastructure. H. Rept. 117-278, Part I.", "type": "Committee"}, {"actionCode": "5000", "actionDate": "2022-03-24", "committees": [{"name": "Transportation and Infrastructure Committee", "systemCode": "hspw00", "url": "https://api.congress.gov/v3/committee/house/hspw00?format=json"}], "sourceSystem": {"code": 9, "name": "Library of Congress"}, "text": "Reported by the Committee on Transportation and Infrastructure. H. Rept. 117-278, Part I.", "type": "Committee"}, {"actionCode": "H19000", "actionDate": "2021-10-27", "committees": [{"name": "Transportation and Infrastructure Committee", "systemCode": "hspw00", "url": "https://api.congress.gov/v3/committee/house/hspw00?format=json"}], "sourceSystem": {"code": 1, "name": "House committee actions"}, "text": "Ordered to be Reported by Voice Vote.", "type": "Committee"}, {"actionCode": "H15000-B", "actionDate": "2021-10-27", "committees": [{"name": "Transportation and Infrastructure Committee", "systemCode": "hspw00", "url": "https://api.congress.gov/v3/committee/house/hspw00?format=json"}], "sourceSystem": {"code": 1, "name": "House committee actions"}, "text": "Committee Consideration and Mark-up Session Held.", "type": "Committee"}, {"actionCode": "H25000", "actionDate": "2021-10-27", "committees": [{"name": "Transportation and Infrastructure Committee", "systemCode": "hspw00", "url": "https://api.congress.gov/v3/committee/house/hspw00?format=json"}], "sourceSystem": {"code": 1, "name": "House committee actions"}, "text": "Subcommittee on Railroads, Pipelines, and Hazardous Materials Discharged.", "type": "Committee"}], "pagination": {"count": 32, "next": "https://api.congress.gov/v3/bill/117/hr/5706/actions?offset=20&limit=20&format=json"}, "request": {"billNumber": "5706", "billType": "hr", "billUrl": "https://api.congress.gov/v3/bill/117/hr/5706?format=json", "congress": "117", "contentType": "application/json", "format": "json"}}, 200]