[{"actions": [{"actionDate": "2022-01-19", "sourceSystem": {"name": "Senate"}, "text": "Motion to proceed to consideration of the motion to reconsider the vote by which cloture on the motion to concur in the House amendment to the Senate amendment to H.R. 5746 (Record Vote No. 9) withdrawn in Senate.", "type": "Floor"}, {"actionDate": "2022-01-19", "sourceSystem": {"name": "Senate"}, "text": "Ruling of the Chair sustained.", "type": "Floor"}, {"actionDate": "2022-01-19", "recordedVotes": [{"chamber": "Senate", "congress": 117, "date": "2022-01-20T03:40:28Z", "rollNumber": 10, "sessionNumber": 2, "url": "https://www.senate.gov/legislative/LIS/roll_call_votes/vote1172/vote_117_2_00010.xml"}], "sourceSystem": {"name": "Senate"}, "text": "Motion by Senator Schumer to appeal the ruling of the chair not agreed to, the question being, \"Shall the decision of the Chair stand as the judgement of the Senate\" by Yea-Nay Vote. 52 - 48. Record Vote Number: 10.", "type": "Floor"}, {"actionDate": "2022-01-19", "sourceSystem": {"name": "Senate"}, "text": "Ruling of the Chair that the point of order raised by Senator Schumer with respect to the House message to accompany H.R. 5746, not sustained.", "type": "Floor"}, {"actionDate": "2022-01-19", "sourceSystem": {"name": "Senate"}, "text": "Point of order that for the Message from the House with respect to H.R. 5746, the only debate in order during consideration of the Message be on the question of adoption of the motion to concur in the amendment of the House, that no further amendments, motions, or points of order be in order, and that any appeals be determined without debate, raised in Senate.", "type": "Floor"}, {"actionDate": "2022-01-19", "sourceSystem": {"name": "Senate"}, "text": "Motion to proceed to consideration of the motion to reconsider the vote by which cloture on the motion to concur in the House amendment to the Senate amendment to H.R. 5746 (Record Vote No. 9) made in Senate.", "type": "Floor"}, {"actionDate": "2022-01-19", "sourceSystem": {"name": "Senate"}, "text": "Motion by Senator Schumer to reconsider the vote by which cloture was not invoked on the motion to concur in the House amendment to the Senate amendment to H.R. 5746 (Record Vote No. 9) entered in Senate.", "type": "Floor"}, {"actionDate": "2022-01-19", "recordedVotes": [{"chamber": "Senate", "congress": 117, "date": "2022-01-20T01:53:47Z", "rollNumber": 9, "sessionNumber": 2, "url": "https://www.senate.gov/legislative/LIS/roll_call_votes/vote1172/vote_117_2_00009.xml"}], "sourceSystem": {"name": "Senate"}, "text": "Cloture on the motion to concur in the House amendment to the Senate amendment to H.R. 5746 not invoked in Senate by Yea-Nay Vote. 49 - 51. Record Vote Number: 9. (CR S339)", "type": "Floor"}, {"actionDate": "2022-01-19", "sourceSystem": {"name": "Senate"}, "text": "Considered by Senate (Message from the House considered). (consideration: CR S277-340)", "type": "Floor"}, {"actionDate": "2022-01-18", "sourceSystem": {"name": "Senate"}, "text": "Cloture motion on the motion to concur in the House amendment to the Senate amendment to H.R. 5746 presented in Senate. (CR S230)", "type": "Floor"}, {"actionDate": "2022-01-18", "committees": [{"name": "Rules and Administration Committee", "systemCode": "ssra00", "url": "https://api.congress.gov/v3/committee/senate/ssra00?format=json"}], "sourceSystem": {"name": "Senate"}, "text": "Motion by Senator Schumer to refer to Senate Committee on Rules and Administration the House message to accompany H.R. 5746 with instructions to report back forthwith with the following amendment (SA 4905) made in Senate. (CR S229)", "type": "Floor"}, {"actionDate": "2022-01-18", "sourceSystem": {"name": "Senate"}, "text": "Motion by Senator Schumer to concur in the House amendment to the Senate amendment to H.R. 5746 with an amendment (SA 4903) made in Senate. (CR S229)", "type": "Floor"}, {"actionDate": "2022-01-18", "sourceSystem": {"name": "Senate"}, "text": "Motion by Senator Schumer to concur in the House amendment to the Senate amendment to H.R. 5746 made in Senate. (CR S229)", "type": "Floor"}, {"actionDate": "2022-01-18", "sourceSystem": {"name": "Senate"}, "text": "Measure laid before Senate by motion. (consideration: CR S229-253; S253-272)", "type": "Floor"}, {"actionDate": "2022-01-18", "sourceSystem": {"name": "Senate"}, "text": "Motion to proceed to consideration of measure agreed to in Senate by Voice Vote.", "type": "Floor"}, {"actionDate": "2022-01-13", "sourceSystem": {"name": "Senate"}, "text": "Message on House action received in Senate and at desk: House amendment to Senate amendment.", "type": "Floor"}, {"actionCode": "H41931", "actionDate": "2022-01-13", "actionTime": "11:28:51", "sourceSystem": {"code": 2, "name": "House floor actions"}, "text": "Motion to reconsider laid on the table Agreed to without objection.", "type": "ResolvingDifferences"}, {"actionCode": "H41610", "actionDate": "2022-01-13", "actionTime": "11:28:49", "recordedVotes": [{"chamber": "House", "congress": 117, "date": "2022-01-13T16:28:49Z", "rollNumber": 9, "sessionNumber": 2, "url": "https://clerk.house.gov/evs/2022/roll009.xml"}], "sourceSystem": {"code": 2, "name": "House floor actions"}, "text": "On motion that the House agree with an amendment to the Senate amendment Agreed to by the Yeas and Nays: 220 - 203 (Roll no. 9).", "type": "ResolvingDifferences"}, {"actionCode": "19500", "actionDate": "2022-01-13", "recordedVotes": [{"chamber": "House", "congress": 117, "date": "2022-01-13T16:28:49Z", "rollNumber": 9, "sessionNumber": 2, "url": "https://clerk.house.gov/evs/2022/roll009.xml"}], "sourceSystem": {"code": 9, "name": "Library of Congress"}, "text": "Resolving differences -- House actions: On motion that the House agree with an amendment to the Senate amendment Agreed to by the Yeas and Nays: 220 - 203 (Roll no. 9).", "type": "NotUsed"}, {"actionCode": "H41400", "actionDate": "2022-01-13", "actionTime": "10:54:21", "sourceSystem": {"code": 2, "name": "House floor actions"}, "text": "The previous question was ordered pursuant to the rule.", "type": "ResolvingDifferences"}], "pagination": {"count": 37, "next": "https://api.congress.gov/v3/bill/117/hr/5746/actions?offset=20&limit=20&format=json"}, "request": {"billNumber": "5746", "billType": "hr", "billUrl": "https://api.congress.gov/v3/bill/117/hr/5746?format=json", "congress": "117", "contentType": "application/json", "format": "json"}}, 200]