[{"actions": [{"actionCode": "E40000", "actionDate": "2021-10-31", "sourceSystem": {"code": 9, "name": "Library of Congress"}, "text": "Became Public Law No: 117-52.", "type": "President"}, {"actionCode": "36000", "actionDate": "2021-10-31", "sourceSystem": {"code": 9, "name": "Library of Congress"}, "text": "Became Public Law No: 117-52.", "type": "BecameLaw"}, {"actionCode": "E30000", "actionDate": "2021-10-31", "sourceSystem": {"code": 9, "name": "Library of Congress"}, "text": "Signed by President.", "type": "President"}, {"actionCode": "36000", "actionDate": "2021-10-31", "sourceSystem": {"code": 9, "name": "Library of Congress"}, "text": "Signed by President.", "type": "BecameLaw"}, {"actionCode": "E20000", "actionDate": "2021-10-29", "sourceSystem": {"code": 2, "name": "House floor actions"}, "text": "Presented to President.", "type": "Floor"}, {"actionCode": "28000", "actionDate": "2021-10-29", "sourceSystem": {"code": 9, "name": "Library of Congress"}, "text": "Presented to President.", "type": "President"}, {"actionCode": "H11000", "actionDate": "2021-10-29", "committees": [{"name": "Energy, Climate and Grid Security Subcommittee", "systemCode": "hsif03", "url": "https://api.congress.gov/v3/committee/house/hsif03?format=json"}], "sourceSystem": {"code": 1, "name": "House committee actions"}, "text": "Referred to the Subcommittee on Energy.", "type": "Committee"}, {"actionDate": "2021-10-28", "sourceSystem": {"name": "Senate"}, "text": "Message on Senate action sent to the House.", "type": "Floor"}, {"actionDate": "2021-10-28", "sourceSystem": {"name": "Senate"}, "text": "See also S. 3122.", "type": "Floor"}, {"actionDate": "2021-10-28", "sourceSystem": {"name": "Senate"}, "text": "Received in the Senate, read twice, considered, read the third time, and passed, pursuant to the order of October 28, 2021, without amendment by Unanimous Consent. (consideration: CR S7455)", "type": "Floor"}, {"actionCode": "17000", "actionDate": "2021-10-28", "sourceSystem": {"code": 9, "name": "Library of Congress"}, "text": "Passed/agreed to in Senate: Received in the Senate, read twice, considered, read the third time, and passed, pursuant to the order of October 28, 2021, without amendment by Unanimous Consent.(consideration: CR S7455)", "type": "Floor"}, {"actionCode": "H8D000", "actionDate": "2021-10-28", "actionTime": "19:23:47", "sourceSystem": {"code": 2, "name": "House floor actions"}, "text": "UNANIMOUS CONSENT - Mr. Cicilline asked unanimous consent that in the engrossment of H.R. 5763, the Clerk be directed to make the following correction: On page 3, line 17, insert \"of this section\" after \"(c)\".", "type": "Floor"}, {"actionCode": "H38310", "actionDate": "2021-10-28", "actionTime": "19:14:52", "sourceSystem": {"code": 2, "name": "House floor actions"}, "text": "Motion to reconsider laid on the table Agreed to without objection.", "type": "Floor"}, {"actionCode": "H37300", "actionDate": "2021-10-28", "actionTime": "19:14:51", "recordedVotes": [{"chamber": "House", "congress": 117, "date": "2021-10-28T23:14:51Z", "rollNumber": 339, "sessionNumber": 1, "url": "https://clerk.house.gov/evs/2021/roll339.xml"}], "sourceSystem": {"code": 2, "name": "House floor actions"}, "text": "On motion to suspend the rules and pass the bill Agreed to by the Yeas and Nays: (2/3 required): 358 - 59 (Roll no. 339). (text: CR H5962-5963)", "type": "Floor"}, {"actionCode": "8000", "actionDate": "2021-10-28", "actionTime": "19:14:51", "recordedVotes": [{"chamber": "House", "congress": 117, "date": "2021-10-28T23:14:51Z", "rollNumber": 339, "sessionNumber": 1, "url": "https://clerk.house.gov/evs/2021/roll339.xml"}], "sourceSystem": {"code": 9, "name": "Library of Congress"}, "text": "Passed/agreed to in House: On motion to suspend the rules and pass the bill Agreed to by the Yeas and Nays: (2/3 required): 358 - 59 (Roll no. 339).(text: CR H5962-5963)", "type": "Floor"}, {"actionCode": "H8D000", "actionDate": "2021-10-28", "actionTime": "18:17:24", "sourceSystem": {"code": 2, "name": "House floor actions"}, "text": "DEBATE - The House proceeded with forty minutes of debate on H.R. 5763.", "type": "Floor"}, {"actionCode": "H30000", "actionDate": "2021-10-28", "actionTime": "18:17:22", "sourceSystem": {"code": 2, "name": "House floor actions"}, "text": "Considered under suspension of the rules. (consideration: CR H5962-5965)", "type": "Floor"}, {"actionCode": "H30300", "actionDate": "2021-10-28", "actionTime": "18:17:07", "sourceSystem": {"code": 2, "name": "House floor actions"}, "text": "Mr. DeFazio moved to suspend the rules and pass the bill.", "type": "Floor"}, {"actionCode": "H11100", "actionDate": "2021-10-28", "committees": [{"name": "Oversight and Accountability Committee", "systemCode": "hsgo00", "url": "https://api.congress.gov/v3/committee/house/hsgo00?format=json"}], "sourceSystem": {"code": 2, "name": "House floor actions"}, "text": "Referred to the Committee on Transportation and Infrastructure, and in addition to the Committees on Ways and Means, Natural Resources, Science, Space, and Technology, Energy and Commerce, and Oversight and Reform, for a period to be subsequently determined by the Speaker, in each case for consideration of such provisions as fall within the jurisdiction of the committee concerned.", "type": "IntroReferral"}, {"actionCode": "H11100", "actionDate": "2021-10-28", "committees": [{"name": "Energy and Commerce Committee", "systemCode": "hsif00", "url": "https://api.congress.gov/v3/committee/house/hsif00?format=json"}], "sourceSystem": {"code": 2, "name": "House floor actions"}, "text": "Referred to the Committee on Transportation and Infrastructure, and in addition to the Committees on Ways and Means, Natural Resources, Science, Space, and Technology, Energy and Commerce, and Oversight and Reform, for a period to be subsequently determined by the Speaker, in each case for consideration of such provisions as fall within the jurisdiction of the committee concerned.", "type": "IntroReferral"}], "pagination": {"count": 26, "next": "https://api.congress.gov/v3/bill/117/hr/5763/actions?offset=20&limit=20&format=json"}, "request": {"billNumber": "5763", "billType": "hr", "billUrl": "https://api.congress.gov/v3/bill/117/hr/5763?format=json", "congress": "117", "contentType": "application/json", "format": "json"}}, 200]