[{"actions": [{"actionCode": "E40000", "actionDate": "2022-12-20", "sourceSystem": {"code": 9, "name": "Library of Congress"}, "text": "Became Public Law No: 117-245.", "type": "President"}, {"actionCode": "36000", "actionDate": "2022-12-20", "sourceSystem": {"code": 9, "name": "Library of Congress"}, "text": "Became Public Law No: 117-245.", "type": "BecameLaw"}, {"actionCode": "E30000", "actionDate": "2022-12-20", "sourceSystem": {"code": 9, "name": "Library of Congress"}, "text": "Signed by President.", "type": "President"}, {"actionCode": "36000", "actionDate": "2022-12-20", "sourceSystem": {"code": 9, "name": "Library of Congress"}, "text": "Signed by President.", "type": "BecameLaw"}, {"actionCode": "E20000", "actionDate": "2022-12-16", "sourceSystem": {"code": 2, "name": "House floor actions"}, "text": "Presented to President.", "type": "Floor"}, {"actionCode": "28000", "actionDate": "2022-12-16", "sourceSystem": {"code": 9, "name": "Library of Congress"}, "text": "Presented to President.", "type": "President"}, {"actionCode": "H41931", "actionDate": "2022-12-06", "actionTime": "16:31:26", "sourceSystem": {"code": 2, "name": "House floor actions"}, "text": "Motion to reconsider laid on the table Agreed to without objection.", "type": "ResolvingDifferences"}, {"actionCode": "H41610", "actionDate": "2022-12-06", "actionTime": "16:31:24", "recordedVotes": [{"chamber": "House", "congress": 117, "date": "2022-12-06T21:31:24Z", "rollNumber": 511, "sessionNumber": 2, "url": "https://clerk.house.gov/evs/2022/roll511.xml"}], "sourceSystem": {"code": 2, "name": "House floor actions"}, "text": "On motion that the House suspend the rules and agree to the Senate amendment Agreed to by the Yeas and Nays: (2/3 required): 396 - 24 (Roll no. 511). (text: 12/05/2022 CR H8752-8753)", "type": "ResolvingDifferences"}, {"actionCode": "19500", "actionDate": "2022-12-06", "recordedVotes": [{"chamber": "House", "congress": 117, "date": "2022-12-06T21:31:24Z", "rollNumber": 511, "sessionNumber": 2, "url": "https://clerk.house.gov/evs/2022/roll511.xml"}], "sourceSystem": {"code": 9, "name": "Library of Congress"}, "text": "Resolving differences -- House actions: On motion that the House suspend the rules and agree to the Senate amendment Agreed to by the Yeas and Nays: (2/3 required): 396 - 24 (Roll no. 511).", "type": "NotUsed"}, {"actionCode": "H8D000", "actionDate": "2022-12-06", "actionTime": "16:20:29", "sourceSystem": {"code": 2, "name": "House floor actions"}, "text": "Considered as unfinished business. (consideration: CR H8771-8773; H8779-8780)", "type": "Floor"}, {"actionCode": "H40142", "actionDate": "2022-12-05", "actionTime": "16:06:23", "sourceSystem": {"code": 2, "name": "House floor actions"}, "text": "At the conclusion of debate, the Yeas and Nays were demanded and ordered. Pursuant to the provisions of clause 8, rule XX, the chair announced that further proceedings on the motion would be postponed.", "type": "ResolvingDifferences"}, {"actionCode": "H8D000", "actionDate": "2022-12-05", "actionTime": "16:00:31", "sourceSystem": {"code": 2, "name": "House floor actions"}, "text": "DEBATE - The House proceeded with forty minutes of debate on the Senate amendment to H.R. 5796.", "type": "Floor"}, {"actionCode": "H40140", "actionDate": "2022-12-05", "actionTime": "16:00:17", "sourceSystem": {"code": 2, "name": "House floor actions"}, "text": "Ms. Jackson Lee moved that the House suspend the rules and agree to the Senate amendment. (consideration: CR H8752-8754)", "type": "ResolvingDifferences"}, {"actionDate": "2022-11-30", "sourceSystem": {"name": "Senate"}, "text": "Message on Senate action sent to the House.", "type": "Floor"}, {"actionDate": "2022-11-28", "sourceSystem": {"name": "Senate"}, "text": "Passed Senate with an amendment by Unanimous Consent. (text of amendment in the nature of a substitute: CR S6828)", "type": "Floor"}, {"actionCode": "17000", "actionDate": "2022-11-28", "sourceSystem": {"code": 9, "name": "Library of Congress"}, "text": "Passed/agreed to in Senate: Passed Senate with an amendment by Unanimous Consent.(text of amendment in the nature of a substitute: CR S6828)", "type": "Floor"}, {"actionDate": "2022-11-28", "sourceSystem": {"name": "Senate"}, "text": "Measure laid before Senate by unanimous consent. (consideration: CR S6828-6829)", "type": "Floor"}, {"actionDate": "2022-11-28", "committees": [{"name": "Judiciary Committee", "systemCode": "ssju00", "url": "https://api.congress.gov/v3/committee/senate/ssju00?format=json"}], "sourceSystem": {"name": "Senate"}, "text": "Senate Committee on the Judiciary discharged by Unanimous Consent.", "type": "Discharge"}, {"actionCode": "14500", "actionDate": "2022-11-28", "committees": [{"name": "Judiciary Committee", "systemCode": "ssju00", "url": "https://api.congress.gov/v3/committee/senate/ssju00?format=json"}], "sourceSystem": {"code": 9, "name": "Library of Congress"}, "text": "Senate Committee on the Judiciary discharged by Unanimous Consent.", "type": "Committee"}, {"actionDate": "2022-04-28", "committees": [{"name": "Judiciary Committee", "systemCode": "ssju00", "url": "https://api.congress.gov/v3/committee/senate/ssju00?format=json"}], "sourceSystem": {"name": "Senate"}, "text": "Received in the Senate and Read twice and referred to the Committee on the Judiciary.", "type": "IntroReferral"}], "pagination": {"count": 34, "next": "https://api.congress.gov/v3/bill/117/hr/5796/actions?offset=20&limit=20&format=json"}, "request": {"billNumber": "5796", "billType": "hr", "billUrl": "https://api.congress.gov/v3/bill/117/hr/5796?format=json", "congress": "117", "contentType": "application/json", "format": "json"}}, 200]