[{"actions": [{"actionCode": "E40000", "actionDate": "2022-12-27", "sourceSystem": {"code": 9, "name": "Library of Congress"}, "text": "Became Public Law No: 117-282.", "type": "President"}, {"actionCode": "36000", "actionDate": "2022-12-27", "sourceSystem": {"code": 9, "name": "Library of Congress"}, "text": "Became Public Law No: 117-282.", "type": "BecameLaw"}, {"actionCode": "E30000", "actionDate": "2022-12-27", "sourceSystem": {"code": 9, "name": "Library of Congress"}, "text": "Signed by President.", "type": "President"}, {"actionCode": "36000", "actionDate": "2022-12-27", "sourceSystem": {"code": 9, "name": "Library of Congress"}, "text": "Signed by President.", "type": "BecameLaw"}, {"actionCode": "E20000", "actionDate": "2022-12-23", "sourceSystem": {"code": 2, "name": "House floor actions"}, "text": "Presented to President.", "type": "Floor"}, {"actionCode": "28000", "actionDate": "2022-12-23", "sourceSystem": {"code": 9, "name": "Library of Congress"}, "text": "Presented to President.", "type": "President"}, {"actionDate": "2022-12-20", "sourceSystem": {"name": "Senate"}, "text": "Message on Senate action sent to the House.", "type": "Floor"}, {"actionDate": "2022-12-19", "sourceSystem": {"name": "Senate"}, "text": "Passed Senate without amendment by Unanimous Consent. (consideration: CR S7282-7283)", "type": "Floor"}, {"actionCode": "17000", "actionDate": "2022-12-19", "sourceSystem": {"code": 9, "name": "Library of Congress"}, "text": "Passed/agreed to in Senate: Passed Senate without amendment by Unanimous Consent.", "type": "Floor"}, {"actionDate": "2022-09-15", "sourceSystem": {"name": "Senate"}, "text": "Received in the Senate, read twice.", "type": "IntroReferral"}, {"actionCode": "H37300", "actionDate": "2022-09-14", "actionTime": "15:18:13", "sourceSystem": {"code": 2, "name": "House floor actions"}, "text": "Pursuant to section 11 of H. Res. 1339, and the motion offered by Mr. Hoyer, the following bills passed under suspension of the rules: H.R. 1468, as amended; H.R. 5865; H.R. 5916, as amended; H.R. 7735, as amended; H.R. 7846; H.R. 7939, as amended; H.R. 8260, as amended; and S. 4205. (consideration: CR H7814-7822; text: CR H7821)", "type": "Floor"}, {"actionCode": "8000", "actionDate": "2022-09-14", "actionTime": "15:18:13", "sourceSystem": {"code": 9, "name": "Library of Congress"}, "text": "Passed/agreed to in House: Pursuant to section 11 of H. Res. 1339, and the motion offered by Mr. Hoyer, the following bills passed under suspension of the rules: H.R. 1468, as amended; H.R. 5865; H.R. 5916, as amended; H.R. 7735, as amended; H.R. 7846; H.R. 7939, as amended; H.R. 8260, as amended; and S. 4205.", "type": "Floor"}, {"actionCode": "H1B000", "actionDate": "2022-09-14", "actionTime": "15:18:12", "sourceSystem": {"code": 2, "name": "House floor actions"}, "text": "Pursuant to the provisions of H. Res. 1339, proceedings on H.R. 5865 are considered vacated.", "type": "Floor"}, {"actionCode": "H37220", "actionDate": "2022-09-13", "actionTime": "16:53:03", "sourceSystem": {"code": 2, "name": "House floor actions"}, "text": "At the conclusion of debate, the Yeas and Nays were demanded and ordered. Pursuant to the provisions of clause 8, rule XX, the Chair announced that further proceedings on the motion would be postponed.", "type": "Floor"}, {"actionCode": "H30000", "actionDate": "2022-09-13", "actionTime": "16:48:35", "sourceSystem": {"code": 2, "name": "House floor actions"}, "text": "Considered under suspension of the rules. (consideration: CR H7773-7774; text: CR H7774)", "type": "Floor"}, {"actionCode": "H30300", "actionDate": "2022-09-13", "actionTime": "16:48:15", "sourceSystem": {"code": 2, "name": "House floor actions"}, "text": "Ms. Norton moved to suspend the rules and pass the bill.", "type": "Floor"}, {"actionCode": "H19000", "actionDate": "2022-04-06", "committees": [{"name": "Oversight and Accountability Committee", "systemCode": "hsgo00", "url": "https://api.congress.gov/v3/committee/house/hsgo00?format=json"}], "sourceSystem": {"code": 1, "name": "House committee actions"}, "text": "Ordered to be Reported by Unanimous Consent.", "type": "Committee"}, {"actionCode": "H15000-B", "actionDate": "2022-04-06", "committees": [{"name": "Oversight and Accountability Committee", "systemCode": "hsgo00", "url": "https://api.congress.gov/v3/committee/house/hsgo00?format=json"}], "sourceSystem": {"code": 1, "name": "House committee actions"}, "text": "Committee Consideration and Mark-up Session Held.", "type": "Committee"}, {"actionCode": "H11100", "actionDate": "2021-11-04", "committees": [{"name": "Oversight and Accountability Committee", "systemCode": "hsgo00", "url": "https://api.congress.gov/v3/committee/house/hsgo00?format=json"}], "sourceSystem": {"code": 2, "name": "House floor actions"}, "text": "Referred to the House Committee on Oversight and Reform.", "type": "IntroReferral"}, {"actionCode": "Intro-H", "actionDate": "2021-11-04", "sourceSystem": {"code": 9, "name": "Library of Congress"}, "text": "Introduced in House", "type": "IntroReferral"}], "pagination": {"count": 21, "next": "https://api.congress.gov/v3/bill/117/hr/5865/actions?offset=20&limit=20&format=json"}, "request": {"billNumber": "5865", "billType": "hr", "billUrl": "https://api.congress.gov/v3/bill/117/hr/5865?format=json", "congress": "117", "contentType": "application/json", "format": "json"}}, 200]