[{"actions": [{"actionCode": "E40000", "actionDate": "2022-12-27", "sourceSystem": {"code": 9, "name": "Library of Congress"}, "text": "Became Public Law No: 117-284.", "type": "President"}, {"actionCode": "36000", "actionDate": "2022-12-27", "sourceSystem": {"code": 9, "name": "Library of Congress"}, "text": "Became Public Law No: 117-284.", "type": "BecameLaw"}, {"actionCode": "E30000", "actionDate": "2022-12-27", "sourceSystem": {"code": 9, "name": "Library of Congress"}, "text": "Signed by President.", "type": "President"}, {"actionCode": "36000", "actionDate": "2022-12-27", "sourceSystem": {"code": 9, "name": "Library of Congress"}, "text": "Signed by President.", "type": "BecameLaw"}, {"actionCode": "E20000", "actionDate": "2022-12-23", "sourceSystem": {"code": 2, "name": "House floor actions"}, "text": "Presented to President.", "type": "Floor"}, {"actionCode": "28000", "actionDate": "2022-12-23", "sourceSystem": {"code": 9, "name": "Library of Congress"}, "text": "Presented to President.", "type": "President"}, {"actionDate": "2022-12-15", "sourceSystem": {"name": "Senate"}, "text": "Message on Senate action sent to the House.", "type": "Floor"}, {"actionDate": "2022-12-14", "sourceSystem": {"name": "Senate"}, "text": "Passed Senate without amendment by Unanimous Consent. (consideration: CR S7185)", "type": "Floor"}, {"actionCode": "17000", "actionDate": "2022-12-14", "sourceSystem": {"code": 9, "name": "Library of Congress"}, "text": "Passed/agreed to in Senate: Passed Senate without amendment by Unanimous Consent.(consideration: CR S7185)", "type": "Floor"}, {"actionDate": "2022-12-14", "committees": [{"name": "Veterans' Affairs Committee", "systemCode": "ssva00", "url": "https://api.congress.gov/v3/committee/senate/ssva00?format=json"}], "sourceSystem": {"name": "Senate"}, "text": "Senate Committee on Veterans' Affairs discharged by Unanimous Consent.", "type": "Discharge"}, {"actionCode": "14500", "actionDate": "2022-12-14", "committees": [{"name": "Veterans' Affairs Committee", "systemCode": "ssva00", "url": "https://api.congress.gov/v3/committee/senate/ssva00?format=json"}], "sourceSystem": {"code": 9, "name": "Library of Congress"}, "text": "Senate Committee on Veterans' Affairs discharged by Unanimous Consent.", "type": "Committee"}, {"actionDate": "2022-12-05", "committees": [{"name": "Veterans' Affairs Committee", "systemCode": "ssva00", "url": "https://api.congress.gov/v3/committee/senate/ssva00?format=json"}], "sourceSystem": {"name": "Senate"}, "text": "Received in the Senate and Read twice and referred to the Committee on Veterans' Affairs.", "type": "IntroReferral"}, {"actionCode": "H37300", "actionDate": "2022-12-01", "actionTime": "17:10:30", "sourceSystem": {"code": 2, "name": "House floor actions"}, "text": "Pursuant to section 5 of H. Res. 1499, and the motion offered by Mr. Hoyer, the following bills passed under suspension of the rules: H.R. 4601, as amended; H.R. 4772, as amended; H.R. 4899; H.R. 5943, as amended; H.R. 7158, as amended; H.R. 8203; H.R. 9308; and S. 3825; and the following resolutions were agreed to under suspension of the rules: H. Res. 744, as amended; and H. Res. 922, as amended. (consideration: CR H8696-8700; text: CR H8697)", "type": "Floor"}, {"actionCode": "8000", "actionDate": "2022-12-01", "actionTime": "17:10:30", "sourceSystem": {"code": 9, "name": "Library of Congress"}, "text": "Passed/agreed to in House: Pursuant to section 5 of H. Res. 1499, and the motion offered by Mr. Hoyer, the following bills passed under suspension of the rules: H.R. 4601, as amended; H.R. 4772, as amended; H.R. 4899; H.R. 5943, as amended; H.R. 7158, as amended; H.R. 8203; H.R. 9308; and S. 3825; and the following resolutions were agreed to under suspension of the rules: H. Res. 744, as amended; and H. Res. 922, as amended.(consideration: CR H8696-8700; text: CR H8697)", "type": "Floor"}, {"actionCode": "H1B000", "actionDate": "2022-12-01", "actionTime": "17:10:27", "sourceSystem": {"code": 2, "name": "House floor actions"}, "text": "Pursuant to the provisions of H. Res. 1499, proceedings on H.R. 5943 are considered vacated.", "type": "Floor"}, {"actionCode": "H38800", "actionDate": "2022-12-01", "actionTime": "15:59:56", "sourceSystem": {"code": 2, "name": "House floor actions"}, "text": "The title of the measure was amended. Agreed to without objection.", "type": "Floor"}, {"actionCode": "H37220", "actionDate": "2022-11-29", "actionTime": "14:43:56", "sourceSystem": {"code": 2, "name": "House floor actions"}, "text": "At the conclusion of debate, the Yeas and Nays were demanded and ordered. Pursuant to the provisions of clause 8, rule XX, the Chair announced that further proceedings on the motion would be postponed.", "type": "Floor"}, {"actionCode": "H8D000", "actionDate": "2022-11-29", "actionTime": "14:36:03", "sourceSystem": {"code": 2, "name": "House floor actions"}, "text": "DEBATE - The House proceeded with forty minutes of debate on H.R. 5943.", "type": "Floor"}, {"actionCode": "H30000", "actionDate": "2022-11-29", "actionTime": "14:35:59", "sourceSystem": {"code": 2, "name": "House floor actions"}, "text": "Considered under suspension of the rules. (consideration: CR H8605-8607; text: CR H8605)", "type": "Floor"}, {"actionCode": "H30300", "actionDate": "2022-11-29", "actionTime": "14:35:40", "sourceSystem": {"code": 2, "name": "House floor actions"}, "text": "Mr. Takano moved to suspend the rules and pass the bill, as amended.", "type": "Floor"}], "pagination": {"count": 24, "next": "https://api.congress.gov/v3/bill/117/hr/5943/actions?offset=20&limit=20&format=json"}, "request": {"billNumber": "5943", "billType": "hr", "billUrl": "https://api.congress.gov/v3/bill/117/hr/5943?format=json", "congress": "117", "contentType": "application/json", "format": "json"}}, 200]