[{"actions": [{"actionCode": "H11000", "actionDate": "2022-11-01", "committees": [{"name": "Crime and Federal Government Surveillance Subcommittee", "systemCode": "hsju08", "url": "https://api.congress.gov/v3/committee/house/hsju08?format=json"}], "sourceSystem": {"code": 1, "name": "House committee actions"}, "text": "Referred to the Subcommittee on Crime, Terrorism, and Homeland Security.", "type": "Committee"}, {"actionCode": "H11000", "actionDate": "2022-01-06", "committees": [{"name": "Health Subcommittee", "systemCode": "hsvr03", "url": "https://api.congress.gov/v3/committee/house/hsvr03?format=json"}], "sourceSystem": {"code": 1, "name": "House committee actions"}, "text": "Referred to the Subcommittee on Health.", "type": "Committee"}, {"actionCode": "H11000", "actionDate": "2021-12-22", "committees": [{"name": "Federal Lands Subcommittee", "systemCode": "hsii10", "url": "https://api.congress.gov/v3/committee/house/hsii10?format=json"}], "sourceSystem": {"code": 1, "name": "House committee actions"}, "text": "Referred to the Subcommittee on National Parks, Forests, and Public Lands.", "type": "Committee"}, {"actionCode": "H11000", "actionDate": "2021-12-22", "committees": [{"name": "Indian and Insular Affairs Subcommittee", "systemCode": "hsii24", "url": "https://api.congress.gov/v3/committee/house/hsii24?format=json"}], "sourceSystem": {"code": 1, "name": "House committee actions"}, "text": "Referred to the Subcommittee for Indigenous Peoples of the United States.", "type": "Committee"}, {"actionCode": "H11000", "actionDate": "2021-11-16", "committees": [{"name": "Coast Guard and Maritime Transportation Subcommittee", "systemCode": "hspw07", "url": "https://api.congress.gov/v3/committee/house/hspw07?format=json"}], "sourceSystem": {"code": 1, "name": "House committee actions"}, "text": "Referred to the Subcommittee on Coast Guard and Maritime Transportation.", "type": "Committee"}, {"actionCode": "H11000", "actionDate": "2021-11-16", "committees": [{"name": "Railroads, Pipelines, and Hazardous Materials Subcommittee", "systemCode": "hspw14", "url": "https://api.congress.gov/v3/committee/house/hspw14?format=json"}], "sourceSystem": {"code": 1, "name": "House committee actions"}, "text": "Referred to the Subcommittee on Railroads, Pipelines, and Hazardous Materials.", "type": "Committee"}, {"actionCode": "H11000", "actionDate": "2021-11-16", "committees": [{"name": "Highways and Transit Subcommittee", "systemCode": "hspw12", "url": "https://api.congress.gov/v3/committee/house/hspw12?format=json"}], "sourceSystem": {"code": 1, "name": "House committee actions"}, "text": "Referred to the Subcommittee on Highways and Transit.", "type": "Committee"}, {"actionCode": "H11000", "actionDate": "2021-11-16", "committees": [{"name": "Aviation Subcommittee", "systemCode": "hspw05", "url": "https://api.congress.gov/v3/committee/house/hspw05?format=json"}], "sourceSystem": {"code": 1, "name": "House committee actions"}, "text": "Referred to the Subcommittee on Aviation.", "type": "Committee"}, {"actionCode": "H11000", "actionDate": "2021-11-16", "committees": [{"name": "Health Subcommittee", "systemCode": "hsif14", "url": "https://api.congress.gov/v3/committee/house/hsif14?format=json"}], "sourceSystem": {"code": 1, "name": "House committee actions"}, "text": "Referred to the Subcommittee on Health.", "type": "Committee"}, {"actionCode": "H11100", "actionDate": "2021-11-15", "committees": [{"name": "Foreign Affairs Committee", "systemCode": "hsfa00", "url": "https://api.congress.gov/v3/committee/house/hsfa00?format=json"}], "sourceSystem": {"code": 2, "name": "House floor actions"}, "text": "Referred to the Committee on the Judiciary, and in addition to the Committees on Energy and Commerce, Natural Resources, Agriculture, Transportation and Infrastructure, Armed Services, Ways and Means, Small Business, Veterans' Affairs, Oversight and Reform, Education and Labor, and Foreign Affairs, for a period to be subsequently determined by the Speaker, in each case for consideration of such provisions as fall within the jurisdiction of the committee concerned.", "type": "IntroReferral"}, {"actionCode": "H11100", "actionDate": "2021-11-15", "committees": [{"name": "Education and the Workforce Committee", "systemCode": "hsed00", "url": "https://api.congress.gov/v3/committee/house/hsed00?format=json"}], "sourceSystem": {"code": 2, "name": "House floor actions"}, "text": "Referred to the Committee on the Judiciary, and in addition to the Committees on Energy and Commerce, Natural Resources, Agriculture, Transportation and Infrastructure, Armed Services, Ways and Means, Small Business, Veterans' Affairs, Oversight and Reform, Education and Labor, and Foreign Affairs, for a period to be subsequently determined by the Speaker, in each case for consideration of such provisions as fall within the jurisdiction of the committee concerned.", "type": "IntroReferral"}, {"actionCode": "H11100", "actionDate": "2021-11-15", "committees": [{"name": "Oversight and Accountability Committee", "systemCode": "hsgo00", "url": "https://api.congress.gov/v3/committee/house/hsgo00?format=json"}], "sourceSystem": {"code": 2, "name": "House floor actions"}, "text": "Referred to the Committee on the Judiciary, and in addition to the Committees on Energy and Commerce, Natural Resources, Agriculture, Transportation and Infrastructure, Armed Services, Ways and Means, Small Business, Veterans' Affairs, Oversight and Reform, Education and Labor, and Foreign Affairs, for a period to be subsequently determined by the Speaker, in each case for consideration of such provisions as fall within the jurisdiction of the committee concerned.", "type": "IntroReferral"}, {"actionCode": "H11100", "actionDate": "2021-11-15", "committees": [{"name": "Veterans' Affairs Committee", "systemCode": "hsvr00", "url": "https://api.congress.gov/v3/committee/house/hsvr00?format=json"}], "sourceSystem": {"code": 2, "name": "House floor actions"}, "text": "Referred to the Committee on the Judiciary, and in addition to the Committees on Energy and Commerce, Natural Resources, Agriculture, Transportation and Infrastructure, Armed Services, Ways and Means, Small Business, Veterans' Affairs, Oversight and Reform, Education and Labor, and Foreign Affairs, for a period to be subsequently determined by the Speaker, in each case for consideration of such provisions as fall within the jurisdiction of the committee concerned.", "type": "IntroReferral"}, {"actionCode": "H11100", "actionDate": "2021-11-15", "committees": [{"name": "Small Business Committee", "systemCode": "hssm00", "url": "https://api.congress.gov/v3/committee/house/hssm00?format=json"}], "sourceSystem": {"code": 2, "name": "House floor actions"}, "text": "Referred to the Committee on the Judiciary, and in addition to the Committees on Energy and Commerce, Natural Resources, Agriculture, Transportation and Infrastructure, Armed Services, Ways and Means, Small Business, Veterans' Affairs, Oversight and Reform, Education and Labor, and Foreign Affairs, for a period to be subsequently determined by the Speaker, in each case for consideration of such provisions as fall within the jurisdiction of the committee concerned.", "type": "IntroReferral"}, {"actionCode": "H11100", "actionDate": "2021-11-15", "committees": [{"name": "Ways and Means Committee", "systemCode": "hswm00", "url": "https://api.congress.gov/v3/committee/house/hswm00?format=json"}], "sourceSystem": {"code": 2, "name": "House floor actions"}, "text": "Referred to the Committee on the Judiciary, and in addition to the Committees on Energy and Commerce, Natural Resources, Agriculture, Transportation and Infrastructure, Armed Services, Ways and Means, Small Business, Veterans' Affairs, Oversight and Reform, Education and Labor, and Foreign Affairs, for a period to be subsequently determined by the Speaker, in each case for consideration of such provisions as fall within the jurisdiction of the committee concerned.", "type": "IntroReferral"}, {"actionCode": "H11100", "actionDate": "2021-11-15", "committees": [{"name": "Armed Services Committee", "systemCode": "hsas00", "url": "https://api.congress.gov/v3/committee/house/hsas00?format=json"}], "sourceSystem": {"code": 2, "name": "House floor actions"}, "text": "Referred to the Committee on the Judiciary, and in addition to the Committees on Energy and Commerce, Natural Resources, Agriculture, Transportation and Infrastructure, Armed Services, Ways and Means, Small Business, Veterans' Affairs, Oversight and Reform, Education and Labor, and Foreign Affairs, for a period to be subsequently determined by the Speaker, in each case for consideration of such provisions as fall within the jurisdiction of the committee concerned.", "type": "IntroReferral"}, {"actionCode": "H11100", "actionDate": "2021-11-15", "committees": [{"name": "Transportation and Infrastructure Committee", "systemCode": "hspw00", "url": "https://api.congress.gov/v3/committee/house/hspw00?format=json"}], "sourceSystem": {"code": 2, "name": "House floor actions"}, "text": "Referred to the Committee on the Judiciary, and in addition to the Committees on Energy and Commerce, Natural Resources, Agriculture, Transportation and Infrastructure, Armed Services, Ways and Means, Small Business, Veterans' Affairs, Oversight and Reform, Education and Labor, and Foreign Affairs, for a period to be subsequently determined by the Speaker, in each case for consideration of such provisions as fall within the jurisdiction of the committee concerned.", "type": "IntroReferral"}, {"actionCode": "H11100", "actionDate": "2021-11-15", "committees": [{"name": "Agriculture Committee", "systemCode": "hsag00", "url": "https://api.congress.gov/v3/committee/house/hsag00?format=json"}], "sourceSystem": {"code": 2, "name": "House floor actions"}, "text": "Referred to the Committee on the Judiciary, and in addition to the Committees on Energy and Commerce, Natural Resources, Agriculture, Transportation and Infrastructure, Armed Services, Ways and Means, Small Business, Veterans' Affairs, Oversight and Reform, Education and Labor, and Foreign Affairs, for a period to be subsequently determined by the Speaker, in each case for consideration of such provisions as fall within the jurisdiction of the committee concerned.", "type": "IntroReferral"}, {"actionCode": "H11100", "actionDate": "2021-11-15", "committees": [{"name": "Natural Resources Committee", "systemCode": "hsii00", "url": "https://api.congress.gov/v3/committee/house/hsii00?format=json"}], "sourceSystem": {"code": 2, "name": "House floor actions"}, "text": "Referred to the Committee on the Judiciary, and in addition to the Committees on Energy and Commerce, Natural Resources, Agriculture, Transportation and Infrastructure, Armed Services, Ways and Means, Small Business, Veterans' Affairs, Oversight and Reform, Education and Labor, and Foreign Affairs, for a period to be subsequently determined by the Speaker, in each case for consideration of such provisions as fall within the jurisdiction of the committee concerned.", "type": "IntroReferral"}, {"actionCode": "H11100", "actionDate": "2021-11-15", "committees": [{"name": "Energy and Commerce Committee", "systemCode": "hsif00", "url": "https://api.congress.gov/v3/committee/house/hsif00?format=json"}], "sourceSystem": {"code": 2, "name": "House floor actions"}, "text": "Referred to the Committee on the Judiciary, and in addition to the Committees on Energy and Commerce, Natural Resources, Agriculture, Transportation and Infrastructure, Armed Services, Ways and Means, Small Business, Veterans' Affairs, Oversight and Reform, Education and Labor, and Foreign Affairs, for a period to be subsequently determined by the Speaker, in each case for consideration of such provisions as fall within the jurisdiction of the committee concerned.", "type": "IntroReferral"}], "pagination": {"count": 23, "next": "https://api.congress.gov/v3/bill/117/hr/5977/actions?offset=20&limit=20&format=json"}, "request": {"billNumber": "5977", "billType": "hr", "billUrl": "https://api.congress.gov/v3/bill/117/hr/5977?format=json", "congress": "117", "contentType": "application/json", "format": "json"}}, 200]