[{"actions": [{"actionCode": "E40000", "actionDate": "2022-12-27", "sourceSystem": {"code": 9, "name": "Library of Congress"}, "text": "Became Public Law No: 117-287.", "type": "President"}, {"actionCode": "36000", "actionDate": "2022-12-27", "sourceSystem": {"code": 9, "name": "Library of Congress"}, "text": "Became Public Law No: 117-287.", "type": "BecameLaw"}, {"actionCode": "E30000", "actionDate": "2022-12-27", "sourceSystem": {"code": 9, "name": "Library of Congress"}, "text": "Signed by President.", "type": "President"}, {"actionCode": "36000", "actionDate": "2022-12-27", "sourceSystem": {"code": 9, "name": "Library of Congress"}, "text": "Signed by President.", "type": "BecameLaw"}, {"actionCode": "E20000", "actionDate": "2022-12-23", "sourceSystem": {"code": 2, "name": "House floor actions"}, "text": "Presented to President.", "type": "Floor"}, {"actionCode": "28000", "actionDate": "2022-12-23", "sourceSystem": {"code": 9, "name": "Library of Congress"}, "text": "Presented to President.", "type": "President"}, {"actionDate": "2022-12-15", "sourceSystem": {"name": "Senate"}, "text": "Message on Senate action sent to the House.", "type": "Floor"}, {"actionDate": "2022-12-14", "sourceSystem": {"name": "Senate"}, "text": "Passed Senate without amendment by Unanimous Consent. (consideration: CR S7187-7188)", "type": "Floor"}, {"actionCode": "17000", "actionDate": "2022-12-14", "sourceSystem": {"code": 9, "name": "Library of Congress"}, "text": "Passed/agreed to in Senate: Passed Senate without amendment by Unanimous Consent.(consideration: CR S7187-7188)", "type": "Floor"}, {"actionDate": "2022-12-14", "committees": [{"name": "Environment and Public Works Committee", "systemCode": "ssev00", "url": "https://api.congress.gov/v3/committee/senate/ssev00?format=json"}], "sourceSystem": {"name": "Senate"}, "text": "Senate Committee on Environment and Public Works discharged by Unanimous Consent.", "type": "Discharge"}, {"actionCode": "14500", "actionDate": "2022-12-14", "committees": [{"name": "Environment and Public Works Committee", "systemCode": "ssev00", "url": "https://api.congress.gov/v3/committee/senate/ssev00?format=json"}], "sourceSystem": {"code": 9, "name": "Library of Congress"}, "text": "Senate Committee on Environment and Public Works discharged by Unanimous Consent.", "type": "Committee"}, {"actionDate": "2022-04-27", "committees": [{"name": "Environment and Public Works Committee", "systemCode": "ssev00", "url": "https://api.congress.gov/v3/committee/senate/ssev00?format=json"}], "sourceSystem": {"name": "Senate"}, "text": "Received in the Senate and Read twice and referred to the Committee on Environment and Public Works.", "type": "IntroReferral"}, {"actionCode": "H38310", "actionDate": "2022-04-26", "actionTime": "15:51:26", "sourceSystem": {"code": 2, "name": "House floor actions"}, "text": "Motion to reconsider laid on the table Agreed to without objection.", "type": "Floor"}, {"actionCode": "H37300", "actionDate": "2022-04-26", "actionTime": "15:51:24", "sourceSystem": {"code": 2, "name": "House floor actions"}, "text": "On motion to suspend the rules and pass the bill, as amended Agreed to by voice vote. (text: CR H4482)", "type": "Floor"}, {"actionCode": "8000", "actionDate": "2022-04-26", "actionTime": "15:51:24", "sourceSystem": {"code": 9, "name": "Library of Congress"}, "text": "Passed/agreed to in House: On motion to suspend the rules and pass the bill, as amended Agreed to by voice vote.(text: CR H4482)", "type": "Floor"}, {"actionCode": "H8D000", "actionDate": "2022-04-26", "actionTime": "15:44:23", "sourceSystem": {"code": 2, "name": "House floor actions"}, "text": "DEBATE - The House proceeded with forty minutes of debate on H.R. 5973.", "type": "Floor"}, {"actionCode": "H30000", "actionDate": "2022-04-26", "actionTime": "15:44:21", "sourceSystem": {"code": 2, "name": "House floor actions"}, "text": "Considered under suspension of the rules. (consideration: CR H4482-4483)", "type": "Floor"}, {"actionCode": "H30300", "actionDate": "2022-04-26", "actionTime": "15:44:10", "sourceSystem": {"code": 2, "name": "House floor actions"}, "text": "Mr. Grijalva moved to suspend the rules and pass the bill, as amended.", "type": "Floor"}, {"actionCode": "H12410", "actionDate": "2022-04-25", "calendarNumber": {"calendar": "U00220"}, "sourceSystem": {"code": 2, "name": "House floor actions"}, "text": "Placed on the Union Calendar, Calendar No. 220.", "type": "Calendars"}, {"actionCode": "H12200", "actionDate": "2022-04-25", "committees": [{"name": "Natural Resources Committee", "systemCode": "hsii00", "url": "https://api.congress.gov/v3/committee/house/hsii00?format=json"}], "sourceSystem": {"code": 2, "name": "House floor actions"}, "text": "Reported (Amended) by the Committee on Natural Resources. H. Rept. 117-298.", "type": "Committee"}], "pagination": {"count": 29, "next": "https://api.congress.gov/v3/bill/117/hr/5973/actions?offset=20&limit=20&format=json"}, "request": {"billNumber": "5973", "billType": "hr", "billUrl": "https://api.congress.gov/v3/bill/117/hr/5973?format=json", "congress": "117", "contentType": "application/json", "format": "json"}}, 200]