[{"actions": [{"actionCode": "E40000", "actionDate": "2022-05-16", "sourceSystem": {"code": 9, "name": "Library of Congress"}, "text": "Became Public Law No: 117-127.", "type": "President"}, {"actionCode": "36000", "actionDate": "2022-05-16", "sourceSystem": {"code": 9, "name": "Library of Congress"}, "text": "Became Public Law No: 117-127.", "type": "BecameLaw"}, {"actionCode": "E30000", "actionDate": "2022-05-16", "sourceSystem": {"code": 9, "name": "Library of Congress"}, "text": "Signed by President.", "type": "President"}, {"actionCode": "36000", "actionDate": "2022-05-16", "sourceSystem": {"code": 9, "name": "Library of Congress"}, "text": "Signed by President.", "type": "BecameLaw"}, {"actionCode": "E20000", "actionDate": "2022-05-11", "sourceSystem": {"code": 2, "name": "House floor actions"}, "text": "Presented to President.", "type": "Floor"}, {"actionCode": "28000", "actionDate": "2022-05-11", "sourceSystem": {"code": 9, "name": "Library of Congress"}, "text": "Presented to President.", "type": "President"}, {"actionDate": "2022-05-04", "sourceSystem": {"name": "Senate"}, "text": "Message on Senate action sent to the House.", "type": "Floor"}, {"actionDate": "2022-05-03", "sourceSystem": {"name": "Senate"}, "text": "Passed Senate without amendment by Voice Vote. (consideration: CR S2291)", "type": "Floor"}, {"actionCode": "17000", "actionDate": "2022-05-03", "sourceSystem": {"code": 9, "name": "Library of Congress"}, "text": "Passed/agreed to in Senate: Passed Senate without amendment by Voice Vote.(consideration: CR S2291)", "type": "Floor"}, {"actionDate": "2022-04-27", "sourceSystem": {"name": "Senate"}, "text": "Received in the Senate, read twice.", "type": "IntroReferral"}, {"actionCode": "H38310", "actionDate": "2022-04-26", "actionTime": "15:57:37", "sourceSystem": {"code": 2, "name": "House floor actions"}, "text": "Motion to reconsider laid on the table Agreed to without objection.", "type": "Floor"}, {"actionCode": "H37300", "actionDate": "2022-04-26", "actionTime": "15:57:35", "sourceSystem": {"code": 2, "name": "House floor actions"}, "text": "On motion to suspend the rules and pass the bill, as amended Agreed to by voice vote. (text: CR H4483)", "type": "Floor"}, {"actionCode": "8000", "actionDate": "2022-04-26", "actionTime": "15:57:35", "sourceSystem": {"code": 9, "name": "Library of Congress"}, "text": "Passed/agreed to in House: On motion to suspend the rules and pass the bill, as amended Agreed to by voice vote.", "type": "Floor"}, {"actionCode": "H8D000", "actionDate": "2022-04-26", "actionTime": "15:51:56", "sourceSystem": {"code": 2, "name": "House floor actions"}, "text": "DEBATE - The House proceeded with forty minutes of debate on H.R. 6023.", "type": "Floor"}, {"actionCode": "H30000", "actionDate": "2022-04-26", "actionTime": "15:51:54", "sourceSystem": {"code": 2, "name": "House floor actions"}, "text": "Considered under suspension of the rules. (consideration: CR S4483-4484)", "type": "Floor"}, {"actionCode": "H30300", "actionDate": "2022-04-26", "actionTime": "15:51:42", "sourceSystem": {"code": 2, "name": "House floor actions"}, "text": "Mr. Grijalva moved to suspend the rules and pass the bill, as amended.", "type": "Floor"}, {"actionCode": "H12200", "actionDate": "2022-04-25", "committees": [{"name": "Natural Resources Committee", "systemCode": "hsii00", "url": "https://api.congress.gov/v3/committee/house/hsii00?format=json"}], "sourceSystem": {"code": 2, "name": "House floor actions"}, "text": "Reported (Amended) by the Committee on Natural Resources. H. Rept. 117-301, Part I.", "type": "Committee"}, {"actionCode": "5000", "actionDate": "2022-04-25", "committees": [{"name": "Natural Resources Committee", "systemCode": "hsii00", "url": "https://api.congress.gov/v3/committee/house/hsii00?format=json"}], "sourceSystem": {"code": 9, "name": "Library of Congress"}, "text": "Reported (Amended) by the Committee on Natural Resources. H. Rept. 117-301, Part I.", "type": "Committee"}, {"actionCode": "H19000", "actionDate": "2022-02-16", "committees": [{"name": "Natural Resources Committee", "systemCode": "hsii00", "url": "https://api.congress.gov/v3/committee/house/hsii00?format=json"}], "sourceSystem": {"code": 1, "name": "House committee actions"}, "text": "Ordered to be Reported (Amended) by Unanimous Consent.", "type": "Committee"}, {"actionCode": "H15000-B", "actionDate": "2022-02-16", "committees": [{"name": "Natural Resources Committee", "systemCode": "hsii00", "url": "https://api.congress.gov/v3/committee/house/hsii00?format=json"}], "sourceSystem": {"code": 1, "name": "House committee actions"}, "text": "Committee Consideration and Mark-up Session Held.", "type": "Committee"}], "pagination": {"count": 28, "next": "https://api.congress.gov/v3/bill/117/hr/6023/actions?offset=20&limit=20&format=json"}, "request": {"billNumber": "6023", "billType": "hr", "billUrl": "https://api.congress.gov/v3/bill/117/hr/6023?format=json", "congress": "117", "contentType": "application/json", "format": "json"}}, 200]