[{"actions": [{"actionCode": "E40000", "actionDate": "2022-12-27", "sourceSystem": {"code": 9, "name": "Library of Congress"}, "text": "Became Public Law No: 117-289.", "type": "President"}, {"actionCode": "36000", "actionDate": "2022-12-27", "sourceSystem": {"code": 9, "name": "Library of Congress"}, "text": "Became Public Law No: 117-289.", "type": "BecameLaw"}, {"actionCode": "E30000", "actionDate": "2022-12-27", "sourceSystem": {"code": 9, "name": "Library of Congress"}, "text": "Signed by President.", "type": "President"}, {"actionCode": "36000", "actionDate": "2022-12-27", "sourceSystem": {"code": 9, "name": "Library of Congress"}, "text": "Signed by President.", "type": "BecameLaw"}, {"actionCode": "E20000", "actionDate": "2022-12-23", "sourceSystem": {"code": 2, "name": "House floor actions"}, "text": "Presented to President.", "type": "Floor"}, {"actionCode": "28000", "actionDate": "2022-12-23", "sourceSystem": {"code": 9, "name": "Library of Congress"}, "text": "Presented to President.", "type": "President"}, {"actionDate": "2022-12-20", "sourceSystem": {"name": "Senate"}, "text": "Message on Senate action sent to the House.", "type": "Floor"}, {"actionDate": "2022-12-19", "sourceSystem": {"name": "Senate"}, "text": "Passed Senate without amendment by Unanimous Consent. (consideration: CR S7302)", "type": "Floor"}, {"actionCode": "17000", "actionDate": "2022-12-19", "sourceSystem": {"code": 9, "name": "Library of Congress"}, "text": "Passed/agreed to in Senate: Passed Senate without amendment by Unanimous Consent.", "type": "Floor"}, {"actionDate": "2022-12-19", "committees": [{"name": "Veterans' Affairs Committee", "systemCode": "ssva00", "url": "https://api.congress.gov/v3/committee/senate/ssva00?format=json"}], "sourceSystem": {"name": "Senate"}, "text": "Senate Committee on Veterans' Affairs discharged by Unanimous Consent.", "type": "Discharge"}, {"actionCode": "14500", "actionDate": "2022-12-19", "committees": [{"name": "Veterans' Affairs Committee", "systemCode": "ssva00", "url": "https://api.congress.gov/v3/committee/senate/ssva00?format=json"}], "sourceSystem": {"code": 9, "name": "Library of Congress"}, "text": "Senate Committee on Veterans' Affairs discharged by Unanimous Consent.", "type": "Committee"}, {"actionDate": "2022-05-19", "committees": [{"name": "Veterans' Affairs Committee", "systemCode": "ssva00", "url": "https://api.congress.gov/v3/committee/senate/ssva00?format=json"}], "sourceSystem": {"name": "Senate"}, "text": "Received in the Senate and Read twice and referred to the Committee on Veterans' Affairs.", "type": "IntroReferral"}, {"actionCode": "H38310", "actionDate": "2022-05-18", "actionTime": "18:06:33", "sourceSystem": {"code": 2, "name": "House floor actions"}, "text": "Motion to reconsider laid on the table Agreed to without objection.", "type": "Floor"}, {"actionCode": "H37300", "actionDate": "2022-05-18", "actionTime": "18:06:32", "recordedVotes": [{"chamber": "House", "congress": 117, "date": "2022-05-18T22:06:32Z", "rollNumber": 217, "sessionNumber": 2, "url": "https://clerk.house.gov/evs/2022/roll217.xml"}], "sourceSystem": {"code": 2, "name": "House floor actions"}, "text": "On motion to suspend the rules and pass the bill Agreed to by the Yeas and Nays: (2/3 required): 414 - 2 (Roll no. 217). (text: CR H5108-5109)", "type": "Floor"}, {"actionCode": "8000", "actionDate": "2022-05-18", "actionTime": "18:06:32", "recordedVotes": [{"chamber": "House", "congress": 117, "date": "2022-05-18T22:06:32Z", "rollNumber": 217, "sessionNumber": 2, "url": "https://clerk.house.gov/evs/2022/roll217.xml"}], "sourceSystem": {"code": 9, "name": "Library of Congress"}, "text": "Passed/agreed to in House: On motion to suspend the rules and pass the bill Agreed to by the Yeas and Nays: (2/3 required): 414 - 2 (Roll no. 217).", "type": "Floor"}, {"actionCode": "H30000", "actionDate": "2022-05-18", "actionTime": "17:56:33", "sourceSystem": {"code": 2, "name": "House floor actions"}, "text": "Considered as unfinished business. (consideration: CR H5142-5143)", "type": "Floor"}, {"actionCode": "H37220", "actionDate": "2022-05-18", "actionTime": "13:01:50", "sourceSystem": {"code": 2, "name": "House floor actions"}, "text": "At the conclusion of debate, the Yeas and Nays were demanded and ordered. Pursuant to the provisions of clause 8, rule XX, the Chair announced that further proceedings on the motion would be postponed.", "type": "Floor"}, {"actionCode": "H8D000", "actionDate": "2022-05-18", "actionTime": "12:57:07", "sourceSystem": {"code": 2, "name": "House floor actions"}, "text": "DEBATE - The House proceeded with forty minutes of debate on H.R. 6064.", "type": "Floor"}, {"actionCode": "H30000", "actionDate": "2022-05-18", "actionTime": "12:57:06", "sourceSystem": {"code": 2, "name": "House floor actions"}, "text": "Considered under suspension of the rules. (consideration: CR H5108-5109)", "type": "Floor"}, {"actionCode": "H30300", "actionDate": "2022-05-18", "actionTime": "12:56:39", "sourceSystem": {"code": 2, "name": "House floor actions"}, "text": "Mr. Takano moved to suspend the rules and pass the bill.", "type": "Floor"}], "pagination": {"count": 27, "next": "https://api.congress.gov/v3/bill/117/hr/6064/actions?offset=20&limit=20&format=json"}, "request": {"billNumber": "6064", "billType": "hr", "billUrl": "https://api.congress.gov/v3/bill/117/hr/6064?format=json", "congress": "117", "contentType": "application/json", "format": "json"}}, 200]