[{"actions": [{"actionCode": "E40000", "actionDate": "2021-12-03", "sourceSystem": {"code": 9, "name": "Library of Congress"}, "text": "Became Public Law No: 117-70.", "type": "President"}, {"actionCode": "36000", "actionDate": "2021-12-03", "sourceSystem": {"code": 9, "name": "Library of Congress"}, "text": "Became Public Law No: 117-70.", "type": "BecameLaw"}, {"actionCode": "E30000", "actionDate": "2021-12-03", "sourceSystem": {"code": 9, "name": "Library of Congress"}, "text": "Signed by President.", "type": "President"}, {"actionCode": "36000", "actionDate": "2021-12-03", "sourceSystem": {"code": 9, "name": "Library of Congress"}, "text": "Signed by President.", "type": "BecameLaw"}, {"actionCode": "E20000", "actionDate": "2021-12-03", "sourceSystem": {"code": 2, "name": "House floor actions"}, "text": "Presented to President.", "type": "Floor"}, {"actionCode": "28000", "actionDate": "2021-12-03", "sourceSystem": {"code": 9, "name": "Library of Congress"}, "text": "Presented to President.", "type": "President"}, {"actionDate": "2021-12-03", "sourceSystem": {"name": "Senate"}, "text": "Message on Senate action sent to the House.", "type": "Floor"}, {"actionDate": "2021-12-02", "recordedVotes": [{"chamber": "Senate", "congress": 117, "date": "2021-12-03T02:04:29Z", "rollNumber": 477, "sessionNumber": 1, "url": "https://www.senate.gov/legislative/LIS/roll_call_votes/vote1171/vote_117_1_00477.xml"}], "sourceSystem": {"name": "Senate"}, "text": "Passed Senate, under the order of 12/2/2021, having achieved 60 votes in the affirmative, without amendment by Yea-Nay Vote. 69 - 28. Record Vote Number: 477.", "type": "Floor"}, {"actionCode": "17000", "actionDate": "2021-12-02", "recordedVotes": [{"chamber": "Senate", "congress": 117, "date": "2021-12-03T02:04:29Z", "rollNumber": 477, "sessionNumber": 1, "url": "https://www.senate.gov/legislative/LIS/roll_call_votes/vote1171/vote_117_1_00477.xml"}], "sourceSystem": {"code": 9, "name": "Library of Congress"}, "text": "Passed/agreed to in Senate: Passed Senate, under the order of 12/2/2021, having achieved 60 votes in the affirmative, without amendment by Yea-Nay Vote. 69 - 28. Record Vote Number: 477.", "type": "Floor"}, {"actionDate": "2021-12-02", "sourceSystem": {"name": "Senate"}, "text": "Measure laid before Senate by unanimous consent. (consideration: CR S8904-8906)", "type": "Floor"}, {"actionDate": "2021-12-02", "sourceSystem": {"name": "Senate"}, "text": "Received in the Senate, read twice.", "type": "IntroReferral"}, {"actionCode": "H8D000", "actionDate": "2021-12-02", "actionTime": "17:51:22", "sourceSystem": {"code": 2, "name": "House floor actions"}, "text": "Motion to reconsider laid on the table.", "type": "Floor"}, {"actionCode": "H36610", "actionDate": "2021-12-02", "actionTime": "17:51:13", "recordedVotes": [{"chamber": "House", "congress": 117, "date": "2021-12-02T22:51:13Z", "rollNumber": 400, "sessionNumber": 1, "url": "https://clerk.house.gov/evs/2021/roll400.xml"}], "sourceSystem": {"code": 2, "name": "House floor actions"}, "text": "On motion to table the motion to reconsider Agreed to by the Yeas and Nays: 217 - 209 (Roll no. 400).", "type": "Floor"}, {"actionCode": "H82000", "actionDate": "2021-12-02", "actionTime": "17:34:00", "sourceSystem": {"code": 2, "name": "House floor actions"}, "text": "Ms. DeLauro moved to table the motion to reconsider", "type": "ResolvingDifferences"}, {"actionCode": "H36600", "actionDate": "2021-12-02", "actionTime": "17:33:54", "sourceSystem": {"code": 2, "name": "House floor actions"}, "text": "Mr. Evans moved to reconsider.", "type": "Floor"}, {"actionCode": "H8D000", "actionDate": "2021-12-02", "actionTime": "17:33:37", "sourceSystem": {"code": 2, "name": "House floor actions"}, "text": "Motion to reconsider laid on the table. Objection heard.", "type": "Floor"}, {"actionCode": "H37100", "actionDate": "2021-12-02", "actionTime": "17:33:31", "recordedVotes": [{"chamber": "House", "congress": 117, "date": "2021-12-02T22:33:31Z", "rollNumber": 399, "sessionNumber": 1, "url": "https://clerk.house.gov/evs/2021/roll399.xml"}], "sourceSystem": {"code": 2, "name": "House floor actions"}, "text": "On passage Passed by the Yeas and Nays: 221 - 212 (Roll no. 399). (text: CR H6872-6873)", "type": "Floor"}, {"actionCode": "8000", "actionDate": "2021-12-02", "actionTime": "17:33:31", "recordedVotes": [{"chamber": "House", "congress": 117, "date": "2021-12-02T22:33:31Z", "rollNumber": 399, "sessionNumber": 1, "url": "https://clerk.house.gov/evs/2021/roll399.xml"}], "sourceSystem": {"code": 9, "name": "Library of Congress"}, "text": "Passed/agreed to in House: On passage Passed by the Yeas and Nays: 221 - 212 (Roll no. 399).(text: CR H6872-6873)", "type": "Floor"}, {"actionCode": "H36210", "actionDate": "2021-12-02", "actionTime": "17:13:11", "committees": [{"name": "Appropriations Committee", "systemCode": "hsap00", "url": "https://api.congress.gov/v3/committee/house/hsap00?format=json"}], "recordedVotes": [{"chamber": "House", "congress": 117, "date": "2021-12-02T22:13:11Z", "rollNumber": 398, "sessionNumber": 1, "url": "https://clerk.house.gov/evs/2021/roll398.xml"}], "sourceSystem": {"code": 2, "name": "House floor actions"}, "text": "On motion to recommit Failed by the Yeas and Nays: 211 - 219 (Roll no. 398).", "type": "Floor"}, {"actionCode": "H8A000", "actionDate": "2021-12-02", "actionTime": "16:35:31", "sourceSystem": {"code": 2, "name": "House floor actions"}, "text": "The previous question on the motion to recommit was ordered pursuant to clause 2(b) of rule XIX.", "type": "Floor"}], "pagination": {"count": 31, "next": "https://api.congress.gov/v3/bill/117/hr/6119/actions?offset=20&limit=20&format=json"}, "request": {"billNumber": "6119", "billType": "hr", "billUrl": "https://api.congress.gov/v3/bill/117/hr/6119?format=json", "congress": "117", "contentType": "application/json", "format": "json"}}, 200]