[{"actions": [{"actionCode": "E40000", "actionDate": "2022-12-27", "sourceSystem": {"code": 9, "name": "Library of Congress"}, "text": "Became Public Law No: 117-292.", "type": "President"}, {"actionCode": "36000", "actionDate": "2022-12-27", "sourceSystem": {"code": 9, "name": "Library of Congress"}, "text": "Became Public Law No: 117-292.", "type": "BecameLaw"}, {"actionCode": "E30000", "actionDate": "2022-12-27", "sourceSystem": {"code": 9, "name": "Library of Congress"}, "text": "Signed by President.", "type": "President"}, {"actionCode": "36000", "actionDate": "2022-12-27", "sourceSystem": {"code": 9, "name": "Library of Congress"}, "text": "Signed by President.", "type": "BecameLaw"}, {"actionCode": "E20000", "actionDate": "2022-12-23", "sourceSystem": {"code": 2, "name": "House floor actions"}, "text": "Presented to President.", "type": "Floor"}, {"actionCode": "28000", "actionDate": "2022-12-23", "sourceSystem": {"code": 9, "name": "Library of Congress"}, "text": "Presented to President.", "type": "President"}, {"actionDate": "2022-12-20", "sourceSystem": {"name": "Senate"}, "text": "Message on Senate action sent to the House.", "type": "Floor"}, {"actionDate": "2022-12-19", "sourceSystem": {"name": "Senate"}, "text": "Passed Senate without amendment by Unanimous Consent. (consideration: CR S7282-7283)", "type": "Floor"}, {"actionCode": "17000", "actionDate": "2022-12-19", "sourceSystem": {"code": 9, "name": "Library of Congress"}, "text": "Passed/agreed to in Senate: Passed Senate without amendment by Unanimous Consent.", "type": "Floor"}, {"actionDate": "2022-12-15", "sourceSystem": {"name": "Senate"}, "text": "Received in the Senate, read twice.", "type": "IntroReferral"}, {"actionCode": "H37300", "actionDate": "2022-12-14", "actionTime": "15:13:16", "sourceSystem": {"code": 2, "name": "House floor actions"}, "text": "Pursuant to section 5 of H. Res. 1518, and the motion offered by Mr. Hoyer, the following bills passed under suspension of the rules: H.R. 1082, as amended; H.R. 5349; H.R. 6218; H.R. 6220; H.R. 6221; H.R. 6611, as amended; H.R. 6630; H.R. 6725; H.R. 7077, agreed to Senate amendment; H.R. 7832; H.R. 8665; S. 558; and S. 789. S. 558; and S. 789. (consideration: CR H9803-9810; text: CR H9804)", "type": "Floor"}, {"actionCode": "8000", "actionDate": "2022-12-14", "actionTime": "15:13:16", "sourceSystem": {"code": 9, "name": "Library of Congress"}, "text": "Passed/agreed to in House: Pursuant to section 5 of H. Res. 1518, and the motion offered by Mr. Hoyer, the following bills passed under suspension of the rules: H.R. 1082, as amended; H.R. 5349; H.R. 6218; H.R. 6220; H.R. 6221; H.R. 6611, as amended; H.R. 6630; H.R. 6725; H.R. 7077, agreed to Senate amendment; H.R. 7832; H.R. 8665; S. 558; and S. 789. S. 558; and S. 789.", "type": "Floor"}, {"actionCode": "H1B000", "actionDate": "2022-12-14", "actionTime": "15:13:15", "sourceSystem": {"code": 2, "name": "House floor actions"}, "text": "Pursuant to the provisions of H. Res. 1518, proceedings on H.R. 6220 are considered vacated.", "type": "Floor"}, {"actionCode": "H37220", "actionDate": "2022-12-12", "actionTime": "16:22:22", "sourceSystem": {"code": 2, "name": "House floor actions"}, "text": "At the conclusion of debate, the Yeas and Nays were demanded and ordered. Pursuant to the provisions of clause 8, rule XX, the Chair announced that further proceedings on the motion would be postponed.", "type": "Floor"}, {"actionCode": "H8D000", "actionDate": "2022-12-12", "actionTime": "16:17:40", "sourceSystem": {"code": 2, "name": "House floor actions"}, "text": "DEBATE - The House proceeded with forty minutes of debate on H.R. 6220.", "type": "Floor"}, {"actionCode": "H30000", "actionDate": "2022-12-12", "actionTime": "16:17:38", "sourceSystem": {"code": 2, "name": "House floor actions"}, "text": "Considered under suspension of the rules. (consideration: CR H9673-9674; text: CR H9673)", "type": "Floor"}, {"actionCode": "H30300", "actionDate": "2022-12-12", "actionTime": "16:17:30", "sourceSystem": {"code": 2, "name": "House floor actions"}, "text": "Mrs. Maloney, Carolyn B. moved to suspend the rules and pass the bill.", "type": "Floor"}, {"actionCode": "H19000", "actionDate": "2022-06-15", "committees": [{"name": "Oversight and Accountability Committee", "systemCode": "hsgo00", "url": "https://api.congress.gov/v3/committee/house/hsgo00?format=json"}], "sourceSystem": {"code": 1, "name": "House committee actions"}, "text": "Ordered to be Reported by Unanimous Consent.", "type": "Committee"}, {"actionCode": "H15000-B", "actionDate": "2022-06-15", "committees": [{"name": "Oversight and Accountability Committee", "systemCode": "hsgo00", "url": "https://api.congress.gov/v3/committee/house/hsgo00?format=json"}], "sourceSystem": {"code": 1, "name": "House committee actions"}, "text": "Committee Consideration and Mark-up Session Held.", "type": "Committee"}, {"actionCode": "H15000-B", "actionDate": "2022-06-14", "committees": [{"name": "Oversight and Accountability Committee", "systemCode": "hsgo00", "url": "https://api.congress.gov/v3/committee/house/hsgo00?format=json"}], "sourceSystem": {"code": 1, "name": "House committee actions"}, "text": "Committee Consideration and Mark-up Session Held.", "type": "Committee"}], "pagination": {"count": 23, "next": "https://api.congress.gov/v3/bill/117/hr/6220/actions?offset=20&limit=20&format=json"}, "request": {"billNumber": "6220", "billType": "hr", "billUrl": "https://api.congress.gov/v3/bill/117/hr/6220?format=json", "congress": "117", "contentType": "application/json", "format": "json"}}, 200]