[{"actions": [{"actionDate": "2022-07-20", "committees": [{"name": "Energy and Natural Resources Committee", "systemCode": "sseg00", "url": "https://api.congress.gov/v3/committee/senate/sseg00?format=json"}], "sourceSystem": {"name": "Senate"}, "text": "Received in the Senate and Read twice and referred to the Committee on Energy and Natural Resources.", "type": "IntroReferral"}, {"actionCode": "H37300", "actionDate": "2022-07-19", "actionTime": "18:06:13", "sourceSystem": {"code": 2, "name": "House floor actions"}, "text": "Pursuant to section 9 of H. Res. 1232, and the motion offered by Ms. DeLauro, the following bills passed under suspension of the rules: H.R. 1286, as amended; H.R. 2024, as amended; H.R. 3222, as amended; H.R. 6337, as amended; and H.R. 7002, as amended. (consideration: CR H6859-6865; text: CR H6864)", "type": "Floor"}, {"actionCode": "8000", "actionDate": "2022-07-19", "actionTime": "18:06:13", "sourceSystem": {"code": 9, "name": "Library of Congress"}, "text": "Passed/agreed to in House: Pursuant to section 9 of H. Res. 1232, and the motion offered by Ms. DeLauro, the following bills passed under suspension of the rules: H.R. 1286, as amended; H.R. 2024, as amended; H.R. 3222, as amended; H.R. 6337, as amended; and H.R. 7002, as amended.", "type": "Floor"}, {"actionCode": "H1B000", "actionDate": "2022-07-19", "actionTime": "18:06:11", "sourceSystem": {"code": 2, "name": "House floor actions"}, "text": "Pursuant to the provisions of H. Res. 1232, proceedings on H.R. 6337 are considered vacated.", "type": "Floor"}, {"actionCode": "H37220", "actionDate": "2022-07-18", "actionTime": "15:00:08", "sourceSystem": {"code": 2, "name": "House floor actions"}, "text": "At the conclusion of debate, the Yeas and Nays were demanded and ordered. Pursuant to the provisions of clause 8, rule XX, the Chair announced that further proceedings on the motion would be postponed.", "type": "Floor"}, {"actionCode": "H8D000", "actionDate": "2022-07-18", "actionTime": "14:56:50", "sourceSystem": {"code": 2, "name": "House floor actions"}, "text": "DEBATE - The House proceeded with forty minutes of debate on H.R. 6337.", "type": "Floor"}, {"actionCode": "H30000", "actionDate": "2022-07-18", "actionTime": "14:56:46", "sourceSystem": {"code": 2, "name": "House floor actions"}, "text": "Considered under suspension of the rules. (consideration: CR H6694-6695; text: CR H6694)", "type": "Floor"}, {"actionCode": "H30300", "actionDate": "2022-07-18", "actionTime": "14:56:29", "sourceSystem": {"code": 2, "name": "House floor actions"}, "text": "Mr. Huffman moved to suspend the rules and pass the bill, as amended.", "type": "Floor"}, {"actionCode": "H12410", "actionDate": "2022-07-18", "calendarNumber": {"calendar": "U00322"}, "sourceSystem": {"code": 2, "name": "House floor actions"}, "text": "Placed on the Union Calendar, Calendar No. 322.", "type": "Calendars"}, {"actionCode": "H12300", "actionDate": "2022-07-18", "committees": [{"name": "Agriculture Committee", "systemCode": "hsag00", "url": "https://api.congress.gov/v3/committee/house/hsag00?format=json"}], "sourceSystem": {"code": 2, "name": "House floor actions"}, "text": "Committee on Agriculture discharged.", "type": "Discharge"}, {"actionCode": "5500", "actionDate": "2022-07-18", "committees": [{"name": "Agriculture Committee", "systemCode": "hsag00", "url": "https://api.congress.gov/v3/committee/house/hsag00?format=json"}], "sourceSystem": {"code": 9, "name": "Library of Congress"}, "text": "Committee on Agriculture discharged.", "type": "Committee"}, {"actionCode": "H12200", "actionDate": "2022-07-18", "committees": [{"name": "Natural Resources Committee", "systemCode": "hsii00", "url": "https://api.congress.gov/v3/committee/house/hsii00?format=json"}], "sourceSystem": {"code": 2, "name": "House floor actions"}, "text": "Reported (Amended) by the Committee on Natural Resources. H. Rept. 117-415, Part I.", "type": "Committee"}, {"actionCode": "5000", "actionDate": "2022-07-18", "committees": [{"name": "Natural Resources Committee", "systemCode": "hsii00", "url": "https://api.congress.gov/v3/committee/house/hsii00?format=json"}], "sourceSystem": {"code": 9, "name": "Library of Congress"}, "text": "Reported (Amended) by the Committee on Natural Resources. H. Rept. 117-415, Part I.", "type": "Committee"}, {"actionCode": "H19000", "actionDate": "2022-06-15", "committees": [{"name": "Natural Resources Committee", "systemCode": "hsii00", "url": "https://api.congress.gov/v3/committee/house/hsii00?format=json"}], "sourceSystem": {"code": 1, "name": "House committee actions"}, "text": "Ordered to be Reported (Amended) by Unanimous Consent.", "type": "Committee"}, {"actionCode": "H15000-B", "actionDate": "2022-06-15", "committees": [{"name": "Natural Resources Committee", "systemCode": "hsii00", "url": "https://api.congress.gov/v3/committee/house/hsii00?format=json"}], "sourceSystem": {"code": 1, "name": "House committee actions"}, "text": "Committee Consideration and Mark-up Session Held.", "type": "Committee"}, {"actionCode": "H25000", "actionDate": "2022-06-15", "committees": [{"name": "Natural Resources Committee", "systemCode": "hsii00", "url": "https://api.congress.gov/v3/committee/house/hsii00?format=json"}], "sourceSystem": {"code": 1, "name": "House committee actions"}, "text": "Subcommittee on National Parks, Forests, and Public Lands Discharged.", "type": "Committee"}, {"actionCode": "H21000", "actionDate": "2022-02-03", "committees": [{"name": "Federal Lands Subcommittee", "systemCode": "hsii10", "url": "https://api.congress.gov/v3/committee/house/hsii10?format=json"}], "sourceSystem": {"code": 1, "name": "House committee actions"}, "text": "Subcommittee Hearings Held.", "type": "Committee"}, {"actionCode": "H11000", "actionDate": "2022-01-04", "committees": [{"name": "Forestry Subcommittee", "systemCode": "hsag15", "url": "https://api.congress.gov/v3/committee/house/hsag15?format=json"}], "sourceSystem": {"code": 1, "name": "House committee actions"}, "text": "Referred to the Subcommittee on Conservation and Forestry.", "type": "Committee"}, {"actionCode": "H11000", "actionDate": "2021-12-24", "committees": [{"name": "Federal Lands Subcommittee", "systemCode": "hsii10", "url": "https://api.congress.gov/v3/committee/house/hsii10?format=json"}], "sourceSystem": {"code": 1, "name": "House committee actions"}, "text": "Referred to the Subcommittee on National Parks, Forests, and Public Lands.", "type": "Committee"}, {"actionCode": "H11100", "actionDate": "2021-12-20", "committees": [{"name": "Agriculture Committee", "systemCode": "hsag00", "url": "https://api.congress.gov/v3/committee/house/hsag00?format=json"}], "sourceSystem": {"code": 2, "name": "House floor actions"}, "text": "Referred to the Committee on Natural Resources, and in addition to the Committee on Agriculture, for a period to be subsequently determined by the Speaker, in each case for consideration of such provisions as fall within the jurisdiction of the committee concerned.", "type": "IntroReferral"}], "pagination": {"count": 23, "next": "https://api.congress.gov/v3/bill/117/hr/6337/actions?offset=20&limit=20&format=json"}, "request": {"billNumber": "6337", "billType": "hr", "billUrl": "https://api.congress.gov/v3/bill/117/hr/6337?format=json", "congress": "117", "contentType": "application/json", "format": "json"}}, 200]