[{"actions": [{"actionDate": "2022-09-27", "calendarNumber": {"calendar": "Senate Calendar of Business", "number": "0514"}, "sourceSystem": {"name": "Senate"}, "text": "Placed on Senate Legislative Calendar under General Orders. Calendar No. 514.", "type": "Calendars"}, {"actionDate": "2022-09-27", "committees": [{"name": "Energy and Natural Resources Committee", "systemCode": "sseg00", "url": "https://api.congress.gov/v3/committee/senate/sseg00?format=json"}], "sourceSystem": {"name": "Senate"}, "text": "Committee on Energy and Natural Resources. Reported by Senator Manchin without amendment. With written report No. 117-172.", "type": "Committee"}, {"actionCode": "14000", "actionDate": "2022-09-27", "committees": [{"name": "Energy and Natural Resources Committee", "systemCode": "sseg00", "url": "https://api.congress.gov/v3/committee/senate/sseg00?format=json"}], "sourceSystem": {"code": 9, "name": "Library of Congress"}, "text": "Committee on Energy and Natural Resources. Reported by Senator Manchin without amendment. With written report No. 117-172.", "type": "Committee"}, {"actionDate": "2022-07-21", "committees": [{"name": "Energy and Natural Resources Committee", "systemCode": "sseg00", "url": "https://api.congress.gov/v3/committee/senate/sseg00?format=json"}], "sourceSystem": {"name": "Senate"}, "text": "Committee on Energy and Natural Resources. Ordered to be reported without amendment favorably.", "type": "Committee"}, {"actionDate": "2022-03-17", "committees": [{"name": "Energy and Natural Resources Committee", "systemCode": "sseg00", "url": "https://api.congress.gov/v3/committee/senate/sseg00?format=json"}], "sourceSystem": {"name": "Senate"}, "text": "Received in the Senate and Read twice and referred to the Committee on Energy and Natural Resources.", "type": "IntroReferral"}, {"actionCode": "H38310", "actionDate": "2022-03-16", "actionTime": "17:18:02", "sourceSystem": {"code": 2, "name": "House floor actions"}, "text": "Motion to reconsider laid on the table Agreed to without objection.", "type": "Floor"}, {"actionCode": "H37300", "actionDate": "2022-03-16", "actionTime": "17:18:01", "recordedVotes": [{"chamber": "House", "congress": 117, "date": "2022-03-16T21:18:01Z", "rollNumber": 77, "sessionNumber": 2, "url": "https://clerk.house.gov/evs/2022/roll077.xml"}], "sourceSystem": {"code": 2, "name": "House floor actions"}, "text": "On motion to suspend the rules and pass the bill Agreed to by the Yeas and Nays: (2/3 required): 406 - 16 (Roll no. 77). (text: 3/15/2022 CR H3732)", "type": "Floor"}, {"actionCode": "8000", "actionDate": "2022-03-16", "actionTime": "17:18:01", "recordedVotes": [{"chamber": "House", "congress": 117, "date": "2022-03-16T21:18:01Z", "rollNumber": 77, "sessionNumber": 2, "url": "https://clerk.house.gov/evs/2022/roll077.xml"}], "sourceSystem": {"code": 9, "name": "Library of Congress"}, "text": "Passed/agreed to in House: On motion to suspend the rules and pass the bill Agreed to by the Yeas and Nays: (2/3 required): 406 - 16 (Roll no. 77).(text: 3/15/2022 CR H3732)", "type": "Floor"}, {"actionCode": "H30000", "actionDate": "2022-03-16", "actionTime": "16:59:55", "sourceSystem": {"code": 2, "name": "House floor actions"}, "text": "Considered as unfinished business. (consideration: CR H3762)", "type": "Floor"}, {"actionCode": "H37220", "actionDate": "2022-03-15", "actionTime": "15:51:39", "sourceSystem": {"code": 2, "name": "House floor actions"}, "text": "At the conclusion of debate, the Yeas and Nays were demanded and ordered. Pursuant to the provisions of clause 8, rule XX, the Chair announced that further proceedings on the motion would be postponed.", "type": "Floor"}, {"actionCode": "H8D000", "actionDate": "2022-03-15", "actionTime": "15:46:03", "sourceSystem": {"code": 2, "name": "House floor actions"}, "text": "DEBATE - The House proceeded with forty minutes of debate on H.R. 6434.", "type": "Floor"}, {"actionCode": "H30000", "actionDate": "2022-03-15", "actionTime": "15:45:48", "sourceSystem": {"code": 2, "name": "House floor actions"}, "text": "Considered under suspension of the rules. (consideration: CR H3732-3733)", "type": "Floor"}, {"actionCode": "H30300", "actionDate": "2022-03-15", "actionTime": "15:45:23", "sourceSystem": {"code": 2, "name": "House floor actions"}, "text": "Mr. Grijalva moved to suspend the rules and pass the bill.", "type": "Floor"}, {"actionCode": "H12410", "actionDate": "2022-03-09", "calendarNumber": {"calendar": "U00191"}, "sourceSystem": {"code": 2, "name": "House floor actions"}, "text": "Placed on the Union Calendar, Calendar No. 191.", "type": "Calendars"}, {"actionCode": "H12200", "actionDate": "2022-03-09", "committees": [{"name": "Natural Resources Committee", "systemCode": "hsii00", "url": "https://api.congress.gov/v3/committee/house/hsii00?format=json"}], "sourceSystem": {"code": 2, "name": "House floor actions"}, "text": "Reported by the Committee on Natural Resources. H. Rept. 117-262.", "type": "Committee"}, {"actionCode": "5000", "actionDate": "2022-03-09", "committees": [{"name": "Natural Resources Committee", "systemCode": "hsii00", "url": "https://api.congress.gov/v3/committee/house/hsii00?format=json"}], "sourceSystem": {"code": 9, "name": "Library of Congress"}, "text": "Reported by the Committee on Natural Resources. H. Rept. 117-262.", "type": "Committee"}, {"actionCode": "H19000", "actionDate": "2022-02-16", "committees": [{"name": "Natural Resources Committee", "systemCode": "hsii00", "url": "https://api.congress.gov/v3/committee/house/hsii00?format=json"}], "sourceSystem": {"code": 1, "name": "House committee actions"}, "text": "Ordered to be Reported by Unanimous Consent.", "type": "Committee"}, {"actionCode": "H15000-B", "actionDate": "2022-02-16", "committees": [{"name": "Natural Resources Committee", "systemCode": "hsii00", "url": "https://api.congress.gov/v3/committee/house/hsii00?format=json"}], "sourceSystem": {"code": 1, "name": "House committee actions"}, "text": "Committee Consideration and Mark-up Session Held.", "type": "Committee"}, {"actionCode": "H25000", "actionDate": "2022-02-16", "committees": [{"name": "Natural Resources Committee", "systemCode": "hsii00", "url": "https://api.congress.gov/v3/committee/house/hsii00?format=json"}], "sourceSystem": {"code": 1, "name": "House committee actions"}, "text": "Subcommittee on National Parks, Forests, and Public Lands Discharged.", "type": "Committee"}, {"actionCode": "H21000", "actionDate": "2022-02-03", "committees": [{"name": "Federal Lands Subcommittee", "systemCode": "hsii10", "url": "https://api.congress.gov/v3/committee/house/hsii10?format=json"}], "sourceSystem": {"code": 1, "name": "House committee actions"}, "text": "Subcommittee Hearings Held.", "type": "Committee"}], "pagination": {"count": 24, "next": "https://api.congress.gov/v3/bill/117/hr/6434/actions?offset=20&limit=20&format=json"}, "request": {"billNumber": "6434", "billType": "hr", "billUrl": "https://api.congress.gov/v3/bill/117/hr/6434?format=json", "congress": "117", "contentType": "application/json", "format": "json"}}, 200]