[{"actions": [{"actionCode": "H11000", "actionDate": "2022-11-01", "committees": [{"name": "Immigration Integrity, Security, and Enforcement Subcommittee", "systemCode": "hsju01", "url": "https://api.congress.gov/v3/committee/house/hsju01?format=json"}], "sourceSystem": {"code": 1, "name": "House committee actions"}, "text": "Referred to the Subcommittee on Immigration and Citizenship.", "type": "Committee"}, {"actionCode": "H11000", "actionDate": "2022-11-01", "committees": [{"name": "Crime and Federal Government Surveillance Subcommittee", "systemCode": "hsju08", "url": "https://api.congress.gov/v3/committee/house/hsju08?format=json"}], "sourceSystem": {"code": 1, "name": "House committee actions"}, "text": "Referred to the Subcommittee on Crime, Terrorism, and Homeland Security.", "type": "Committee"}, {"actionCode": "H11000", "actionDate": "2022-02-08", "committees": [{"name": "Forestry Subcommittee", "systemCode": "hsag15", "url": "https://api.congress.gov/v3/committee/house/hsag15?format=json"}], "sourceSystem": {"code": 1, "name": "House committee actions"}, "text": "Referred to the Subcommittee on Conservation and Forestry.", "type": "Committee"}, {"actionCode": "H11000", "actionDate": "2022-01-26", "committees": [{"name": "Water Resources and Environment Subcommittee", "systemCode": "hspw02", "url": "https://api.congress.gov/v3/committee/house/hspw02?format=json"}], "sourceSystem": {"code": 1, "name": "House committee actions"}, "text": "Referred to the Subcommittee on Water Resources and Environment.", "type": "Committee"}, {"actionCode": "H11000", "actionDate": "2022-01-26", "committees": [{"name": "Railroads, Pipelines, and Hazardous Materials Subcommittee", "systemCode": "hspw14", "url": "https://api.congress.gov/v3/committee/house/hspw14?format=json"}], "sourceSystem": {"code": 1, "name": "House committee actions"}, "text": "Referred to the Subcommittee on Railroads, Pipelines, and Hazardous Materials.", "type": "Committee"}, {"actionCode": "H11000", "actionDate": "2022-01-26", "committees": [{"name": "Highways and Transit Subcommittee", "systemCode": "hspw12", "url": "https://api.congress.gov/v3/committee/house/hspw12?format=json"}], "sourceSystem": {"code": 1, "name": "House committee actions"}, "text": "Referred to the Subcommittee on Highways and Transit.", "type": "Committee"}, {"actionCode": "H11000", "actionDate": "2022-01-26", "committees": [{"name": "Economic Development, Public Buildings, and Emergency Management Subcommittee", "systemCode": "hspw13", "url": "https://api.congress.gov/v3/committee/house/hspw13?format=json"}], "sourceSystem": {"code": 1, "name": "House committee actions"}, "text": "Referred to the Subcommittee on Economic Development, Public Buildings, and Emergency Management.", "type": "Committee"}, {"actionCode": "H11000", "actionDate": "2022-01-26", "committees": [{"name": "Coast Guard and Maritime Transportation Subcommittee", "systemCode": "hspw07", "url": "https://api.congress.gov/v3/committee/house/hspw07?format=json"}], "sourceSystem": {"code": 1, "name": "House committee actions"}, "text": "Referred to the Subcommittee on Coast Guard and Maritime Transportation.", "type": "Committee"}, {"actionCode": "H11000", "actionDate": "2022-01-26", "committees": [{"name": "Environment, Manufacturing, and Critical Materials Subcommittee", "systemCode": "hsif18", "url": "https://api.congress.gov/v3/committee/house/hsif18?format=json"}], "sourceSystem": {"code": 1, "name": "House committee actions"}, "text": "Referred to the Subcommittee on Environment and Climate Change.", "type": "Committee"}, {"actionCode": "H11000", "actionDate": "2022-01-25", "committees": [{"name": "Work and Welfare Subcommittee", "systemCode": "hswm03", "url": "https://api.congress.gov/v3/committee/house/hswm03?format=json"}], "sourceSystem": {"code": 1, "name": "House committee actions"}, "text": "Referred to the Subcommittee on Worker and Family Support.", "type": "Committee"}, {"actionCode": "H11100", "actionDate": "2022-01-25", "committees": [{"name": "Financial Services Committee", "systemCode": "hsba00", "url": "https://api.congress.gov/v3/committee/house/hsba00?format=json"}], "sourceSystem": {"code": 2, "name": "House floor actions"}, "text": "Referred to the Committee on Education and Labor, and in addition to the Committees on Energy and Commerce, Oversight and Reform, the Judiciary, Transportation and Infrastructure, Ways and Means, Agriculture, Natural Resources, and Financial Services, for a period to be subsequently determined by the Speaker, in each case for consideration of such provisions as fall within the jurisdiction of the committee concerned.", "type": "IntroReferral"}, {"actionCode": "H11100", "actionDate": "2022-01-25", "committees": [{"name": "Natural Resources Committee", "systemCode": "hsii00", "url": "https://api.congress.gov/v3/committee/house/hsii00?format=json"}], "sourceSystem": {"code": 2, "name": "House floor actions"}, "text": "Referred to the Committee on Education and Labor, and in addition to the Committees on Energy and Commerce, Oversight and Reform, the Judiciary, Transportation and Infrastructure, Ways and Means, Agriculture, Natural Resources, and Financial Services, for a period to be subsequently determined by the Speaker, in each case for consideration of such provisions as fall within the jurisdiction of the committee concerned.", "type": "IntroReferral"}, {"actionCode": "H11100", "actionDate": "2022-01-25", "committees": [{"name": "Agriculture Committee", "systemCode": "hsag00", "url": "https://api.congress.gov/v3/committee/house/hsag00?format=json"}], "sourceSystem": {"code": 2, "name": "House floor actions"}, "text": "Referred to the Committee on Education and Labor, and in addition to the Committees on Energy and Commerce, Oversight and Reform, the Judiciary, Transportation and Infrastructure, Ways and Means, Agriculture, Natural Resources, and Financial Services, for a period to be subsequently determined by the Speaker, in each case for consideration of such provisions as fall within the jurisdiction of the committee concerned.", "type": "IntroReferral"}, {"actionCode": "H11100", "actionDate": "2022-01-25", "committees": [{"name": "Ways and Means Committee", "systemCode": "hswm00", "url": "https://api.congress.gov/v3/committee/house/hswm00?format=json"}], "sourceSystem": {"code": 2, "name": "House floor actions"}, "text": "Referred to the Committee on Education and Labor, and in addition to the Committees on Energy and Commerce, Oversight and Reform, the Judiciary, Transportation and Infrastructure, Ways and Means, Agriculture, Natural Resources, and Financial Services, for a period to be subsequently determined by the Speaker, in each case for consideration of such provisions as fall within the jurisdiction of the committee concerned.", "type": "IntroReferral"}, {"actionCode": "H11100", "actionDate": "2022-01-25", "committees": [{"name": "Transportation and Infrastructure Committee", "systemCode": "hspw00", "url": "https://api.congress.gov/v3/committee/house/hspw00?format=json"}], "sourceSystem": {"code": 2, "name": "House floor actions"}, "text": "Referred to the Committee on Education and Labor, and in addition to the Committees on Energy and Commerce, Oversight and Reform, the Judiciary, Transportation and Infrastructure, Ways and Means, Agriculture, Natural Resources, and Financial Services, for a period to be subsequently determined by the Speaker, in each case for consideration of such provisions as fall within the jurisdiction of the committee concerned.", "type": "IntroReferral"}, {"actionCode": "H11100", "actionDate": "2022-01-25", "committees": [{"name": "Judiciary Committee", "systemCode": "hsju00", "url": "https://api.congress.gov/v3/committee/house/hsju00?format=json"}], "sourceSystem": {"code": 2, "name": "House floor actions"}, "text": "Referred to the Committee on Education and Labor, and in addition to the Committees on Energy and Commerce, Oversight and Reform, the Judiciary, Transportation and Infrastructure, Ways and Means, Agriculture, Natural Resources, and Financial Services, for a period to be subsequently determined by the Speaker, in each case for consideration of such provisions as fall within the jurisdiction of the committee concerned.", "type": "IntroReferral"}, {"actionCode": "H11100", "actionDate": "2022-01-25", "committees": [{"name": "Oversight and Accountability Committee", "systemCode": "hsgo00", "url": "https://api.congress.gov/v3/committee/house/hsgo00?format=json"}], "sourceSystem": {"code": 2, "name": "House floor actions"}, "text": "Referred to the Committee on Education and Labor, and in addition to the Committees on Energy and Commerce, Oversight and Reform, the Judiciary, Transportation and Infrastructure, Ways and Means, Agriculture, Natural Resources, and Financial Services, for a period to be subsequently determined by the Speaker, in each case for consideration of such provisions as fall within the jurisdiction of the committee concerned.", "type": "IntroReferral"}, {"actionCode": "H11100", "actionDate": "2022-01-25", "committees": [{"name": "Energy and Commerce Committee", "systemCode": "hsif00", "url": "https://api.congress.gov/v3/committee/house/hsif00?format=json"}], "sourceSystem": {"code": 2, "name": "House floor actions"}, "text": "Referred to the Committee on Education and Labor, and in addition to the Committees on Energy and Commerce, Oversight and Reform, the Judiciary, Transportation and Infrastructure, Ways and Means, Agriculture, Natural Resources, and Financial Services, for a period to be subsequently determined by the Speaker, in each case for consideration of such provisions as fall within the jurisdiction of the committee concerned.", "type": "IntroReferral"}, {"actionCode": "H11100", "actionDate": "2022-01-25", "committees": [{"name": "Education and the Workforce Committee", "systemCode": "hsed00", "url": "https://api.congress.gov/v3/committee/house/hsed00?format=json"}], "sourceSystem": {"code": 2, "name": "House floor actions"}, "text": "Referred to the Committee on Education and Labor, and in addition to the Committees on Energy and Commerce, Oversight and Reform, the Judiciary, Transportation and Infrastructure, Ways and Means, Agriculture, Natural Resources, and Financial Services, for a period to be subsequently determined by the Speaker, in each case for consideration of such provisions as fall within the jurisdiction of the committee concerned.", "type": "IntroReferral"}, {"actionCode": "Intro-H", "actionDate": "2022-01-25", "sourceSystem": {"code": 9, "name": "Library of Congress"}, "text": "Introduced in House", "type": "IntroReferral"}], "pagination": {"count": 21, "next": "https://api.congress.gov/v3/bill/117/hr/6492/actions?offset=20&limit=20&format=json"}, "request": {"billNumber": "6492", "billType": "hr", "billUrl": "https://api.congress.gov/v3/bill/117/hr/6492?format=json", "congress": "117", "contentType": "application/json", "format": "json"}}, 200]