[{"actions": [{"actionDate": "2022-07-14", "committees": [{"name": "Judiciary Committee", "systemCode": "ssju00", "url": "https://api.congress.gov/v3/committee/senate/ssju00?format=json"}], "sourceSystem": {"name": "Senate"}, "text": "Received in the Senate and Read twice and referred to the Committee on the Judiciary.", "type": "IntroReferral"}, {"actionCode": "H38310", "actionDate": "2022-07-13", "actionTime": "20:21:20", "sourceSystem": {"code": 2, "name": "House floor actions"}, "text": "Motion to reconsider laid on the table Agreed to without objection.", "type": "Floor"}, {"actionCode": "H37100", "actionDate": "2022-07-13", "actionTime": "20:21:18", "recordedVotes": [{"chamber": "House", "congress": 117, "date": "2022-07-14T00:21:18Z", "rollNumber": 307, "sessionNumber": 2, "url": "https://clerk.house.gov/evs/2022/roll307.xml"}], "sourceSystem": {"code": 2, "name": "House floor actions"}, "text": "On passage Passed by the Yeas and Nays: 260 - 169 (Roll no. 307). (text: CR H5993-5994)", "type": "Floor"}, {"actionCode": "8000", "actionDate": "2022-07-13", "actionTime": "20:21:18", "recordedVotes": [{"chamber": "House", "congress": 117, "date": "2022-07-14T00:21:18Z", "rollNumber": 307, "sessionNumber": 2, "url": "https://clerk.house.gov/evs/2022/roll307.xml"}], "sourceSystem": {"code": 9, "name": "Library of Congress"}, "text": "Passed/agreed to in House: On passage Passed by the Yeas and Nays: 260 - 169 (Roll no. 307).(text: CR H5993-5994)", "type": "Floor"}, {"actionCode": "H30000", "actionDate": "2022-07-13", "actionTime": "20:13:40", "sourceSystem": {"code": 2, "name": "House floor actions"}, "text": "Considered as unfinished business. (consideration: CR H6287-6288)", "type": "Floor"}, {"actionCode": "H8D000", "actionDate": "2022-07-13", "actionTime": "13:41:52", "sourceSystem": {"code": 2, "name": "House floor actions"}, "text": "POSTPONED PROCEEDINGS - At the conclusion of debate on H.R. 6538, the Chair put the question on passage of the bill and by voice vote, announced that the ayes had prevailed. Mr. Jordan demanded the yeas and nays and the Chair postponed further proceedings until a time to be announced.", "type": "Floor"}, {"actionCode": "H35000", "actionDate": "2022-07-13", "actionTime": "13:40:00", "sourceSystem": {"code": 2, "name": "House floor actions"}, "text": "The previous question was ordered pursuant to the rule.", "type": "Floor"}, {"actionCode": "H8D000", "actionDate": "2022-07-13", "actionTime": "12:58:35", "sourceSystem": {"code": 2, "name": "House floor actions"}, "text": "DEBATE - The House resumed with debate on H.R. 6538.", "type": "Floor"}, {"actionCode": "H8D000", "actionDate": "2022-07-13", "actionTime": "12:43:01", "sourceSystem": {"code": 2, "name": "House floor actions"}, "text": "DEBATE - The House proceeded with one hour of debate on H.R. 6538.", "type": "Floor"}, {"actionCode": "H8D000", "actionDate": "2022-07-13", "actionTime": "12:41:47", "sourceSystem": {"code": 2, "name": "House floor actions"}, "text": "Rule provides for consideration of H.R. 7900, S. 3373, H.R. 8296, H.R. 8297 and H.R. 6538 with 1 hour of general debate. Previous question shall be considered as ordered without intervening motions except motion to recommit. Measure will be considered read. Specified amendments are in order.", "type": "Floor"}, {"actionCode": "H30000", "actionDate": "2022-07-13", "actionTime": "12:41:42", "sourceSystem": {"code": 2, "name": "House floor actions"}, "text": "Considered under the provisions of rule H. Res. 1224. (consideration: CR H5993-6001)", "type": "Floor"}, {"actionCode": "H1L220", "actionDate": "2022-07-13", "actionTime": "12:40:50", "sourceSystem": {"code": 2, "name": "House floor actions"}, "text": "Rule H. Res. 1224 passed House.", "type": "Floor"}, {"actionCode": "H1L210", "actionDate": "2022-07-13", "actionTime": "09:58:25", "sourceSystem": {"code": 2, "name": "House floor actions"}, "text": "Rules Committee Resolution H. Res. 1224 Reported to House. Rule provides for consideration of H.R. 7900, S. 3373, H.R. 8296, H.R. 8297 and H.R. 6538 with 1 hour of general debate. Previous question shall be considered as ordered without intervening motions except motion to recommit. Measure will be considered read. Specified amendments are in order.", "type": "Floor"}, {"actionCode": "H37300", "actionDate": "2022-06-22", "actionTime": "18:53:52", "recordedVotes": [{"chamber": "House", "congress": 117, "date": "2022-06-22T22:53:52Z", "rollNumber": 289, "sessionNumber": 2, "url": "https://clerk.house.gov/evs/2022/roll289.xml"}], "sourceSystem": {"code": 2, "name": "House floor actions"}, "text": "On motion to suspend the rules and pass the bill, as amended Failed by the Yeas and Nays: (2/3 required): 259 - 162 (Roll no. 289).", "type": "Floor"}, {"actionCode": "9000", "actionDate": "2022-06-22", "actionTime": "18:53:52", "recordedVotes": [{"chamber": "House", "congress": 117, "date": "2022-06-22T22:53:52Z", "rollNumber": 289, "sessionNumber": 2, "url": "https://clerk.house.gov/evs/2022/roll289.xml"}], "sourceSystem": {"code": 9, "name": "Library of Congress"}, "text": "Failed of passage/not agreed to in House: On motion to suspend the rules and pass the bill, as amended Failed by the Yeas and Nays: (2/3 required): 259 - 162 (Roll no. 289).", "type": "Floor"}, {"actionCode": "H30000", "actionDate": "2022-06-22", "actionTime": "18:45:07", "sourceSystem": {"code": 2, "name": "House floor actions"}, "text": "Considered as unfinished business. (consideration: CR H5809-5810; text: CR H5701-5702)", "type": "Floor"}, {"actionCode": "H37220", "actionDate": "2022-06-21", "actionTime": "15:59:56", "sourceSystem": {"code": 2, "name": "House floor actions"}, "text": "At the conclusion of debate, the Yeas and Nays were demanded and ordered. Pursuant to the provisions of clause 8, rule XX, the Chair announced that further proceedings on the motion would be postponed.", "type": "Floor"}, {"actionCode": "H8D000", "actionDate": "2022-06-21", "actionTime": "15:22:38", "sourceSystem": {"code": 2, "name": "House floor actions"}, "text": "DEBATE - The House proceeded with forty minutes of debate on H.R. 6538.", "type": "Floor"}, {"actionCode": "H30000", "actionDate": "2022-06-21", "actionTime": "15:22:37", "sourceSystem": {"code": 2, "name": "House floor actions"}, "text": "Considered under suspension of the rules. (consideration: CR H5701-5707)", "type": "Floor"}, {"actionCode": "H30300", "actionDate": "2022-06-21", "actionTime": "15:22:13", "sourceSystem": {"code": 2, "name": "House floor actions"}, "text": "Mr. Cicilline moved to suspend the rules and pass the bill, as amended.", "type": "Floor"}], "pagination": {"count": 28, "next": "https://api.congress.gov/v3/bill/117/hr/6538/actions?offset=20&limit=20&format=json"}, "request": {"billNumber": "6538", "billType": "hr", "billUrl": "https://api.congress.gov/v3/bill/117/hr/6538?format=json", "congress": "117", "contentType": "application/json", "format": "json"}}, 200]