[{"actions": [{"actionDate": "2022-05-19", "sourceSystem": {"name": "Senate"}, "text": "Received in the Senate.", "type": "IntroReferral"}, {"actionCode": "H38310", "actionDate": "2022-05-18", "actionTime": "17:07:12", "sourceSystem": {"code": 2, "name": "House floor actions"}, "text": "Motion to reconsider laid on the table Agreed to without objection.", "type": "Floor"}, {"actionCode": "H37100", "actionDate": "2022-05-18", "actionTime": "17:07:11", "recordedVotes": [{"chamber": "House", "congress": 117, "date": "2022-05-18T21:07:11Z", "rollNumber": 211, "sessionNumber": 2, "url": "https://clerk.house.gov/evs/2022/roll211.xml"}], "sourceSystem": {"code": 2, "name": "House floor actions"}, "text": "On passage Passed by the Yeas and Nays: 258 - 165 (Roll no. 211). (text: 05/17/2022 CR H5087)", "type": "Floor"}, {"actionCode": "8000", "actionDate": "2022-05-18", "actionTime": "17:07:11", "recordedVotes": [{"chamber": "House", "congress": 117, "date": "2022-05-18T21:07:11Z", "rollNumber": 211, "sessionNumber": 2, "url": "https://clerk.house.gov/evs/2022/roll211.xml"}], "sourceSystem": {"code": 9, "name": "Library of Congress"}, "text": "Passed/agreed to in House: On passage Passed by the Yeas and Nays: 258 - 165 (Roll no. 211).", "type": "Floor"}, {"actionCode": "H36210", "actionDate": "2022-05-18", "actionTime": "16:56:47", "committees": [{"name": "Oversight and Accountability Committee", "systemCode": "hsgo00", "url": "https://api.congress.gov/v3/committee/house/hsgo00?format=json"}], "recordedVotes": [{"chamber": "House", "congress": 117, "date": "2022-05-18T20:56:47Z", "rollNumber": 210, "sessionNumber": 2, "url": "https://clerk.house.gov/evs/2022/roll210.xml"}], "sourceSystem": {"code": 2, "name": "House floor actions"}, "text": "On motion to recommit Failed by the Yeas and Nays: 198 - 219 (Roll no. 210).", "type": "Floor"}, {"actionCode": "H30000", "actionDate": "2022-05-18", "actionTime": "16:46:28", "sourceSystem": {"code": 2, "name": "House floor actions"}, "text": "Considered as unfinished business. (consideration: CR H5138)", "type": "Floor"}, {"actionCode": "H8D000", "actionDate": "2022-05-17", "actionTime": "21:07:54", "sourceSystem": {"code": 2, "name": "House floor actions"}, "text": "POSTPONED PROCEEDINGS - At the conclusion of debate on the Herrell motion to recommit, the Chair put the question on agreeing to the motion and by voice vote announced that the noes had prevailed. Ms. Herrell demanded the yeas and nays and the Chair postponed further proceedings until a time to be announced.", "type": "Floor"}, {"actionCode": "H8A000", "actionDate": "2022-05-17", "actionTime": "21:07:06", "sourceSystem": {"code": 2, "name": "House floor actions"}, "text": "The previous question on the motion to recommit was ordered pursuant to clause 2(b) of rule XIX.", "type": "Floor"}, {"actionCode": "H36200", "actionDate": "2022-05-17", "actionTime": "21:06:46", "committees": [{"name": "Oversight and Accountability Committee", "systemCode": "hsgo00", "url": "https://api.congress.gov/v3/committee/house/hsgo00?format=json"}], "sourceSystem": {"code": 2, "name": "House floor actions"}, "text": "Ms. Herrell moved to recommit to the Committee on Oversight and Government Reform. (text: CR H5089)", "type": "Floor"}, {"actionCode": "H35000", "actionDate": "2022-05-17", "actionTime": "21:06:08", "sourceSystem": {"code": 2, "name": "House floor actions"}, "text": "The previous question was ordered pursuant to the rule.", "type": "Floor"}, {"actionCode": "H8D000", "actionDate": "2022-05-17", "actionTime": "20:57:25", "sourceSystem": {"code": 2, "name": "House floor actions"}, "text": "DEBATE - The House proceeded with one hour of debate on H.R. 6531.", "type": "Floor"}, {"actionCode": "H8D000", "actionDate": "2022-05-17", "actionTime": "20:56:41", "sourceSystem": {"code": 2, "name": "House floor actions"}, "text": "Rule provides for consideration of H.R. 6531, H.R. 7309 and S. 2938. Measure will be considered read. Specified amendments are in order. The rule provides that the previous question shall be considered as ordered on each measure without intervening motions except one hour of debate and one motion to recommit Upon passage of H. Res. 1119, H. Res. 1118 is adopted.", "type": "Floor"}, {"actionCode": "H30000", "actionDate": "2022-05-17", "actionTime": "20:56:36", "sourceSystem": {"code": 2, "name": "House floor actions"}, "text": "Considered under the provisions of rule H. Res. 1119. (consideration: CR H5087-5089)", "type": "Floor"}, {"actionCode": "H1L210", "actionDate": "2022-05-16", "actionTime": "19:14:07", "sourceSystem": {"code": 2, "name": "House floor actions"}, "text": "Rules Committee Resolution H. Res. 1119 Reported to House. Rule provides for consideration of H.R. 6531, H.R. 7309 and S. 2938. Measure will be considered read. Specified amendments are in order. The rule provides that the previous question shall be considered as ordered on each measure without intervening motions except one hour of debate and one motion to recommit Upon passage of H. Res. 1119, H. Res. 1118 is adopted.", "type": "Floor"}, {"actionCode": "H37300", "actionDate": "2022-05-11", "actionTime": "18:13:11", "recordedVotes": [{"chamber": "House", "congress": 117, "date": "2022-05-11T22:13:11Z", "rollNumber": 163, "sessionNumber": 2, "url": "https://clerk.house.gov/evs/2022/roll163.xml"}], "sourceSystem": {"code": 2, "name": "House floor actions"}, "text": "On motion to suspend the rules and pass the bill, as amended Failed by the Yeas and Nays: (2/3 required): 262 - 156 (Roll no. 163). (text: 05/10/2022 CR H4761-4762)", "type": "Floor"}, {"actionCode": "9000", "actionDate": "2022-05-11", "actionTime": "18:13:11", "recordedVotes": [{"chamber": "House", "congress": 117, "date": "2022-05-11T22:13:11Z", "rollNumber": 163, "sessionNumber": 2, "url": "https://clerk.house.gov/evs/2022/roll163.xml"}], "sourceSystem": {"code": 9, "name": "Library of Congress"}, "text": "Failed of passage/not agreed to in House: On motion to suspend the rules and pass the bill, as amended Failed by the Yeas and Nays: (2/3 required): 262 - 156 (Roll no. 163).", "type": "Floor"}, {"actionCode": "H30000", "actionDate": "2022-05-11", "actionTime": "18:00:13", "sourceSystem": {"code": 2, "name": "House floor actions"}, "text": "Considered as unfinished business. (consideration: CR H4841)", "type": "Floor"}, {"actionCode": "H37220", "actionDate": "2022-05-10", "actionTime": "17:59:01", "sourceSystem": {"code": 2, "name": "House floor actions"}, "text": "At the conclusion of debate, the Yeas and Nays were demanded and ordered. Pursuant to the provisions of clause 8, rule XX, the Chair announced that further proceedings on the motion would be postponed.", "type": "Floor"}, {"actionCode": "H8D000", "actionDate": "2022-05-10", "actionTime": "17:45:06", "sourceSystem": {"code": 2, "name": "House floor actions"}, "text": "DEBATE - The House proceeded with forty minutes of debate on H.R. 6531.", "type": "Floor"}, {"actionCode": "H30000", "actionDate": "2022-05-10", "actionTime": "17:45:03", "sourceSystem": {"code": 2, "name": "House floor actions"}, "text": "Considered under suspension of the rules. (consideration: CR H4761-4763)", "type": "Floor"}], "pagination": {"count": 26, "next": "https://api.congress.gov/v3/bill/117/hr/6531/actions?offset=20&limit=20&format=json"}, "request": {"billNumber": "6531", "billType": "hr", "billUrl": "https://api.congress.gov/v3/bill/117/hr/6531?format=json", "congress": "117", "contentType": "application/json", "format": "json"}}, 200]