[{"actions": [{"actionCode": "E40000", "actionDate": "2022-02-18", "sourceSystem": {"code": 9, "name": "Library of Congress"}, "text": "Became Public Law No: 117-86.", "type": "President"}, {"actionCode": "36000", "actionDate": "2022-02-18", "sourceSystem": {"code": 9, "name": "Library of Congress"}, "text": "Became Public Law No: 117-86.", "type": "BecameLaw"}, {"actionCode": "E30000", "actionDate": "2022-02-18", "sourceSystem": {"code": 9, "name": "Library of Congress"}, "text": "Signed by President.", "type": "President"}, {"actionCode": "36000", "actionDate": "2022-02-18", "sourceSystem": {"code": 9, "name": "Library of Congress"}, "text": "Signed by President.", "type": "BecameLaw"}, {"actionCode": "E20000", "actionDate": "2022-02-18", "sourceSystem": {"code": 2, "name": "House floor actions"}, "text": "Presented to President.", "type": "Floor"}, {"actionCode": "28000", "actionDate": "2022-02-18", "sourceSystem": {"code": 9, "name": "Library of Congress"}, "text": "Presented to President.", "type": "President"}, {"actionDate": "2022-02-18", "sourceSystem": {"name": "Senate"}, "text": "Message on Senate action sent to the House.", "type": "Floor"}, {"actionDate": "2022-02-17", "recordedVotes": [{"chamber": "Senate", "congress": 117, "date": "2022-02-17T23:52:29Z", "rollNumber": 64, "sessionNumber": 2, "url": "https://www.senate.gov/legislative/LIS/roll_call_votes/vote1172/vote_117_2_00064.xml"}], "sourceSystem": {"name": "Senate"}, "text": "Passed Senate, under the order of 2/17/2022, having achieved 60 votes in the affirmative, without amendment by Yea-Nay Vote. 65 - 27. Record Vote Number: 64.", "type": "Floor"}, {"actionCode": "17000", "actionDate": "2022-02-17", "recordedVotes": [{"chamber": "Senate", "congress": 117, "date": "2022-02-17T23:52:29Z", "rollNumber": 64, "sessionNumber": 2, "url": "https://www.senate.gov/legislative/LIS/roll_call_votes/vote1172/vote_117_2_00064.xml"}], "sourceSystem": {"code": 9, "name": "Library of Congress"}, "text": "Passed/agreed to in Senate: Passed Senate, under the order of 2/17/2022, having achieved 60 votes in the affirmative, without amendment by Yea-Nay Vote. 65 - 27. Record Vote Number: 64.", "type": "Floor"}, {"actionDate": "2022-02-17", "sourceSystem": {"name": "Senate"}, "text": "Measure laid before Senate by unanimous consent. (consideration: CR S775-779)", "type": "Floor"}, {"actionDate": "2022-02-17", "recordedVotes": [{"chamber": "Senate", "congress": 117, "date": "2022-02-17T18:47:19Z", "rollNumber": 60, "sessionNumber": 2, "url": "https://www.senate.gov/legislative/LIS/roll_call_votes/vote1172/vote_117_2_00060.xml"}], "sourceSystem": {"name": "Senate"}, "text": "Cloture on the motion to proceed to the measure invoked in Senate by Yea-Nay Vote. 65 - 30. Record Vote Number: 60. (CR S765)", "type": "Floor"}, {"actionDate": "2022-02-17", "sourceSystem": {"name": "Senate"}, "text": "Motion to proceed to measure considered in Senate. (CR S757)", "type": "Floor"}, {"actionDate": "2022-02-15", "sourceSystem": {"name": "Senate"}, "text": "Cloture motion on the motion to proceed to the measure presented in Senate. (CR S703)", "type": "Floor"}, {"actionDate": "2022-02-15", "sourceSystem": {"name": "Senate"}, "text": "Motion to proceed to consideration of measure made in Senate. (CR S703)", "type": "Floor"}, {"actionDate": "2022-02-09", "calendarNumber": {"calendar": "Senate Calendar of Business", "number": "0267"}, "sourceSystem": {"name": "Senate"}, "text": "Read the second time. Placed on Senate Legislative Calendar under General Orders. Calendar No. 267.", "type": "Calendars"}, {"actionDate": "2022-02-08", "calendarNumber": {"calendar": "Senate Calendar of Business"}, "sourceSystem": {"name": "Senate"}, "text": "Received in the Senate. Read the first time. Placed on Senate Legislative Calendar under Read the First Time.", "type": "Calendars"}, {"actionCode": "H38310", "actionDate": "2022-02-08", "actionTime": "17:41:21", "sourceSystem": {"code": 2, "name": "House floor actions"}, "text": "Motion to reconsider laid on the table Agreed to without objection.", "type": "Floor"}, {"actionCode": "H37100", "actionDate": "2022-02-08", "actionTime": "17:41:19", "recordedVotes": [{"chamber": "House", "congress": 117, "date": "2022-02-08T22:41:19Z", "rollNumber": 39, "sessionNumber": 2, "url": "https://clerk.house.gov/evs/2022/roll039.xml"}], "sourceSystem": {"code": 2, "name": "House floor actions"}, "text": "On passage Passed by the Yeas and Nays: 272 - 162 (Roll no. 39). (text: CR H1052)", "type": "Floor"}, {"actionCode": "8000", "actionDate": "2022-02-08", "actionTime": "17:41:19", "recordedVotes": [{"chamber": "House", "congress": 117, "date": "2022-02-08T22:41:19Z", "rollNumber": 39, "sessionNumber": 2, "url": "https://clerk.house.gov/evs/2022/roll039.xml"}], "sourceSystem": {"code": 9, "name": "Library of Congress"}, "text": "Passed/agreed to in House: On passage Passed by the Yeas and Nays: 272 - 162 (Roll no. 39).(text: CR H1052)", "type": "Floor"}, {"actionCode": "H30000", "actionDate": "2022-02-08", "actionTime": "17:23:43", "sourceSystem": {"code": 2, "name": "House floor actions"}, "text": "Considered as unfinished business. (consideration: CR H1057-1058)", "type": "Floor"}], "pagination": {"count": 31, "next": "https://api.congress.gov/v3/bill/117/hr/6617/actions?offset=20&limit=20&format=json"}, "request": {"billNumber": "6617", "billType": "hr", "billUrl": "https://api.congress.gov/v3/bill/117/hr/6617?format=json", "congress": "117", "contentType": "application/json", "format": "json"}}, 200]