[{"actions": [{"actionCode": "H11000", "actionDate": "2022-11-01", "committees": [{"name": "Immigration Integrity, Security, and Enforcement Subcommittee", "systemCode": "hsju01", "url": "https://api.congress.gov/v3/committee/house/hsju01?format=json"}], "sourceSystem": {"code": 1, "name": "House committee actions"}, "text": "Referred to the Subcommittee on Immigration and Citizenship.", "type": "Committee"}, {"actionCode": "H11000", "actionDate": "2022-03-04", "committees": [{"name": "Indian and Insular Affairs Subcommittee", "systemCode": "hsii24", "url": "https://api.congress.gov/v3/committee/house/hsii24?format=json"}], "sourceSystem": {"code": 1, "name": "House committee actions"}, "text": "Referred to the Subcommittee for Indigenous Peoples of the United States.", "type": "Committee"}, {"actionCode": "H11000", "actionDate": "2022-03-04", "committees": [{"name": "Water, Wildlife and Fisheries Subcommittee", "systemCode": "hsii13", "url": "https://api.congress.gov/v3/committee/house/hsii13?format=json"}], "sourceSystem": {"code": 1, "name": "House committee actions"}, "text": "Referred to the Subcommittee on Water, Oceans, and Wildlife.", "type": "Committee"}, {"actionCode": "H11000", "actionDate": "2022-03-04", "committees": [{"name": "Federal Lands Subcommittee", "systemCode": "hsii10", "url": "https://api.congress.gov/v3/committee/house/hsii10?format=json"}], "sourceSystem": {"code": 1, "name": "House committee actions"}, "text": "Referred to the Subcommittee on National Parks, Forests, and Public Lands.", "type": "Committee"}, {"actionCode": "H11000", "actionDate": "2022-02-09", "committees": [{"name": "Oversight, Investigations, and Accountability Subcommittee", "systemCode": "hshm09", "url": "https://api.congress.gov/v3/committee/house/hshm09?format=json"}], "sourceSystem": {"code": 1, "name": "House committee actions"}, "text": "Referred to the Subcommittee on Oversight, Management, and Accountability.", "type": "Committee"}, {"actionCode": "H11000", "actionDate": "2022-02-09", "committees": [{"name": "Border Security and Enforcement Subcommittee", "systemCode": "hshm11", "url": "https://api.congress.gov/v3/committee/house/hshm11?format=json"}], "sourceSystem": {"code": 1, "name": "House committee actions"}, "text": "Referred to the Subcommittee on Border Security, Facilitation, and Operations.", "type": "Committee"}, {"actionCode": "H11000", "actionDate": "2022-02-09", "committees": [{"name": "Coast Guard and Maritime Transportation Subcommittee", "systemCode": "hspw07", "url": "https://api.congress.gov/v3/committee/house/hspw07?format=json"}], "sourceSystem": {"code": 1, "name": "House committee actions"}, "text": "Referred to the Subcommittee on Coast Guard and Maritime Transportation.", "type": "Committee"}, {"actionCode": "H11100", "actionDate": "2022-02-08", "committees": [{"name": "Financial Services Committee", "systemCode": "hsba00", "url": "https://api.congress.gov/v3/committee/house/hsba00?format=json"}], "sourceSystem": {"code": 2, "name": "House floor actions"}, "text": "Referred to the Committee on the Judiciary, and in addition to the Committees on Homeland Security, Ways and Means, Agriculture, Natural Resources, Transportation and Infrastructure, the Budget, Education and Labor, Foreign Affairs, Oversight and Reform, Intelligence (Permanent Select), Armed Services, and Financial Services, for a period to be subsequently determined by the Speaker, in each case for consideration of such provisions as fall within the jurisdiction of the committee concerned.", "type": "IntroReferral"}, {"actionCode": "H11100", "actionDate": "2022-02-08", "committees": [{"name": "Armed Services Committee", "systemCode": "hsas00", "url": "https://api.congress.gov/v3/committee/house/hsas00?format=json"}], "sourceSystem": {"code": 2, "name": "House floor actions"}, "text": "Referred to the Committee on the Judiciary, and in addition to the Committees on Homeland Security, Ways and Means, Agriculture, Natural Resources, Transportation and Infrastructure, the Budget, Education and Labor, Foreign Affairs, Oversight and Reform, Intelligence (Permanent Select), Armed Services, and Financial Services, for a period to be subsequently determined by the Speaker, in each case for consideration of such provisions as fall within the jurisdiction of the committee concerned.", "type": "IntroReferral"}, {"actionCode": "H11100", "actionDate": "2022-02-08", "committees": [{"name": "Intelligence (Permanent Select) Committee", "systemCode": "hlig00", "url": "https://api.congress.gov/v3/committee/house/hlig00?format=json"}], "sourceSystem": {"code": 2, "name": "House floor actions"}, "text": "Referred to the Committee on the Judiciary, and in addition to the Committees on Homeland Security, Ways and Means, Agriculture, Natural Resources, Transportation and Infrastructure, the Budget, Education and Labor, Foreign Affairs, Oversight and Reform, Intelligence (Permanent Select), Armed Services, and Financial Services, for a period to be subsequently determined by the Speaker, in each case for consideration of such provisions as fall within the jurisdiction of the committee concerned.", "type": "IntroReferral"}, {"actionCode": "H11100", "actionDate": "2022-02-08", "committees": [{"name": "Oversight and Accountability Committee", "systemCode": "hsgo00", "url": "https://api.congress.gov/v3/committee/house/hsgo00?format=json"}], "sourceSystem": {"code": 2, "name": "House floor actions"}, "text": "Referred to the Committee on the Judiciary, and in addition to the Committees on Homeland Security, Ways and Means, Agriculture, Natural Resources, Transportation and Infrastructure, the Budget, Education and Labor, Foreign Affairs, Oversight and Reform, Intelligence (Permanent Select), Armed Services, and Financial Services, for a period to be subsequently determined by the Speaker, in each case for consideration of such provisions as fall within the jurisdiction of the committee concerned.", "type": "IntroReferral"}, {"actionCode": "H11100", "actionDate": "2022-02-08", "committees": [{"name": "Foreign Affairs Committee", "systemCode": "hsfa00", "url": "https://api.congress.gov/v3/committee/house/hsfa00?format=json"}], "sourceSystem": {"code": 2, "name": "House floor actions"}, "text": "Referred to the Committee on the Judiciary, and in addition to the Committees on Homeland Security, Ways and Means, Agriculture, Natural Resources, Transportation and Infrastructure, the Budget, Education and Labor, Foreign Affairs, Oversight and Reform, Intelligence (Permanent Select), Armed Services, and Financial Services, for a period to be subsequently determined by the Speaker, in each case for consideration of such provisions as fall within the jurisdiction of the committee concerned.", "type": "IntroReferral"}, {"actionCode": "H11100", "actionDate": "2022-02-08", "committees": [{"name": "Education and the Workforce Committee", "systemCode": "hsed00", "url": "https://api.congress.gov/v3/committee/house/hsed00?format=json"}], "sourceSystem": {"code": 2, "name": "House floor actions"}, "text": "Referred to the Committee on the Judiciary, and in addition to the Committees on Homeland Security, Ways and Means, Agriculture, Natural Resources, Transportation and Infrastructure, the Budget, Education and Labor, Foreign Affairs, Oversight and Reform, Intelligence (Permanent Select), Armed Services, and Financial Services, for a period to be subsequently determined by the Speaker, in each case for consideration of such provisions as fall within the jurisdiction of the committee concerned.", "type": "IntroReferral"}, {"actionCode": "H11100", "actionDate": "2022-02-08", "committees": [{"name": "Budget Committee", "systemCode": "hsbu00", "url": "https://api.congress.gov/v3/committee/house/hsbu00?format=json"}], "sourceSystem": {"code": 2, "name": "House floor actions"}, "text": "Referred to the Committee on the Judiciary, and in addition to the Committees on Homeland Security, Ways and Means, Agriculture, Natural Resources, Transportation and Infrastructure, the Budget, Education and Labor, Foreign Affairs, Oversight and Reform, Intelligence (Permanent Select), Armed Services, and Financial Services, for a period to be subsequently determined by the Speaker, in each case for consideration of such provisions as fall within the jurisdiction of the committee concerned.", "type": "IntroReferral"}, {"actionCode": "H11100", "actionDate": "2022-02-08", "committees": [{"name": "Transportation and Infrastructure Committee", "systemCode": "hspw00", "url": "https://api.congress.gov/v3/committee/house/hspw00?format=json"}], "sourceSystem": {"code": 2, "name": "House floor actions"}, "text": "Referred to the Committee on the Judiciary, and in addition to the Committees on Homeland Security, Ways and Means, Agriculture, Natural Resources, Transportation and Infrastructure, the Budget, Education and Labor, Foreign Affairs, Oversight and Reform, Intelligence (Permanent Select), Armed Services, and Financial Services, for a period to be subsequently determined by the Speaker, in each case for consideration of such provisions as fall within the jurisdiction of the committee concerned.", "type": "IntroReferral"}, {"actionCode": "H11100", "actionDate": "2022-02-08", "committees": [{"name": "Natural Resources Committee", "systemCode": "hsii00", "url": "https://api.congress.gov/v3/committee/house/hsii00?format=json"}], "sourceSystem": {"code": 2, "name": "House floor actions"}, "text": "Referred to the Committee on the Judiciary, and in addition to the Committees on Homeland Security, Ways and Means, Agriculture, Natural Resources, Transportation and Infrastructure, the Budget, Education and Labor, Foreign Affairs, Oversight and Reform, Intelligence (Permanent Select), Armed Services, and Financial Services, for a period to be subsequently determined by the Speaker, in each case for consideration of such provisions as fall within the jurisdiction of the committee concerned.", "type": "IntroReferral"}, {"actionCode": "H11100", "actionDate": "2022-02-08", "committees": [{"name": "Agriculture Committee", "systemCode": "hsag00", "url": "https://api.congress.gov/v3/committee/house/hsag00?format=json"}], "sourceSystem": {"code": 2, "name": "House floor actions"}, "text": "Referred to the Committee on the Judiciary, and in addition to the Committees on Homeland Security, Ways and Means, Agriculture, Natural Resources, Transportation and Infrastructure, the Budget, Education and Labor, Foreign Affairs, Oversight and Reform, Intelligence (Permanent Select), Armed Services, and Financial Services, for a period to be subsequently determined by the Speaker, in each case for consideration of such provisions as fall within the jurisdiction of the committee concerned.", "type": "IntroReferral"}, {"actionCode": "H11100", "actionDate": "2022-02-08", "committees": [{"name": "Ways and Means Committee", "systemCode": "hswm00", "url": "https://api.congress.gov/v3/committee/house/hswm00?format=json"}], "sourceSystem": {"code": 2, "name": "House floor actions"}, "text": "Referred to the Committee on the Judiciary, and in addition to the Committees on Homeland Security, Ways and Means, Agriculture, Natural Resources, Transportation and Infrastructure, the Budget, Education and Labor, Foreign Affairs, Oversight and Reform, Intelligence (Permanent Select), Armed Services, and Financial Services, for a period to be subsequently determined by the Speaker, in each case for consideration of such provisions as fall within the jurisdiction of the committee concerned.", "type": "IntroReferral"}, {"actionCode": "H11100", "actionDate": "2022-02-08", "committees": [{"name": "Homeland Security Committee", "systemCode": "hshm00", "url": "https://api.congress.gov/v3/committee/house/hshm00?format=json"}], "sourceSystem": {"code": 2, "name": "House floor actions"}, "text": "Referred to the Committee on the Judiciary, and in addition to the Committees on Homeland Security, Ways and Means, Agriculture, Natural Resources, Transportation and Infrastructure, the Budget, Education and Labor, Foreign Affairs, Oversight and Reform, Intelligence (Permanent Select), Armed Services, and Financial Services, for a period to be subsequently determined by the Speaker, in each case for consideration of such provisions as fall within the jurisdiction of the committee concerned.", "type": "IntroReferral"}, {"actionCode": "H11100", "actionDate": "2022-02-08", "committees": [{"name": "Judiciary Committee", "systemCode": "hsju00", "url": "https://api.congress.gov/v3/committee/house/hsju00?format=json"}], "sourceSystem": {"code": 2, "name": "House floor actions"}, "text": "Referred to the Committee on the Judiciary, and in addition to the Committees on Homeland Security, Ways and Means, Agriculture, Natural Resources, Transportation and Infrastructure, the Budget, Education and Labor, Foreign Affairs, Oversight and Reform, Intelligence (Permanent Select), Armed Services, and Financial Services, for a period to be subsequently determined by the Speaker, in each case for consideration of such provisions as fall within the jurisdiction of the committee concerned.", "type": "IntroReferral"}], "pagination": {"count": 22, "next": "https://api.congress.gov/v3/bill/117/hr/6637/actions?offset=20&limit=20&format=json"}, "request": {"billNumber": "6637", "billType": "hr", "billUrl": "https://api.congress.gov/v3/bill/117/hr/6637?format=json", "congress": "117", "contentType": "application/json", "format": "json"}}, 200]