[{"actions": [{"actionCode": "E40000", "actionDate": "2022-09-30", "sourceSystem": {"code": 9, "name": "Library of Congress"}, "text": "Became Public Law No: 117-180.", "type": "President"}, {"actionCode": "36000", "actionDate": "2022-09-30", "sourceSystem": {"code": 9, "name": "Library of Congress"}, "text": "Became Public Law No: 117-180.", "type": "BecameLaw"}, {"actionCode": "E30000", "actionDate": "2022-09-30", "sourceSystem": {"code": 9, "name": "Library of Congress"}, "text": "Signed by President.", "type": "President"}, {"actionCode": "36000", "actionDate": "2022-09-30", "sourceSystem": {"code": 9, "name": "Library of Congress"}, "text": "Signed by President.", "type": "BecameLaw"}, {"actionCode": "E20000", "actionDate": "2022-09-30", "sourceSystem": {"code": 2, "name": "House floor actions"}, "text": "Presented to President.", "type": "Floor"}, {"actionCode": "28000", "actionDate": "2022-09-30", "sourceSystem": {"code": 9, "name": "Library of Congress"}, "text": "Presented to President.", "type": "President"}, {"actionCode": "H41931", "actionDate": "2022-09-30", "actionTime": "13:05:02", "sourceSystem": {"code": 2, "name": "House floor actions"}, "text": "Motion to reconsider laid on the table Agreed to without objection.", "type": "ResolvingDifferences"}, {"actionCode": "H41610", "actionDate": "2022-09-30", "actionTime": "13:05:00", "recordedVotes": [{"chamber": "House", "congress": 117, "date": "2022-09-30T17:05:00Z", "rollNumber": 476, "sessionNumber": 2, "url": "https://clerk.house.gov/evs/2022/roll476.xml"}], "sourceSystem": {"code": 2, "name": "House floor actions"}, "text": "On motion that the House agree to the Senate amendment Agreed to by the Yeas and Nays: 230 - 201 (Roll no. 476).", "type": "ResolvingDifferences"}, {"actionCode": "19500", "actionDate": "2022-09-30", "recordedVotes": [{"chamber": "House", "congress": 117, "date": "2022-09-30T17:05:00Z", "rollNumber": 476, "sessionNumber": 2, "url": "https://clerk.house.gov/evs/2022/roll476.xml"}], "sourceSystem": {"code": 9, "name": "Library of Congress"}, "text": "Resolving differences -- House actions: On motion that the House agree to the Senate amendment Agreed to by the Yeas and Nays: 230 - 201 (Roll no. 476).", "type": "NotUsed"}, {"actionCode": "H8D000", "actionDate": "2022-09-30", "actionTime": "11:43:26", "sourceSystem": {"code": 2, "name": "House floor actions"}, "text": "POSTPONED PROCEEDINGS - At the conclusion of debate on the motion to agree to the Senate amendment to H.R. 6833, the Chair put the question on agreeing to the motion and by voice vote, announced that the ayes had prevailed. Mrs. Granger demanded the yeas and nays and the Chair postponed further proceedings until a time to be announced.", "type": "Floor"}, {"actionCode": "H41400", "actionDate": "2022-09-30", "actionTime": "11:43:13", "sourceSystem": {"code": 2, "name": "House floor actions"}, "text": "The previous question was ordered pursuant to the rule.", "type": "ResolvingDifferences"}, {"actionCode": "H8D000", "actionDate": "2022-09-30", "actionTime": "11:17:00", "sourceSystem": {"code": 2, "name": "House floor actions"}, "text": "DEBATE - Pursuant to H. Res. 1404, the House proceeded with one hour of debate on the motion to agree to the Senate amendment to H.R. 6833.", "type": "Floor"}, {"actionCode": "H40150", "actionDate": "2022-09-30", "actionTime": "11:16:43", "sourceSystem": {"code": 2, "name": "House floor actions"}, "text": "Ms. DeLauro moved that the House agree to the Senate amendment. (consideration: CR H8330-8350, H8354-8355)", "type": "ResolvingDifferences"}, {"actionDate": "2022-09-29", "sourceSystem": {"name": "Senate"}, "text": "Message on Senate action sent to the House.", "type": "Floor"}, {"actionDate": "2022-09-29", "recordedVotes": [{"chamber": "Senate", "congress": 117, "date": "2022-09-29T18:38:52Z", "rollNumber": 351, "sessionNumber": 2, "url": "https://www.senate.gov/legislative/LIS/roll_call_votes/vote1172/vote_117_2_00351.xml"}], "sourceSystem": {"name": "Senate"}, "text": "Passed Senate under the order of 9/29/2022, having achieved 60 votes in the affirmative with an amendment by Yea-Nay Vote. 72 - 25. Record Vote Number: 351.", "type": "Floor"}, {"actionCode": "17000", "actionDate": "2022-09-29", "recordedVotes": [{"chamber": "Senate", "congress": 117, "date": "2022-09-29T18:38:52Z", "rollNumber": 351, "sessionNumber": 2, "url": "https://www.senate.gov/legislative/LIS/roll_call_votes/vote1172/vote_117_2_00351.xml"}], "sourceSystem": {"code": 9, "name": "Library of Congress"}, "text": "Passed/agreed to in Senate: Passed Senate under the order of 9/29/2022, having achieved 60 votes in the affirmative with an amendment by Yea-Nay Vote. 72 - 25. Record Vote Number: 351.", "type": "Floor"}, {"actionDate": "2022-09-29", "sourceSystem": {"name": "Senate"}, "text": "Cloture motion on the measure withdrawn by unanimous consent in Senate.", "type": "Floor"}, {"actionDate": "2022-09-29", "committees": [{"name": "Appropriations Committee", "systemCode": "ssap00", "url": "https://api.congress.gov/v3/committee/senate/ssap00?format=json"}], "sourceSystem": {"name": "Senate"}, "text": "Motion by Senator Schumer to commit to Senate Committee on Appropriations with instructions to report back forthwith with the following amendment (SA 6031) withdrawn in Senate.", "type": "Floor"}, {"actionDate": "2022-09-29", "sourceSystem": {"name": "Senate"}, "text": "Considered by Senate.", "type": "Floor"}, {"actionDate": "2022-09-28", "sourceSystem": {"name": "Senate"}, "text": "Cloture motion on the measure presented in Senate. (CR S5148)", "type": "Floor"}], "pagination": {"count": 51, "next": "https://api.congress.gov/v3/bill/117/hr/6833/actions?offset=20&limit=20&format=json"}, "request": {"billNumber": "6833", "billType": "hr", "billUrl": "https://api.congress.gov/v3/bill/117/hr/6833?format=json", "congress": "117", "contentType": "application/json", "format": "json"}}, 200]