[{"actions": [{"actionDate": "2022-12-05", "committees": [{"name": "Judiciary Committee", "systemCode": "ssju00", "url": "https://api.congress.gov/v3/committee/senate/ssju00?format=json"}], "sourceSystem": {"name": "Senate"}, "text": "Received in the Senate and Read twice and referred to the Committee on the Judiciary.", "type": "IntroReferral"}, {"actionCode": "H38310", "actionDate": "2022-12-01", "actionTime": "15:33:29", "sourceSystem": {"code": 2, "name": "House floor actions"}, "text": "Motion to reconsider laid on the table Agreed to without objection.", "type": "Floor"}, {"actionCode": "H37100", "actionDate": "2022-12-01", "actionTime": "15:33:27", "recordedVotes": [{"chamber": "House", "congress": 117, "date": "2022-12-01T20:33:27Z", "rollNumber": 493, "sessionNumber": 2, "url": "https://clerk.house.gov/evs/2022/roll493.xml"}], "sourceSystem": {"code": 2, "name": "House floor actions"}, "text": "On passage Passed by the Yeas and Nays: 324 - 90 (Roll no. 493).", "type": "Floor"}, {"actionCode": "8000", "actionDate": "2022-12-01", "actionTime": "15:33:27", "recordedVotes": [{"chamber": "House", "congress": 117, "date": "2022-12-01T20:33:27Z", "rollNumber": 493, "sessionNumber": 2, "url": "https://clerk.house.gov/evs/2022/roll493.xml"}], "sourceSystem": {"code": 9, "name": "Library of Congress"}, "text": "Passed/agreed to in House: On passage Passed by the Yeas and Nays: 324 - 90 (Roll no. 493).", "type": "Floor"}, {"actionCode": "H30000", "actionDate": "2022-12-01", "actionTime": "15:19:31", "sourceSystem": {"code": 2, "name": "House floor actions"}, "text": "Considered as unfinished business. (consideration: CR H8694-8695)", "type": "Floor"}, {"actionCode": "H8D000", "actionDate": "2022-12-01", "actionTime": "13:32:55", "sourceSystem": {"code": 2, "name": "House floor actions"}, "text": "POSTPONED PROCEEDINGS - At the conclusion of debate on H.R. 6878, the Chair put the question on passage of the bill and by voice vote announced that the ayes had prevailed. Mr. Fitzgerald demanded the yeas and nays and the Chair postponed further proceedings until a time to be announced.", "type": "Floor"}, {"actionCode": "H8D000", "actionDate": "2022-12-01", "actionTime": "13:28:55", "sourceSystem": {"code": 2, "name": "House floor actions"}, "text": "DEBATE - Pursuant to the provisions of H.Res. 1499, the House proceeded with 10 minutes of debate on the Lois Frankel amendment No. 1.", "type": "Floor"}, {"actionCode": "H8D000", "actionDate": "2022-12-01", "actionTime": "13:14:16", "sourceSystem": {"code": 2, "name": "House floor actions"}, "text": "DEBATE - The House proceeded with one hour of debate on H.R. 6878.", "type": "Floor"}, {"actionCode": "H8D000", "actionDate": "2022-12-01", "actionTime": "13:12:32", "sourceSystem": {"code": 2, "name": "House floor actions"}, "text": "Rule provides for consideration of H.R. 3372, H.R. 6878, H.R. 8876 and H.J. Res. 100. The resolution provides for adoption of H. Res. 1495 and H. Con. Res. 118.", "type": "Floor"}, {"actionCode": "H30000", "actionDate": "2022-12-01", "actionTime": "13:12:27", "sourceSystem": {"code": 2, "name": "House floor actions"}, "text": "Considered under the provisions of rule H. Res. 1499. (consideration: CR H8686-8693; text: CR H8687-8689)", "type": "Floor"}, {"actionCode": "H1L210", "actionDate": "2022-11-30", "actionTime": "09:10:47", "sourceSystem": {"code": 2, "name": "House floor actions"}, "text": "Rules Committee Resolution H. Res. 1499 Reported to House. Rule provides for consideration of H.R. 3372, H.R. 6878, H.R. 8876 and H.J. Res. 100. The resolution provides for adoption of H. Res. 1495 and H. Con. Res. 118.", "type": "Floor"}, {"actionCode": "H12410", "actionDate": "2022-09-13", "calendarNumber": {"calendar": "U00361"}, "sourceSystem": {"code": 2, "name": "House floor actions"}, "text": "Placed on the Union Calendar, Calendar No. 361.", "type": "Calendars"}, {"actionCode": "H12300", "actionDate": "2022-09-13", "committees": [{"name": "Budget Committee", "systemCode": "hsbu00", "url": "https://api.congress.gov/v3/committee/house/hsbu00?format=json"}], "sourceSystem": {"code": 2, "name": "House floor actions"}, "text": "Committee on the Budget discharged.", "type": "Discharge"}, {"actionCode": "5500", "actionDate": "2022-09-13", "committees": [{"name": "Budget Committee", "systemCode": "hsbu00", "url": "https://api.congress.gov/v3/committee/house/hsbu00?format=json"}], "sourceSystem": {"code": 9, "name": "Library of Congress"}, "text": "Committee on the Budget discharged.", "type": "Committee"}, {"actionCode": "H12200", "actionDate": "2022-09-13", "committees": [{"name": "Judiciary Committee", "systemCode": "hsju00", "url": "https://api.congress.gov/v3/committee/house/hsju00?format=json"}], "sourceSystem": {"code": 2, "name": "House floor actions"}, "text": "Reported (Amended) by the Committee on Judiciary. H. Rept. 117-465, Part I.", "type": "Committee"}, {"actionCode": "5000", "actionDate": "2022-09-13", "committees": [{"name": "Judiciary Committee", "systemCode": "hsju00", "url": "https://api.congress.gov/v3/committee/house/hsju00?format=json"}], "sourceSystem": {"code": 9, "name": "Library of Congress"}, "text": "Reported (Amended) by the Committee on Judiciary. H. Rept. 117-465, Part I.", "type": "Committee"}, {"actionCode": "H19000", "actionDate": "2022-07-13", "committees": [{"name": "Judiciary Committee", "systemCode": "hsju00", "url": "https://api.congress.gov/v3/committee/house/hsju00?format=json"}], "sourceSystem": {"code": 1, "name": "House committee actions"}, "text": "Ordered to be Reported (Amended) by Voice Vote.", "type": "Committee"}, {"actionCode": "H15000-B", "actionDate": "2022-07-13", "committees": [{"name": "Judiciary Committee", "systemCode": "hsju00", "url": "https://api.congress.gov/v3/committee/house/hsju00?format=json"}], "sourceSystem": {"code": 1, "name": "House committee actions"}, "text": "Committee Consideration and Mark-up Session Held.", "type": "Committee"}, {"actionCode": "H11100", "actionDate": "2022-03-01", "committees": [{"name": "Budget Committee", "systemCode": "hsbu00", "url": "https://api.congress.gov/v3/committee/house/hsbu00?format=json"}], "sourceSystem": {"code": 2, "name": "House floor actions"}, "text": "Referred to the Committee on the Judiciary, and in addition to the Committee on the Budget, for a period to be subsequently determined by the Speaker, in each case for consideration of such provisions as fall within the jurisdiction of the committee concerned.", "type": "IntroReferral"}, {"actionCode": "H11100", "actionDate": "2022-03-01", "committees": [{"name": "Judiciary Committee", "systemCode": "hsju00", "url": "https://api.congress.gov/v3/committee/house/hsju00?format=json"}], "sourceSystem": {"code": 2, "name": "House floor actions"}, "text": "Referred to the Committee on the Judiciary, and in addition to the Committee on the Budget, for a period to be subsequently determined by the Speaker, in each case for consideration of such provisions as fall within the jurisdiction of the committee concerned.", "type": "IntroReferral"}], "pagination": {"count": 22, "next": "https://api.congress.gov/v3/bill/117/hr/6878/actions?offset=20&limit=20&format=json"}, "request": {"billNumber": "6878", "billType": "hr", "billUrl": "https://api.congress.gov/v3/bill/117/hr/6878?format=json", "congress": "117", "contentType": "application/json", "format": "json"}}, 200]