[{"actions": [{"actionCode": "E40000", "actionDate": "2022-10-04", "sourceSystem": {"code": 9, "name": "Library of Congress"}, "text": "Became Public Law No: 117-185.", "type": "President"}, {"actionCode": "36000", "actionDate": "2022-10-04", "sourceSystem": {"code": 9, "name": "Library of Congress"}, "text": "Became Public Law No: 117-185.", "type": "BecameLaw"}, {"actionCode": "E30000", "actionDate": "2022-10-04", "sourceSystem": {"code": 9, "name": "Library of Congress"}, "text": "Signed by President.", "type": "President"}, {"actionCode": "36000", "actionDate": "2022-10-04", "sourceSystem": {"code": 9, "name": "Library of Congress"}, "text": "Signed by President.", "type": "BecameLaw"}, {"actionCode": "E20000", "actionDate": "2022-09-28", "sourceSystem": {"code": 2, "name": "House floor actions"}, "text": "Presented to President.", "type": "Floor"}, {"actionCode": "28000", "actionDate": "2022-09-28", "sourceSystem": {"code": 9, "name": "Library of Congress"}, "text": "Presented to President.", "type": "President"}, {"actionDate": "2022-09-22", "sourceSystem": {"name": "Senate"}, "text": "Message on Senate action sent to the House.", "type": "Floor"}, {"actionDate": "2022-09-21", "sourceSystem": {"name": "Senate"}, "text": "Passed Senate without amendment by Unanimous Consent. (consideration: CR S4940)", "type": "Floor"}, {"actionCode": "17000", "actionDate": "2022-09-21", "sourceSystem": {"code": 9, "name": "Library of Congress"}, "text": "Passed/agreed to in Senate: Passed Senate without amendment by Unanimous Consent.", "type": "Floor"}, {"actionDate": "2022-07-21", "calendarNumber": {"calendar": "Senate Calendar of Business", "number": "0452"}, "sourceSystem": {"name": "Senate"}, "text": "Placed on Senate Legislative Calendar under General Orders. Calendar No. 452.", "type": "Calendars"}, {"actionDate": "2022-07-21", "committees": [{"name": "Foreign Relations Committee", "systemCode": "ssfr00", "url": "https://api.congress.gov/v3/committee/senate/ssfr00?format=json"}], "sourceSystem": {"name": "Senate"}, "text": "Committee on Foreign Relations. Reported by Senator Menendez without amendment. Without written report.", "type": "Committee"}, {"actionCode": "14000", "actionDate": "2022-07-21", "committees": [{"name": "Foreign Relations Committee", "systemCode": "ssfr00", "url": "https://api.congress.gov/v3/committee/senate/ssfr00?format=json"}], "sourceSystem": {"code": 9, "name": "Library of Congress"}, "text": "Committee on Foreign Relations. Reported by Senator Menendez without amendment. Without written report.", "type": "Committee"}, {"actionDate": "2022-07-19", "committees": [{"name": "Foreign Relations Committee", "systemCode": "ssfr00", "url": "https://api.congress.gov/v3/committee/senate/ssfr00?format=json"}], "sourceSystem": {"name": "Senate"}, "text": "Committee on Foreign Relations. Ordered to be reported without amendment favorably.", "type": "Committee"}, {"actionDate": "2022-05-12", "committees": [{"name": "Foreign Relations Committee", "systemCode": "ssfr00", "url": "https://api.congress.gov/v3/committee/senate/ssfr00?format=json"}], "sourceSystem": {"name": "Senate"}, "text": "Received in the Senate and Read twice and referred to the Committee on Foreign Relations.", "type": "IntroReferral"}, {"actionCode": "H38310", "actionDate": "2022-05-11", "actionTime": "18:00:12", "sourceSystem": {"code": 2, "name": "House floor actions"}, "text": "Motion to reconsider laid on the table Agreed to without objection.", "type": "Floor"}, {"actionCode": "H37300", "actionDate": "2022-05-11", "actionTime": "18:00:11", "recordedVotes": [{"chamber": "House", "congress": 117, "date": "2022-05-11T22:00:11Z", "rollNumber": 162, "sessionNumber": 2, "url": "https://clerk.house.gov/evs/2022/roll162.xml"}], "sourceSystem": {"code": 2, "name": "House floor actions"}, "text": "On motion to suspend the rules and pass the bill, as amended Agreed to by the Yeas and Nays: (2/3 required): 417 - 2 (Roll no. 162). (text: 05/10/2022 CR H4754)", "type": "Floor"}, {"actionCode": "8000", "actionDate": "2022-05-11", "actionTime": "18:00:11", "recordedVotes": [{"chamber": "House", "congress": 117, "date": "2022-05-11T22:00:11Z", "rollNumber": 162, "sessionNumber": 2, "url": "https://clerk.house.gov/evs/2022/roll162.xml"}], "sourceSystem": {"code": 9, "name": "Library of Congress"}, "text": "Passed/agreed to in House: On motion to suspend the rules and pass the bill, as amended Agreed to by the Yeas and Nays: (2/3 required): 417 - 2 (Roll no. 162).", "type": "Floor"}, {"actionCode": "H30000", "actionDate": "2022-05-11", "actionTime": "17:49:55", "sourceSystem": {"code": 2, "name": "House floor actions"}, "text": "Considered as unfinished business. (consideration: CR H4840-4841)", "type": "Floor"}, {"actionCode": "H37220", "actionDate": "2022-05-10", "actionTime": "17:06:44", "sourceSystem": {"code": 2, "name": "House floor actions"}, "text": "At the conclusion of debate, the Yeas and Nays were demanded and ordered. Pursuant to the provisions of clause 8, rule XX, the Chair announced that further proceedings on the motion would be postponed.", "type": "Floor"}, {"actionCode": "H8D000", "actionDate": "2022-05-10", "actionTime": "16:56:37", "sourceSystem": {"code": 2, "name": "House floor actions"}, "text": "DEBATE - The House proceeded with forty minutes of debate on H.R. 6899.", "type": "Floor"}], "pagination": {"count": 30, "next": "https://api.congress.gov/v3/bill/117/hr/6899/actions?offset=20&limit=20&format=json"}, "request": {"billNumber": "6899", "billType": "hr", "billUrl": "https://api.congress.gov/v3/bill/117/hr/6899?format=json", "congress": "117", "contentType": "application/json", "format": "json"}}, 200]