[{"actions": [{"actionDate": "2022-10-11", "sourceSystem": {"name": "Senate"}, "text": "Received in the Senate.", "type": "IntroReferral"}, {"actionCode": "H38310", "actionDate": "2022-09-29", "actionTime": "16:18:38", "sourceSystem": {"code": 2, "name": "House floor actions"}, "text": "Motion to reconsider laid on the table Agreed to without objection.", "type": "Floor"}, {"actionCode": "H37300", "actionDate": "2022-09-29", "actionTime": "16:18:37", "recordedVotes": [{"chamber": "House", "congress": 117, "date": "2022-09-29T20:18:37Z", "rollNumber": 466, "sessionNumber": 2, "url": "https://clerk.house.gov/evs/2022/roll466.xml"}], "sourceSystem": {"code": 2, "name": "House floor actions"}, "text": "On motion to suspend the rules and pass the bill, as amended Agreed to by the Yeas and Nays: (2/3 required): 325 - 93 (Roll no. 466). (text: CR H8155-8156)", "type": "Floor"}, {"actionCode": "8000", "actionDate": "2022-09-29", "actionTime": "16:18:37", "recordedVotes": [{"chamber": "House", "congress": 117, "date": "2022-09-29T20:18:37Z", "rollNumber": 466, "sessionNumber": 2, "url": "https://clerk.house.gov/evs/2022/roll466.xml"}], "sourceSystem": {"code": 9, "name": "Library of Congress"}, "text": "Passed/agreed to in House: On motion to suspend the rules and pass the bill, as amended Agreed to by the Yeas and Nays: (2/3 required): 325 - 93 (Roll no. 466).", "type": "Floor"}, {"actionCode": "H30000", "actionDate": "2022-09-29", "actionTime": "16:09:06", "sourceSystem": {"code": 2, "name": "House floor actions"}, "text": "Considered as unfinished business. (consideration: CR H8274-8275)", "type": "Floor"}, {"actionCode": "H37220", "actionDate": "2022-09-28", "actionTime": "16:31:51", "sourceSystem": {"code": 2, "name": "House floor actions"}, "text": "At the conclusion of debate, the Yeas and Nays were demanded and ordered. Pursuant to the provisions of clause 8, rule XX, the Chair announced that further proceedings on the motion would be postponed.", "type": "Floor"}, {"actionCode": "H8D000", "actionDate": "2022-09-28", "actionTime": "16:19:32", "sourceSystem": {"code": 2, "name": "House floor actions"}, "text": "DEBATE - The House proceeded with forty minutes of debate on H.R. 6965.", "type": "Floor"}, {"actionCode": "H30000", "actionDate": "2022-09-28", "actionTime": "16:19:31", "sourceSystem": {"code": 2, "name": "House floor actions"}, "text": "Considered under suspension of the rules. (consideration: CR H8155-8157)", "type": "Floor"}, {"actionCode": "H30300", "actionDate": "2022-09-28", "actionTime": "16:18:53", "sourceSystem": {"code": 2, "name": "House floor actions"}, "text": "Ms. Schakowsky moved to suspend the rules and pass the bill, as amended.", "type": "Floor"}, {"actionCode": "H12410", "actionDate": "2022-09-28", "calendarNumber": {"calendar": "U00382"}, "sourceSystem": {"code": 2, "name": "House floor actions"}, "text": "Placed on the Union Calendar, Calendar No. 382.", "type": "Calendars"}, {"actionCode": "H12300", "actionDate": "2022-09-28", "committees": [{"name": "Judiciary Committee", "systemCode": "hsju00", "url": "https://api.congress.gov/v3/committee/house/hsju00?format=json"}], "sourceSystem": {"code": 2, "name": "House floor actions"}, "text": "Committee on the Judiciary discharged.", "type": "Discharge"}, {"actionCode": "5500", "actionDate": "2022-09-28", "committees": [{"name": "Judiciary Committee", "systemCode": "hsju00", "url": "https://api.congress.gov/v3/committee/house/hsju00?format=json"}], "sourceSystem": {"code": 9, "name": "Library of Congress"}, "text": "Committee on the Judiciary discharged.", "type": "Committee"}, {"actionCode": "H12300", "actionDate": "2022-09-28", "committees": [{"name": "Foreign Affairs Committee", "systemCode": "hsfa00", "url": "https://api.congress.gov/v3/committee/house/hsfa00?format=json"}], "sourceSystem": {"code": 2, "name": "House floor actions"}, "text": "Committee on Foreign Affairs discharged.", "type": "Discharge"}, {"actionCode": "5500", "actionDate": "2022-09-28", "committees": [{"name": "Foreign Affairs Committee", "systemCode": "hsfa00", "url": "https://api.congress.gov/v3/committee/house/hsfa00?format=json"}], "sourceSystem": {"code": 9, "name": "Library of Congress"}, "text": "Committee on Foreign Affairs discharged.", "type": "Committee"}, {"actionCode": "H12200", "actionDate": "2022-09-28", "committees": [{"name": "Energy and Commerce Committee", "systemCode": "hsif00", "url": "https://api.congress.gov/v3/committee/house/hsif00?format=json"}], "sourceSystem": {"code": 2, "name": "House floor actions"}, "text": "Reported (Amended) by the Committee on Energy and Commerce. H. Rept. 117-508, Part I.", "type": "Committee"}, {"actionCode": "5000", "actionDate": "2022-09-28", "committees": [{"name": "Energy and Commerce Committee", "systemCode": "hsif00", "url": "https://api.congress.gov/v3/committee/house/hsif00?format=json"}], "sourceSystem": {"code": 9, "name": "Library of Congress"}, "text": "Reported (Amended) by the Committee on Energy and Commerce. H. Rept. 117-508, Part I.", "type": "Committee"}, {"actionCode": "H19000", "actionDate": "2022-09-21", "committees": [{"name": "Energy and Commerce Committee", "systemCode": "hsif00", "url": "https://api.congress.gov/v3/committee/house/hsif00?format=json"}], "sourceSystem": {"code": 1, "name": "House committee actions"}, "text": "Ordered to be Reported by the Yeas and Nays: 56 - 0.", "type": "Committee"}, {"actionCode": "H15000-B", "actionDate": "2022-09-21", "committees": [{"name": "Energy and Commerce Committee", "systemCode": "hsif00", "url": "https://api.congress.gov/v3/committee/house/hsif00?format=json"}], "sourceSystem": {"code": 1, "name": "House committee actions"}, "text": "Committee Consideration and Mark-up Session Held.", "type": "Committee"}, {"actionCode": "H25000", "actionDate": "2022-09-21", "committees": [{"name": "Energy and Commerce Committee", "systemCode": "hsif00", "url": "https://api.congress.gov/v3/committee/house/hsif00?format=json"}], "sourceSystem": {"code": 1, "name": "House committee actions"}, "text": "Subcommittee on Consumer Protection and Commerce Discharged.", "type": "Committee"}, {"actionCode": "H11000", "actionDate": "2022-03-08", "committees": [{"name": "Innovation, Data, and Commerce Subcommittee", "systemCode": "hsif17", "url": "https://api.congress.gov/v3/committee/house/hsif17?format=json"}], "sourceSystem": {"code": 1, "name": "House committee actions"}, "text": "Referred to the Subcommittee on Consumer Protection and Commerce.", "type": "Committee"}], "pagination": {"count": 25, "next": "https://api.congress.gov/v3/bill/117/hr/6965/actions?offset=20&limit=20&format=json"}, "request": {"billNumber": "6965", "billType": "hr", "billUrl": "https://api.congress.gov/v3/bill/117/hr/6965?format=json", "congress": "117", "contentType": "application/json", "format": "json"}}, 200]