[{"actions": [{"actionCode": "E40000", "actionDate": "2022-04-08", "sourceSystem": {"code": 9, "name": "Library of Congress"}, "text": "Became Public Law No: 117-109.", "type": "President"}, {"actionCode": "36000", "actionDate": "2022-04-08", "sourceSystem": {"code": 9, "name": "Library of Congress"}, "text": "Became Public Law No: 117-109.", "type": "BecameLaw"}, {"actionCode": "E30000", "actionDate": "2022-04-08", "sourceSystem": {"code": 9, "name": "Library of Congress"}, "text": "Signed by President.", "type": "President"}, {"actionCode": "36000", "actionDate": "2022-04-08", "sourceSystem": {"code": 9, "name": "Library of Congress"}, "text": "Signed by President.", "type": "BecameLaw"}, {"actionCode": "E20000", "actionDate": "2022-04-07", "sourceSystem": {"code": 2, "name": "House floor actions"}, "text": "Presented to President.", "type": "Floor"}, {"actionCode": "28000", "actionDate": "2022-04-07", "sourceSystem": {"code": 9, "name": "Library of Congress"}, "text": "Presented to President.", "type": "President"}, {"actionCode": "H41931", "actionDate": "2022-04-07", "actionTime": "13:12:55", "sourceSystem": {"code": 2, "name": "House floor actions"}, "text": "Motion to reconsider laid on the table Agreed to without objection.", "type": "ResolvingDifferences"}, {"actionCode": "H41610", "actionDate": "2022-04-07", "actionTime": "13:12:53", "recordedVotes": [{"chamber": "House", "congress": 117, "date": "2022-04-07T17:12:53Z", "rollNumber": 125, "sessionNumber": 2, "url": "https://clerk.house.gov/evs/2022/roll125.xml"}], "sourceSystem": {"code": 2, "name": "House floor actions"}, "text": "On motion that the House suspend the rules and agree to the Senate amendment Agreed to by the Yeas and Nays: (2/3 required): 413 - 9 (Roll no. 125). (text: CR H4418)", "type": "ResolvingDifferences"}, {"actionCode": "19500", "actionDate": "2022-04-07", "recordedVotes": [{"chamber": "House", "congress": 117, "date": "2022-04-07T17:12:53Z", "rollNumber": 125, "sessionNumber": 2, "url": "https://clerk.house.gov/evs/2022/roll125.xml"}], "sourceSystem": {"code": 9, "name": "Library of Congress"}, "text": "Resolving differences -- House actions: On motion that the House suspend the rules and agree to the Senate amendment Agreed to by the Yeas and Nays: (2/3 required): 413 - 9 (Roll no. 125).(text: CR H4418)", "type": "NotUsed"}, {"actionCode": "H40142", "actionDate": "2022-04-07", "actionTime": "12:20:38", "sourceSystem": {"code": 2, "name": "House floor actions"}, "text": "At the conclusion of debate, the Yeas and Nays were demanded and ordered. Pursuant to the provisions of clause 8, rule XX, the chair announced that further proceedings on the motion would be postponed.", "type": "ResolvingDifferences"}, {"actionCode": "H8D000", "actionDate": "2022-04-07", "actionTime": "12:15:28", "sourceSystem": {"code": 2, "name": "House floor actions"}, "text": "DEBATE - The House proceeded with forty minutes of debate on the motion to suspend the rules and agree to the Senate amendment to H.R. 6968.", "type": "Floor"}, {"actionCode": "H40140", "actionDate": "2022-04-07", "actionTime": "12:15:15", "sourceSystem": {"code": 2, "name": "House floor actions"}, "text": "Mr. Neal moved that the House suspend the rules and agree to the Senate amendment. (consideration: CR H4418-4419, H4420-4421)", "type": "ResolvingDifferences"}, {"actionDate": "2022-04-07", "sourceSystem": {"name": "Senate"}, "text": "Message on Senate action sent to the House.", "type": "Floor"}, {"actionDate": "2022-04-07", "recordedVotes": [{"chamber": "Senate", "congress": 117, "date": "2022-04-07T15:38:56Z", "rollNumber": 132, "sessionNumber": 2, "url": "https://www.senate.gov/legislative/LIS/roll_call_votes/vote1172/vote_117_2_00132.xml"}], "sourceSystem": {"name": "Senate"}, "text": "Passed Senate with an amendment by Yea-Nay Vote. 100 - 0. Record Vote Number: 132. (text of amendment in the nature of a substitute: 04/06/2022 CR S2049-2050)", "type": "Floor"}, {"actionCode": "17000", "actionDate": "2022-04-07", "recordedVotes": [{"chamber": "Senate", "congress": 117, "date": "2022-04-07T15:38:56Z", "rollNumber": 132, "sessionNumber": 2, "url": "https://www.senate.gov/legislative/LIS/roll_call_votes/vote1172/vote_117_2_00132.xml"}], "sourceSystem": {"code": 9, "name": "Library of Congress"}, "text": "Passed/agreed to in Senate: Passed Senate with an amendment by Yea-Nay Vote. 100 - 0. Record Vote Number: 132.(text of amendment in the nature of a substitute: 04/06/2022 CR S2049-2050)", "type": "Floor"}, {"actionDate": "2022-04-07", "sourceSystem": {"name": "Senate"}, "text": "Measure laid before Senate by unanimous consent. (consideration: CR S2060)", "type": "Floor"}, {"actionDate": "2022-03-28", "calendarNumber": {"calendar": "Senate Calendar of Business", "number": "0312"}, "sourceSystem": {"name": "Senate"}, "text": "Read the second time. Placed on Senate Legislative Calendar under General Orders. Calendar No. 312.", "type": "Calendars"}, {"actionDate": "2022-03-24", "calendarNumber": {"calendar": "Senate Calendar of Business"}, "sourceSystem": {"name": "Senate"}, "text": "Read the first time. Placed on Senate Legislative Calendar under Read the First Time.", "type": "Calendars"}, {"actionDate": "2022-03-23", "sourceSystem": {"name": "Senate"}, "text": "Received in the Senate.", "type": "IntroReferral"}, {"actionCode": "H38310", "actionDate": "2022-03-09", "actionTime": "23:25:47", "sourceSystem": {"code": 2, "name": "House floor actions"}, "text": "Motion to reconsider laid on the table Agreed to without objection.", "type": "Floor"}], "pagination": {"count": 39, "next": "https://api.congress.gov/v3/bill/117/hr/6968/actions?offset=20&limit=20&format=json"}, "request": {"billNumber": "6968", "billType": "hr", "billUrl": "https://api.congress.gov/v3/bill/117/hr/6968?format=json", "congress": "117", "contentType": "application/json", "format": "json"}}, 200]