[{"actions": [{"actionDate": "2022-05-12", "committees": [{"name": "Banking, Housing, and Urban Affairs Committee", "systemCode": "ssbk00", "url": "https://api.congress.gov/v3/committee/senate/ssbk00?format=json"}], "sourceSystem": {"name": "Senate"}, "text": "Received in the Senate and Read twice and referred to the Committee on Banking, Housing, and Urban Affairs.", "type": "IntroReferral"}, {"actionCode": "H38310", "actionDate": "2022-05-11", "actionTime": "17:26:57", "sourceSystem": {"code": 2, "name": "House floor actions"}, "text": "Motion to reconsider laid on the table Agreed to without objection.", "type": "Floor"}, {"actionCode": "H37300", "actionDate": "2022-05-11", "actionTime": "17:26:56", "recordedVotes": [{"chamber": "House", "congress": 117, "date": "2022-05-11T21:26:56Z", "rollNumber": 159, "sessionNumber": 2, "url": "https://clerk.house.gov/evs/2022/roll159.xml"}], "sourceSystem": {"code": 2, "name": "House floor actions"}, "text": "On motion to suspend the rules and pass the bill, as amended Agreed to by the Yeas and Nays: (2/3 required): 418 - 2 (Roll no. 159). (text: 05/10/2022 CR H4748-4749)", "type": "Floor"}, {"actionCode": "8000", "actionDate": "2022-05-11", "actionTime": "17:26:56", "recordedVotes": [{"chamber": "House", "congress": 117, "date": "2022-05-11T21:26:56Z", "rollNumber": 159, "sessionNumber": 2, "url": "https://clerk.house.gov/evs/2022/roll159.xml"}], "sourceSystem": {"code": 9, "name": "Library of Congress"}, "text": "Passed/agreed to in House: On motion to suspend the rules and pass the bill, as amended Agreed to by the Yeas and Nays: (2/3 required): 418 - 2 (Roll no. 159).", "type": "Floor"}, {"actionCode": "H30000", "actionDate": "2022-05-11", "actionTime": "17:17:20", "sourceSystem": {"code": 2, "name": "House floor actions"}, "text": "Considered as unfinished business. (consideration: CR H4838)", "type": "Floor"}, {"actionCode": "H37220", "actionDate": "2022-05-10", "actionTime": "16:25:49", "sourceSystem": {"code": 2, "name": "House floor actions"}, "text": "At the conclusion of debate, the Yeas and Nays were demanded and ordered. Pursuant to the provisions of clause 8, rule XX, the Chair announced that further proceedings on the motion would be postponed.", "type": "Floor"}, {"actionCode": "H8D000", "actionDate": "2022-05-10", "actionTime": "16:14:48", "sourceSystem": {"code": 2, "name": "House floor actions"}, "text": "DEBATE - The House proceeded with forty minutes of debate on H.R. 7066.", "type": "Floor"}, {"actionCode": "H30000", "actionDate": "2022-05-10", "actionTime": "16:14:46", "sourceSystem": {"code": 2, "name": "House floor actions"}, "text": "Considered under suspension of the rules. (consideration: CR H4748-4750)", "type": "Floor"}, {"actionCode": "H30300", "actionDate": "2022-05-10", "actionTime": "16:13:58", "sourceSystem": {"code": 2, "name": "House floor actions"}, "text": "Mr. Garcia (IL) moved to suspend the rules and pass the bill, as amended.", "type": "Floor"}, {"actionCode": "H12410", "actionDate": "2022-05-10", "calendarNumber": {"calendar": "U00239"}, "sourceSystem": {"code": 2, "name": "House floor actions"}, "text": "Placed on the Union Calendar, Calendar No. 239.", "type": "Calendars"}, {"actionCode": "H12300", "actionDate": "2022-05-10", "committees": [{"name": "Agriculture Committee", "systemCode": "hsag00", "url": "https://api.congress.gov/v3/committee/house/hsag00?format=json"}], "sourceSystem": {"code": 2, "name": "House floor actions"}, "text": "Committee on Agriculture discharged.", "type": "Discharge"}, {"actionCode": "5500", "actionDate": "2022-05-10", "committees": [{"name": "Agriculture Committee", "systemCode": "hsag00", "url": "https://api.congress.gov/v3/committee/house/hsag00?format=json"}], "sourceSystem": {"code": 9, "name": "Library of Congress"}, "text": "Committee on Agriculture discharged.", "type": "Committee"}, {"actionCode": "H12200", "actionDate": "2022-05-10", "committees": [{"name": "Financial Services Committee", "systemCode": "hsba00", "url": "https://api.congress.gov/v3/committee/house/hsba00?format=json"}], "sourceSystem": {"code": 2, "name": "House floor actions"}, "text": "Reported (Amended) by the Committee on Financial Services. H. Rept. 117-319, Part I.", "type": "Committee"}, {"actionCode": "5000", "actionDate": "2022-05-10", "committees": [{"name": "Financial Services Committee", "systemCode": "hsba00", "url": "https://api.congress.gov/v3/committee/house/hsba00?format=json"}], "sourceSystem": {"code": 9, "name": "Library of Congress"}, "text": "Reported (Amended) by the Committee on Financial Services. H. Rept. 117-319, Part I.", "type": "Committee"}, {"actionCode": "H11000", "actionDate": "2022-03-22", "committees": [{"name": "Commodity Markets, Digital Assets, and Rural Development Subcommittee", "systemCode": "hsag22", "url": "https://api.congress.gov/v3/committee/house/hsag22?format=json"}], "sourceSystem": {"code": 1, "name": "House committee actions"}, "text": "Referred to the Subcommittee on Commodity Exchanges, Energy, and Credit.", "type": "Committee"}, {"actionCode": "H19000", "actionDate": "2022-03-17", "committees": [{"name": "Financial Services Committee", "systemCode": "hsba00", "url": "https://api.congress.gov/v3/committee/house/hsba00?format=json"}], "sourceSystem": {"code": 1, "name": "House committee actions"}, "text": "Ordered to be Reported in the Nature of a Substitute by Voice Vote.", "type": "Committee"}, {"actionCode": "H15000-B", "actionDate": "2022-03-17", "committees": [{"name": "Financial Services Committee", "systemCode": "hsba00", "url": "https://api.congress.gov/v3/committee/house/hsba00?format=json"}], "sourceSystem": {"code": 1, "name": "House committee actions"}, "text": "Committee Consideration and Mark-up Session Held.", "type": "Committee"}, {"actionCode": "H11100", "actionDate": "2022-03-11", "committees": [{"name": "Agriculture Committee", "systemCode": "hsag00", "url": "https://api.congress.gov/v3/committee/house/hsag00?format=json"}], "sourceSystem": {"code": 2, "name": "House floor actions"}, "text": "Referred to the Committee on Financial Services, and in addition to the Committee on Agriculture, for a period to be subsequently determined by the Speaker, in each case for consideration of such provisions as fall within the jurisdiction of the committee concerned.", "type": "IntroReferral"}, {"actionCode": "H11100", "actionDate": "2022-03-11", "committees": [{"name": "Financial Services Committee", "systemCode": "hsba00", "url": "https://api.congress.gov/v3/committee/house/hsba00?format=json"}], "sourceSystem": {"code": 2, "name": "House floor actions"}, "text": "Referred to the Committee on Financial Services, and in addition to the Committee on Agriculture, for a period to be subsequently determined by the Speaker, in each case for consideration of such provisions as fall within the jurisdiction of the committee concerned.", "type": "IntroReferral"}, {"actionCode": "Intro-H", "actionDate": "2022-03-11", "sourceSystem": {"code": 9, "name": "Library of Congress"}, "text": "Introduced in House", "type": "IntroReferral"}], "pagination": {"count": 21, "next": "https://api.congress.gov/v3/bill/117/hr/7066/actions?offset=20&limit=20&format=json"}, "request": {"billNumber": "7066", "billType": "hr", "billUrl": "https://api.congress.gov/v3/bill/117/hr/7066?format=json", "congress": "117", "contentType": "application/json", "format": "json"}}, 200]