[{"actions": [{"actionCode": "E40000", "actionDate": "2022-12-20", "sourceSystem": {"code": 9, "name": "Library of Congress"}, "text": "Became Public Law No: 117-246.", "type": "President"}, {"actionCode": "36000", "actionDate": "2022-12-20", "sourceSystem": {"code": 9, "name": "Library of Congress"}, "text": "Became Public Law No: 117-246.", "type": "BecameLaw"}, {"actionCode": "E30000", "actionDate": "2022-12-20", "sourceSystem": {"code": 9, "name": "Library of Congress"}, "text": "Signed by President.", "type": "President"}, {"actionCode": "36000", "actionDate": "2022-12-20", "sourceSystem": {"code": 9, "name": "Library of Congress"}, "text": "Signed by President.", "type": "BecameLaw"}, {"actionCode": "E20000", "actionDate": "2022-12-16", "sourceSystem": {"code": 2, "name": "House floor actions"}, "text": "Presented to President.", "type": "Floor"}, {"actionCode": "28000", "actionDate": "2022-12-16", "sourceSystem": {"code": 9, "name": "Library of Congress"}, "text": "Presented to President.", "type": "President"}, {"actionCode": "H37300", "actionDate": "2022-12-14", "actionTime": "15:13:31", "sourceSystem": {"code": 2, "name": "House floor actions"}, "text": "Pursuant to section 5 of H. Res. 1518, and the motion offered by Mr. Hoyer, the following bills passed under suspension of the rules: H.R. 1082, as amended; H.R. 5349; H.R. 6218; H.R. 6220; H.R. 6221; H.R. 6611, as amended; H.R. 6630; H.R. 6725; H.R. 7077, agreed to Senate amendment; H.R. 7832; H.R. 8665; S. 558; and S. 789. S. 558; and S. 789. (consideration: CR H9803, H9809-9810; text: CR H9803-9809)", "type": "Floor"}, {"actionCode": "8000", "actionDate": "2022-12-14", "actionTime": "15:13:31", "sourceSystem": {"code": 9, "name": "Library of Congress"}, "text": "Passed/agreed to in House: Pursuant to section 5 of H. Res. 1518, and the motion offered by Mr. Hoyer, the following bills passed under suspension of the rules: H.R. 1082, as amended; H.R. 5349; H.R. 6218; H.R. 6220; H.R. 6221; H.R. 6611, as amended; H.R. 6630; H.R. 6725; H.R. 7077, agreed to Senate amendment; H.R. 7832; H.R. 8665; S. 558; and S. 789. S. 558; and S. 789.", "type": "Floor"}, {"actionCode": "H1B000", "actionDate": "2022-12-14", "actionTime": "15:13:30", "sourceSystem": {"code": 2, "name": "House floor actions"}, "text": "Pursuant to the provisions of H. Res. 1518, proceedings on H.R. 7077 are considered vacated.", "type": "Floor"}, {"actionCode": "H8D000", "actionDate": "2022-12-12", "actionTime": "14:20:56", "sourceSystem": {"code": 2, "name": "House floor actions"}, "text": "At the conclusion of debate, the Yeas and Nays were demanded and ordered. Pursuant to the provisions of clause 8, rule XX, the Chair announced that further proceedings on the motion would be postponed.", "type": "Floor"}, {"actionCode": "H8D000", "actionDate": "2022-12-12", "actionTime": "14:14:01", "sourceSystem": {"code": 2, "name": "House floor actions"}, "text": "DEBATE - The House proceeded with forty minutes of debate on the motion to suspend the rules and agree to the Senate amendment to H.R. 7077.", "type": "Floor"}, {"actionCode": "H40140", "actionDate": "2022-12-12", "actionTime": "14:13:47", "sourceSystem": {"code": 2, "name": "House floor actions"}, "text": "Mr. Beyer moved that the House suspend the rules and agree to the Senate amendment. ((consideration: CR H9652-9653; text: CR H9652))", "type": "ResolvingDifferences"}, {"actionDate": "2022-12-07", "sourceSystem": {"name": "Senate"}, "text": "Message on Senate action sent to the House.", "type": "Floor"}, {"actionDate": "2022-12-06", "sourceSystem": {"name": "Senate"}, "text": "Passed Senate with an amendment by Unanimous Consent. (text of amendment in the nature of a substitute: CR S7003)", "type": "Floor"}, {"actionCode": "17000", "actionDate": "2022-12-06", "sourceSystem": {"code": 9, "name": "Library of Congress"}, "text": "Passed/agreed to in Senate: Passed Senate with an amendment by Unanimous Consent.(text of amendment in the nature of a substitute: CR S7003)", "type": "Floor"}, {"actionDate": "2022-12-06", "sourceSystem": {"name": "Senate"}, "text": "Measure laid before Senate by unanimous consent. (consideration: CR S7003)", "type": "Floor"}, {"actionDate": "2022-11-14", "calendarNumber": {"calendar": "Senate Calendar of Business", "number": "0546"}, "sourceSystem": {"name": "Senate"}, "text": "Placed on Senate Legislative Calendar under General Orders. Calendar No. 546.", "type": "Calendars"}, {"actionDate": "2022-11-14", "committees": [{"name": "Homeland Security and Governmental Affairs Committee", "systemCode": "ssga00", "url": "https://api.congress.gov/v3/committee/senate/ssga00?format=json"}], "sourceSystem": {"name": "Senate"}, "text": "Committee on Homeland Security and Governmental Affairs. Reported by Senator Peters without amendment. With written report No. 117-195.", "type": "Committee"}, {"actionCode": "14000", "actionDate": "2022-11-14", "committees": [{"name": "Homeland Security and Governmental Affairs Committee", "systemCode": "ssga00", "url": "https://api.congress.gov/v3/committee/senate/ssga00?format=json"}], "sourceSystem": {"code": 9, "name": "Library of Congress"}, "text": "Committee on Homeland Security and Governmental Affairs. Reported by Senator Peters without amendment. With written report No. 117-195.", "type": "Committee"}, {"actionDate": "2022-08-03", "committees": [{"name": "Homeland Security and Governmental Affairs Committee", "systemCode": "ssga00", "url": "https://api.congress.gov/v3/committee/senate/ssga00?format=json"}], "sourceSystem": {"name": "Senate"}, "text": "Committee on Homeland Security and Governmental Affairs. Ordered to be reported without amendment favorably.", "type": "Committee"}], "pagination": {"count": 37, "next": "https://api.congress.gov/v3/bill/117/hr/7077/actions?offset=20&limit=20&format=json"}, "request": {"billNumber": "7077", "billType": "hr", "billUrl": "https://api.congress.gov/v3/bill/117/hr/7077?format=json", "congress": "117", "contentType": "application/json", "format": "json"}}, 200]