[{"actions": [{"actionDate": "2022-07-14", "committees": [{"name": "Judiciary Committee", "systemCode": "ssju00", "url": "https://api.congress.gov/v3/committee/senate/ssju00?format=json"}], "sourceSystem": {"name": "Senate"}, "text": "Received in the Senate and Read twice and referred to the Committee on the Judiciary.", "type": "IntroReferral"}, {"actionCode": "H38310", "actionDate": "2022-07-13", "actionTime": "20:00:24", "sourceSystem": {"code": 2, "name": "House floor actions"}, "text": "Motion to reconsider laid on the table Agreed to without objection.", "type": "Floor"}, {"actionCode": "H37300", "actionDate": "2022-07-13", "actionTime": "20:00:23", "recordedVotes": [{"chamber": "House", "congress": 117, "date": "2022-07-14T00:00:23Z", "rollNumber": 305, "sessionNumber": 2, "url": "https://clerk.house.gov/evs/2022/roll305.xml"}], "sourceSystem": {"code": 2, "name": "House floor actions"}, "text": "On motion to suspend the rules and pass the bill, as amended Agreed to by the Yeas and Nays: (2/3 required): 410 - 16 (Roll no. 305). (text: 06/21/2022 CR H5691-5692)", "type": "Floor"}, {"actionCode": "8000", "actionDate": "2022-07-13", "actionTime": "20:00:23", "recordedVotes": [{"chamber": "House", "congress": 117, "date": "2022-07-14T00:00:23Z", "rollNumber": 305, "sessionNumber": 2, "url": "https://clerk.house.gov/evs/2022/roll305.xml"}], "sourceSystem": {"code": 9, "name": "Library of Congress"}, "text": "Passed/agreed to in House: On motion to suspend the rules and pass the bill, as amended Agreed to by the Yeas and Nays: (2/3 required): 410 - 16 (Roll no. 305).", "type": "Floor"}, {"actionCode": "H30000", "actionDate": "2022-07-13", "actionTime": "19:24:51", "sourceSystem": {"code": 2, "name": "House floor actions"}, "text": "Considered as unfinished business. (consideration: CR H6286)", "type": "Floor"}, {"actionCode": "H37220", "actionDate": "2022-06-21", "actionTime": "14:27:14", "sourceSystem": {"code": 2, "name": "House floor actions"}, "text": "At the conclusion of debate, the Yeas and Nays were demanded and ordered. Pursuant to the provisions of clause 8, rule XX, the Chair announced that further proceedings on the motion would be postponed.", "type": "Floor"}, {"actionCode": "H8D000", "actionDate": "2022-06-21", "actionTime": "14:18:54", "sourceSystem": {"code": 2, "name": "House floor actions"}, "text": "DEBATE - The House proceeded with forty minutes of debate on H.R. 7174.", "type": "Floor"}, {"actionCode": "H30000", "actionDate": "2022-06-21", "actionTime": "14:18:52", "sourceSystem": {"code": 2, "name": "House floor actions"}, "text": "Considered under suspension of the rules. (consideration: CR H5691-5693)", "type": "Floor"}, {"actionCode": "H30300", "actionDate": "2022-06-21", "actionTime": "14:18:17", "sourceSystem": {"code": 2, "name": "House floor actions"}, "text": "Mr. Swalwell moved to suspend the rules and pass the bill, as amended.", "type": "Floor"}, {"actionCode": "H12410", "actionDate": "2022-06-17", "calendarNumber": {"calendar": "U00287"}, "sourceSystem": {"code": 2, "name": "House floor actions"}, "text": "Placed on the Union Calendar, Calendar No. 287.", "type": "Calendars"}, {"actionCode": "H12300", "actionDate": "2022-06-17", "committees": [{"name": "Judiciary Committee", "systemCode": "hsju00", "url": "https://api.congress.gov/v3/committee/house/hsju00?format=json"}], "sourceSystem": {"code": 2, "name": "House floor actions"}, "text": "Committee on the Judiciary discharged.", "type": "Discharge"}, {"actionCode": "5500", "actionDate": "2022-06-17", "committees": [{"name": "Judiciary Committee", "systemCode": "hsju00", "url": "https://api.congress.gov/v3/committee/house/hsju00?format=json"}], "sourceSystem": {"code": 9, "name": "Library of Congress"}, "text": "Committee on the Judiciary discharged.", "type": "Committee"}, {"actionCode": "H12200", "actionDate": "2022-06-17", "committees": [{"name": "Homeland Security Committee", "systemCode": "hshm00", "url": "https://api.congress.gov/v3/committee/house/hshm00?format=json"}], "sourceSystem": {"code": 2, "name": "House floor actions"}, "text": "Reported (Amended) by the Committee on Homeland Security. H. Rept. 117-376, Part I.", "type": "Committee"}, {"actionCode": "5000", "actionDate": "2022-06-17", "committees": [{"name": "Homeland Security Committee", "systemCode": "hshm00", "url": "https://api.congress.gov/v3/committee/house/hshm00?format=json"}], "sourceSystem": {"code": 9, "name": "Library of Congress"}, "text": "Reported (Amended) by the Committee on Homeland Security. H. Rept. 117-376, Part I.", "type": "Committee"}, {"actionCode": "H25000", "actionDate": "2022-05-19", "committees": [{"name": "Homeland Security Committee", "systemCode": "hshm00", "url": "https://api.congress.gov/v3/committee/house/hshm00?format=json"}], "sourceSystem": {"code": 1, "name": "House committee actions"}, "text": "Subcommittee on Cybersecurity, Infrastructure Protection, and Innovation Discharged.", "type": "Committee"}, {"actionCode": "H25000", "actionDate": "2022-05-19", "committees": [{"name": "Homeland Security Committee", "systemCode": "hshm00", "url": "https://api.congress.gov/v3/committee/house/hshm00?format=json"}], "sourceSystem": {"code": 1, "name": "House committee actions"}, "text": "Subcommittee on Intelligence and Counterterrorism Discharged.", "type": "Committee"}, {"actionCode": "H19000", "actionDate": "2022-05-19", "committees": [{"name": "Homeland Security Committee", "systemCode": "hshm00", "url": "https://api.congress.gov/v3/committee/house/hshm00?format=json"}], "sourceSystem": {"code": 1, "name": "House committee actions"}, "text": "Ordered to be Reported (Amended) by Voice Vote.", "type": "Committee"}, {"actionCode": "H15000-B", "actionDate": "2022-05-19", "committees": [{"name": "Homeland Security Committee", "systemCode": "hshm00", "url": "https://api.congress.gov/v3/committee/house/hshm00?format=json"}], "sourceSystem": {"code": 1, "name": "House committee actions"}, "text": "Committee Consideration and Mark-up Session Held.", "type": "Committee"}, {"actionCode": "H11000", "actionDate": "2022-03-19", "committees": [{"name": "Cybersecurity and Infrastructure Protection Subcommittee", "systemCode": "hshm08", "url": "https://api.congress.gov/v3/committee/house/hshm08?format=json"}], "sourceSystem": {"code": 1, "name": "House committee actions"}, "text": "Referred to the Subcommittee on Cybersecurity, Infrastructure Protection, and Innovation.", "type": "Committee"}, {"actionCode": "H11000", "actionDate": "2022-03-19", "committees": [{"name": "Counterterrorism, Law Enforcement, and Intelligence Subcommittee", "systemCode": "hshm05", "url": "https://api.congress.gov/v3/committee/house/hshm05?format=json"}], "sourceSystem": {"code": 1, "name": "House committee actions"}, "text": "Referred to the Subcommittee on Intelligence and Counterterrorism.", "type": "Committee"}], "pagination": {"count": 24, "next": "https://api.congress.gov/v3/bill/117/hr/7174/actions?offset=20&limit=20&format=json"}, "request": {"billNumber": "7174", "billType": "hr", "billUrl": "https://api.congress.gov/v3/bill/117/hr/7174?format=json", "congress": "117", "contentType": "application/json", "format": "json"}}, 200]