[{"actions": [{"actionDate": "2022-12-14", "calendarNumber": {"calendar": "Senate Calendar of Business", "number": "0650"}, "sourceSystem": {"name": "Senate"}, "text": "Placed on Senate Legislative Calendar under General Orders. Calendar No. 650.", "type": "Calendars"}, {"actionDate": "2022-12-14", "committees": [{"name": "Homeland Security and Governmental Affairs Committee", "systemCode": "ssga00", "url": "https://api.congress.gov/v3/committee/senate/ssga00?format=json"}], "sourceSystem": {"name": "Senate"}, "text": "Committee on Homeland Security and Governmental Affairs. Reported by Senator Peters with amendments. With written report No. 117-259.", "type": "Committee"}, {"actionCode": "14000", "actionDate": "2022-12-14", "committees": [{"name": "Homeland Security and Governmental Affairs Committee", "systemCode": "ssga00", "url": "https://api.congress.gov/v3/committee/senate/ssga00?format=json"}], "sourceSystem": {"code": 9, "name": "Library of Congress"}, "text": "Committee on Homeland Security and Governmental Affairs. Reported by Senator Peters with amendments. With written report No. 117-259.", "type": "Committee"}, {"actionDate": "2022-09-28", "committees": [{"name": "Homeland Security and Governmental Affairs Committee", "systemCode": "ssga00", "url": "https://api.congress.gov/v3/committee/senate/ssga00?format=json"}], "sourceSystem": {"name": "Senate"}, "text": "Committee on Homeland Security and Governmental Affairs. Ordered to be reported without amendment favorably.", "type": "Committee"}, {"actionDate": "2022-06-15", "committees": [{"name": "Homeland Security and Governmental Affairs Committee", "systemCode": "ssga00", "url": "https://api.congress.gov/v3/committee/senate/ssga00?format=json"}], "sourceSystem": {"name": "Senate"}, "text": "Received in the Senate and Read twice and referred to the Committee on Homeland Security and Governmental Affairs.", "type": "IntroReferral"}, {"actionCode": "H38310", "actionDate": "2022-06-14", "actionTime": "18:26:58", "sourceSystem": {"code": 2, "name": "House floor actions"}, "text": "Motion to reconsider laid on the table Agreed to without objection.", "type": "Floor"}, {"actionCode": "H37300", "actionDate": "2022-06-14", "actionTime": "18:26:57", "recordedVotes": [{"chamber": "House", "congress": 117, "date": "2022-06-14T22:26:57Z", "rollNumber": 269, "sessionNumber": 2, "url": "https://clerk.house.gov/evs/2022/roll269.xml"}], "sourceSystem": {"code": 2, "name": "House floor actions"}, "text": "On motion to suspend the rules and pass the bill Agreed to by the Yeas and Nays: (2/3 required): 396 - 14 (Roll no. 269). (text: 6/13/2022 CR H5458-5459)", "type": "Floor"}, {"actionCode": "8000", "actionDate": "2022-06-14", "actionTime": "18:26:57", "recordedVotes": [{"chamber": "House", "congress": 117, "date": "2022-06-14T22:26:57Z", "rollNumber": 269, "sessionNumber": 2, "url": "https://clerk.house.gov/evs/2022/roll269.xml"}], "sourceSystem": {"code": 9, "name": "Library of Congress"}, "text": "Passed/agreed to in House: On motion to suspend the rules and pass the bill Agreed to by the Yeas and Nays: (2/3 required): 396 - 14 (Roll no. 269).(text: 6/13/2022 CR H5458-5459)", "type": "Floor"}, {"actionCode": "H30000", "actionDate": "2022-06-14", "actionTime": "18:18:13", "sourceSystem": {"code": 2, "name": "House floor actions"}, "text": "Considered as unfinished business. (consideration: CR H5531-5532)", "type": "Floor"}, {"actionCode": "H37220", "actionDate": "2022-06-13", "actionTime": "15:34:41", "sourceSystem": {"code": 2, "name": "House floor actions"}, "text": "At the conclusion of debate, the Yeas and Nays were demanded and ordered. Pursuant to the provisions of clause 8, rule XX, the Chair announced that further proceedings on the motion would be postponed.", "type": "Floor"}, {"actionCode": "H8D000", "actionDate": "2022-06-13", "actionTime": "15:25:32", "sourceSystem": {"code": 2, "name": "House floor actions"}, "text": "DEBATE - The House proceeded with forty minutes of debate on H.R. 7211.", "type": "Floor"}, {"actionCode": "H30000", "actionDate": "2022-06-13", "actionTime": "15:25:30", "sourceSystem": {"code": 2, "name": "House floor actions"}, "text": "Considered under suspension of the rules. (consideration: CR H5458-5460)", "type": "Floor"}, {"actionCode": "H30300", "actionDate": "2022-06-13", "actionTime": "15:25:15", "sourceSystem": {"code": 2, "name": "House floor actions"}, "text": "Mr. DeFazio moved to suspend the rules and pass the bill.", "type": "Floor"}, {"actionCode": "H12410", "actionDate": "2022-06-13", "calendarNumber": {"calendar": "U00272"}, "sourceSystem": {"code": 2, "name": "House floor actions"}, "text": "Placed on the Union Calendar, Calendar No. 272.", "type": "Calendars"}, {"actionCode": "H12200", "actionDate": "2022-06-13", "committees": [{"name": "Transportation and Infrastructure Committee", "systemCode": "hspw00", "url": "https://api.congress.gov/v3/committee/house/hspw00?format=json"}], "sourceSystem": {"code": 2, "name": "House floor actions"}, "text": "Reported by the Committee on Transportation and Infrastructure. H. Rept. 117-360.", "type": "Committee"}, {"actionCode": "5000", "actionDate": "2022-06-13", "committees": [{"name": "Transportation and Infrastructure Committee", "systemCode": "hspw00", "url": "https://api.congress.gov/v3/committee/house/hspw00?format=json"}], "sourceSystem": {"code": 9, "name": "Library of Congress"}, "text": "Reported by the Committee on Transportation and Infrastructure. H. Rept. 117-360.", "type": "Committee"}, {"actionCode": "H19000", "actionDate": "2022-04-28", "committees": [{"name": "Transportation and Infrastructure Committee", "systemCode": "hspw00", "url": "https://api.congress.gov/v3/committee/house/hspw00?format=json"}], "sourceSystem": {"code": 1, "name": "House committee actions"}, "text": "Ordered to be Reported by Voice Vote.", "type": "Committee"}, {"actionCode": "H15000-B", "actionDate": "2022-04-28", "committees": [{"name": "Transportation and Infrastructure Committee", "systemCode": "hspw00", "url": "https://api.congress.gov/v3/committee/house/hspw00?format=json"}], "sourceSystem": {"code": 1, "name": "House committee actions"}, "text": "Committee Consideration and Mark-up Session Held.", "type": "Committee"}, {"actionCode": "H25000", "actionDate": "2022-04-28", "committees": [{"name": "Transportation and Infrastructure Committee", "systemCode": "hspw00", "url": "https://api.congress.gov/v3/committee/house/hspw00?format=json"}], "sourceSystem": {"code": 1, "name": "House committee actions"}, "text": "Subcommittee on Economic Development, Public Buildings, and Emergency Management Discharged.", "type": "Committee"}, {"actionCode": "H11000", "actionDate": "2022-03-25", "committees": [{"name": "Economic Development, Public Buildings, and Emergency Management Subcommittee", "systemCode": "hspw13", "url": "https://api.congress.gov/v3/committee/house/hspw13?format=json"}], "sourceSystem": {"code": 1, "name": "House committee actions"}, "text": "Referred to the Subcommittee on Economic Development, Public Buildings, and Emergency Management.", "type": "Committee"}], "pagination": {"count": 23, "next": "https://api.congress.gov/v3/bill/117/hr/7211/actions?offset=20&limit=20&format=json"}, "request": {"billNumber": "7211", "billType": "hr", "billUrl": "https://api.congress.gov/v3/bill/117/hr/7211?format=json", "congress": "117", "contentType": "application/json", "format": "json"}}, 200]