[{"actions": [{"actionDate": "2022-05-18", "committees": [{"name": "Health, Education, Labor, and Pensions Committee", "systemCode": "sshr00", "url": "https://api.congress.gov/v3/committee/senate/sshr00?format=json"}], "sourceSystem": {"name": "Senate"}, "text": "Received in the Senate and Read twice and referred to the Committee on Health, Education, Labor, and Pensions.", "type": "IntroReferral"}, {"actionCode": "H38900", "actionDate": "2022-05-17", "actionTime": "20:54:29", "sourceSystem": {"code": 2, "name": "House floor actions"}, "text": "The Clerk was authorized to correct section numbers, punctuation, and cross references, and to make other necessary technical and conforming corrections in the engrossment of H.R. 7309.", "type": "Floor"}, {"actionCode": "H38310", "actionDate": "2022-05-17", "actionTime": "18:35:27", "sourceSystem": {"code": 2, "name": "House floor actions"}, "text": "Motion to reconsider laid on the table Agreed to without objection.", "type": "Floor"}, {"actionCode": "H37100", "actionDate": "2022-05-17", "actionTime": "18:35:25", "recordedVotes": [{"chamber": "House", "congress": 117, "date": "2022-05-17T22:35:25Z", "rollNumber": 193, "sessionNumber": 2, "url": "https://clerk.house.gov/evs/2022/roll193.xml"}], "sourceSystem": {"code": 2, "name": "House floor actions"}, "text": "On passage Passed by the Yeas and Nays: 220 - 196 (Roll no. 193).", "type": "Floor"}, {"actionCode": "8000", "actionDate": "2022-05-17", "actionTime": "18:35:25", "recordedVotes": [{"chamber": "House", "congress": 117, "date": "2022-05-17T22:35:25Z", "rollNumber": 193, "sessionNumber": 2, "url": "https://clerk.house.gov/evs/2022/roll193.xml"}], "sourceSystem": {"code": 9, "name": "Library of Congress"}, "text": "Passed/agreed to in House: On passage Passed by the Yeas and Nays: 220 - 196 (Roll no. 193).", "type": "Floor"}, {"actionCode": "H36210", "actionDate": "2022-05-17", "actionTime": "18:26:32", "committees": [{"name": "Education and the Workforce Committee", "systemCode": "hsed00", "url": "https://api.congress.gov/v3/committee/house/hsed00?format=json"}], "recordedVotes": [{"chamber": "House", "congress": 117, "date": "2022-05-17T22:26:32Z", "rollNumber": 192, "sessionNumber": 2, "url": "https://clerk.house.gov/evs/2022/roll192.xml"}], "sourceSystem": {"code": 2, "name": "House floor actions"}, "text": "On motion to recommit Failed by the Yeas and Nays: 193 - 223 (Roll no. 192).", "type": "Floor"}, {"actionCode": "H8A000", "actionDate": "2022-05-17", "actionTime": "18:15:50", "sourceSystem": {"code": 2, "name": "House floor actions"}, "text": "The previous question on the motion to recommit was ordered pursuant to clause 2(b) of rule XIX.", "type": "Floor"}, {"actionCode": "H36200", "actionDate": "2022-05-17", "actionTime": "18:15:47", "committees": [{"name": "Education and the Workforce Committee", "systemCode": "hsed00", "url": "https://api.congress.gov/v3/committee/house/hsed00?format=json"}], "sourceSystem": {"code": 2, "name": "House floor actions"}, "text": "Mr. Rutherford moved to recommit to the Committee on Education and Labor. (text: CR H5074)", "type": "Floor"}, {"actionCode": "H35000", "actionDate": "2022-05-17", "actionTime": "18:15:35", "sourceSystem": {"code": 2, "name": "House floor actions"}, "text": "The previous question was ordered pursuant to the rule.", "type": "Floor"}, {"actionCode": "H30000", "actionDate": "2022-05-17", "actionTime": "16:49:17", "sourceSystem": {"code": 2, "name": "House floor actions"}, "text": "Considered as unfinished business. (consideration: CR H5071-5076)", "type": "Floor"}, {"actionCode": "H8D000", "actionDate": "2022-05-17", "actionTime": "15:53:14", "sourceSystem": {"code": 2, "name": "House floor actions"}, "text": "POSTPONED PROCEEDINGS - Pursuant to clause 1(c) of Rule XIX, further consideration of H.R. 7309 was postponed until a time to be announced.", "type": "Floor"}, {"actionCode": "H8D000", "actionDate": "2022-05-17", "actionTime": "15:53:00", "sourceSystem": {"code": 2, "name": "House floor actions"}, "text": "POSTPONED PROCEEDINGS - At the conclusion of debate on the Miller-Meeks amendment, the Chair put the question on agreeing to the amendment and by voice vote, announced that the noes had prevailed. Mrs. Miller-Meeks demanded the yeas and nays and the Chair postponed further proceedings until a time to be announced.", "type": "Floor"}, {"actionCode": "H8D000", "actionDate": "2022-05-17", "actionTime": "15:45:04", "sourceSystem": {"code": 2, "name": "House floor actions"}, "text": "DEBATE - Pursuant to the provisions of H. Res. 1119, the House proceeded with 10 minutes of debate on the Miller-Meeks amendment No. 28.", "type": "Floor"}, {"actionCode": "H8D000", "actionDate": "2022-05-17", "actionTime": "15:42:23", "sourceSystem": {"code": 2, "name": "House floor actions"}, "text": "POSTPONED PROCEEDINGS - At the conclusion of debate on the Scott (VA) amendment en bloc No. 3, the Chair put the question on adoption of the amendment and by voice vote, announced that the noes had prevailed. Ms. Foxx demanded the yeas and nays and the Chair postponed further proceedings until a time to be announced.", "type": "Floor"}, {"actionCode": "H8D000", "actionDate": "2022-05-17", "actionTime": "15:28:53", "sourceSystem": {"code": 2, "name": "House floor actions"}, "text": "DEBATE - Pursuant to the provisions of H.Res. 1119, the House proceeded with 20 minutes of debate on the Scott (VA) amendment en bloc No. 3.", "type": "Floor"}, {"actionCode": "H8D000", "actionDate": "2022-05-17", "actionTime": "15:28:05", "sourceSystem": {"code": 2, "name": "House floor actions"}, "text": "POSTPONED PROCEEDINGS - At the conclusion of debate on the Scott (VA) amendment en bloc No. 2, the Chair put the question on adoption of the amendment and by voice vote, announced that the ayes had prevailed. Ms. Foxx demanded the yeas and nays and the Chair postponed further proceedings until a time to be announced.", "type": "Floor"}, {"actionCode": "H8D000", "actionDate": "2022-05-17", "actionTime": "15:22:40", "sourceSystem": {"code": 2, "name": "House floor actions"}, "text": "DEBATE - Pursuant to the provisions of H.Res. 1119, the House proceeded with 20 minutes of debate on the Scott (VA) amendment en bloc No. 2.", "type": "Floor"}, {"actionCode": "H8D000", "actionDate": "2022-05-17", "actionTime": "15:21:53", "sourceSystem": {"code": 2, "name": "House floor actions"}, "text": "POSTPONED PROCEEDINGS - At the conclusion of debate on the Scott (VA) amendment en bloc No. 1, the Chair put the question on adoption of the amendment and by voice vote, announced that the ayes had prevailed. Mr. Tiffany demanded the yeas and nays and the Chair postponed further proceedings until a time to be announced.", "type": "Floor"}, {"actionCode": "H8D000", "actionDate": "2022-05-17", "actionTime": "15:13:00", "sourceSystem": {"code": 2, "name": "House floor actions"}, "text": "DEBATE - Pursuant to the provisions of H.Res. 1119, the House proceeded with 20 minutes of debate on the Scott (VA) amendment en bloc No. 1.", "type": "Floor"}, {"actionCode": "H8D000", "actionDate": "2022-05-17", "actionTime": "14:25:41", "sourceSystem": {"code": 2, "name": "House floor actions"}, "text": "DEBATE - The House proceeded with one hour of debate on H.R. 7309.", "type": "Floor"}], "pagination": {"count": 31, "next": "https://api.congress.gov/v3/bill/117/hr/7309/actions?offset=20&limit=20&format=json"}, "request": {"billNumber": "7309", "billType": "hr", "billUrl": "https://api.congress.gov/v3/bill/117/hr/7309?format=json", "congress": "117", "contentType": "application/json", "format": "json"}}, 200]