[{"actions": [{"actionCode": "E40000", "actionDate": "2022-08-05", "sourceSystem": {"code": 9, "name": "Library of Congress"}, "text": "Became Public Law No: 117-166.", "type": "President"}, {"actionCode": "36000", "actionDate": "2022-08-05", "sourceSystem": {"code": 9, "name": "Library of Congress"}, "text": "Became Public Law No: 117-166.", "type": "BecameLaw"}, {"actionCode": "E30000", "actionDate": "2022-08-05", "sourceSystem": {"code": 9, "name": "Library of Congress"}, "text": "Signed by President.", "type": "President"}, {"actionCode": "36000", "actionDate": "2022-08-05", "sourceSystem": {"code": 9, "name": "Library of Congress"}, "text": "Signed by President.", "type": "BecameLaw"}, {"actionCode": "E20000", "actionDate": "2022-08-02", "sourceSystem": {"code": 2, "name": "House floor actions"}, "text": "Presented to President.", "type": "Floor"}, {"actionCode": "28000", "actionDate": "2022-08-02", "sourceSystem": {"code": 9, "name": "Library of Congress"}, "text": "Presented to President.", "type": "President"}, {"actionDate": "2022-07-28", "sourceSystem": {"name": "Senate"}, "text": "Message on Senate action sent to the House.", "type": "Floor"}, {"actionDate": "2022-07-28", "sourceSystem": {"name": "Senate"}, "text": "Passed Senate without amendment by Voice Vote.", "type": "Floor"}, {"actionCode": "17000", "actionDate": "2022-07-28", "sourceSystem": {"code": 9, "name": "Library of Congress"}, "text": "Passed/agreed to in Senate: Passed Senate without amendment by Voice Vote.", "type": "Floor"}, {"actionDate": "2022-07-28", "committees": [{"name": "Small Business and Entrepreneurship Committee", "systemCode": "sssb00", "url": "https://api.congress.gov/v3/committee/senate/sssb00?format=json"}], "sourceSystem": {"name": "Senate"}, "text": "Senate Committee on Small Business and Entrepreneurship discharged by Unanimous Consent. (consideration: CR S3790)", "type": "Discharge"}, {"actionCode": "14500", "actionDate": "2022-07-28", "committees": [{"name": "Small Business and Entrepreneurship Committee", "systemCode": "sssb00", "url": "https://api.congress.gov/v3/committee/senate/sssb00?format=json"}], "sourceSystem": {"code": 9, "name": "Library of Congress"}, "text": "Senate Committee on Small Business and Entrepreneurship discharged by Unanimous Consent.(consideration: CR S3790)", "type": "Committee"}, {"actionDate": "2022-06-09", "committees": [{"name": "Small Business and Entrepreneurship Committee", "systemCode": "sssb00", "url": "https://api.congress.gov/v3/committee/senate/sssb00?format=json"}], "sourceSystem": {"name": "Senate"}, "text": "Received in the Senate and Read twice and referred to the Committee on Small Business and Entrepreneurship.", "type": "IntroReferral"}, {"actionCode": "H38310", "actionDate": "2022-06-08", "actionTime": "19:31:02", "sourceSystem": {"code": 2, "name": "House floor actions"}, "text": "Motion to reconsider laid on the table Agreed to without objection.", "type": "Floor"}, {"actionCode": "H37300", "actionDate": "2022-06-08", "actionTime": "19:31:01", "recordedVotes": [{"chamber": "House", "congress": 117, "date": "2022-06-08T23:31:01Z", "rollNumber": 246, "sessionNumber": 2, "url": "https://clerk.house.gov/evs/2022/roll246.xml"}], "sourceSystem": {"code": 2, "name": "House floor actions"}, "text": "On motion to suspend the rules and pass the bill Agreed to by the Yeas and Nays: (2/3 required): 421 - 0 (Roll no. 246). (text: 06/07/2022 CR H5249)", "type": "Floor"}, {"actionCode": "8000", "actionDate": "2022-06-08", "actionTime": "19:31:01", "recordedVotes": [{"chamber": "House", "congress": 117, "date": "2022-06-08T23:31:01Z", "rollNumber": 246, "sessionNumber": 2, "url": "https://clerk.house.gov/evs/2022/roll246.xml"}], "sourceSystem": {"code": 9, "name": "Library of Congress"}, "text": "Passed/agreed to in House: On motion to suspend the rules and pass the bill Agreed to by the Yeas and Nays: (2/3 required): 421 - 0 (Roll no. 246).(text: 06/07/2022 CR H5249)", "type": "Floor"}, {"actionCode": "H30000", "actionDate": "2022-06-08", "actionTime": "19:24:35", "sourceSystem": {"code": 2, "name": "House floor actions"}, "text": "Considered as unfinished business. (consideration: CR H5396-5397)", "type": "Floor"}, {"actionCode": "H37220", "actionDate": "2022-06-07", "actionTime": "15:51:16", "sourceSystem": {"code": 2, "name": "House floor actions"}, "text": "At the conclusion of debate, the Yeas and Nays were demanded and ordered. Pursuant to the provisions of clause 8, rule XX, the Chair announced that further proceedings on the motion would be postponed.", "type": "Floor"}, {"actionCode": "H8D000", "actionDate": "2022-06-07", "actionTime": "15:40:15", "sourceSystem": {"code": 2, "name": "House floor actions"}, "text": "DEBATE - The House proceeded with forty minutes of debate on H.R. 7352.", "type": "Floor"}, {"actionCode": "H30000", "actionDate": "2022-06-07", "actionTime": "15:40:13", "sourceSystem": {"code": 2, "name": "House floor actions"}, "text": "Considered under suspension of the rules. (consideration: CR H5249-5250)", "type": "Floor"}, {"actionCode": "H30300", "actionDate": "2022-06-07", "actionTime": "15:39:43", "sourceSystem": {"code": 2, "name": "House floor actions"}, "text": "Ms. Velazquez moved to suspend the rules and pass the bill.", "type": "Floor"}], "pagination": {"count": 28, "next": "https://api.congress.gov/v3/bill/117/hr/7352/actions?offset=20&limit=20&format=json"}, "request": {"billNumber": "7352", "billType": "hr", "billUrl": "https://api.congress.gov/v3/bill/117/hr/7352?format=json", "congress": "117", "contentType": "application/json", "format": "json"}}, 200]