[{"actions": [{"actionCode": "E40000", "actionDate": "2022-12-21", "sourceSystem": {"code": 9, "name": "Library of Congress"}, "text": "Became Public Law No: 117-260.", "type": "President"}, {"actionCode": "36000", "actionDate": "2022-12-21", "sourceSystem": {"code": 9, "name": "Library of Congress"}, "text": "Became Public Law No: 117-260.", "type": "BecameLaw"}, {"actionCode": "E30000", "actionDate": "2022-12-21", "sourceSystem": {"code": 9, "name": "Library of Congress"}, "text": "Signed by President.", "type": "President"}, {"actionCode": "36000", "actionDate": "2022-12-21", "sourceSystem": {"code": 9, "name": "Library of Congress"}, "text": "Signed by President.", "type": "BecameLaw"}, {"actionCode": "E20000", "actionDate": "2022-12-16", "sourceSystem": {"code": 2, "name": "House floor actions"}, "text": "Presented to President.", "type": "Floor"}, {"actionCode": "28000", "actionDate": "2022-12-16", "sourceSystem": {"code": 9, "name": "Library of Congress"}, "text": "Presented to President.", "type": "President"}, {"actionCode": "H41931", "actionDate": "2022-12-13", "actionTime": "13:58:56", "sourceSystem": {"code": 2, "name": "House floor actions"}, "text": "Motion to reconsider laid on the table Agreed to without objection.", "type": "ResolvingDifferences"}, {"actionCode": "H41610", "actionDate": "2022-12-13", "actionTime": "13:58:54", "recordedVotes": [{"chamber": "House", "congress": 117, "date": "2022-12-13T18:58:54Z", "rollNumber": 519, "sessionNumber": 2, "url": "https://clerk.house.gov/evs/2022/roll519.xml"}], "sourceSystem": {"code": 2, "name": "House floor actions"}, "text": "On motion that the House suspend the rules and agree to the Senate amendment Agreed to by the Yeas and Nays: (2/3 required): 420 - 3 (Roll no. 519). (consideration: CR H9717-9718; text: 12/12/2022 CR H9659-9660)", "type": "ResolvingDifferences"}, {"actionCode": "19500", "actionDate": "2022-12-13", "recordedVotes": [{"chamber": "House", "congress": 117, "date": "2022-12-13T18:58:54Z", "rollNumber": 519, "sessionNumber": 2, "url": "https://clerk.house.gov/evs/2022/roll519.xml"}], "sourceSystem": {"code": 9, "name": "Library of Congress"}, "text": "Resolving differences -- House actions: On motion that the House suspend the rules and agree to the Senate amendment Agreed to by the Yeas and Nays: (2/3 required): 420 - 3 (Roll no. 519).", "type": "NotUsed"}, {"actionCode": "H8D000", "actionDate": "2022-12-12", "actionTime": "14:48:47", "sourceSystem": {"code": 2, "name": "House floor actions"}, "text": "At the conclusion of debate, the Yeas and Nays were demanded and ordered. Pursuant to the provisions of clause 8, rule XX, the Chair announced that further proceedings on the motion would be postponed.", "type": "Floor"}, {"actionCode": "H8D000", "actionDate": "2022-12-12", "actionTime": "14:38:48", "sourceSystem": {"code": 2, "name": "House floor actions"}, "text": "The House proceeded with forty minutes of debate on the motion to suspend the rules and agree to the Senate amendment to H.R. 7535.", "type": "Floor"}, {"actionCode": "H40140", "actionDate": "2022-12-12", "actionTime": "14:38:39", "sourceSystem": {"code": 2, "name": "House floor actions"}, "text": "Ms. Norton moved that the House suspend the rules and agree to the Senate amendment. (consideration: CR H9659-9661)", "type": "ResolvingDifferences"}, {"actionDate": "2022-12-09", "sourceSystem": {"name": "Senate"}, "text": "Message on Senate action sent to the House.", "type": "Floor"}, {"actionDate": "2022-12-08", "sourceSystem": {"name": "Senate"}, "text": "Passed Senate with an amendment by Unanimous Consent. (text of amendment in the nature of a substitute: CR S7084-7085)", "type": "Floor"}, {"actionCode": "17000", "actionDate": "2022-12-08", "sourceSystem": {"code": 9, "name": "Library of Congress"}, "text": "Passed/agreed to in Senate: Passed Senate with an amendment by Unanimous Consent.(text of amendment in the nature of a substitute: CR S7084-7085)", "type": "Floor"}, {"actionDate": "2022-12-08", "sourceSystem": {"name": "Senate"}, "text": "Measure laid before Senate by unanimous consent. (consideration: CR S7084-7085)", "type": "Floor"}, {"actionDate": "2022-12-08", "committees": [{"name": "Homeland Security and Governmental Affairs Committee", "systemCode": "ssga00", "url": "https://api.congress.gov/v3/committee/senate/ssga00?format=json"}], "sourceSystem": {"name": "Senate"}, "text": "Senate Committee on Homeland Security and Governmental Affairs discharged by Unanimous Consent.", "type": "Discharge"}, {"actionCode": "14500", "actionDate": "2022-12-08", "committees": [{"name": "Homeland Security and Governmental Affairs Committee", "systemCode": "ssga00", "url": "https://api.congress.gov/v3/committee/senate/ssga00?format=json"}], "sourceSystem": {"code": 9, "name": "Library of Congress"}, "text": "Senate Committee on Homeland Security and Governmental Affairs discharged by Unanimous Consent.", "type": "Committee"}, {"actionDate": "2022-07-13", "committees": [{"name": "Homeland Security and Governmental Affairs Committee", "systemCode": "ssga00", "url": "https://api.congress.gov/v3/committee/senate/ssga00?format=json"}], "sourceSystem": {"name": "Senate"}, "text": "Received in the Senate and Read twice and referred to the Committee on Homeland Security and Governmental Affairs.", "type": "IntroReferral"}, {"actionCode": "H38310", "actionDate": "2022-07-12", "actionTime": "14:52:15", "sourceSystem": {"code": 2, "name": "House floor actions"}, "text": "Motion to reconsider laid on the table Agreed to without objection.", "type": "Floor"}], "pagination": {"count": 30, "next": "https://api.congress.gov/v3/bill/117/hr/7535/actions?offset=20&limit=20&format=json"}, "request": {"billNumber": "7535", "billType": "hr", "billUrl": "https://api.congress.gov/v3/bill/117/hr/7535?format=json", "congress": "117", "contentType": "application/json", "format": "json"}}, 200]