[{"actions": [{"actionDate": "2022-06-21", "committees": [{"name": "Agriculture, Nutrition, and Forestry Committee", "systemCode": "ssaf00", "url": "https://api.congress.gov/v3/committee/senate/ssaf00?format=json"}], "sourceSystem": {"name": "Senate"}, "text": "Received in the Senate and Read twice and referred to the Committee on Agriculture, Nutrition, and Forestry.", "type": "IntroReferral"}, {"actionCode": "H38310", "actionDate": "2022-06-16", "actionTime": "11:59:40", "sourceSystem": {"code": 2, "name": "House floor actions"}, "text": "Motion to reconsider laid on the table Agreed to without objection.", "type": "Floor"}, {"actionCode": "H37100", "actionDate": "2022-06-16", "actionTime": "11:59:38", "recordedVotes": [{"chamber": "House", "congress": 117, "date": "2022-06-16T15:59:38Z", "rollNumber": 277, "sessionNumber": 2, "url": "https://clerk.house.gov/evs/2022/roll277.xml"}], "sourceSystem": {"code": 2, "name": "House floor actions"}, "text": "On passage Passed by the Yeas and Nays: 221 - 204 (Roll no. 277).", "type": "Floor"}, {"actionCode": "8000", "actionDate": "2022-06-16", "actionTime": "11:59:38", "recordedVotes": [{"chamber": "House", "congress": 117, "date": "2022-06-16T15:59:38Z", "rollNumber": 277, "sessionNumber": 2, "url": "https://clerk.house.gov/evs/2022/roll277.xml"}], "sourceSystem": {"code": 9, "name": "Library of Congress"}, "text": "Passed/agreed to in House: On passage Passed by the Yeas and Nays: 221 - 204 (Roll no. 277).", "type": "Floor"}, {"actionCode": "H36210", "actionDate": "2022-06-16", "actionTime": "11:43:25", "committees": [{"name": "Agriculture Committee", "systemCode": "hsag00", "url": "https://api.congress.gov/v3/committee/house/hsag00?format=json"}], "recordedVotes": [{"chamber": "House", "congress": 117, "date": "2022-06-16T15:43:25Z", "rollNumber": 276, "sessionNumber": 2, "url": "https://clerk.house.gov/evs/2022/roll276.xml"}], "sourceSystem": {"code": 2, "name": "House floor actions"}, "text": "On motion to recommit Failed by the Yeas and Nays: 206 - 218 (Roll no. 276).", "type": "Floor"}, {"actionCode": "H8A000", "actionDate": "2022-06-16", "actionTime": "11:02:37", "sourceSystem": {"code": 2, "name": "House floor actions"}, "text": "The previous question on the motion to recommit was ordered pursuant to clause 2(b) of rule XIX.", "type": "Floor"}, {"actionCode": "H36200", "actionDate": "2022-06-16", "actionTime": "11:02:27", "committees": [{"name": "Agriculture Committee", "systemCode": "hsag00", "url": "https://api.congress.gov/v3/committee/house/hsag00?format=json"}], "sourceSystem": {"code": 2, "name": "House floor actions"}, "text": "Mrs. Cammack moved to recommit to the Committee on Agriculture. (text: CR H5631)", "type": "Floor"}, {"actionCode": "H35000", "actionDate": "2022-06-16", "actionTime": "11:02:04", "sourceSystem": {"code": 2, "name": "House floor actions"}, "text": "The previous question was ordered pursuant to the rule.", "type": "Floor"}, {"actionCode": "H8D000", "actionDate": "2022-06-16", "actionTime": "10:50:20", "sourceSystem": {"code": 2, "name": "House floor actions"}, "text": "DEBATE - Pursuant to the provisions of H. Res. 1170, the House proceeded with 10 minutes of debate on the Spanberger amendment No. 2.", "type": "Floor"}, {"actionCode": "H8D000", "actionDate": "2022-06-16", "actionTime": "10:40:28", "sourceSystem": {"code": 2, "name": "House floor actions"}, "text": "DEBATE - Pursuant to the provisions of H. Res. 1170, the House proceeded with 10 minutes of debate on the Khanna amendment No. 1.", "type": "Floor"}, {"actionCode": "H8D000", "actionDate": "2022-06-16", "actionTime": "09:16:34", "sourceSystem": {"code": 2, "name": "House floor actions"}, "text": "DEBATE - The House proceeded with one hour of debate on H.R. 7606.", "type": "Floor"}, {"actionCode": "H8D000", "actionDate": "2022-06-16", "actionTime": "09:15:10", "sourceSystem": {"code": 2, "name": "House floor actions"}, "text": "Rule provides for consideration of H.R. 2543, H.R. 2773 and H.R. 7606. Resolution provides for one hour of general debate on each bill and one motion to recommit. Rule also amends House Resolution 188 by striking \"June 17, 2022\" and inserting \"June 22, 2022\".", "type": "Floor"}, {"actionCode": "H30000", "actionDate": "2022-06-16", "actionTime": "09:15:05", "sourceSystem": {"code": 2, "name": "House floor actions"}, "text": "Considered under the provisions of rule H. Res. 1170. (consideration: CR H5615-5632; text: CR H5615-5618)", "type": "Floor"}, {"actionCode": "H1L220", "actionDate": "2022-06-14", "actionTime": "14:40:58", "sourceSystem": {"code": 2, "name": "House floor actions"}, "text": "Rule H. Res. 1170 passed House.", "type": "Floor"}, {"actionCode": "H1L210", "actionDate": "2022-06-13", "actionTime": "19:25:01", "sourceSystem": {"code": 2, "name": "House floor actions"}, "text": "Rules Committee Resolution H. Res. 1170 Reported to House. Rule provides for consideration of H.R. 2543, H.R. 2773 and H.R. 7606. Resolution provides for one hour of general debate on each bill and one motion to recommit. Rule also amends House Resolution 188 by striking \"June 17, 2022\" and inserting \"June 22, 2022\".", "type": "Floor"}, {"actionCode": "H12210", "actionDate": "2022-06-09", "committees": [{"name": "Agriculture Committee", "systemCode": "hsag00", "url": "https://api.congress.gov/v3/committee/house/hsag00?format=json"}], "sourceSystem": {"code": 2, "name": "House floor actions"}, "text": "Supplemental report filed by the Committee on Agriculture, H. Rept. 117-357, Part II.", "type": "Committee"}, {"actionCode": "5000", "actionDate": "2022-06-09", "committees": [{"name": "Agriculture Committee", "systemCode": "hsag00", "url": "https://api.congress.gov/v3/committee/house/hsag00?format=json"}], "sourceSystem": {"code": 9, "name": "Library of Congress"}, "text": "Supplemental report filed by the Committee on Agriculture, H. Rept. 117-357, Part II.", "type": "Committee"}, {"actionCode": "H12410", "actionDate": "2022-06-07", "calendarNumber": {"calendar": "U00270"}, "sourceSystem": {"code": 2, "name": "House floor actions"}, "text": "Placed on the Union Calendar, Calendar No. 270.", "type": "Calendars"}, {"actionCode": "H12200", "actionDate": "2022-06-07", "committees": [{"name": "Agriculture Committee", "systemCode": "hsag00", "url": "https://api.congress.gov/v3/committee/house/hsag00?format=json"}], "sourceSystem": {"code": 2, "name": "House floor actions"}, "text": "Reported (Amended) by the Committee on Agriculture. H. Rept. 117-357.", "type": "Committee"}, {"actionCode": "5000", "actionDate": "2022-06-07", "committees": [{"name": "Agriculture Committee", "systemCode": "hsag00", "url": "https://api.congress.gov/v3/committee/house/hsag00?format=json"}], "sourceSystem": {"code": 9, "name": "Library of Congress"}, "text": "Reported (Amended) by the Committee on Agriculture. H. Rept. 117-357.", "type": "Committee"}], "pagination": {"count": 28, "next": "https://api.congress.gov/v3/bill/117/hr/7606/actions?offset=20&limit=20&format=json"}, "request": {"billNumber": "7606", "billType": "hr", "billUrl": "https://api.congress.gov/v3/bill/117/hr/7606?format=json", "congress": "117", "contentType": "application/json", "format": "json"}}, 200]