[{"actions": [{"actionDate": "2022-06-23", "committees": [{"name": "Health, Education, Labor, and Pensions Committee", "systemCode": "sshr00", "url": "https://api.congress.gov/v3/committee/senate/sshr00?format=json"}], "sourceSystem": {"name": "Senate"}, "text": "Received in the Senate and Read twice and referred to the Committee on Health, Education, Labor, and Pensions.", "type": "IntroReferral"}, {"actionCode": "H38900", "actionDate": "2022-06-22", "actionTime": "18:54:02", "sourceSystem": {"code": 2, "name": "House floor actions"}, "text": "The Clerk was authorized to correct section numbers, punctuation, and cross references, and to make other necessary technical and conforming corrections in the engrossment of H.R. 7666.", "type": "Floor"}, {"actionCode": "H38310", "actionDate": "2022-06-22", "actionTime": "18:28:11", "sourceSystem": {"code": 2, "name": "House floor actions"}, "text": "Motion to reconsider laid on the table Agreed to without objection.", "type": "Floor"}, {"actionCode": "H37100", "actionDate": "2022-06-22", "actionTime": "18:28:08", "recordedVotes": [{"chamber": "House", "congress": 117, "date": "2022-06-22T22:28:08Z", "rollNumber": 286, "sessionNumber": 2, "url": "https://clerk.house.gov/evs/2022/roll286.xml"}], "sourceSystem": {"code": 2, "name": "House floor actions"}, "text": "On passage Passed by the Yeas and Nays: 402 - 20 (Roll no. 286).", "type": "Floor"}, {"actionCode": "8000", "actionDate": "2022-06-22", "actionTime": "18:28:08", "recordedVotes": [{"chamber": "House", "congress": 117, "date": "2022-06-22T22:28:08Z", "rollNumber": 286, "sessionNumber": 2, "url": "https://clerk.house.gov/evs/2022/roll286.xml"}], "sourceSystem": {"code": 9, "name": "Library of Congress"}, "text": "Passed/agreed to in House: On passage Passed by the Yeas and Nays: 402 - 20 (Roll no. 286).", "type": "Floor"}, {"actionCode": "H35000", "actionDate": "2022-06-22", "actionTime": "18:19:55", "sourceSystem": {"code": 2, "name": "House floor actions"}, "text": "The previous question was ordered pursuant to the rule.", "type": "Floor"}, {"actionCode": "H30000", "actionDate": "2022-06-22", "actionTime": "16:50:07", "sourceSystem": {"code": 2, "name": "House floor actions"}, "text": "Considered as unfinished business. (consideration: CR H5803-5808)", "type": "Floor"}, {"actionCode": "H8D000", "actionDate": "2022-06-22", "actionTime": "16:06:06", "sourceSystem": {"code": 2, "name": "House floor actions"}, "text": "Pursuant to clause 1(c) of rule XIX, the Chair announced that further proceedings on H.R. 7666 would be postponed.", "type": "Floor"}, {"actionCode": "H8D000", "actionDate": "2022-06-22", "actionTime": "16:05:08", "sourceSystem": {"code": 2, "name": "House floor actions"}, "text": "POSTPONED PROCEEDINGS - At the conclusion of debate on the Griffith amendment No. 8, the Chair put the question on adoption of the amendment and by voice vote, announced that the noes had prevailed. Mr. Griffith demanded the yeas and nays and the Chair postponed further proceedings until a time to be announced.", "type": "Floor"}, {"actionCode": "H8D000", "actionDate": "2022-06-22", "actionTime": "15:52:13", "sourceSystem": {"code": 2, "name": "House floor actions"}, "text": "DEBATE - Pursuant to the provisions of H. Res. 1191, the House proceeded with 10 minutes of debate on the Griffith amendment No. 8.", "type": "Floor"}, {"actionCode": "H8D000", "actionDate": "2022-06-22", "actionTime": "15:51:25", "sourceSystem": {"code": 2, "name": "House floor actions"}, "text": "POSTPONED PROCEEDINGS - At the conclusion of debate on the Rodgers (WA) amendment No. 6, the Chair put the question on adoption of the amendment and by voice vote, announced that the ayes had prevailed. Mr. Pallone demanded the yeas and nays and the Chair postponed further proceedings until a time to be announced.", "type": "Floor"}, {"actionCode": "H8D000", "actionDate": "2022-06-22", "actionTime": "15:45:49", "sourceSystem": {"code": 2, "name": "House floor actions"}, "text": "DEBATE - Pursuant to the provisions of H. Res. 1191, the House proceeded with 10 minutes of debate on the Rodgers (WA) amendment No. 6.", "type": "Floor"}, {"actionCode": "H8D000", "actionDate": "2022-06-22", "actionTime": "15:44:34", "sourceSystem": {"code": 2, "name": "House floor actions"}, "text": "POSTPONED PROCEEDINGS - At the conclusion of debate on the Demings amendment No. 4, the Chair put the question on adoption of the amendment and by voice vote, announced that the ayes had prevailed. Mr. Pallone demanded the yeas and nays and the Chair postponed further proceedings until a time to be announced.", "type": "Floor"}, {"actionCode": "H8D000", "actionDate": "2022-06-22", "actionTime": "15:40:31", "sourceSystem": {"code": 2, "name": "House floor actions"}, "text": "DEBATE - Pursuant to the provisions of H. Res. 1191, the House proceeded with 10 minutes of debate on the Demings amendment No. 4.", "type": "Floor"}, {"actionCode": "H8D000", "actionDate": "2022-06-22", "actionTime": "15:39:31", "sourceSystem": {"code": 2, "name": "House floor actions"}, "text": "POSTPONED PROCEEDINGS - At the conclusion of debate on the Pallone amendment en bloc No. 2, the Chair put the question on adoption of the amendment and by voice vote, announced that the ayes had prevailed. Mr. Tiffany demanded the yeas and nays and the Chair postponed further proceedings until a time to be announced.", "type": "Floor"}, {"actionCode": "H8D000", "actionDate": "2022-06-22", "actionTime": "15:30:46", "sourceSystem": {"code": 2, "name": "House floor actions"}, "text": "DEBATE - Pursuant to the provisions of H. Res. 1191, the House proceeded with 20 minutes of debate on the Pallone amendment en bloc No. 2.", "type": "Floor"}, {"actionCode": "H8D000", "actionDate": "2022-06-22", "actionTime": "15:29:57", "sourceSystem": {"code": 2, "name": "House floor actions"}, "text": "POSTPONED PROCEEDINGS - At the conclusion of debate on the Pallone amendment en bloc No. 1, the Chair put the question on adoption of the amendment and by voice vote, announced that the ayes had prevailed. Mr. Tiffany demanded the yeas and nays and the Chair postponed further proceedings until a time to be announced.", "type": "Floor"}, {"actionCode": "H8D000", "actionDate": "2022-06-22", "actionTime": "15:15:36", "sourceSystem": {"code": 2, "name": "House floor actions"}, "text": "DEBATE - Pursuant to the provisions of H. Res. 1191, the House proceeded with 20 minutes of debate on the Pallone amendment en bloc No. 1.", "type": "Floor"}, {"actionCode": "H8D000", "actionDate": "2022-06-22", "actionTime": "14:01:40", "sourceSystem": {"code": 2, "name": "House floor actions"}, "text": "DEBATE - The House proceeded with one hour of debate on H.R. 7666.", "type": "Floor"}, {"actionCode": "H8D000", "actionDate": "2022-06-22", "actionTime": "14:00:26", "sourceSystem": {"code": 2, "name": "House floor actions"}, "text": "Rule provides for consideration of H.R. 4176, H.R. 5585 and H.R. 7666. Rule provides for one hour of general debate on H.R. 4176, H.R. 5585 and H.R. 7666. Rule provides for one motion to recommit each for H.R. 4176, H.R. 5585 and H.R. 7666. Rule provides that proceedings may be postponed through July 15, 2022, on measures that were the object of motions to suspend the rules on the legislative days of June 21, 2022, June 22, 2022, June 23, 2022, or June 24, 2022, and on which the yeas and nays were ordered.", "type": "Floor"}], "pagination": {"count": 37, "next": "https://api.congress.gov/v3/bill/117/hr/7666/actions?offset=20&limit=20&format=json"}, "request": {"billNumber": "7666", "billType": "hr", "billUrl": "https://api.congress.gov/v3/bill/117/hr/7666?format=json", "congress": "117", "contentType": "application/json", "format": "json"}}, 200]