[{"actions": [{"actionDate": "2022-05-19", "calendarNumber": {"calendar": "Senate Calendar of Business", "number": "0373"}, "sourceSystem": {"name": "Senate"}, "text": "Read the second time. Placed on Senate Legislative Calendar under General Orders. Calendar No. 373.", "type": "Calendars"}, {"actionDate": "2022-05-19", "calendarNumber": {"calendar": "Senate Calendar of Business"}, "sourceSystem": {"name": "Senate"}, "text": "Received in the Senate. Read the first time. Placed on Senate Legislative Calendar under Read the First Time. (Legislative Day 5/17/2022).", "type": "Calendars"}, {"actionCode": "H38310", "actionDate": "2022-05-19", "actionTime": "12:19:23", "sourceSystem": {"code": 2, "name": "House floor actions"}, "text": "Motion to reconsider laid on the table Agreed to without objection.", "type": "Floor"}, {"actionCode": "H37100", "actionDate": "2022-05-19", "actionTime": "12:19:22", "recordedVotes": [{"chamber": "House", "congress": 117, "date": "2022-05-19T16:19:22Z", "rollNumber": 232, "sessionNumber": 2, "url": "https://clerk.house.gov/evs/2022/roll232.xml"}], "sourceSystem": {"code": 2, "name": "House floor actions"}, "text": "On passage Passed by the Yeas and Nays: 217 - 207 (Roll no. 232).", "type": "Floor"}, {"actionCode": "8000", "actionDate": "2022-05-19", "actionTime": "12:19:22", "recordedVotes": [{"chamber": "House", "congress": 117, "date": "2022-05-19T16:19:22Z", "rollNumber": 232, "sessionNumber": 2, "url": "https://clerk.house.gov/evs/2022/roll232.xml"}], "sourceSystem": {"code": 9, "name": "Library of Congress"}, "text": "Passed/agreed to in House: On passage Passed by the Yeas and Nays: 217 - 207 (Roll no. 232).", "type": "Floor"}, {"actionCode": "H36210", "actionDate": "2022-05-19", "actionTime": "12:00:43", "committees": [{"name": "Energy and Commerce Committee", "systemCode": "hsif00", "url": "https://api.congress.gov/v3/committee/house/hsif00?format=json"}], "recordedVotes": [{"chamber": "House", "congress": 117, "date": "2022-05-19T16:00:43Z", "rollNumber": 231, "sessionNumber": 2, "url": "https://clerk.house.gov/evs/2022/roll231.xml"}], "sourceSystem": {"code": 2, "name": "House floor actions"}, "text": "On motion to recommit Failed by the Yeas and Nays: 201 - 220 (Roll no. 231).", "type": "Floor"}, {"actionCode": "H8A000", "actionDate": "2022-05-19", "actionTime": "11:47:17", "sourceSystem": {"code": 2, "name": "House floor actions"}, "text": "The previous question on the motion to recommit was ordered pursuant to clause 2(b) of rule XIX.", "type": "Floor"}, {"actionCode": "H36200", "actionDate": "2022-05-19", "actionTime": "11:46:49", "committees": [{"name": "Energy and Commerce Committee", "systemCode": "hsif00", "url": "https://api.congress.gov/v3/committee/house/hsif00?format=json"}], "sourceSystem": {"code": 2, "name": "House floor actions"}, "text": "Mr. Westerman moved to recommit to the Committee on Energy and Commerce. (text: CR H5193)", "type": "Floor"}, {"actionCode": "H35000", "actionDate": "2022-05-19", "actionTime": "11:46:17", "sourceSystem": {"code": 2, "name": "House floor actions"}, "text": "The previous question was ordered pursuant to the rule.", "type": "Floor"}, {"actionCode": "H8D000", "actionDate": "2022-05-19", "actionTime": "10:47:09", "sourceSystem": {"code": 2, "name": "House floor actions"}, "text": "POSTPONED PROCEEDINGS - At the conclusion of debate on the Pappas amendment, the Chair put the question on adoption of the amendment, and by voice vote, announced that the ayes had prevailed. Mrs. Rodgers demanded the yeas and nays and the Chair postponed further proceedings on the amendment until a time to be announced.", "type": "Floor"}, {"actionCode": "H8D000", "actionDate": "2022-05-19", "actionTime": "10:38:52", "sourceSystem": {"code": 2, "name": "House floor actions"}, "text": "DEBATE - Pursuant to the provisions of H. Res. 1124, the House proceeded with 10 minutes of debate on the Pappas amendment No. 2.", "type": "Floor"}, {"actionCode": "H8D000", "actionDate": "2022-05-19", "actionTime": "10:37:25", "sourceSystem": {"code": 2, "name": "House floor actions"}, "text": "POSTPONED PROCEEDINGS - At the conclusion of debate on the Demings amendment, the Chair put the question on adoption of the amendment, and by voice vote, announced that the ayes had prevailed. Mrs. Rodgers demanded the yeas and nays and the Chair postponed further proceedings on the amendment until a time to be announced.", "type": "Floor"}, {"actionCode": "H8D000", "actionDate": "2022-05-19", "actionTime": "10:37:11", "sourceSystem": {"code": 2, "name": "House floor actions"}, "text": "The previous question was ordered on the amendment (A002) pursuant to the rule.", "type": "Floor"}, {"actionCode": "H8D000", "actionDate": "2022-05-19", "actionTime": "10:25:21", "sourceSystem": {"code": 2, "name": "House floor actions"}, "text": "DEBATE - Pursuant to the provisions of H. Res. 1124, the House proceeded with 10 minutes of debate on the Demings amendment No. 1", "type": "Floor"}, {"actionCode": "H8D000", "actionDate": "2022-05-19", "actionTime": "09:17:57", "sourceSystem": {"code": 2, "name": "House floor actions"}, "text": "DEBATE - The House proceeded with one hour of debate on H.R. 7688.", "type": "Floor"}, {"actionCode": "H8D000", "actionDate": "2022-05-19", "actionTime": "09:17:26", "sourceSystem": {"code": 2, "name": "House floor actions"}, "text": "Rule provides for consideration of H.R. 350, H.R. 7688 and H.R. 7790. Provides for one of hour of general debate and one motion to recommit for each bill. Resolution also provides for en bloc suspension authority.", "type": "Floor"}, {"actionCode": "H30000", "actionDate": "2022-05-19", "actionTime": "09:17:21", "sourceSystem": {"code": 2, "name": "House floor actions"}, "text": "Considered under the provisions of rule H. Res. 1124. (consideration: CR H5179-5195; text: CR H5179-5181)", "type": "Floor"}, {"actionCode": "H1L210", "actionDate": "2022-05-17", "actionTime": "14:57:07", "sourceSystem": {"code": 2, "name": "House floor actions"}, "text": "Rules Committee Resolution H. Res. 1124 Reported to House. Rule provides for consideration of H.R. 350, H.R. 7688 and H.R. 7790. Provides for one of hour of general debate and one motion to recommit for each bill. Resolution also provides for en bloc suspension authority.", "type": "Floor"}, {"actionCode": "H11100", "actionDate": "2022-05-06", "committees": [{"name": "Education and the Workforce Committee", "systemCode": "hsed00", "url": "https://api.congress.gov/v3/committee/house/hsed00?format=json"}], "sourceSystem": {"code": 2, "name": "House floor actions"}, "text": "Referred to the Committee on Energy and Commerce, and in addition to the Committee on Education and Labor, for a period to be subsequently determined by the Speaker, in each case for consideration of such provisions as fall within the jurisdiction of the committee concerned.", "type": "IntroReferral"}, {"actionCode": "H11100", "actionDate": "2022-05-06", "committees": [{"name": "Energy and Commerce Committee", "systemCode": "hsif00", "url": "https://api.congress.gov/v3/committee/house/hsif00?format=json"}], "sourceSystem": {"code": 2, "name": "House floor actions"}, "text": "Referred to the Committee on Energy and Commerce, and in addition to the Committee on Education and Labor, for a period to be subsequently determined by the Speaker, in each case for consideration of such provisions as fall within the jurisdiction of the committee concerned.", "type": "IntroReferral"}], "pagination": {"count": 22, "next": "https://api.congress.gov/v3/bill/117/hr/7688/actions?offset=20&limit=20&format=json"}, "request": {"billNumber": "7688", "billType": "hr", "billUrl": "https://api.congress.gov/v3/bill/117/hr/7688?format=json", "congress": "117", "contentType": "application/json", "format": "json"}}, 200]