[{"actions": [{"actionCode": "E40000", "actionDate": "2022-05-21", "sourceSystem": {"code": 9, "name": "Library of Congress"}, "text": "Became Public Law No: 117-128.", "type": "President"}, {"actionCode": "36000", "actionDate": "2022-05-21", "sourceSystem": {"code": 9, "name": "Library of Congress"}, "text": "Became Public Law No: 117-128.", "type": "BecameLaw"}, {"actionCode": "E30000", "actionDate": "2022-05-21", "sourceSystem": {"code": 9, "name": "Library of Congress"}, "text": "Signed by President.", "type": "President"}, {"actionCode": "36000", "actionDate": "2022-05-21", "sourceSystem": {"code": 9, "name": "Library of Congress"}, "text": "Signed by President.", "type": "BecameLaw"}, {"actionCode": "E20000", "actionDate": "2022-05-19", "sourceSystem": {"code": 2, "name": "House floor actions"}, "text": "Presented to President.", "type": "Floor"}, {"actionCode": "28000", "actionDate": "2022-05-19", "sourceSystem": {"code": 9, "name": "Library of Congress"}, "text": "Presented to President.", "type": "President"}, {"actionDate": "2022-05-19", "sourceSystem": {"name": "Senate"}, "text": "Message on Senate action sent to the House.", "type": "Floor"}, {"actionDate": "2022-05-19", "recordedVotes": [{"chamber": "Senate", "congress": 117, "date": "2022-05-19T17:16:58Z", "rollNumber": 191, "sessionNumber": 2, "url": "https://www.senate.gov/legislative/LIS/roll_call_votes/vote1172/vote_117_2_00191.xml"}], "sourceSystem": {"name": "Senate"}, "text": "Passed Senate without amendment by Yea-Nay Vote. 86 - 11. Record Vote Number: 191.", "type": "Floor"}, {"actionCode": "17000", "actionDate": "2022-05-19", "recordedVotes": [{"chamber": "Senate", "congress": 117, "date": "2022-05-19T17:16:58Z", "rollNumber": 191, "sessionNumber": 2, "url": "https://www.senate.gov/legislative/LIS/roll_call_votes/vote1172/vote_117_2_00191.xml"}], "sourceSystem": {"code": 9, "name": "Library of Congress"}, "text": "Passed/agreed to in Senate: Passed Senate without amendment by Yea-Nay Vote. 86 - 11. Record Vote Number: 191.", "type": "Floor"}, {"actionDate": "2022-05-19", "committees": [{"name": "Appropriations Committee", "systemCode": "ssap00", "url": "https://api.congress.gov/v3/committee/senate/ssap00?format=json"}], "sourceSystem": {"name": "Senate"}, "text": "Motion by Senator Schumer to commit to Senate Committee on Appropriations with instructions to report back forthwith with the following amendment (SA 5037) fell when cloture was invoked on the measure in Senate. (CR S2607)", "type": "Floor"}, {"actionDate": "2022-05-19", "recordedVotes": [{"chamber": "Senate", "congress": 117, "date": "2022-05-19T16:41:27Z", "rollNumber": 190, "sessionNumber": 2, "url": "https://www.senate.gov/legislative/LIS/roll_call_votes/vote1172/vote_117_2_00190.xml"}], "sourceSystem": {"name": "Senate"}, "text": "Cloture invoked in Senate by Yea-Nay Vote. 86 - 11. Record Vote Number: 190. (CR S2607)", "type": "Floor"}, {"actionDate": "2022-05-19", "sourceSystem": {"name": "Senate"}, "text": "Considered by Senate. (consideration: CR S2599-2600, S2602-2604, S2606-2607)", "type": "Floor"}, {"actionDate": "2022-05-17", "committees": [{"name": "Appropriations Committee", "systemCode": "ssap00", "url": "https://api.congress.gov/v3/committee/senate/ssap00?format=json"}], "sourceSystem": {"name": "Senate"}, "text": "Motion by Senator Schumer to commit to Senate Committee on Appropriations with instructions to report back forthwith with the following amendment (SA 5037) made in Senate. (text: CR S2534)", "type": "Floor"}, {"actionDate": "2022-05-17", "sourceSystem": {"name": "Senate"}, "text": "Cloture motion on the measure presented in Senate. (CR S2533-2534)", "type": "Floor"}, {"actionDate": "2022-05-17", "sourceSystem": {"name": "Senate"}, "text": "Measure laid before Senate by motion. (consideration: CR S2526-2528, S2531-2534)", "type": "Floor"}, {"actionDate": "2022-05-17", "recordedVotes": [{"chamber": "Senate", "congress": 117, "date": "2022-05-17T20:52:03Z", "rollNumber": 178, "sessionNumber": 2, "url": "https://www.senate.gov/legislative/LIS/roll_call_votes/vote1172/vote_117_2_00178.xml"}], "sourceSystem": {"name": "Senate"}, "text": "Motion to proceed to consideration of measure agreed to in Senate by Yea-Nay Vote. 88 - 11. Record Vote Number: 178.", "type": "Floor"}, {"actionDate": "2022-05-17", "sourceSystem": {"name": "Senate"}, "text": "Motion to proceed to measure considered in Senate. (CR S2526)", "type": "Floor"}, {"actionDate": "2022-05-16", "recordedVotes": [{"chamber": "Senate", "congress": 117, "date": "2022-05-16T23:16:31Z", "rollNumber": 177, "sessionNumber": 2, "url": "https://www.senate.gov/legislative/LIS/roll_call_votes/vote1172/vote_117_2_00177.xml"}], "sourceSystem": {"name": "Senate"}, "text": "Cloture on the motion to proceed to the measure invoked in Senate by Yea-Nay Vote. 81 - 11. Record Vote Number: 177. (CR S2515)", "type": "Floor"}, {"actionDate": "2022-05-16", "sourceSystem": {"name": "Senate"}, "text": "Motion to proceed to measure considered in Senate. (CR S2507)", "type": "Floor"}, {"actionDate": "2022-05-12", "sourceSystem": {"name": "Senate"}, "text": "Cloture motion on the motion to proceed to the measure presented in Senate. (CR S2486)", "type": "Floor"}], "pagination": {"count": 36, "next": "https://api.congress.gov/v3/bill/117/hr/7691/actions?offset=20&limit=20&format=json"}, "request": {"billNumber": "7691", "billType": "hr", "billUrl": "https://api.congress.gov/v3/bill/117/hr/7691?format=json", "congress": "117", "contentType": "application/json", "format": "json"}}, 200]