[{"actions": [{"actionCode": "E40000", "actionDate": "2022-12-23", "sourceSystem": {"code": 9, "name": "Library of Congress"}, "text": "Became Public Law No: 117-263.", "type": "President"}, {"actionCode": "36000", "actionDate": "2022-12-23", "sourceSystem": {"code": 9, "name": "Library of Congress"}, "text": "Became Public Law No: 117-263.", "type": "BecameLaw"}, {"actionCode": "E30000", "actionDate": "2022-12-23", "sourceSystem": {"code": 9, "name": "Library of Congress"}, "text": "Signed by President.", "type": "President"}, {"actionCode": "36000", "actionDate": "2022-12-23", "sourceSystem": {"code": 9, "name": "Library of Congress"}, "text": "Signed by President.", "type": "BecameLaw"}, {"actionCode": "E20000", "actionDate": "2022-12-22", "sourceSystem": {"code": 2, "name": "House floor actions"}, "text": "Presented to President.", "type": "Floor"}, {"actionCode": "28000", "actionDate": "2022-12-22", "sourceSystem": {"code": 9, "name": "Library of Congress"}, "text": "Presented to President.", "type": "President"}, {"actionDate": "2022-12-16", "sourceSystem": {"name": "Senate"}, "text": "Message on Senate action sent to the House.", "type": "Floor"}, {"actionDate": "2022-12-15", "recordedVotes": [{"chamber": "Senate", "congress": 117, "date": "2022-12-16T00:49:38Z", "rollNumber": 396, "sessionNumber": 2, "url": "https://www.senate.gov/legislative/LIS/roll_call_votes/vote1172/vote_117_2_00396.xml"}], "sourceSystem": {"name": "Senate"}, "text": "Senate agreed, under the order of 12/15/22, having achieved 60 votes in the affirmative, to the House amendment to the Senate amendment to H.R. 7776 by Yea-Nay Vote. 83 - 11. Record Vote Number: 396.", "type": "ResolvingDifferences"}, {"actionCode": "20500", "actionDate": "2022-12-15", "recordedVotes": [{"chamber": "Senate", "congress": 117, "date": "2022-12-16T00:49:38Z", "rollNumber": 396, "sessionNumber": 2, "url": "https://www.senate.gov/legislative/LIS/roll_call_votes/vote1172/vote_117_2_00396.xml"}], "sourceSystem": {"code": 9, "name": "Library of Congress"}, "text": "Resolving differences -- Senate actions: Senate agreed, under the order of 12/15/22, having achieved 60 votes in the affirmative, to the House amendment to the Senate amendment to H.R. 7776 by Yea-Nay Vote. 83 - 11. Record Vote Number: 396.", "type": "NotUsed"}, {"actionDate": "2022-12-15", "recordedVotes": [{"chamber": "Senate", "congress": 117, "date": "2022-12-16T00:16:27Z", "rollNumber": 395, "sessionNumber": 2, "url": "https://www.senate.gov/legislative/LIS/roll_call_votes/vote1172/vote_117_2_00395.xml"}], "sourceSystem": {"name": "Senate"}, "text": "Motion by Senator Johnson to concur in the House amendment to the Senate amendment to H.R. 7776 with an amendment (SA 6526) under the order of 12/15/22, not having achieved 60 votes in the affirmative, was not agreed to by Yea-Nay Vote. 40 - 54. Record Vote Number: 395.", "type": "Floor"}, {"actionDate": "2022-12-15", "sourceSystem": {"name": "Senate"}, "text": "Motion by Senator Johnson to concur in the House amendment to the Senate amendment to H.R. 7776 with an amendment (SA 6526) made in Senate. (CR S7233)", "type": "Floor"}, {"actionDate": "2022-12-15", "sourceSystem": {"name": "Senate"}, "text": "Schumer motion to concur in the House amendment to the Senate amendment to H.R. 7776 with an amendment SA 6513 withdrawn by Unanimous Consent. (consideration: CR S7230-7233)", "type": "Floor"}, {"actionDate": "2022-12-15", "recordedVotes": [{"chamber": "Senate", "congress": 117, "date": "2022-12-15T23:40:42Z", "rollNumber": 394, "sessionNumber": 2, "url": "https://www.senate.gov/legislative/LIS/roll_call_votes/vote1172/vote_117_2_00394.xml"}], "sourceSystem": {"name": "Senate"}, "text": "Cloture on the motion by Senator Schumer to concur in the House Amendment to H.R. 7776 with an amendment (SA 6513), cloture not invoked in Senate by Yea-Nay Vote. 47 - 47. Record Vote Number: 394.", "type": "Floor"}, {"actionDate": "2022-12-15", "committees": [{"name": "Armed Services Committee", "systemCode": "ssas00", "url": "https://api.congress.gov/v3/committee/senate/ssas00?format=json"}], "sourceSystem": {"name": "Senate"}, "text": "Motion by Senator Schumer to refer to Senate Committee on Armed Services the House message to accompany H.R. 7776 with instructions to report back forthwith with the following amendment (SA 6516) withdrawn in Senate by Unanimous Consent. (consideration: CR S7213)", "type": "Floor"}, {"actionDate": "2022-12-15", "sourceSystem": {"name": "Senate"}, "text": "Motion by Senator Sullivan to concur in the House amendment to the Senate amendment to H.R. 7776 with an amendment (SA 6522) withdrawn by Unanimous Consent. (consideration: CR S7227-7230)", "type": "Floor"}, {"actionDate": "2022-12-15", "sourceSystem": {"name": "Senate"}, "text": "Motion by Senator Sullivan to concur in the House amendment to the Senate amendment to H.R. 7776 with an amendment (SA 6522) made in Senate. (CR S7227)", "type": "Floor"}, {"actionDate": "2022-12-15", "sourceSystem": {"name": "Senate"}, "text": "Considered by Senate (Message from the House considered). (consideration: CR S7213-7219, S7226-7237)", "type": "Floor"}, {"actionDate": "2022-12-14", "sourceSystem": {"name": "Senate"}, "text": "Cloture motion on the motion to concur in the House amendment to the Senate amendment to H.R. 7776 presented in Senate.", "type": "Floor"}, {"actionDate": "2022-12-14", "sourceSystem": {"name": "Senate"}, "text": "Cloture motion on the motion to concur in the House amendment to the Senate amendment to H.R. 7776 with an amendment SA 6513 presented in Senate.", "type": "Floor"}, {"actionDate": "2022-12-14", "sourceSystem": {"name": "Senate"}, "text": "Considered by Senate (Message from the House considered). (consideration: CR S7184-7185)", "type": "Floor"}], "pagination": {"count": 51, "next": "https://api.congress.gov/v3/bill/117/hr/7776/actions?offset=20&limit=20&format=json"}, "request": {"billNumber": "7776", "billType": "hr", "billUrl": "https://api.congress.gov/v3/bill/117/hr/7776?format=json", "congress": "117", "contentType": "application/json", "format": "json"}}, 200]