[{"actions": [{"actionDate": "2022-12-19", "calendarNumber": {"calendar": "Senate Calendar of Business", "number": "0680"}, "sourceSystem": {"name": "Senate"}, "text": "Placed on Senate Legislative Calendar under General Orders. Calendar No. 680.", "type": "Calendars"}, {"actionDate": "2022-12-19", "committees": [{"name": "Homeland Security and Governmental Affairs Committee", "systemCode": "ssga00", "url": "https://api.congress.gov/v3/committee/senate/ssga00?format=json"}], "sourceSystem": {"name": "Senate"}, "text": "Committee on Homeland Security and Governmental Affairs. Reported by Senator Peters with an amendment in the nature of a substitute. With written report No. 117-281.", "type": "Committee"}, {"actionCode": "14000", "actionDate": "2022-12-19", "committees": [{"name": "Homeland Security and Governmental Affairs Committee", "systemCode": "ssga00", "url": "https://api.congress.gov/v3/committee/senate/ssga00?format=json"}], "sourceSystem": {"code": 9, "name": "Library of Congress"}, "text": "Committee on Homeland Security and Governmental Affairs. Reported by Senator Peters with an amendment in the nature of a substitute. With written report No. 117-281.", "type": "Committee"}, {"actionDate": "2022-09-28", "committees": [{"name": "Homeland Security and Governmental Affairs Committee", "systemCode": "ssga00", "url": "https://api.congress.gov/v3/committee/senate/ssga00?format=json"}], "sourceSystem": {"name": "Senate"}, "text": "Committee on Homeland Security and Governmental Affairs. Ordered to be reported with an amendment in the nature of a substitute favorably.", "type": "Committee"}, {"actionDate": "2022-06-22", "committees": [{"name": "Homeland Security and Governmental Affairs Committee", "systemCode": "ssga00", "url": "https://api.congress.gov/v3/committee/senate/ssga00?format=json"}], "sourceSystem": {"name": "Senate"}, "text": "Received in the Senate and Read twice and referred to the Committee on Homeland Security and Governmental Affairs.", "type": "IntroReferral"}, {"actionCode": "H38310", "actionDate": "2022-06-21", "actionTime": "19:06:38", "sourceSystem": {"code": 2, "name": "House floor actions"}, "text": "Motion to reconsider laid on the table Agreed to without objection.", "type": "Floor"}, {"actionCode": "H37300", "actionDate": "2022-06-21", "actionTime": "19:06:37", "recordedVotes": [{"chamber": "House", "congress": 117, "date": "2022-06-21T23:06:37Z", "rollNumber": 278, "sessionNumber": 2, "url": "https://clerk.house.gov/evs/2022/roll278.xml"}], "sourceSystem": {"code": 2, "name": "House floor actions"}, "text": "On motion to suspend the rules and pass the bill, as amended Agreed to by the Yeas and Nays: (2/3 required): 368 - 47 (Roll no. 278). (text: CR H5690)", "type": "Floor"}, {"actionCode": "8000", "actionDate": "2022-06-21", "actionTime": "19:06:37", "recordedVotes": [{"chamber": "House", "congress": 117, "date": "2022-06-21T23:06:37Z", "rollNumber": 278, "sessionNumber": 2, "url": "https://clerk.house.gov/evs/2022/roll278.xml"}], "sourceSystem": {"code": 9, "name": "Library of Congress"}, "text": "Passed/agreed to in House: On motion to suspend the rules and pass the bill, as amended Agreed to by the Yeas and Nays: (2/3 required): 368 - 47 (Roll no. 278).", "type": "Floor"}, {"actionCode": "H30000", "actionDate": "2022-06-21", "actionTime": "18:43:33", "sourceSystem": {"code": 2, "name": "House floor actions"}, "text": "Considered as unfinished business. (consideration: CR H5717-5718)", "type": "Floor"}, {"actionCode": "H37220", "actionDate": "2022-06-21", "actionTime": "14:18:12", "sourceSystem": {"code": 2, "name": "House floor actions"}, "text": "At the conclusion of debate, the Yeas and Nays were demanded and ordered. Pursuant to the provisions of clause 8, rule XX, the Chair announced that further proceedings on the motion would be postponed.", "type": "Floor"}, {"actionCode": "H8D000", "actionDate": "2022-06-21", "actionTime": "14:08:12", "sourceSystem": {"code": 2, "name": "House floor actions"}, "text": "DEBATE - The House proceeded with forty minutes of debate on H.R. 7777.", "type": "Floor"}, {"actionCode": "H30000", "actionDate": "2022-06-21", "actionTime": "14:08:10", "sourceSystem": {"code": 2, "name": "House floor actions"}, "text": "Considered under suspension of the rules. (consideration: CR H5689-5691)", "type": "Floor"}, {"actionCode": "H30300", "actionDate": "2022-06-21", "actionTime": "14:07:57", "sourceSystem": {"code": 2, "name": "House floor actions"}, "text": "Mr. Swalwell moved to suspend the rules and pass the bill, as amended.", "type": "Floor"}, {"actionCode": "H12410", "actionDate": "2022-06-17", "calendarNumber": {"calendar": "U00288"}, "sourceSystem": {"code": 2, "name": "House floor actions"}, "text": "Placed on the Union Calendar, Calendar No. 288.", "type": "Calendars"}, {"actionCode": "H12200", "actionDate": "2022-06-17", "committees": [{"name": "Homeland Security Committee", "systemCode": "hshm00", "url": "https://api.congress.gov/v3/committee/house/hshm00?format=json"}], "sourceSystem": {"code": 2, "name": "House floor actions"}, "text": "Reported by the Committee on Homeland Security. H. Rept. 117-377.", "type": "Committee"}, {"actionCode": "5000", "actionDate": "2022-06-17", "committees": [{"name": "Homeland Security Committee", "systemCode": "hshm00", "url": "https://api.congress.gov/v3/committee/house/hshm00?format=json"}], "sourceSystem": {"code": 9, "name": "Library of Congress"}, "text": "Reported by the Committee on Homeland Security. H. Rept. 117-377.", "type": "Committee"}, {"actionCode": "H25000", "actionDate": "2022-05-19", "committees": [{"name": "Homeland Security Committee", "systemCode": "hshm00", "url": "https://api.congress.gov/v3/committee/house/hshm00?format=json"}], "sourceSystem": {"code": 1, "name": "House committee actions"}, "text": "Subcommittee on Cybersecurity, Infrastructure Protection, and Innovation Discharged.", "type": "Committee"}, {"actionCode": "H19000", "actionDate": "2022-05-19", "committees": [{"name": "Homeland Security Committee", "systemCode": "hshm00", "url": "https://api.congress.gov/v3/committee/house/hshm00?format=json"}], "sourceSystem": {"code": 1, "name": "House committee actions"}, "text": "Ordered to be Reported by Voice Vote.", "type": "Committee"}, {"actionCode": "H15000-B", "actionDate": "2022-05-19", "committees": [{"name": "Homeland Security Committee", "systemCode": "hshm00", "url": "https://api.congress.gov/v3/committee/house/hshm00?format=json"}], "sourceSystem": {"code": 1, "name": "House committee actions"}, "text": "Committee Consideration and Mark-up Session Held.", "type": "Committee"}, {"actionCode": "H11000", "actionDate": "2022-05-17", "committees": [{"name": "Cybersecurity and Infrastructure Protection Subcommittee", "systemCode": "hshm08", "url": "https://api.congress.gov/v3/committee/house/hshm08?format=json"}], "sourceSystem": {"code": 1, "name": "House committee actions"}, "text": "Referred to the Subcommittee on Cybersecurity, Infrastructure Protection, and Innovation.", "type": "Committee"}], "pagination": {"count": 23, "next": "https://api.congress.gov/v3/bill/117/hr/7777/actions?offset=20&limit=20&format=json"}, "request": {"billNumber": "7777", "billType": "hr", "billUrl": "https://api.congress.gov/v3/bill/117/hr/7777?format=json", "congress": "117", "contentType": "application/json", "format": "json"}}, 200]