[{"actions": [{"actionDate": "2022-10-11", "committees": [{"name": "Health, Education, Labor, and Pensions Committee", "systemCode": "sshr00", "url": "https://api.congress.gov/v3/committee/senate/sshr00?format=json"}], "sourceSystem": {"name": "Senate"}, "text": "Received in the Senate and Read twice and referred to the Committee on Health, Education, Labor, and Pensions.", "type": "IntroReferral"}, {"actionCode": "H37100", "actionDate": "2022-09-29", "actionTime": "14:59:43", "recordedVotes": [{"chamber": "House", "congress": 117, "date": "2022-09-29T18:59:43Z", "rollNumber": 459, "sessionNumber": 2, "url": "https://clerk.house.gov/evs/2022/roll459.xml"}], "sourceSystem": {"code": 2, "name": "House floor actions"}, "text": "On passage Passed by the Yeas and Nays: 220 - 205 (Roll no. 459).", "type": "Floor"}, {"actionCode": "8000", "actionDate": "2022-09-29", "actionTime": "14:59:43", "recordedVotes": [{"chamber": "House", "congress": 117, "date": "2022-09-29T18:59:43Z", "rollNumber": 459, "sessionNumber": 2, "url": "https://clerk.house.gov/evs/2022/roll459.xml"}], "sourceSystem": {"code": 9, "name": "Library of Congress"}, "text": "Passed/agreed to in House: On passage Passed by the Yeas and Nays: 220 - 205 (Roll no. 459).", "type": "Floor"}, {"actionCode": "H38310", "actionDate": "2022-09-29", "actionTime": "14:58:45", "sourceSystem": {"code": 2, "name": "House floor actions"}, "text": "Motion to reconsider laid on the table Agreed to without objection.", "type": "Floor"}, {"actionCode": "H36210", "actionDate": "2022-09-29", "actionTime": "14:46:16", "committees": [{"name": "Education and the Workforce Committee", "systemCode": "hsed00", "url": "https://api.congress.gov/v3/committee/house/hsed00?format=json"}], "recordedVotes": [{"chamber": "House", "congress": 117, "date": "2022-09-29T18:46:16Z", "rollNumber": 458, "sessionNumber": 2, "url": "https://clerk.house.gov/evs/2022/roll458.xml"}], "sourceSystem": {"code": 2, "name": "House floor actions"}, "text": "On motion to recommit Failed by the Yeas and Nays: 208 - 220 (Roll no. 458).", "type": "Floor"}, {"actionCode": "H30000", "actionDate": "2022-09-29", "actionTime": "13:49:00", "sourceSystem": {"code": 2, "name": "House floor actions"}, "text": "Considered as unfinished business. (consideration: H8235-8252, H8267-8268)", "type": "Floor"}, {"actionCode": "H8D000", "actionDate": "2022-09-29", "actionTime": "12:24:15", "sourceSystem": {"code": 2, "name": "House floor actions"}, "text": "POSTPONED PROCEEDINGS - At the conclusion of debate on the McClain motion to recommit, the Chair put the question on the motion to recommit and by voice vote, announced that the noes prevailed. Mrs. McClain demanded the yeas and nays and the Chair postponed further proceedings until a time to be announced.", "type": "Floor"}, {"actionCode": "H8A000", "actionDate": "2022-09-29", "actionTime": "12:23:50", "sourceSystem": {"code": 2, "name": "House floor actions"}, "text": "The previous question on the motion to recommit was ordered pursuant to clause 2(b) of rule XIX.", "type": "Floor"}, {"actionCode": "H36200", "actionDate": "2022-09-29", "actionTime": "12:23:37", "committees": [{"name": "Education and the Workforce Committee", "systemCode": "hsed00", "url": "https://api.congress.gov/v3/committee/house/hsed00?format=json"}], "sourceSystem": {"code": 2, "name": "House floor actions"}, "text": "Mrs. McClain moved to recommit to the Committee on Education and Labor.", "type": "Floor"}, {"actionCode": "H34400", "actionDate": "2022-09-29", "actionTime": "12:23:01", "sourceSystem": {"code": 2, "name": "House floor actions"}, "text": "The House adopted the amendment in the nature of a substitute as agreed to by the Committee of the Whole House on the state of the Union.", "type": "Floor"}, {"actionCode": "H35000", "actionDate": "2022-09-29", "actionTime": "12:22:51", "sourceSystem": {"code": 2, "name": "House floor actions"}, "text": "The previous question was ordered pursuant to the rule.", "type": "Floor"}, {"actionCode": "H32600", "actionDate": "2022-09-29", "actionTime": "12:21:55", "sourceSystem": {"code": 2, "name": "House floor actions"}, "text": "The House rose from the Committee of the Whole House on the state of the Union to report H.R. 7780.", "type": "Floor"}, {"actionCode": "H8D000", "actionDate": "2022-09-29", "actionTime": "12:14:08", "sourceSystem": {"code": 2, "name": "House floor actions"}, "text": "DEBATE - Pursuant to the provisions of H.Res. 1396, the Committee of the Whole proceeded with 10 minutes of debate on the DeSaulnier amendment No. 2.", "type": "Floor"}, {"actionCode": "H8D000", "actionDate": "2022-09-29", "actionTime": "12:06:42", "sourceSystem": {"code": 2, "name": "House floor actions"}, "text": "DEBATE - Pursuant to the provisions of H.Res. 1396, the Committee of the Whole proceeded with 10 minutes of debate on the Trone amendment No. 1.", "type": "Floor"}, {"actionCode": "H8D000", "actionDate": "2022-09-29", "actionTime": "11:21:25", "sourceSystem": {"code": 2, "name": "House floor actions"}, "text": "GENERAL DEBATE - The Committee of the Whole proceeded with one hour of general debate on H.R. 7780.", "type": "Floor"}, {"actionCode": "H32400", "actionDate": "2022-09-29", "actionTime": "11:19:16", "sourceSystem": {"code": 2, "name": "House floor actions"}, "text": "The Speaker designated the Honorable Bobby L. Rush to act as Chairman of the Committee.", "type": "Floor"}, {"actionCode": "H32020", "actionDate": "2022-09-29", "actionTime": "11:19:14", "sourceSystem": {"code": 2, "name": "House floor actions"}, "text": "House resolved itself into the Committee of the Whole House on the state of the Union pursuant to H. Res. 1396 and Rule XVIII.", "type": "Floor"}, {"actionCode": "H8D000", "actionDate": "2022-09-29", "actionTime": "11:17:39", "sourceSystem": {"code": 2, "name": "House floor actions"}, "text": "Rule provides for consideration of H.R. 3843, H.R. 7780 and S. 3969. Resolution provides for one hour of general debate on each bill and one motion to recommit on H.R. 7780 and H.R. 3843 and a motion to commit S. 3969.", "type": "Floor"}, {"actionCode": "H30000", "actionDate": "2022-09-29", "actionTime": "11:17:34", "sourceSystem": {"code": 2, "name": "House floor actions"}, "text": "Considered under the provisions of rule H. Res. 1396.", "type": "Floor"}, {"actionCode": "H1L210", "actionDate": "2022-09-28", "actionTime": "12:02:01", "sourceSystem": {"code": 2, "name": "House floor actions"}, "text": "Rules Committee Resolution H. Res. 1396 Reported to House. Rule provides for consideration of H.R. 3843, H.R. 7780 and S. 3969. Resolution provides for one hour of general debate on each bill and one motion to recommit on H.R. 7780 and H.R. 3843 and a motion to commit S. 3969.", "type": "Floor"}], "pagination": {"count": 28, "next": "https://api.congress.gov/v3/bill/117/hr/7780/actions?offset=20&limit=20&format=json"}, "request": {"billNumber": "7780", "billType": "hr", "billUrl": "https://api.congress.gov/v3/bill/117/hr/7780?format=json", "congress": "117", "contentType": "application/json", "format": "json"}}, 200]