[{"actions": [{"actionCode": "E40000", "actionDate": "2022-10-10", "sourceSystem": {"code": 9, "name": "Library of Congress"}, "text": "Became Public Law No: 117-191.", "type": "President"}, {"actionCode": "36000", "actionDate": "2022-10-10", "sourceSystem": {"code": 9, "name": "Library of Congress"}, "text": "Became Public Law No: 117-191.", "type": "BecameLaw"}, {"actionCode": "E30000", "actionDate": "2022-10-10", "sourceSystem": {"code": 9, "name": "Library of Congress"}, "text": "Signed by President.", "type": "President"}, {"actionCode": "36000", "actionDate": "2022-10-10", "sourceSystem": {"code": 9, "name": "Library of Congress"}, "text": "Signed by President.", "type": "BecameLaw"}, {"actionCode": "E20000", "actionDate": "2022-10-04", "sourceSystem": {"code": 2, "name": "House floor actions"}, "text": "Presented to President.", "type": "Floor"}, {"actionCode": "28000", "actionDate": "2022-10-04", "sourceSystem": {"code": 9, "name": "Library of Congress"}, "text": "Presented to President.", "type": "President"}, {"actionDate": "2022-09-27", "sourceSystem": {"name": "Senate"}, "text": "Message on Senate action sent to the House.", "type": "Floor"}, {"actionDate": "2022-09-22", "sourceSystem": {"name": "Senate"}, "text": "Passed Senate without amendment by Voice Vote. (consideration: CR S5031)", "type": "Floor"}, {"actionCode": "17000", "actionDate": "2022-09-22", "sourceSystem": {"code": 9, "name": "Library of Congress"}, "text": "Passed/agreed to in Senate: Passed Senate without amendment by Voice Vote.(consideration: CR S5031)", "type": "Floor"}, {"actionDate": "2022-09-15", "sourceSystem": {"name": "Senate"}, "text": "Received in the Senate, read twice.", "type": "IntroReferral"}, {"actionCode": "H37300", "actionDate": "2022-09-14", "actionTime": "15:18:18", "sourceSystem": {"code": 2, "name": "House floor actions"}, "text": "Pursuant to section 11 of H. Res. 1339, and the motion offered by Mr. Hoyer, the following bills passed under suspension of the rules: H.R. 1468, as amended; H.R. 5865; H.R. 5916, as amended; H.R. 7735, as amended; H.R. 7846; H.R. 7939, as amended; H.R. 8260, as amended; and S. 4205. (consideration: CR H7814-7822; text: CR H7819)", "type": "Floor"}, {"actionCode": "8000", "actionDate": "2022-09-14", "actionTime": "15:18:18", "sourceSystem": {"code": 9, "name": "Library of Congress"}, "text": "Passed/agreed to in House: Pursuant to section 11 of H. Res. 1339, and the motion offered by Mr. Hoyer, the following bills passed under suspension of the rules: H.R. 1468, as amended; H.R. 5865; H.R. 5916, as amended; H.R. 7735, as amended; H.R. 7846; H.R. 7939, as amended; H.R. 8260, as amended; and S. 4205.", "type": "Floor"}, {"actionCode": "H1B000", "actionDate": "2022-09-14", "actionTime": "15:18:17", "sourceSystem": {"code": 2, "name": "House floor actions"}, "text": "Pursuant to the provisions of H. Res. 1339, proceedings on H.R. 7846 are considered vacated.", "type": "Floor"}, {"actionCode": "H37220", "actionDate": "2022-09-13", "actionTime": "16:11:31", "sourceSystem": {"code": 2, "name": "House floor actions"}, "text": "At the conclusion of debate, the Yeas and Nays were demanded and ordered. Pursuant to the provisions of clause 8, rule XX, the Chair announced that further proceedings on the motion would be postponed.", "type": "Floor"}, {"actionCode": "H8D000", "actionDate": "2022-09-13", "actionTime": "16:01:28", "sourceSystem": {"code": 2, "name": "House floor actions"}, "text": "DEBATE - The House proceeded with forty minutes of debate on H.R. 7846.", "type": "Floor"}, {"actionCode": "H30000", "actionDate": "2022-09-13", "actionTime": "16:01:13", "sourceSystem": {"code": 2, "name": "House floor actions"}, "text": "Considered under suspension of the rules. (consideration: CR H7767-7768; text: CR H7767)", "type": "Floor"}, {"actionCode": "H30300", "actionDate": "2022-09-13", "actionTime": "16:00:38", "sourceSystem": {"code": 2, "name": "House floor actions"}, "text": "Mr. Takano moved to suspend the rules and pass the bill.", "type": "Floor"}, {"actionCode": "H19000", "actionDate": "2022-07-19", "committees": [{"name": "Veterans' Affairs Committee", "systemCode": "hsvr00", "url": "https://api.congress.gov/v3/committee/house/hsvr00?format=json"}], "sourceSystem": {"code": 1, "name": "House committee actions"}, "text": "Ordered to be Reported by Voice Vote.", "type": "Committee"}, {"actionCode": "H15000-B", "actionDate": "2022-07-19", "committees": [{"name": "Veterans' Affairs Committee", "systemCode": "hsvr00", "url": "https://api.congress.gov/v3/committee/house/hsvr00?format=json"}], "sourceSystem": {"code": 1, "name": "House committee actions"}, "text": "Committee Consideration and Mark-up Session Held.", "type": "Committee"}, {"actionCode": "H25000", "actionDate": "2022-07-18", "committees": [{"name": "Veterans' Affairs Committee", "systemCode": "hsvr00", "url": "https://api.congress.gov/v3/committee/house/hsvr00?format=json"}], "sourceSystem": {"code": 1, "name": "House committee actions"}, "text": "Subcommittee on Disability Assistance and Memorial Affairs Discharged.", "type": "Committee"}], "pagination": {"count": 24, "next": "https://api.congress.gov/v3/bill/117/hr/7846/actions?offset=20&limit=20&format=json"}, "request": {"billNumber": "7846", "billType": "hr", "billUrl": "https://api.congress.gov/v3/bill/117/hr/7846?format=json", "congress": "117", "contentType": "application/json", "format": "json"}}, 200]