[{"actions": [{"actionCode": "E40000", "actionDate": "2022-12-20", "sourceSystem": {"code": 9, "name": "Library of Congress"}, "text": "Became Public Law No: 117-237.", "type": "President"}, {"actionCode": "36000", "actionDate": "2022-12-20", "sourceSystem": {"code": 9, "name": "Library of Congress"}, "text": "Became Public Law No: 117-237.", "type": "BecameLaw"}, {"actionCode": "E30000", "actionDate": "2022-12-20", "sourceSystem": {"code": 9, "name": "Library of Congress"}, "text": "Signed by President.", "type": "President"}, {"actionCode": "36000", "actionDate": "2022-12-20", "sourceSystem": {"code": 9, "name": "Library of Congress"}, "text": "Signed by President.", "type": "BecameLaw"}, {"actionCode": "E20000", "actionDate": "2022-12-16", "sourceSystem": {"code": 2, "name": "House floor actions"}, "text": "Presented to President.", "type": "Floor"}, {"actionCode": "28000", "actionDate": "2022-12-16", "sourceSystem": {"code": 9, "name": "Library of Congress"}, "text": "Presented to President.", "type": "President"}, {"actionDate": "2022-12-07", "sourceSystem": {"name": "Senate"}, "text": "Message on Senate action sent to the House.", "type": "Floor"}, {"actionDate": "2022-12-06", "sourceSystem": {"name": "Senate"}, "text": "Passed Senate without amendment by Unanimous Consent. (consideration: CR S7008)", "type": "Floor"}, {"actionCode": "17000", "actionDate": "2022-12-06", "sourceSystem": {"code": 9, "name": "Library of Congress"}, "text": "Passed/agreed to in Senate: Passed Senate without amendment by Unanimous Consent.", "type": "Floor"}, {"actionDate": "2022-12-06", "committees": [{"name": "Veterans' Affairs Committee", "systemCode": "ssva00", "url": "https://api.congress.gov/v3/committee/senate/ssva00?format=json"}], "sourceSystem": {"name": "Senate"}, "text": "Senate Committee on Veterans' Affairs discharged by Unanimous Consent.", "type": "Discharge"}, {"actionCode": "14500", "actionDate": "2022-12-06", "committees": [{"name": "Veterans' Affairs Committee", "systemCode": "ssva00", "url": "https://api.congress.gov/v3/committee/senate/ssva00?format=json"}], "sourceSystem": {"code": 9, "name": "Library of Congress"}, "text": "Senate Committee on Veterans' Affairs discharged by Unanimous Consent.", "type": "Committee"}, {"actionDate": "2022-11-15", "committees": [{"name": "Veterans' Affairs Committee", "systemCode": "ssva00", "url": "https://api.congress.gov/v3/committee/senate/ssva00?format=json"}], "sourceSystem": {"name": "Senate"}, "text": "Received in the Senate and Read twice and referred to the Committee on Veterans' Affairs.", "type": "IntroReferral"}, {"actionCode": "H38800", "actionDate": "2022-11-14", "actionTime": "15:03:08", "sourceSystem": {"code": 2, "name": "House floor actions"}, "text": "The title of the measure was amended. Agreed to without objection.", "type": "Floor"}, {"actionCode": "H38310", "actionDate": "2022-11-14", "actionTime": "15:03:05", "sourceSystem": {"code": 2, "name": "House floor actions"}, "text": "Motion to reconsider laid on the table Agreed to without objection.", "type": "Floor"}, {"actionCode": "H37300", "actionDate": "2022-11-14", "actionTime": "15:03:03", "sourceSystem": {"code": 2, "name": "House floor actions"}, "text": "On motion to suspend the rules and pass the bill, as amended Agreed to by voice vote. (text: CR H8452)", "type": "Floor"}, {"actionCode": "8000", "actionDate": "2022-11-14", "actionTime": "15:03:03", "sourceSystem": {"code": 9, "name": "Library of Congress"}, "text": "Passed/agreed to in House: On motion to suspend the rules and pass the bill, as amended Agreed to by voice vote.", "type": "Floor"}, {"actionCode": "H8D000", "actionDate": "2022-11-14", "actionTime": "14:47:42", "sourceSystem": {"code": 2, "name": "House floor actions"}, "text": "DEBATE - The House proceeded with forty minutes of debate on H.R. 7903.", "type": "Floor"}, {"actionCode": "H30000", "actionDate": "2022-11-14", "actionTime": "14:47:39", "sourceSystem": {"code": 2, "name": "House floor actions"}, "text": "Considered under suspension of the rules. (consideration: CR H8452-8455)", "type": "Floor"}, {"actionCode": "H30300", "actionDate": "2022-11-14", "actionTime": "14:47:26", "sourceSystem": {"code": 2, "name": "House floor actions"}, "text": "Mr. Takano moved to suspend the rules and pass the bill, as amended.", "type": "Floor"}, {"actionCode": "H11000", "actionDate": "2022-06-13", "committees": [{"name": "Economic Opportunity Subcommittee", "systemCode": "hsvr10", "url": "https://api.congress.gov/v3/committee/house/hsvr10?format=json"}], "sourceSystem": {"code": 1, "name": "House committee actions"}, "text": "Referred to the Subcommittee on Economic Opportunity.", "type": "Committee"}], "pagination": {"count": 23, "next": "https://api.congress.gov/v3/bill/117/hr/7903/actions?offset=20&limit=20&format=json"}, "request": {"billNumber": "7903", "billType": "hr", "billUrl": "https://api.congress.gov/v3/bill/117/hr/7903?format=json", "congress": "117", "contentType": "application/json", "format": "json"}}, 200]