[{"actions": [{"actionDate": "2022-10-11", "sourceSystem": {"name": "Senate"}, "text": "Measure laid before Senate by unanimous consent. (consideration: CR S6063-6466)", "type": "Floor"}, {"actionDate": "2022-08-03", "calendarNumber": {"calendar": "Senate Calendar of Business", "number": "0467"}, "sourceSystem": {"name": "Senate"}, "text": "Read twice. Placed on Senate Legislative Calendar under General Orders. Calendar No. 467.", "type": "Calendars"}, {"actionDate": "2022-07-28", "sourceSystem": {"name": "Senate"}, "text": "Received in the Senate.", "type": "IntroReferral"}, {"actionCode": "H38900", "actionDate": "2022-07-14", "actionTime": "19:01:16", "sourceSystem": {"code": 2, "name": "House floor actions"}, "text": "The Clerk was authorized to correct section numbers, punctuation, and cross references, and to make other necessary technical and conforming corrections in the engrossment of H.R. 7900.", "type": "Floor"}, {"actionCode": "H38800", "actionDate": "2022-07-14", "actionTime": "17:57:36", "sourceSystem": {"code": 2, "name": "House floor actions"}, "text": "The title of the measure was amended. Agreed to without objection.", "type": "Floor"}, {"actionCode": "H38310", "actionDate": "2022-07-14", "actionTime": "17:57:32", "sourceSystem": {"code": 2, "name": "House floor actions"}, "text": "Motion to reconsider laid on the table Agreed to without objection.", "type": "Floor"}, {"actionCode": "H37100", "actionDate": "2022-07-14", "actionTime": "17:57:29", "recordedVotes": [{"chamber": "House", "congress": 117, "date": "2022-07-14T21:57:29Z", "rollNumber": 350, "sessionNumber": 2, "url": "https://clerk.house.gov/evs/2022/roll350.xml"}], "sourceSystem": {"code": 2, "name": "House floor actions"}, "text": "On passage Passed by the Yeas and Nays: 329 - 101 (Roll no. 350).", "type": "Floor"}, {"actionCode": "8000", "actionDate": "2022-07-14", "actionTime": "17:57:29", "recordedVotes": [{"chamber": "House", "congress": 117, "date": "2022-07-14T21:57:29Z", "rollNumber": 350, "sessionNumber": 2, "url": "https://clerk.house.gov/evs/2022/roll350.xml"}], "sourceSystem": {"code": 9, "name": "Library of Congress"}, "text": "Passed/agreed to in House: On passage Passed by the Yeas and Nays: 329 - 101 (Roll no. 350).", "type": "Floor"}, {"actionCode": "H35000", "actionDate": "2022-07-14", "actionTime": "17:47:09", "sourceSystem": {"code": 2, "name": "House floor actions"}, "text": "The previous question was ordered pursuant to the rule.", "type": "Floor"}, {"actionCode": "H30000", "actionDate": "2022-07-14", "actionTime": "16:32:34", "sourceSystem": {"code": 2, "name": "House floor actions"}, "text": "Considered as unfinished business. (consideration: CR H6600-6605)", "type": "Floor"}, {"actionCode": "H8D000", "actionDate": "2022-07-14", "actionTime": "16:30:02", "sourceSystem": {"code": 2, "name": "House floor actions"}, "text": "Pursuant to clause 1(c) of Rule XIX, the House resumed with further consideration of H.R. 7900.", "type": "Floor"}, {"actionCode": "H8D000", "actionDate": "2022-07-14", "actionTime": "15:12:54", "sourceSystem": {"code": 2, "name": "House floor actions"}, "text": "POSTPONED PROCEEDINGS - Pursuant to clause 1(c) of Rule XIX, further consideration of H.R. 7900 was postponed until a time to be announced.", "type": "Floor"}, {"actionCode": "H8D000", "actionDate": "2022-07-14", "actionTime": "12:03:32", "sourceSystem": {"code": 2, "name": "House floor actions"}, "text": "VACATING THE YEAS AND NAYS ON AMENDMENT NO. 451 - Mr. Malinowski asked unanimous consent that the ordering of the yeas and nays on amendment numbered 451 printed in Part A of House Report 117-405 be vitiated to the end that the amendment be withdrawn. Agreed to without objection.", "type": "Floor"}, {"actionCode": "H8D000", "actionDate": "2022-07-14", "actionTime": "11:53:49", "sourceSystem": {"code": 2, "name": "House floor actions"}, "text": "DEBATE - Pursuant to the provisions of H. Res. 1224, the House proceeded with 10 minutes of debate on the Wild amendment No. 650.", "type": "Floor"}, {"actionCode": "H8D000", "actionDate": "2022-07-14", "actionTime": "11:46:04", "sourceSystem": {"code": 2, "name": "House floor actions"}, "text": "DEBATE - Pursuant to the provisions of H. Res. 1224, the House proceeded with 10 minutes of debate on the Takano amendment No. 637.", "type": "Floor"}, {"actionCode": "H8D000", "actionDate": "2022-07-14", "actionTime": "11:44:40", "sourceSystem": {"code": 2, "name": "House floor actions"}, "text": "POSTPONED PROCEEDINGS - At the conclusion of debate on the Meng amendment No. 587, the Chair put the question on agreeing to the amendment and by voice vote, announced that the ayes had prevailed. Mr. Bost demanded the yeas and nays and the Chair postponed further proceedings until a time to be announced.", "type": "Floor"}, {"actionCode": "H8D000", "actionDate": "2022-07-14", "actionTime": "11:40:32", "sourceSystem": {"code": 2, "name": "House floor actions"}, "text": "DEBATE - Pursuant to the provisions of H. Res. 1224, the House proceeded with 10 minutes of debate on the Meng amendment No. 587.", "type": "Floor"}, {"actionCode": "H8D000", "actionDate": "2022-07-14", "actionTime": "11:34:47", "sourceSystem": {"code": 2, "name": "House floor actions"}, "text": "DEBATE - Pursuant to the provisions of H. Res. 1224, the House proceeded with 30 minutes of debate on the Smith (WA) en bloc No. 5.", "type": "Floor"}, {"actionCode": "H30000", "actionDate": "2022-07-14", "actionTime": "11:34:06", "sourceSystem": {"code": 2, "name": "House floor actions"}, "text": "Considered as unfinished business. (consideration: CR H6514-6600)", "type": "Floor"}, {"actionCode": "H8D000", "actionDate": "2022-07-14", "actionTime": "11:34:00", "sourceSystem": {"code": 2, "name": "House floor actions"}, "text": "Pursuant to clause 1(c) of Rule XIX, the House resumed consideration on H.R. 7900.", "type": "Floor"}], "pagination": {"count": 146, "next": "https://api.congress.gov/v3/bill/117/hr/7900/actions?offset=20&limit=20&format=json"}, "request": {"billNumber": "7900", "billType": "hr", "billUrl": "https://api.congress.gov/v3/bill/117/hr/7900?format=json", "congress": "117", "contentType": "application/json", "format": "json"}}, 200]