[{"actions": [{"actionDate": "2022-06-09", "sourceSystem": {"name": "Senate"}, "text": "Received in the Senate.", "type": "IntroReferral"}, {"actionCode": "H38310", "actionDate": "2022-06-08", "actionTime": "19:24:05", "sourceSystem": {"code": 2, "name": "House floor actions"}, "text": "Motion to reconsider laid on the table Agreed to without objection.", "type": "Floor"}, {"actionCode": "H37100", "actionDate": "2022-06-08", "actionTime": "19:24:04", "recordedVotes": [{"chamber": "House", "congress": 117, "date": "2022-06-08T23:24:04Z", "rollNumber": 245, "sessionNumber": 2, "url": "https://clerk.house.gov/evs/2022/roll245.xml"}], "sourceSystem": {"code": 2, "name": "House floor actions"}, "text": "On passage Passed by the Yeas and Nays: 223 - 204 (Roll no. 245). (text of amendment in the nature of a substitute: CR H5364-5367)", "type": "Floor"}, {"actionCode": "8000", "actionDate": "2022-06-08", "actionTime": "19:24:04", "recordedVotes": [{"chamber": "House", "congress": 117, "date": "2022-06-08T23:24:04Z", "rollNumber": 245, "sessionNumber": 2, "url": "https://clerk.house.gov/evs/2022/roll245.xml"}], "sourceSystem": {"code": 9, "name": "Library of Congress"}, "text": "Passed/agreed to in House: On passage Passed by the Yeas and Nays: 223 - 204 (Roll no. 245).", "type": "Floor"}, {"actionCode": "H36210", "actionDate": "2022-06-08", "actionTime": "19:14:12", "committees": [{"name": "Judiciary Committee", "systemCode": "hsju00", "url": "https://api.congress.gov/v3/committee/house/hsju00?format=json"}], "recordedVotes": [{"chamber": "House", "congress": 117, "date": "2022-06-08T23:14:12Z", "rollNumber": 244, "sessionNumber": 2, "url": "https://clerk.house.gov/evs/2022/roll244.xml"}], "sourceSystem": {"code": 2, "name": "House floor actions"}, "text": "On motion to recommit Failed by the Yeas and Nays: 198 - 228 (Roll no. 244).", "type": "Floor"}, {"actionCode": "H8A000", "actionDate": "2022-06-08", "actionTime": "19:05:20", "sourceSystem": {"code": 2, "name": "House floor actions"}, "text": "The previous question on the motion to recommit was ordered pursuant to clause 2(b) of rule XIX.", "type": "Floor"}, {"actionCode": "H36200", "actionDate": "2022-06-08", "actionTime": "19:05:15", "committees": [{"name": "Judiciary Committee", "systemCode": "hsju00", "url": "https://api.congress.gov/v3/committee/house/hsju00?format=json"}], "sourceSystem": {"code": 2, "name": "House floor actions"}, "text": "Mr. Hudson moved to recommit to the Committee on the Judiciary. (text: CR H5393-5395)", "type": "Floor"}, {"actionCode": "H36610", "actionDate": "2022-06-08", "actionTime": "19:05:09", "recordedVotes": [{"chamber": "House", "congress": 117, "date": "2022-06-08T23:05:09Z", "rollNumber": 243, "sessionNumber": 2, "url": "https://clerk.house.gov/evs/2022/roll243.xml"}], "sourceSystem": {"code": 2, "name": "House floor actions"}, "text": "On Retaining Title VII Agreed to by the Yeas and Nays: 380 - 47 (Roll no. 243). (consideration: CR H5392-5393)", "type": "Floor"}, {"actionCode": "H36610", "actionDate": "2022-06-08", "actionTime": "18:55:39", "recordedVotes": [{"chamber": "House", "congress": 117, "date": "2022-06-08T22:55:39Z", "rollNumber": 242, "sessionNumber": 2, "url": "https://clerk.house.gov/evs/2022/roll242.xml"}], "sourceSystem": {"code": 2, "name": "House floor actions"}, "text": "On Retaining Title VI Agreed to by the Yeas and Nays: 220 - 207 (Roll no. 242). (consideration: CR H5392)", "type": "Floor"}, {"actionCode": "H36610", "actionDate": "2022-06-08", "actionTime": "18:47:49", "recordedVotes": [{"chamber": "House", "congress": 117, "date": "2022-06-08T22:47:49Z", "rollNumber": 241, "sessionNumber": 2, "url": "https://clerk.house.gov/evs/2022/roll241.xml"}], "sourceSystem": {"code": 2, "name": "House floor actions"}, "text": "On Retaining Title V Agreed to by the Yeas and Nays: 233 - 194 (Roll no. 241). (consideration: CR H5391)", "type": "Floor"}, {"actionCode": "H36610", "actionDate": "2022-06-08", "actionTime": "18:37:14", "recordedVotes": [{"chamber": "House", "congress": 117, "date": "2022-06-08T22:37:14Z", "rollNumber": 240, "sessionNumber": 2, "url": "https://clerk.house.gov/evs/2022/roll240.xml"}], "sourceSystem": {"code": 2, "name": "House floor actions"}, "text": "On Retaining Title IV Agreed to by the Yeas and Nays: 220 - 205 (Roll no. 240). (consideration: CR H5390-5391)", "type": "Floor"}, {"actionCode": "H36610", "actionDate": "2022-06-08", "actionTime": "18:30:55", "recordedVotes": [{"chamber": "House", "congress": 117, "date": "2022-06-08T22:30:55Z", "rollNumber": 239, "sessionNumber": 2, "url": "https://clerk.house.gov/evs/2022/roll239.xml"}], "sourceSystem": {"code": 2, "name": "House floor actions"}, "text": "On Retaining Title III Agreed to by the Yeas and Nays: 226 - 194 (Roll no. 239). (consideration: CR H5389-5390)", "type": "Floor"}, {"actionCode": "H36610", "actionDate": "2022-06-08", "actionTime": "18:22:08", "recordedVotes": [{"chamber": "House", "congress": 117, "date": "2022-06-08T22:22:08Z", "rollNumber": 238, "sessionNumber": 2, "url": "https://clerk.house.gov/evs/2022/roll238.xml"}], "sourceSystem": {"code": 2, "name": "House floor actions"}, "text": "On Retaining Title II Agreed to by the Yeas and Nays: 226 - 197 (Roll no. 238). (consideration: CR H5389)", "type": "Floor"}, {"actionCode": "H36610", "actionDate": "2022-06-08", "actionTime": "18:08:25", "recordedVotes": [{"chamber": "House", "congress": 117, "date": "2022-06-08T22:08:25Z", "rollNumber": 237, "sessionNumber": 2, "url": "https://clerk.house.gov/evs/2022/roll237.xml"}], "sourceSystem": {"code": 2, "name": "House floor actions"}, "text": "On Retaining Title I Agreed to by the Yeas and Nays: 228 - 199 (Roll no. 237). (consideration: CR H5388-5389)", "type": "Floor"}, {"actionCode": "H8D000", "actionDate": "2022-06-08", "actionTime": "17:27:35", "sourceSystem": {"code": 2, "name": "House floor actions"}, "text": "Pursuant to section 3(a) of H.Res. 1153, the Chair will put the question on retaining each title of the bill, as amended.", "type": "Floor"}, {"actionCode": "H35000", "actionDate": "2022-06-08", "actionTime": "17:27:34", "sourceSystem": {"code": 2, "name": "House floor actions"}, "text": "The previous question was ordered pursuant to the rule.", "type": "Floor"}, {"actionCode": "H8D000", "actionDate": "2022-06-08", "actionTime": "14:36:43", "sourceSystem": {"code": 2, "name": "House floor actions"}, "text": "DEBATE - The House proceeded with two hours of debate on H.R. 7910.", "type": "Floor"}, {"actionCode": "H8D000", "actionDate": "2022-06-08", "actionTime": "14:36:07", "sourceSystem": {"code": 2, "name": "House floor actions"}, "text": "Rule provides for consideration of H.R. 2377 and H.R. 7910. Provides for one hour of debate on H.R. 2377 and two hours of debate on H.R. 7910. Also provides for a motion to recommit on each measure.", "type": "Floor"}, {"actionCode": "H30000", "actionDate": "2022-06-08", "actionTime": "14:36:02", "sourceSystem": {"code": 2, "name": "House floor actions"}, "text": "Considered under the provisions of rule H. Res. 1153. (consideration: CR H5363-5396)", "type": "Floor"}, {"actionCode": "H1L220", "actionDate": "2022-06-08", "actionTime": "14:34:54", "sourceSystem": {"code": 2, "name": "House floor actions"}, "text": "Rule H. Res. 1153 passed House.", "type": "Floor"}], "pagination": {"count": 32, "next": "https://api.congress.gov/v3/bill/117/hr/7910/actions?offset=20&limit=20&format=json"}, "request": {"billNumber": "7910", "billType": "hr", "billUrl": "https://api.congress.gov/v3/bill/117/hr/7910?format=json", "congress": "117", "contentType": "application/json", "format": "json"}}, 200]