[{"actions": [{"actionCode": "E40000", "actionDate": "2023-01-05", "sourceSystem": {"code": 9, "name": "Library of Congress"}, "text": "Became Public Law No: 117-333.", "type": "President"}, {"actionCode": "36000", "actionDate": "2023-01-05", "sourceSystem": {"code": 9, "name": "Library of Congress"}, "text": "Became Public Law No: 117-333.", "type": "BecameLaw"}, {"actionCode": "E30000", "actionDate": "2023-01-05", "sourceSystem": {"code": 9, "name": "Library of Congress"}, "text": "Signed by President.", "type": "President"}, {"actionCode": "36000", "actionDate": "2023-01-05", "sourceSystem": {"code": 9, "name": "Library of Congress"}, "text": "Signed by President.", "type": "BecameLaw"}, {"actionCode": "E20000", "actionDate": "2022-12-28", "sourceSystem": {"code": 2, "name": "House floor actions"}, "text": "Presented to President.", "type": "Floor"}, {"actionCode": "28000", "actionDate": "2022-12-28", "sourceSystem": {"code": 9, "name": "Library of Congress"}, "text": "Presented to President.", "type": "President"}, {"actionCode": "H41931", "actionDate": "2022-12-22", "actionTime": "16:09:02", "sourceSystem": {"code": 2, "name": "House floor actions"}, "text": "Motion to reconsider laid on the table Agreed to without objection.", "type": "ResolvingDifferences"}, {"actionCode": "H41610", "actionDate": "2022-12-22", "actionTime": "16:09:00", "recordedVotes": [{"chamber": "House", "congress": 117, "date": "2022-12-22T21:09:00Z", "rollNumber": 546, "sessionNumber": 2, "url": "https://clerk.house.gov/evs/2022/roll546.xml"}], "sourceSystem": {"code": 2, "name": "House floor actions"}, "text": "On motion that the House suspend the rules and agree to the Senate amendment Agreed to by the Yeas and Nays: (2/3 required): 380 - 35 (Roll no. 546). (consideration: CR  H10037-10038; text: 12/21/2022 CR H9961-9966)", "type": "ResolvingDifferences"}, {"actionCode": "19500", "actionDate": "2022-12-22", "recordedVotes": [{"chamber": "House", "congress": 117, "date": "2022-12-22T21:09:00Z", "rollNumber": 546, "sessionNumber": 2, "url": "https://clerk.house.gov/evs/2022/roll546.xml"}], "sourceSystem": {"code": 9, "name": "Library of Congress"}, "text": "Resolving differences -- House actions: On motion that the House suspend the rules and agree to the Senate amendment Agreed to by the Yeas and Nays: (2/3 required): 380 - 35 (Roll no. 546).(consideration: CR  H10037-10038; text: 12/21/2022 CR H9961-9966)", "type": "NotUsed"}, {"actionCode": "H40142", "actionDate": "2022-12-21", "actionTime": "17:02:19", "sourceSystem": {"code": 2, "name": "House floor actions"}, "text": "At the conclusion of debate, the Yeas and Nays were demanded and ordered. Pursuant to the provisions of clause 8, rule XX, the chair announced that further proceedings on the motion would be postponed.", "type": "ResolvingDifferences"}, {"actionCode": "H8D000", "actionDate": "2022-12-21", "actionTime": "16:50:31", "sourceSystem": {"code": 2, "name": "House floor actions"}, "text": "DEBATE - The House proceeded with forty minutes of debate on the motion to suspend the rules and agree to the Senate amendment to H.R. 7939.", "type": "Floor"}, {"actionCode": "H40140", "actionDate": "2022-12-21", "actionTime": "16:50:15", "sourceSystem": {"code": 2, "name": "House floor actions"}, "text": "Mr. Takano moved that the House suspend the rules and agree to the Senate amendment. (consideration: CR H9961-9968)", "type": "ResolvingDifferences"}, {"actionDate": "2022-12-21", "sourceSystem": {"name": "Senate"}, "text": "Message on Senate action sent to the House.", "type": "Floor"}, {"actionDate": "2022-12-20", "sourceSystem": {"name": "Senate"}, "text": "Passed Senate with an amendment by Unanimous Consent. (text of amendment in the nature of a substitute: CR S9643-9649)", "type": "Floor"}, {"actionCode": "17000", "actionDate": "2022-12-20", "sourceSystem": {"code": 9, "name": "Library of Congress"}, "text": "Passed/agreed to in Senate: Passed Senate with an amendment by Unanimous Consent.(text of amendment in the nature of a substitute: CR S9643-9649)", "type": "Floor"}, {"actionDate": "2022-12-20", "sourceSystem": {"name": "Senate"}, "text": "Measure laid before Senate by unanimous consent. (consideration: CR S9609-9610)", "type": "Floor"}, {"actionDate": "2022-09-15", "sourceSystem": {"name": "Senate"}, "text": "Received in the Senate, read twice.", "type": "IntroReferral"}, {"actionCode": "H37300", "actionDate": "2022-09-14", "actionTime": "15:18:20", "sourceSystem": {"code": 2, "name": "House floor actions"}, "text": "Pursuant to section 11 of H. Res. 1339, and the motion offered by Mr. Hoyer, the following bills passed under suspension of the rules: H.R. 1468, as amended; H.R. 5865; H.R. 5916, as amended; H.R. 7735, as amended; H.R. 7846; H.R. 7939, as amended; H.R. 8260, as amended; and S. 4205. (consideration: CR H7814-7822; text: CR H7814-7819)", "type": "Floor"}, {"actionCode": "8000", "actionDate": "2022-09-14", "actionTime": "15:18:20", "sourceSystem": {"code": 9, "name": "Library of Congress"}, "text": "Passed/agreed to in House: Pursuant to section 11 of H. Res. 1339, and the motion offered by Mr. Hoyer, the following bills passed under suspension of the rules: H.R. 1468, as amended; H.R. 5865; H.R. 5916, as amended; H.R. 7735, as amended; H.R. 7846; H.R. 7939, as amended; H.R. 8260, as amended; and S. 4205.(consideration: CR H7814-7822; text: CR H7814-7819)", "type": "Floor"}, {"actionCode": "H1B000", "actionDate": "2022-09-14", "actionTime": "15:18:19", "sourceSystem": {"code": 2, "name": "House floor actions"}, "text": "Pursuant to the provisions of H. Res. 1339, proceedings on H.R. 7939 are considered vacated.", "type": "Floor"}], "pagination": {"count": 33, "next": "https://api.congress.gov/v3/bill/117/hr/7939/actions?offset=20&limit=20&format=json"}, "request": {"billNumber": "7939", "billType": "hr", "billUrl": "https://api.congress.gov/v3/bill/117/hr/7939?format=json", "congress": "117", "contentType": "application/json", "format": "json"}}, 200]