[{"actions": [{"actionDate": "2022-12-07", "committees": [{"name": "Judiciary Committee", "systemCode": "ssju00", "url": "https://api.congress.gov/v3/committee/senate/ssju00?format=json"}], "sourceSystem": {"name": "Senate"}, "text": "Received in the Senate and Read twice and referred to the Committee on the Judiciary.", "type": "IntroReferral"}, {"actionCode": "H38310", "actionDate": "2022-12-06", "actionTime": "15:12:05", "sourceSystem": {"code": 2, "name": "House floor actions"}, "text": "Motion to reconsider laid on the table Agreed to without objection.", "type": "Floor"}, {"actionCode": "H37100", "actionDate": "2022-12-06", "actionTime": "15:12:03", "recordedVotes": [{"chamber": "House", "congress": 117, "date": "2022-12-06T20:12:03Z", "rollNumber": 503, "sessionNumber": 2, "url": "https://clerk.house.gov/evs/2022/roll503.xml"}], "sourceSystem": {"code": 2, "name": "House floor actions"}, "text": "On passage Passed by the Yeas and Nays: 220 - 208 (Roll no. 503).", "type": "Floor"}, {"actionCode": "8000", "actionDate": "2022-12-06", "actionTime": "15:12:03", "recordedVotes": [{"chamber": "House", "congress": 117, "date": "2022-12-06T20:12:03Z", "rollNumber": 503, "sessionNumber": 2, "url": "https://clerk.house.gov/evs/2022/roll503.xml"}], "sourceSystem": {"code": 9, "name": "Library of Congress"}, "text": "Passed/agreed to in House: On passage Passed by the Yeas and Nays: 220 - 208 (Roll no. 503).", "type": "Floor"}, {"actionCode": "H8D000", "actionDate": "2022-12-06", "actionTime": "13:56:06", "sourceSystem": {"code": 2, "name": "House floor actions"}, "text": "DEBATE - Pursuant to the provisions of H. Res. 1508, the House proceeded with 10 minutes of debate on the Vicente Gonzalez amendment no. 1.", "type": "Floor"}, {"actionCode": "H8D000", "actionDate": "2022-12-06", "actionTime": "13:07:01", "sourceSystem": {"code": 2, "name": "House floor actions"}, "text": "DEBATE - The House proceeded with one hour of debate on H.R. 7946.", "type": "Floor"}, {"actionCode": "H8D000", "actionDate": "2022-12-06", "actionTime": "13:05:14", "sourceSystem": {"code": 2, "name": "House floor actions"}, "text": "The resolution provides consideration of H.R. 3648, under a structured rule and H.R. 7946, under a structured rule. The resolution waives the requirement of clause 6(a) of rule XIII for a two-thirds vote to consider a report from the Committee on Rules on the same day it is presented to the House with respect to any resolution reported through the remainder of the 117th Congress.", "type": "Floor"}, {"actionCode": "H30000", "actionDate": "2022-12-06", "actionTime": "13:05:09", "sourceSystem": {"code": 2, "name": "House floor actions"}, "text": "Considered under the provisions of rule H. Res. 1508. (consideration: CR H8763-8773; text: CR H8763-8765)", "type": "Floor"}, {"actionCode": "H1L220", "actionDate": "2022-12-06", "actionTime": "10:41:18", "sourceSystem": {"code": 2, "name": "House floor actions"}, "text": "Rule H. Res. 1508 passed House.", "type": "Floor"}, {"actionCode": "H1L210", "actionDate": "2022-12-06", "actionTime": "09:05:51", "sourceSystem": {"code": 2, "name": "House floor actions"}, "text": "Rules Committee Resolution H. Res. 1508 Reported to House. The resolution provides for consideration of H.R. 3648, under a structured rule and H.R. 7946, under a structured rule. The resolution waives the requirement of clause 6(a) of rule XIII for a two-thirds vote to consider a report from the Committee on Rules on the same day it is presented to the House with respect to any resolution reported through the remainder of the 117th Congress.", "type": "Floor"}, {"actionCode": "H12410", "actionDate": "2022-11-15", "calendarNumber": {"calendar": "U00400"}, "sourceSystem": {"code": 2, "name": "House floor actions"}, "text": "Placed on the Union Calendar, Calendar No. 400.", "type": "Calendars"}, {"actionCode": "H12300", "actionDate": "2022-11-15", "committees": [{"name": "Armed Services Committee", "systemCode": "hsas00", "url": "https://api.congress.gov/v3/committee/house/hsas00?format=json"}], "sourceSystem": {"code": 2, "name": "House floor actions"}, "text": "Committee on Armed Services discharged.", "type": "Discharge"}, {"actionCode": "5500", "actionDate": "2022-11-15", "committees": [{"name": "Armed Services Committee", "systemCode": "hsas00", "url": "https://api.congress.gov/v3/committee/house/hsas00?format=json"}], "sourceSystem": {"code": 9, "name": "Library of Congress"}, "text": "Committee on Armed Services discharged.", "type": "Committee"}, {"actionCode": "H12300", "actionDate": "2022-11-15", "committees": [{"name": "Veterans' Affairs Committee", "systemCode": "hsvr00", "url": "https://api.congress.gov/v3/committee/house/hsvr00?format=json"}], "sourceSystem": {"code": 2, "name": "House floor actions"}, "text": "Committee on Veterans' Affairs discharged.", "type": "Discharge"}, {"actionCode": "5500", "actionDate": "2022-11-15", "committees": [{"name": "Veterans' Affairs Committee", "systemCode": "hsvr00", "url": "https://api.congress.gov/v3/committee/house/hsvr00?format=json"}], "sourceSystem": {"code": 9, "name": "Library of Congress"}, "text": "Committee on Veterans' Affairs discharged.", "type": "Committee"}, {"actionCode": "H12200", "actionDate": "2022-11-15", "committees": [{"name": "Judiciary Committee", "systemCode": "hsju00", "url": "https://api.congress.gov/v3/committee/house/hsju00?format=json"}], "sourceSystem": {"code": 2, "name": "House floor actions"}, "text": "Reported (Amended) by the Committee on Judiciary. H. Rept. 117-558, Part I.", "type": "Committee"}, {"actionCode": "5000", "actionDate": "2022-11-15", "committees": [{"name": "Judiciary Committee", "systemCode": "hsju00", "url": "https://api.congress.gov/v3/committee/house/hsju00?format=json"}], "sourceSystem": {"code": 9, "name": "Library of Congress"}, "text": "Reported (Amended) by the Committee on Judiciary. H. Rept. 117-558, Part I.", "type": "Committee"}, {"actionCode": "H19000", "actionDate": "2022-07-27", "committees": [{"name": "Judiciary Committee", "systemCode": "hsju00", "url": "https://api.congress.gov/v3/committee/house/hsju00?format=json"}], "sourceSystem": {"code": 1, "name": "House committee actions"}, "text": "Ordered to be Reported (Amended) by the Yeas and Nays: 23 - 16.", "type": "Committee"}, {"actionCode": "H15000-B", "actionDate": "2022-07-27", "committees": [{"name": "Judiciary Committee", "systemCode": "hsju00", "url": "https://api.congress.gov/v3/committee/house/hsju00?format=json"}], "sourceSystem": {"code": 1, "name": "House committee actions"}, "text": "Committee Consideration and Mark-up Session Held.", "type": "Committee"}, {"actionCode": "H11100", "actionDate": "2022-06-03", "committees": [{"name": "Armed Services Committee", "systemCode": "hsas00", "url": "https://api.congress.gov/v3/committee/house/hsas00?format=json"}], "sourceSystem": {"code": 2, "name": "House floor actions"}, "text": "Referred to the Committee on the Judiciary, and in addition to the Committees on Veterans' Affairs, and Armed Services, for a period to be subsequently determined by the Speaker, in each case for consideration of such provisions as fall within the jurisdiction of the committee concerned.", "type": "IntroReferral"}], "pagination": {"count": 24, "next": "https://api.congress.gov/v3/bill/117/hr/7946/actions?offset=20&limit=20&format=json"}, "request": {"billNumber": "7946", "billType": "hr", "billUrl": "https://api.congress.gov/v3/bill/117/hr/7946?format=json", "congress": "117", "contentType": "application/json", "format": "json"}}, 200]