[{"actions": [{"actionCode": "E40000", "actionDate": "2022-12-27", "sourceSystem": {"code": 9, "name": "Library of Congress"}, "text": "Became Public Law No: 117-310.", "type": "President"}, {"actionCode": "36000", "actionDate": "2022-12-27", "sourceSystem": {"code": 9, "name": "Library of Congress"}, "text": "Became Public Law No: 117-310.", "type": "BecameLaw"}, {"actionCode": "E30000", "actionDate": "2022-12-27", "sourceSystem": {"code": 9, "name": "Library of Congress"}, "text": "Signed by President.", "type": "President"}, {"actionCode": "36000", "actionDate": "2022-12-27", "sourceSystem": {"code": 9, "name": "Library of Congress"}, "text": "Signed by President.", "type": "BecameLaw"}, {"actionCode": "E20000", "actionDate": "2022-12-23", "sourceSystem": {"code": 2, "name": "House floor actions"}, "text": "Presented to President.", "type": "Floor"}, {"actionCode": "28000", "actionDate": "2022-12-23", "sourceSystem": {"code": 9, "name": "Library of Congress"}, "text": "Presented to President.", "type": "President"}, {"actionDate": "2022-12-20", "sourceSystem": {"name": "Senate"}, "text": "Message on Senate action sent to the House.", "type": "Floor"}, {"actionDate": "2022-12-19", "sourceSystem": {"name": "Senate"}, "text": "Passed Senate without amendment by Unanimous Consent. (consideration: CR S7282-7283)", "type": "Floor"}, {"actionCode": "17000", "actionDate": "2022-12-19", "sourceSystem": {"code": 9, "name": "Library of Congress"}, "text": "Passed/agreed to in Senate: Passed Senate without amendment by Unanimous Consent.", "type": "Floor"}, {"actionDate": "2022-12-13", "sourceSystem": {"name": "Senate"}, "text": "Received in the Senate, read twice.", "type": "IntroReferral"}, {"actionCode": "H38310", "actionDate": "2022-12-12", "actionTime": "15:27:09", "sourceSystem": {"code": 2, "name": "House floor actions"}, "text": "Motion to reconsider laid on the table Agreed to without objection.", "type": "Floor"}, {"actionCode": "H37300", "actionDate": "2022-12-12", "actionTime": "15:27:07", "sourceSystem": {"code": 2, "name": "House floor actions"}, "text": "On motion to suspend the rules and pass the bill Agreed to by voice vote. (text: CR H9665)", "type": "Floor"}, {"actionCode": "8000", "actionDate": "2022-12-12", "actionTime": "15:27:07", "sourceSystem": {"code": 9, "name": "Library of Congress"}, "text": "Passed/agreed to in House: On motion to suspend the rules and pass the bill Agreed to by voice vote.(text: CR H9665)", "type": "Floor"}, {"actionCode": "H8D000", "actionDate": "2022-12-12", "actionTime": "15:22:01", "sourceSystem": {"code": 2, "name": "House floor actions"}, "text": "DEBATE - The House proceeded with forty minutes of debate on H.R. 8026.", "type": "Floor"}, {"actionCode": "H30000", "actionDate": "2022-12-12", "actionTime": "15:21:58", "sourceSystem": {"code": 2, "name": "House floor actions"}, "text": "Considered under suspension of the rules. (consideration: CR H9665-9666)", "type": "Floor"}, {"actionCode": "H30300", "actionDate": "2022-12-12", "actionTime": "15:21:48", "sourceSystem": {"code": 2, "name": "House floor actions"}, "text": "Mrs. Maloney, Carolyn B. moved to suspend the rules and pass the bill.", "type": "Floor"}, {"actionCode": "H19000", "actionDate": "2022-11-17", "committees": [{"name": "Oversight and Accountability Committee", "systemCode": "hsgo00", "url": "https://api.congress.gov/v3/committee/house/hsgo00?format=json"}], "sourceSystem": {"code": 1, "name": "House committee actions"}, "text": "Ordered to be Reported by Unanimous Consent.", "type": "Committee"}, {"actionCode": "H15000-B", "actionDate": "2022-11-17", "committees": [{"name": "Oversight and Accountability Committee", "systemCode": "hsgo00", "url": "https://api.congress.gov/v3/committee/house/hsgo00?format=json"}], "sourceSystem": {"code": 1, "name": "House committee actions"}, "text": "Committee Consideration and Mark-up Session Held.", "type": "Committee"}, {"actionCode": "H19200", "actionDate": "2022-09-20", "committees": [{"name": "Oversight and Accountability Committee", "systemCode": "hsgo00", "url": "https://api.congress.gov/v3/committee/house/hsgo00?format=json"}], "sourceSystem": {"code": 1, "name": "House committee actions"}, "text": "Request to order reported by unanimous consent failed.", "type": "Committee"}, {"actionCode": "H15000-B", "actionDate": "2022-09-20", "committees": [{"name": "Oversight and Accountability Committee", "systemCode": "hsgo00", "url": "https://api.congress.gov/v3/committee/house/hsgo00?format=json"}], "sourceSystem": {"code": 1, "name": "House committee actions"}, "text": "Committee Consideration and Mark-up Session Held.", "type": "Committee"}], "pagination": {"count": 26, "next": "https://api.congress.gov/v3/bill/117/hr/8026/actions?offset=20&limit=20&format=json"}, "request": {"billNumber": "8026", "billType": "hr", "billUrl": "https://api.congress.gov/v3/bill/117/hr/8026?format=json", "congress": "117", "contentType": "application/json", "format": "json"}}, 200]