[{"actions": [{"actionDate": "2022-07-26", "committees": [{"name": "Appropriations Committee", "systemCode": "ssap00", "url": "https://api.congress.gov/v3/committee/senate/ssap00?format=json"}], "sourceSystem": {"name": "Senate"}, "text": "Received in the Senate and Read twice and referred to the Committee on Appropriations.", "type": "IntroReferral"}, {"actionCode": "H38900", "actionDate": "2022-07-20", "actionTime": "14:21:05", "sourceSystem": {"code": 2, "name": "House floor actions"}, "text": "The Clerk was authorized to correct section numbers, punctuation, and cross references, and to make other necessary technical and conforming corrections in the engrossment of H.R. 8294.", "type": "Floor"}, {"actionCode": "H38310", "actionDate": "2022-07-20", "actionTime": "14:21:04", "sourceSystem": {"code": 2, "name": "House floor actions"}, "text": "Motion to reconsider laid on the table Agreed to without objection.", "type": "Floor"}, {"actionCode": "H37100", "actionDate": "2022-07-20", "actionTime": "14:21:03", "recordedVotes": [{"chamber": "House", "congress": 117, "date": "2022-07-20T18:21:03Z", "rollNumber": 383, "sessionNumber": 2, "url": "https://clerk.house.gov/evs/2022/roll383.xml"}], "sourceSystem": {"code": 2, "name": "House floor actions"}, "text": "On passage Passed by the Yeas and Nays: 220 - 207 (Roll no. 383).", "type": "Floor"}, {"actionCode": "8000", "actionDate": "2022-07-20", "actionTime": "14:21:03", "recordedVotes": [{"chamber": "House", "congress": 117, "date": "2022-07-20T18:21:03Z", "rollNumber": 383, "sessionNumber": 2, "url": "https://clerk.house.gov/evs/2022/roll383.xml"}], "sourceSystem": {"code": 9, "name": "Library of Congress"}, "text": "Passed/agreed to in House: On passage Passed by the Yeas and Nays: 220 - 207 (Roll no. 383).", "type": "Floor"}, {"actionCode": "H36210", "actionDate": "2022-07-20", "actionTime": "14:07:48", "committees": [{"name": "Appropriations Committee", "systemCode": "hsap00", "url": "https://api.congress.gov/v3/committee/house/hsap00?format=json"}], "recordedVotes": [{"chamber": "House", "congress": 117, "date": "2022-07-20T18:07:48Z", "rollNumber": 382, "sessionNumber": 2, "url": "https://clerk.house.gov/evs/2022/roll382.xml"}], "sourceSystem": {"code": 2, "name": "House floor actions"}, "text": "On motion to recommit Failed by the Yeas and Nays: 206 - 219 (Roll no. 382).", "type": "Floor"}, {"actionCode": "H8A000", "actionDate": "2022-07-20", "actionTime": "13:57:21", "sourceSystem": {"code": 2, "name": "House floor actions"}, "text": "The previous question on the motion to recommit was ordered pursuant to clause 2(b) of rule XIX.", "type": "Floor"}, {"actionCode": "H36200", "actionDate": "2022-07-20", "actionTime": "13:57:10", "committees": [{"name": "Appropriations Committee", "systemCode": "hsap00", "url": "https://api.congress.gov/v3/committee/house/hsap00?format=json"}], "sourceSystem": {"code": 2, "name": "House floor actions"}, "text": "Mr. Valadao moved to recommit to the Committee on Appropriations. (text: CR H6900)", "type": "Floor"}, {"actionCode": "H34400", "actionDate": "2022-07-20", "actionTime": "13:55:55", "sourceSystem": {"code": 2, "name": "House floor actions"}, "text": "The House adopted the amendment as agreed to by the Committee of the Whole House on the state of the Union.", "type": "Floor"}, {"actionCode": "H35000", "actionDate": "2022-07-20", "actionTime": "13:55:42", "sourceSystem": {"code": 2, "name": "House floor actions"}, "text": "The previous question was ordered pursuant to the rule.", "type": "Floor"}, {"actionCode": "H32600", "actionDate": "2022-07-20", "actionTime": "13:54:47", "sourceSystem": {"code": 2, "name": "House floor actions"}, "text": "The House rose from the Committee of the Whole House on the state of the Union to report H.R. 8294.", "type": "Floor"}, {"actionCode": "H8D000", "actionDate": "2022-07-20", "actionTime": "12:51:56", "sourceSystem": {"code": 2, "name": "House floor actions"}, "text": "POSTPONED PROCEEDINGS - At the conclusion of debate on the DeLauro en bloc amendment No. 8, the Chair put the question on adoption of the amendment and by voice vote, announced that the ayes had prevailed. Mr. Posey demanded a recorded vote and the Chair postponed further proceedings until a time to be announced.", "type": "Floor"}, {"actionCode": "H8D000", "actionDate": "2022-07-20", "actionTime": "12:34:47", "sourceSystem": {"code": 2, "name": "House floor actions"}, "text": "DEBATE - Pursuant to the provisions of H. Res. 1232, the Committee of the Whole proceeded with 30 minutes of debate on the DeLauro en bloc No. 8.", "type": "Floor"}, {"actionCode": "H8D000", "actionDate": "2022-07-20", "actionTime": "12:33:58", "sourceSystem": {"code": 2, "name": "House floor actions"}, "text": "POSTPONED PROCEEDINGS - At the conclusion of debate on the Tlaib amendment No. 137, the Chair put the question on adoption of the amendment and by voice vote, announced that the ayes had prevailed. Mr. Diaz- Balart demanded a recorded vote and the Chair postponed further proceedings until a time to be announced.", "type": "Floor"}, {"actionCode": "H8D000", "actionDate": "2022-07-20", "actionTime": "12:17:55", "sourceSystem": {"code": 2, "name": "House floor actions"}, "text": "DEBATE - Pursuant to the provisions of H. Res. 1232, the Committee of the Whole proceeded with 10 minutes of debate on the Tlaib amendment No. 137.", "type": "Floor"}, {"actionCode": "H8D000", "actionDate": "2022-07-20", "actionTime": "12:17:04", "sourceSystem": {"code": 2, "name": "House floor actions"}, "text": "POSTPONED PROCEEDINGS - At the conclusion of debate on the DeLauro amendment en bloc No. 7, the Chair put the question on adoption of the amendment and by voice vote, announced that the ayes had prevailed. Ms. Granger demanded a recorded vote and the Chair postponed further proceedings until a time to be announced.", "type": "Floor"}, {"actionCode": "H8D000", "actionDate": "2022-07-20", "actionTime": "12:12:35", "sourceSystem": {"code": 2, "name": "House floor actions"}, "text": "DEBATE - Pursuant to the provisions of H. Res. 1232, the Committee of the Whole proceeded with 30 minutes of debate on the DeLauro en bloc No. 7.", "type": "Floor"}, {"actionCode": "H32050", "actionDate": "2022-07-20", "actionTime": "12:11:00", "sourceSystem": {"code": 2, "name": "House floor actions"}, "text": "The House resolved into Committee of the Whole House on the state of the Union for further consideration.", "type": "Floor"}, {"actionCode": "H30000", "actionDate": "2022-07-20", "actionTime": "12:10:19", "sourceSystem": {"code": 2, "name": "House floor actions"}, "text": "Considered as unfinished business. (consideration: CR H6891-6901)", "type": "Floor"}, {"actionCode": "H32700", "actionDate": "2022-07-19", "actionTime": "17:47:13", "sourceSystem": {"code": 2, "name": "House floor actions"}, "text": "Committee of the Whole House on the state of the Union rises leaving H.R. 8294 as unfinished business.", "type": "Floor"}], "pagination": {"count": 44, "next": "https://api.congress.gov/v3/bill/117/hr/8294/actions?offset=20&limit=20&format=json"}, "request": {"billNumber": "8294", "billType": "hr", "billUrl": "https://api.congress.gov/v3/bill/117/hr/8294?format=json", "congress": "117", "contentType": "application/json", "format": "json"}}, 200]