[{"actions": [{"actionCode": "E40000", "actionDate": "2022-07-21", "sourceSystem": {"code": 9, "name": "Library of Congress"}, "text": "Became Public Law No: 117-160.", "type": "President"}, {"actionCode": "36000", "actionDate": "2022-07-21", "sourceSystem": {"code": 9, "name": "Library of Congress"}, "text": "Became Public Law No: 117-160.", "type": "BecameLaw"}, {"actionCode": "E30000", "actionDate": "2022-07-21", "sourceSystem": {"code": 9, "name": "Library of Congress"}, "text": "Signed by President.", "type": "President"}, {"actionCode": "36000", "actionDate": "2022-07-21", "sourceSystem": {"code": 9, "name": "Library of Congress"}, "text": "Signed by President.", "type": "BecameLaw"}, {"actionCode": "E20000", "actionDate": "2022-07-21", "sourceSystem": {"code": 2, "name": "House floor actions"}, "text": "Presented to President.", "type": "Floor"}, {"actionCode": "28000", "actionDate": "2022-07-21", "sourceSystem": {"code": 9, "name": "Library of Congress"}, "text": "Presented to President.", "type": "President"}, {"actionDate": "2022-07-21", "sourceSystem": {"name": "Senate"}, "text": "Message on Senate action sent to the House.", "type": "Floor"}, {"actionDate": "2022-07-21", "sourceSystem": {"name": "Senate"}, "text": "Passed Senate without amendment by Voice Vote. (consideration: CR S3593-3594)", "type": "Floor"}, {"actionCode": "17000", "actionDate": "2022-07-21", "sourceSystem": {"code": 9, "name": "Library of Congress"}, "text": "Passed/agreed to in Senate: Passed Senate without amendment by Voice Vote.", "type": "Floor"}, {"actionDate": "2022-07-19", "sourceSystem": {"name": "Senate"}, "text": "Received in the Senate, read twice.", "type": "IntroReferral"}, {"actionCode": "H38310", "actionDate": "2022-07-15", "actionTime": "13:54:30", "sourceSystem": {"code": 2, "name": "House floor actions"}, "text": "Motion to reconsider laid on the table Agreed to without objection.", "type": "Floor"}, {"actionCode": "H37300", "actionDate": "2022-07-15", "actionTime": "13:54:29", "recordedVotes": [{"chamber": "House", "congress": 117, "date": "2022-07-15T17:54:29Z", "rollNumber": 363, "sessionNumber": 2, "url": "https://clerk.house.gov/evs/2022/roll363.xml"}], "sourceSystem": {"code": 2, "name": "House floor actions"}, "text": "On motion to suspend the rules and pass the bill Agreed to by the Yeas and Nays: (2/3 required): 421 - 2 (Roll no. 363). (text: CR H6629)", "type": "Floor"}, {"actionCode": "8000", "actionDate": "2022-07-15", "actionTime": "13:54:29", "recordedVotes": [{"chamber": "House", "congress": 117, "date": "2022-07-15T17:54:29Z", "rollNumber": 363, "sessionNumber": 2, "url": "https://clerk.house.gov/evs/2022/roll363.xml"}], "sourceSystem": {"code": 9, "name": "Library of Congress"}, "text": "Passed/agreed to in House: On motion to suspend the rules and pass the bill Agreed to by the Yeas and Nays: (2/3 required): 421 - 2 (Roll no. 363).", "type": "Floor"}, {"actionCode": "H30000", "actionDate": "2022-07-15", "actionTime": "13:42:52", "sourceSystem": {"code": 2, "name": "House floor actions"}, "text": "Considered as unfinished business. (consideration: CR H6663-6664)", "type": "Floor"}, {"actionCode": "H37220", "actionDate": "2022-07-15", "actionTime": "09:35:35", "sourceSystem": {"code": 2, "name": "House floor actions"}, "text": "At the conclusion of debate, the Yeas and Nays were demanded and ordered. Pursuant to the provisions of clause 8, rule XX, the Chair announced that further proceedings on the motion would be postponed.", "type": "Floor"}, {"actionCode": "H8D000", "actionDate": "2022-07-15", "actionTime": "09:17:47", "sourceSystem": {"code": 2, "name": "House floor actions"}, "text": "DEBATE - The House proceeded with forty minutes of debate on H.R. 8351.", "type": "Floor"}, {"actionCode": "H30000", "actionDate": "2022-07-15", "actionTime": "09:17:43", "sourceSystem": {"code": 2, "name": "House floor actions"}, "text": "Considered under suspension of the rules. (consideration: CR H6629-6631)", "type": "Floor"}, {"actionCode": "H30300", "actionDate": "2022-07-15", "actionTime": "09:17:30", "sourceSystem": {"code": 2, "name": "House floor actions"}, "text": "Mr. Blumenauer moved to suspend the rules and pass the bill.", "type": "Floor"}, {"actionCode": "H11100", "actionDate": "2022-07-13", "committees": [{"name": "Ways and Means Committee", "systemCode": "hswm00", "url": "https://api.congress.gov/v3/committee/house/hswm00?format=json"}], "sourceSystem": {"code": 2, "name": "House floor actions"}, "text": "Referred to the House Committee on Ways and Means.", "type": "IntroReferral"}, {"actionCode": "Intro-H", "actionDate": "2022-07-13", "sourceSystem": {"code": 9, "name": "Library of Congress"}, "text": "Introduced in House", "type": "IntroReferral"}], "pagination": {"count": 21, "next": "https://api.congress.gov/v3/bill/117/hr/8351/actions?offset=20&limit=20&format=json"}, "request": {"billNumber": "8351", "billType": "hr", "billUrl": "https://api.congress.gov/v3/bill/117/hr/8351?format=json", "congress": "117", "contentType": "application/json", "format": "json"}}, 200]