[{"actions": [{"actionDate": "2022-12-15", "sourceSystem": {"name": "Senate"}, "text": "Received in the Senate.", "type": "IntroReferral"}, {"actionCode": "H38310", "actionDate": "2022-12-15", "actionTime": "13:16:28", "sourceSystem": {"code": 2, "name": "House floor actions"}, "text": "Motion to reconsider laid on the table Agreed to without objection.", "type": "Floor"}, {"actionCode": "H37100", "actionDate": "2022-12-15", "actionTime": "13:16:26", "recordedVotes": [{"chamber": "House", "congress": 117, "date": "2022-12-15T18:16:26Z", "rollNumber": 529, "sessionNumber": 2, "url": "https://clerk.house.gov/evs/2022/roll529.xml"}], "sourceSystem": {"code": 2, "name": "House floor actions"}, "text": "On passage Passed by the Yeas and Nays: 233 - 191 (Roll no. 529). (text: CR H9867-9873)", "type": "Floor"}, {"actionCode": "8000", "actionDate": "2022-12-15", "actionTime": "13:16:26", "recordedVotes": [{"chamber": "House", "congress": 117, "date": "2022-12-15T18:16:26Z", "rollNumber": 529, "sessionNumber": 2, "url": "https://clerk.house.gov/evs/2022/roll529.xml"}], "sourceSystem": {"code": 9, "name": "Library of Congress"}, "text": "Passed/agreed to in House: On passage Passed by the Yeas and Nays: 233 - 191 (Roll no. 529).(text: CR H9867-9873)", "type": "Floor"}, {"actionCode": "H36210", "actionDate": "2022-12-15", "actionTime": "13:02:10", "committees": [{"name": "Natural Resources Committee", "systemCode": "hsii00", "url": "https://api.congress.gov/v3/committee/house/hsii00?format=json"}], "recordedVotes": [{"chamber": "House", "congress": 117, "date": "2022-12-15T18:02:10Z", "rollNumber": 528, "sessionNumber": 2, "url": "https://clerk.house.gov/evs/2022/roll528.xml"}], "sourceSystem": {"code": 2, "name": "House floor actions"}, "text": "On motion to recommit Failed by the Yeas and Nays: 209 - 217 (Roll no. 528).", "type": "Floor"}, {"actionCode": "H8A000", "actionDate": "2022-12-15", "actionTime": "12:19:19", "sourceSystem": {"code": 2, "name": "House floor actions"}, "text": "The previous question on the motion to recommit was ordered pursuant to clause 2(b) of rule XIX.", "type": "Floor"}, {"actionCode": "H36200", "actionDate": "2022-12-15", "actionTime": "12:19:07", "committees": [{"name": "Natural Resources Committee", "systemCode": "hsii00", "url": "https://api.congress.gov/v3/committee/house/hsii00?format=json"}], "sourceSystem": {"code": 2, "name": "House floor actions"}, "text": "Mr. McClintock moved to recommit to the Committee on Natural Resources. (text: CR H9880)", "type": "Floor"}, {"actionCode": "H35000", "actionDate": "2022-12-15", "actionTime": "12:18:22", "sourceSystem": {"code": 2, "name": "House floor actions"}, "text": "The previous question was ordered pursuant to the rule.", "type": "Floor"}, {"actionCode": "H8D000", "actionDate": "2022-12-15", "actionTime": "11:02:37", "sourceSystem": {"code": 2, "name": "House floor actions"}, "text": "DEBATE - The House proceeded with one hour of debate on H.R. 8393.", "type": "Floor"}, {"actionCode": "H8D000", "actionDate": "2022-12-15", "actionTime": "11:01:44", "sourceSystem": {"code": 2, "name": "House floor actions"}, "text": "Rule provides for consideration of H.R. 8393 with 1 hour of general debate. Motion to recommit allowed. Bill is closed to amendments.", "type": "Floor"}, {"actionCode": "H30000", "actionDate": "2022-12-15", "actionTime": "11:01:39", "sourceSystem": {"code": 2, "name": "House floor actions"}, "text": "Considered under the provisions of rule H. Res. 1519. (consideration: CR H9867-9882)", "type": "Floor"}, {"actionCode": "H1L220", "actionDate": "2022-12-15", "actionTime": "10:27:03", "sourceSystem": {"code": 2, "name": "House floor actions"}, "text": "Rule H. Res. 1519 passed House.", "type": "Floor"}, {"actionCode": "H1L210", "actionDate": "2022-12-14", "actionTime": "18:47:47", "sourceSystem": {"code": 2, "name": "House floor actions"}, "text": "Rules Committee Resolution H. Res. 1519 Reported to House. Rule provides for consideration of H.R. 8393 with 1 hour of general debate. Motion to recommit allowed. Bill is closed to amendments.", "type": "Floor"}, {"actionCode": "H12410", "actionDate": "2022-12-14", "calendarNumber": {"calendar": "U00462"}, "sourceSystem": {"code": 2, "name": "House floor actions"}, "text": "Placed on the Union Calendar, Calendar No. 462.", "type": "Calendars"}, {"actionCode": "H12200", "actionDate": "2022-12-14", "committees": [{"name": "Natural Resources Committee", "systemCode": "hsii00", "url": "https://api.congress.gov/v3/committee/house/hsii00?format=json"}], "sourceSystem": {"code": 2, "name": "House floor actions"}, "text": "Reported (Amended) by the Committee on Natural Resources. H. Rept. 117-642.", "type": "Committee"}, {"actionCode": "5000", "actionDate": "2022-12-14", "committees": [{"name": "Natural Resources Committee", "systemCode": "hsii00", "url": "https://api.congress.gov/v3/committee/house/hsii00?format=json"}], "sourceSystem": {"code": 9, "name": "Library of Congress"}, "text": "Reported (Amended) by the Committee on Natural Resources. H. Rept. 117-642.", "type": "Committee"}, {"actionCode": "H19000", "actionDate": "2022-07-20", "committees": [{"name": "Natural Resources Committee", "systemCode": "hsii00", "url": "https://api.congress.gov/v3/committee/house/hsii00?format=json"}], "sourceSystem": {"code": 1, "name": "House committee actions"}, "text": "Ordered to be Reported (Amended) by the Yeas and Nays: 25 - 20.", "type": "Committee"}, {"actionCode": "H15000-B", "actionDate": "2022-07-20", "committees": [{"name": "Natural Resources Committee", "systemCode": "hsii00", "url": "https://api.congress.gov/v3/committee/house/hsii00?format=json"}], "sourceSystem": {"code": 1, "name": "House committee actions"}, "text": "Committee Consideration and Mark-up Session Held.", "type": "Committee"}, {"actionCode": "H11100", "actionDate": "2022-07-15", "committees": [{"name": "Natural Resources Committee", "systemCode": "hsii00", "url": "https://api.congress.gov/v3/committee/house/hsii00?format=json"}], "sourceSystem": {"code": 2, "name": "House floor actions"}, "text": "Referred to the House Committee on Natural Resources.", "type": "IntroReferral"}, {"actionCode": "Intro-H", "actionDate": "2022-07-15", "sourceSystem": {"code": 9, "name": "Library of Congress"}, "text": "Introduced in House", "type": "IntroReferral"}], "pagination": {"count": 21, "next": "https://api.congress.gov/v3/bill/117/hr/8393/actions?offset=20&limit=20&format=json"}, "request": {"billNumber": "8393", "billType": "hr", "billUrl": "https://api.congress.gov/v3/bill/117/hr/8393?format=json", "congress": "117", "contentType": "application/json", "format": "json"}}, 200]