[{"actions": [{"actionCode": "E40000", "actionDate": "2022-12-13", "sourceSystem": {"code": 9, "name": "Library of Congress"}, "text": "Became Public Law No: 117-228.", "type": "President"}, {"actionCode": "36000", "actionDate": "2022-12-13", "sourceSystem": {"code": 9, "name": "Library of Congress"}, "text": "Became Public Law No: 117-228.", "type": "BecameLaw"}, {"actionCode": "E30000", "actionDate": "2022-12-13", "sourceSystem": {"code": 9, "name": "Library of Congress"}, "text": "Signed by President.", "type": "President"}, {"actionCode": "36000", "actionDate": "2022-12-13", "sourceSystem": {"code": 9, "name": "Library of Congress"}, "text": "Signed by President.", "type": "BecameLaw"}, {"actionCode": "E20000", "actionDate": "2022-12-09", "sourceSystem": {"code": 2, "name": "House floor actions"}, "text": "Presented to President.", "type": "Floor"}, {"actionCode": "28000", "actionDate": "2022-12-09", "sourceSystem": {"code": 9, "name": "Library of Congress"}, "text": "Presented to President.", "type": "President"}, {"actionCode": "H41931", "actionDate": "2022-12-08", "actionTime": "11:43:40", "sourceSystem": {"code": 2, "name": "House floor actions"}, "text": "Motion to reconsider laid on the table Agreed to without objection.", "type": "ResolvingDifferences"}, {"actionCode": "H41931", "actionDate": "2022-12-08", "actionTime": "11:43:38", "recordedVotes": [{"chamber": "House", "congress": 117, "date": "2022-12-08T16:43:38Z", "rollNumber": 514, "sessionNumber": 2, "url": "https://clerk.house.gov/evs/2022/roll514.xml"}], "sourceSystem": {"code": 2, "name": "House floor actions"}, "text": "On motion to table the motion to reconsider the vote Agreed to by the Yeas and Nays: 224 - 164 (Roll no. 514).", "type": "ResolvingDifferences"}, {"actionCode": "H82000", "actionDate": "2022-12-08", "actionTime": "11:16:57", "sourceSystem": {"code": 2, "name": "House floor actions"}, "text": "Mr. Cicilline moved to table the motion to reconsider the vote", "type": "ResolvingDifferences"}, {"actionCode": "H41930", "actionDate": "2022-12-08", "actionTime": "11:16:55", "sourceSystem": {"code": 2, "name": "House floor actions"}, "text": "Perlmutter moved to reconsider the vote on agreeing to the Senate amendment to H.R. 8404.", "type": "ResolvingDifferences"}, {"actionCode": "H8D000", "actionDate": "2022-12-08", "actionTime": "11:15:46", "sourceSystem": {"code": 2, "name": "House floor actions"}, "text": "Motion to reconsider laid on the table. Objection heard.", "type": "Floor"}, {"actionCode": "H41610", "actionDate": "2022-12-08", "actionTime": "11:15:44", "recordedVotes": [{"chamber": "House", "congress": 117, "date": "2022-12-08T16:15:44Z", "rollNumber": 513, "sessionNumber": 2, "url": "https://clerk.house.gov/evs/2022/roll513.xml"}], "sourceSystem": {"code": 2, "name": "House floor actions"}, "text": "On motion that the House agree to the Senate amendment Agreed to by the Yeas and Nays: 258 - 169, 1 Present (Roll no. 513). (text of amendment in the nature of a substitute: CR H8827)", "type": "ResolvingDifferences"}, {"actionCode": "19500", "actionDate": "2022-12-08", "recordedVotes": [{"chamber": "House", "congress": 117, "date": "2022-12-08T16:15:44Z", "rollNumber": 513, "sessionNumber": 2, "url": "https://clerk.house.gov/evs/2022/roll513.xml"}], "sourceSystem": {"code": 9, "name": "Library of Congress"}, "text": "Resolving differences -- House actions: On motion that the House agree to the Senate amendment Agreed to by the Yeas and Nays: 258 - 169, 1 Present (Roll no. 513).(text of amendment in the nature of a substitute: CR H8827)", "type": "NotUsed"}, {"actionCode": "H41400", "actionDate": "2022-12-08", "actionTime": "10:27:33", "sourceSystem": {"code": 2, "name": "House floor actions"}, "text": "The previous question was ordered pursuant to the rule.", "type": "ResolvingDifferences"}, {"actionCode": "H8D000", "actionDate": "2022-12-08", "actionTime": "09:18:36", "sourceSystem": {"code": 2, "name": "House floor actions"}, "text": "Pursuant to the provisions of H.Res 1510, the House proceeded with one hour of debate on the Nadler motion to concur in the Senate amendment to H.R. 8404.", "type": "Floor"}, {"actionCode": "H40150", "actionDate": "2022-12-08", "actionTime": "09:18:09", "sourceSystem": {"code": 2, "name": "House floor actions"}, "text": "Pursuant to the provisions of H.Res. 1510, Mr. Nadler moved that the House agree to the Senate amendment. (consideration: CR H8827-8839)", "type": "ResolvingDifferences"}, {"actionDate": "2022-11-30", "sourceSystem": {"name": "Senate"}, "text": "Message on Senate action sent to the House.", "type": "Floor"}, {"actionDate": "2022-11-29", "recordedVotes": [{"chamber": "Senate", "congress": 117, "date": "2022-11-29T23:30:54Z", "rollNumber": 362, "sessionNumber": 2, "url": "https://www.senate.gov/legislative/LIS/roll_call_votes/vote1172/vote_117_2_00362.xml"}], "sourceSystem": {"name": "Senate"}, "text": "Passed Senate under the order of 11/28/22, having achieved 60 votes in the affirmative, with an amendment by Yea-Nay Vote. 61 - 36. Record Vote Number: 362. (text of amendment in the nature of a substitute: CR S6771)", "type": "Floor"}, {"actionCode": "17000", "actionDate": "2022-11-29", "recordedVotes": [{"chamber": "Senate", "congress": 117, "date": "2022-11-29T23:30:54Z", "rollNumber": 362, "sessionNumber": 2, "url": "https://www.senate.gov/legislative/LIS/roll_call_votes/vote1172/vote_117_2_00362.xml"}], "sourceSystem": {"code": 9, "name": "Library of Congress"}, "text": "Passed/agreed to in Senate: Passed Senate under the order of 11/28/22, having achieved 60 votes in the affirmative, with an amendment by Yea-Nay Vote. 61 - 36. Record Vote Number: 362.(text of amendment in the nature of a substitute: CR S6771)", "type": "Floor"}, {"actionDate": "2022-11-29", "sourceSystem": {"name": "Senate"}, "text": "Cloture motion on the measure withdrawn by unanimous consent in Senate. (CR S6844)", "type": "Floor"}], "pagination": {"count": 48, "next": "https://api.congress.gov/v3/bill/117/hr/8404/actions?offset=20&limit=20&format=json"}, "request": {"billNumber": "8404", "billType": "hr", "billUrl": "https://api.congress.gov/v3/bill/117/hr/8404?format=json", "congress": "117", "contentType": "application/json", "format": "json"}}, 200]