[{"actions": [{"actionDate": "2022-11-17", "committees": [{"name": "Homeland Security and Governmental Affairs Committee", "systemCode": "ssga00", "url": "https://api.congress.gov/v3/committee/senate/ssga00?format=json"}], "sourceSystem": {"name": "Senate"}, "text": "Received in the Senate and Read twice and referred to the Committee on Homeland Security and Governmental Affairs.", "type": "IntroReferral"}, {"actionCode": "H37300", "actionDate": "2022-11-17", "actionTime": "14:10:14", "sourceSystem": {"code": 2, "name": "House floor actions"}, "text": "Pursuant to section 2 of H. Res. 1464, and the motion offered by Mr. Carter (LA), the following bills passed under suspension of the rules: H.R. 4275, as amended; H.R. 5502, as amended; H.R. 5721, as amended; H.R. 6290, as amended; H.R. 7277, as amended; H.R. 7299, as amended; and H.R. 8416, as amended. (consideration: CR H8566-8574; text: CR H8570-8573)", "type": "Floor"}, {"actionCode": "8000", "actionDate": "2022-11-17", "actionTime": "14:10:14", "sourceSystem": {"code": 9, "name": "Library of Congress"}, "text": "Passed/agreed to in House: Pursuant to section 2 of H. Res. 1464, and the motion offered by Mr. Carter (LA), the following bills passed under suspension of the rules: H.R. 4275, as amended; H.R. 5502, as amended; H.R. 5721, as amended; H.R. 6290, as amended; H.R. 7277, as amended; H.R. 7299, as amended; and H.R. 8416, as amended.", "type": "Floor"}, {"actionCode": "H1B000", "actionDate": "2022-11-17", "actionTime": "14:10:13", "sourceSystem": {"code": 2, "name": "House floor actions"}, "text": "Pursuant to the provisions of H. Res. 1464, proceedings on H.R. 8416 are considered vacated.", "type": "Floor"}, {"actionCode": "H37220", "actionDate": "2022-11-17", "actionTime": "13:21:00", "sourceSystem": {"code": 2, "name": "House floor actions"}, "text": "At the conclusion of debate, the Yeas and Nays were demanded and ordered. Pursuant to the provisions of clause 8, rule XX, the Chair announced that further proceedings on the motion would be postponed.", "type": "Floor"}, {"actionCode": "H8D000", "actionDate": "2022-11-17", "actionTime": "13:03:06", "sourceSystem": {"code": 2, "name": "House floor actions"}, "text": "DEBATE - The House proceeded with forty minutes of debate on H.R. 8416.", "type": "Floor"}, {"actionCode": "H30000", "actionDate": "2022-11-17", "actionTime": "13:03:04", "sourceSystem": {"code": 2, "name": "House floor actions"}, "text": "Considered under suspension of the rules. (consideration: CR H8560-8566)", "type": "Floor"}, {"actionCode": "H30300", "actionDate": "2022-11-17", "actionTime": "13:02:53", "sourceSystem": {"code": 2, "name": "House floor actions"}, "text": "Mr. Carter (LA) moved to suspend the rules and pass the bill, as amended.", "type": "Floor"}, {"actionCode": "H12410", "actionDate": "2022-11-15", "calendarNumber": {"calendar": "U00401"}, "sourceSystem": {"code": 2, "name": "House floor actions"}, "text": "Placed on the Union Calendar, Calendar No. 401.", "type": "Calendars"}, {"actionCode": "H12300", "actionDate": "2022-11-15", "committees": [{"name": "Small Business Committee", "systemCode": "hssm00", "url": "https://api.congress.gov/v3/committee/house/hssm00?format=json"}], "sourceSystem": {"code": 2, "name": "House floor actions"}, "text": "Committee on Small Business discharged.", "type": "Discharge"}, {"actionCode": "5500", "actionDate": "2022-11-15", "committees": [{"name": "Small Business Committee", "systemCode": "hssm00", "url": "https://api.congress.gov/v3/committee/house/hssm00?format=json"}], "sourceSystem": {"code": 9, "name": "Library of Congress"}, "text": "Committee on Small Business discharged.", "type": "Committee"}, {"actionCode": "H12300", "actionDate": "2022-11-15", "committees": [{"name": "Financial Services Committee", "systemCode": "hsba00", "url": "https://api.congress.gov/v3/committee/house/hsba00?format=json"}], "sourceSystem": {"code": 2, "name": "House floor actions"}, "text": "Committee on Financial Services discharged.", "type": "Discharge"}, {"actionCode": "5500", "actionDate": "2022-11-15", "committees": [{"name": "Financial Services Committee", "systemCode": "hsba00", "url": "https://api.congress.gov/v3/committee/house/hsba00?format=json"}], "sourceSystem": {"code": 9, "name": "Library of Congress"}, "text": "Committee on Financial Services discharged.", "type": "Committee"}, {"actionCode": "H12200", "actionDate": "2022-11-15", "committees": [{"name": "Transportation and Infrastructure Committee", "systemCode": "hspw00", "url": "https://api.congress.gov/v3/committee/house/hspw00?format=json"}], "sourceSystem": {"code": 2, "name": "House floor actions"}, "text": "Reported (Amended) by the Committee on Transportation and Infrastructure. H. Rept. 117-560, Part I.", "type": "Committee"}, {"actionCode": "5000", "actionDate": "2022-11-15", "committees": [{"name": "Transportation and Infrastructure Committee", "systemCode": "hspw00", "url": "https://api.congress.gov/v3/committee/house/hspw00?format=json"}], "sourceSystem": {"code": 9, "name": "Library of Congress"}, "text": "Reported (Amended) by the Committee on Transportation and Infrastructure. H. Rept. 117-560, Part I.", "type": "Committee"}, {"actionCode": "H11000", "actionDate": "2022-07-20", "committees": [{"name": "Economic Development, Public Buildings, and Emergency Management Subcommittee", "systemCode": "hspw13", "url": "https://api.congress.gov/v3/committee/house/hspw13?format=json"}], "sourceSystem": {"code": 1, "name": "House committee actions"}, "text": "Referred to the Subcommittee on Economic Development, Public Buildings, and Emergency Management.", "type": "Committee"}, {"actionCode": "H19000", "actionDate": "2022-07-20", "committees": [{"name": "Transportation and Infrastructure Committee", "systemCode": "hspw00", "url": "https://api.congress.gov/v3/committee/house/hspw00?format=json"}], "sourceSystem": {"code": 1, "name": "House committee actions"}, "text": "Ordered to be Reported (Amended) by Voice Vote.", "type": "Committee"}, {"actionCode": "H15000-B", "actionDate": "2022-07-20", "committees": [{"name": "Transportation and Infrastructure Committee", "systemCode": "hspw00", "url": "https://api.congress.gov/v3/committee/house/hspw00?format=json"}], "sourceSystem": {"code": 1, "name": "House committee actions"}, "text": "Committee Consideration and Mark-up Session Held.", "type": "Committee"}, {"actionCode": "H25000", "actionDate": "2022-07-20", "committees": [{"name": "Transportation and Infrastructure Committee", "systemCode": "hspw00", "url": "https://api.congress.gov/v3/committee/house/hspw00?format=json"}], "sourceSystem": {"code": 1, "name": "House committee actions"}, "text": "Subcommittee on Economic Development, Public Buildings, and Emergency Management Discharged.", "type": "Committee"}, {"actionCode": "H11100", "actionDate": "2022-07-19", "committees": [{"name": "Small Business Committee", "systemCode": "hssm00", "url": "https://api.congress.gov/v3/committee/house/hssm00?format=json"}], "sourceSystem": {"code": 2, "name": "House floor actions"}, "text": "Referred to the Committee on Transportation and Infrastructure, and in addition to the Committees on Financial Services, and Small Business, for a period to be subsequently determined by the Speaker, in each case for consideration of such provisions as fall within the jurisdiction of the committee concerned.", "type": "IntroReferral"}], "pagination": {"count": 24, "next": "https://api.congress.gov/v3/bill/117/hr/8416/actions?offset=20&limit=20&format=json"}, "request": {"billNumber": "8416", "billType": "hr", "billUrl": "https://api.congress.gov/v3/bill/117/hr/8416?format=json", "congress": "117", "contentType": "application/json", "format": "json"}}, 200]