[{"actions": [{"actionCode": "E40000", "actionDate": "2022-12-02", "sourceSystem": {"code": 9, "name": "Library of Congress"}, "text": "Became Public Law No: 117-215.", "type": "President"}, {"actionCode": "36000", "actionDate": "2022-12-02", "sourceSystem": {"code": 9, "name": "Library of Congress"}, "text": "Became Public Law No: 117-215.", "type": "BecameLaw"}, {"actionCode": "E30000", "actionDate": "2022-12-02", "sourceSystem": {"code": 9, "name": "Library of Congress"}, "text": "Signed by President.", "type": "President"}, {"actionCode": "36000", "actionDate": "2022-12-02", "sourceSystem": {"code": 9, "name": "Library of Congress"}, "text": "Signed by President.", "type": "BecameLaw"}, {"actionCode": "E20000", "actionDate": "2022-11-29", "sourceSystem": {"code": 2, "name": "House floor actions"}, "text": "Presented to President.", "type": "Floor"}, {"actionCode": "28000", "actionDate": "2022-11-29", "sourceSystem": {"code": 9, "name": "Library of Congress"}, "text": "Presented to President.", "type": "President"}, {"actionDate": "2022-11-17", "sourceSystem": {"name": "Senate"}, "text": "Message on Senate action sent to the House.", "type": "Floor"}, {"actionDate": "2022-11-16", "sourceSystem": {"name": "Senate"}, "text": "Passed Senate without amendment by Voice Vote. (consideration: CR S6746-6747)", "type": "Floor"}, {"actionCode": "17000", "actionDate": "2022-11-16", "sourceSystem": {"code": 9, "name": "Library of Congress"}, "text": "Passed/agreed to in Senate: Passed Senate without amendment by Voice Vote.", "type": "Floor"}, {"actionDate": "2022-07-27", "sourceSystem": {"name": "Senate"}, "text": "Received in the Senate, read twice.", "type": "IntroReferral"}, {"actionCode": "H38310", "actionDate": "2022-07-26", "actionTime": "20:43:54", "sourceSystem": {"code": 2, "name": "House floor actions"}, "text": "Motion to reconsider laid on the table Agreed to without objection.", "type": "Floor"}, {"actionCode": "H37300", "actionDate": "2022-07-26", "actionTime": "20:43:53", "recordedVotes": [{"chamber": "House", "congress": 117, "date": "2022-07-27T00:43:53Z", "rollNumber": 392, "sessionNumber": 2, "url": "https://clerk.house.gov/evs/2022/roll392.xml"}], "sourceSystem": {"code": 2, "name": "House floor actions"}, "text": "On motion to suspend the rules and pass the bill, as amended Agreed to by the Yeas and Nays: (2/3 required): 325 - 95 (Roll no. 392). (text: CR H7120-7122)", "type": "Floor"}, {"actionCode": "8000", "actionDate": "2022-07-26", "actionTime": "20:43:53", "recordedVotes": [{"chamber": "House", "congress": 117, "date": "2022-07-27T00:43:53Z", "rollNumber": 392, "sessionNumber": 2, "url": "https://clerk.house.gov/evs/2022/roll392.xml"}], "sourceSystem": {"code": 9, "name": "Library of Congress"}, "text": "Passed/agreed to in House: On motion to suspend the rules and pass the bill, as amended Agreed to by the Yeas and Nays: (2/3 required): 325 - 95 (Roll no. 392).(text: CR H7120-7122)", "type": "Floor"}, {"actionCode": "H30000", "actionDate": "2022-07-26", "actionTime": "20:34:11", "sourceSystem": {"code": 2, "name": "House floor actions"}, "text": "Considered as unfinished business. (consideration: CR H7145-7146)", "type": "Floor"}, {"actionCode": "H37220", "actionDate": "2022-07-26", "actionTime": "17:01:56", "sourceSystem": {"code": 2, "name": "House floor actions"}, "text": "At the conclusion of debate, the Yeas and Nays were demanded and ordered. Pursuant to the provisions of clause 8, rule XX, the Chair announced that further proceedings on the motion would be postponed.", "type": "Floor"}, {"actionCode": "H8D000", "actionDate": "2022-07-26", "actionTime": "16:48:55", "sourceSystem": {"code": 2, "name": "House floor actions"}, "text": "DEBATE - The House proceeded with forty minutes of debate on H.R. 8454.", "type": "Floor"}, {"actionCode": "H30000", "actionDate": "2022-07-26", "actionTime": "16:48:54", "sourceSystem": {"code": 2, "name": "House floor actions"}, "text": "Considered under suspension of the rules. (consideration: CR H7120-7124)", "type": "Floor"}, {"actionCode": "H30300", "actionDate": "2022-07-26", "actionTime": "16:48:42", "sourceSystem": {"code": 2, "name": "House floor actions"}, "text": "Mr. Pallone moved to suspend the rules and pass the bill, as amended.", "type": "Floor"}, {"actionCode": "H11100", "actionDate": "2022-07-21", "committees": [{"name": "Judiciary Committee", "systemCode": "hsju00", "url": "https://api.congress.gov/v3/committee/house/hsju00?format=json"}], "sourceSystem": {"code": 2, "name": "House floor actions"}, "text": "Referred to the Committee on Energy and Commerce, and in addition to the Committee on the Judiciary, for a period to be subsequently determined by the Speaker, in each case for consideration of such provisions as fall within the jurisdiction of the committee concerned.", "type": "IntroReferral"}, {"actionCode": "H11100", "actionDate": "2022-07-21", "committees": [{"name": "Energy and Commerce Committee", "systemCode": "hsif00", "url": "https://api.congress.gov/v3/committee/house/hsif00?format=json"}], "sourceSystem": {"code": 2, "name": "House floor actions"}, "text": "Referred to the Committee on Energy and Commerce, and in addition to the Committee on the Judiciary, for a period to be subsequently determined by the Speaker, in each case for consideration of such provisions as fall within the jurisdiction of the committee concerned.", "type": "IntroReferral"}], "pagination": {"count": 22, "next": "https://api.congress.gov/v3/bill/117/hr/8454/actions?offset=20&limit=20&format=json"}, "request": {"billNumber": "8454", "billType": "hr", "billUrl": "https://api.congress.gov/v3/bill/117/hr/8454?format=json", "congress": "117", "contentType": "application/json", "format": "json"}}, 200]