[{"actions": [{"actionDate": "2022-12-05", "committees": [{"name": "Finance Committee", "systemCode": "ssfi00", "url": "https://api.congress.gov/v3/committee/senate/ssfi00?format=json"}], "sourceSystem": {"name": "Senate"}, "text": "Received in the Senate and Read twice and referred to the Committee on Finance.", "type": "IntroReferral"}, {"actionCode": "H38310", "actionDate": "2022-12-02", "actionTime": "10:47:21", "sourceSystem": {"code": 2, "name": "House floor actions"}, "text": "Motion to reconsider laid on the table Agreed to without objection.", "type": "Floor"}, {"actionCode": "H37100", "actionDate": "2022-12-02", "actionTime": "10:47:14", "recordedVotes": [{"chamber": "House", "congress": 117, "date": "2022-12-02T15:47:14Z", "rollNumber": 500, "sessionNumber": 2, "url": "https://clerk.house.gov/evs/2022/roll500.xml"}], "sourceSystem": {"code": 2, "name": "House floor actions"}, "text": "On passage Passed by the Yeas and Nays: 390 - 26 (Roll no. 500). (text: CR H8713-8715)", "type": "Floor"}, {"actionCode": "8000", "actionDate": "2022-12-02", "actionTime": "10:47:14", "recordedVotes": [{"chamber": "House", "congress": 117, "date": "2022-12-02T15:47:14Z", "rollNumber": 500, "sessionNumber": 2, "url": "https://clerk.house.gov/evs/2022/roll500.xml"}], "sourceSystem": {"code": 9, "name": "Library of Congress"}, "text": "Passed/agreed to in House: On passage Passed by the Yeas and Nays: 390 - 26 (Roll no. 500).", "type": "Floor"}, {"actionCode": "H35000", "actionDate": "2022-12-02", "actionTime": "10:00:22", "sourceSystem": {"code": 2, "name": "House floor actions"}, "text": "The previous question was ordered pursuant to the rule.", "type": "Floor"}, {"actionCode": "H8D000", "actionDate": "2022-12-02", "actionTime": "09:14:00", "sourceSystem": {"code": 2, "name": "House floor actions"}, "text": "DEBATE - The House proceeded with one hour of debate on H.R. 8876.", "type": "Floor"}, {"actionCode": "H8D000", "actionDate": "2022-12-02", "actionTime": "09:12:55", "sourceSystem": {"code": 2, "name": "House floor actions"}, "text": "Rule provides for consideration of H.R. 3372, H.R. 6878, H.R. 8876 and H.J. Res. 100. The resolution provides for adoption of H. Res. 1495 and H. Con. Res. 118.", "type": "Floor"}, {"actionCode": "H30000", "actionDate": "2022-12-02", "actionTime": "09:12:50", "sourceSystem": {"code": 2, "name": "House floor actions"}, "text": "Considered under the provisions of rule H. Res. 1499. (consideration: CR H8713-8721)", "type": "Floor"}, {"actionCode": "H12410", "actionDate": "2022-11-30", "calendarNumber": {"calendar": "U00426"}, "sourceSystem": {"code": 2, "name": "House floor actions"}, "text": "Placed on the Union Calendar, Calendar No. 426.", "type": "Calendars"}, {"actionCode": "H12300", "actionDate": "2022-11-30", "committees": [{"name": "Energy and Commerce Committee", "systemCode": "hsif00", "url": "https://api.congress.gov/v3/committee/house/hsif00?format=json"}], "sourceSystem": {"code": 2, "name": "House floor actions"}, "text": "Committee on Energy and Commerce discharged.", "type": "Discharge"}, {"actionCode": "5500", "actionDate": "2022-11-30", "committees": [{"name": "Energy and Commerce Committee", "systemCode": "hsif00", "url": "https://api.congress.gov/v3/committee/house/hsif00?format=json"}], "sourceSystem": {"code": 9, "name": "Library of Congress"}, "text": "Committee on Energy and Commerce discharged.", "type": "Committee"}, {"actionCode": "H1L210", "actionDate": "2022-11-30", "actionTime": "09:10:47", "sourceSystem": {"code": 2, "name": "House floor actions"}, "text": "Rules Committee Resolution H. Res. 1499 Reported to House. Rule provides for consideration of H.R. 3372, H.R. 6878, H.R. 8876 and H.J. Res. 100. The resolution provides for adoption of H. Res. 1495 and H. Con. Res. 118.", "type": "Floor"}, {"actionCode": "H11210", "actionDate": "2022-11-15", "committees": [{"name": "Energy and Commerce Committee", "systemCode": "hsif00", "url": "https://api.congress.gov/v3/committee/house/hsif00?format=json"}], "sourceSystem": {"code": 2, "name": "House floor actions"}, "text": "House Committee on Energy and Commerce Granted an extension for further consideration ending not later than Nov. 30, 2022.", "type": "IntroReferral"}, {"actionCode": "H12200", "actionDate": "2022-11-15", "committees": [{"name": "Ways and Means Committee", "systemCode": "hswm00", "url": "https://api.congress.gov/v3/committee/house/hswm00?format=json"}], "sourceSystem": {"code": 2, "name": "House floor actions"}, "text": "Reported (Amended) by the Committee on Ways and Means. H. Rept. 117-559, Part I.", "type": "Committee"}, {"actionCode": "5000", "actionDate": "2022-11-15", "committees": [{"name": "Ways and Means Committee", "systemCode": "hswm00", "url": "https://api.congress.gov/v3/committee/house/hswm00?format=json"}], "sourceSystem": {"code": 9, "name": "Library of Congress"}, "text": "Reported (Amended) by the Committee on Ways and Means. H. Rept. 117-559, Part I.", "type": "Committee"}, {"actionCode": "H19000", "actionDate": "2022-09-21", "committees": [{"name": "Ways and Means Committee", "systemCode": "hswm00", "url": "https://api.congress.gov/v3/committee/house/hswm00?format=json"}], "sourceSystem": {"code": 1, "name": "House committee actions"}, "text": "Ordered to be Reported in the Nature of a Substitute (Amended) by the Yeas and Nays: 41 - 0.", "type": "Committee"}, {"actionCode": "H15000-B", "actionDate": "2022-09-21", "committees": [{"name": "Ways and Means Committee", "systemCode": "hswm00", "url": "https://api.congress.gov/v3/committee/house/hswm00?format=json"}], "sourceSystem": {"code": 1, "name": "House committee actions"}, "text": "Committee Consideration and Mark-up Session Held.", "type": "Committee"}, {"actionCode": "H11000", "actionDate": "2022-09-20", "committees": [{"name": "Health Subcommittee", "systemCode": "hsif14", "url": "https://api.congress.gov/v3/committee/house/hsif14?format=json"}], "sourceSystem": {"code": 1, "name": "House committee actions"}, "text": "Referred to the Subcommittee on Health.", "type": "Committee"}, {"actionCode": "H11100", "actionDate": "2022-09-19", "committees": [{"name": "Energy and Commerce Committee", "systemCode": "hsif00", "url": "https://api.congress.gov/v3/committee/house/hsif00?format=json"}], "sourceSystem": {"code": 2, "name": "House floor actions"}, "text": "Referred to the Committee on Ways and Means, and in addition to the Committee on Energy and Commerce, for a period to be subsequently determined by the Speaker, in each case for consideration of such provisions as fall within the jurisdiction of the committee concerned.", "type": "IntroReferral"}, {"actionCode": "H11100", "actionDate": "2022-09-19", "committees": [{"name": "Ways and Means Committee", "systemCode": "hswm00", "url": "https://api.congress.gov/v3/committee/house/hswm00?format=json"}], "sourceSystem": {"code": 2, "name": "House floor actions"}, "text": "Referred to the Committee on Ways and Means, and in addition to the Committee on Energy and Commerce, for a period to be subsequently determined by the Speaker, in each case for consideration of such provisions as fall within the jurisdiction of the committee concerned.", "type": "IntroReferral"}], "pagination": {"count": 22, "next": "https://api.congress.gov/v3/bill/117/hr/8876/actions?offset=20&limit=20&format=json"}, "request": {"billNumber": "8876", "billType": "hr", "billUrl": "https://api.congress.gov/v3/bill/117/hr/8876?format=json", "congress": "117", "contentType": "application/json", "format": "json"}}, 200]